"LightmappedGeneric"
{
	"$basetexture" "Brick/brickwall021a"
	"$surfaceprop" "brick"
	"$bumpmap" "brick/brickwall021a_normal"
//	"$parallaxmap" "brick/brickwall021a_height"
//	"$parallaxmapscale" ".0125"
}
