"UnlitGeneric"
{
	"$basetexture" "VGUI/combine/abilities/combine_faction_abilities"
	"$translucent" 1
	"$ignorez"     "1"
	"$vertexalpha" "1"
	"$no_fullbright" "1"

	"$teamcolormap" "vgui/abilities/ability_all_color"
	"Proxies"
	{
		"UITeamColor"
		{
		}
	}
	
}