"UnlitGeneric"
{
	"$basetexture" "vgui\combine\abilities\combine_hunter_charge"
	"$translucent" "1"
	"$ignorez"     "1"
	"$vertexalpha" "1"
	"$no_fullbright" "1"
	
	"$teamcolormap" "vgui/abilities/ability_all_color"
	"Proxies"
	{
		"UITeamColor"
		{
		}
	}
}
    