"UnlitGeneric"
{
	"$basetexture" "vgui\combine\abilities\combine_sniper_unlock"
	"$translucent" "1"
	"$ignorez"     "1"
	"$vertexalpha" "1"
	"$no_fullbright" "1"
	
	"$teamcolormap" "vgui\combine\abilities\combine_sniper_unlock_color"
	"Proxies"
	{
		"UITeamColor"
		{
		}
	}
}
    