VertexLitGeneric
{
$basetexture "models\props\machinery\crane"
$model 1
$blendtintbybasealpha 1
$bumpmap "dev/flat_normal"
$phong 1
$phongboost 3
$phongexponent 60

$phongfresnelranges "[1 3 10]"
}