
VertexLitGeneric
{
$baseTexture "models/props/machinery/elevator_landingbay_ramp"
$model 1
$blendtintbybasealpha 1
$bumpmap "models/props/machinery/elevator_landingbay_ramp_normal"

$phong 1
$phongboost 2
$phongexponent 30

$phongfresnelranges "[1 3 10]"
$basemapalphaphongmask 1




}