
VertexLitGeneric
{
$baseTexture "models/props/machinery/Generator01.vtf"
$bumpmap "dev/flat_normal"
$model 1
$blendtintbybasealpha 1

$phong 1
$phongboost 1
$phongexponent 80

$phongfresnelranges "[1 3 10]"




}