
VertexLitGeneric
{
$baseTexture "models/props/machinery/refinery_boiler_C"
$model 1
$blendtintbybasealpha 1
$bumpmap "dev/flat_normal"

$phong 1
$phongboost 1
$phongexponent 30

$phongfresnelranges "[1 3 10]"




}