"UnlitGeneric"
{
	"$basetexture" "vgui/abilities/unlock_grenade"
	"$translucent" "1"
	"$ignorez"     "1"
	"$vertexalpha" "1"
	"$no_fullbright" "1"
	
	"$teamcolormap" "vgui/abilities/unlock_grenade_color"
	"Proxies"
	{
		"UITeamColor"
		{
		}
	}
}


