"UnlitGeneric"
{
	"$basetexture" "vgui\abilities\weaponswitch_ar2"
	"$translucent" "1"
	"$ignorez"     "1"
	"$vertexalpha" "1"
	"$no_fullbright" "1"
	
	"$teamcolormap" "vgui\abilities\weaponswitch_ar2_color"
	"Proxies"
	{
		"UITeamColor"
		{
		}
	}
}
    