//Sequence File generated by the Wall Worm SMD Exporter 1.73
//www.wallworm.com
version 1
nodes
0 "root" -1
1 "flowers" -1
2 "top" -1
end
skeleton
time 0
0 0 0 -8.17173 1.5708 0 0
1 0 0 -8.17173 0 0 0
2 0 0 -6.47574 1.5708 0 0
time 1
0 0 0 -8.17173 1.5708 0 0
1 0 0 -8.17173 0 0 0
2 0 0 -8.21811 1.5708 0 0
end
