
VertexLitGeneric
{
$baseTexture "models/props/pipes/pipeset_8/pipe_8_regulator.vtf"
$model 1
$blendtintbybasealpha 1
$bumpmap "dev/flat_normal"

$phong 1
$phongboost 5
$phongexponent 30

$phongfresnelranges "[1 3 10]"
}