LightmappedGeneric
{
$basetexture "Concrete/concretewall074a"
$surfaceprop concrete
$detail "detail\noise_detail_01"
$detailscale "7.345"
$detailblendfactor .6
$detailblendmode 0
"%keywords" airexchange
}
