"hlw_breakout"
{
	// minimap info
	"material" "overviews/hlw_breakout"
	"pos_x" "-7483"
	"pos_y" "4491"
	"scale" "14"
	"rotate" "0"
	"zoom" "1.5"

	// Overview: scale 13.00, pos_x -6873, pos_y 4383

}