"hlw_metro"
{
	// Overview: scale 17.50, pos_x -16455, pos_y 8972
    // minimap info
	"material"	"overviews/hlw_metro"	// texture file
	"pos_x"		"-8972"						// X coordinate,
	"pos_y"		"8972"						// Y coordinate,
	"scale"		"17.5" 						// and used scale used when taking the screenshot
	"rotate"	"0"							// map was rotated by 90 degress in image editor
	"zoom"		"1.0"						// optimal zoom factor if map is shown in full size
}

