"hlw_village"
{
	// Overview: scale 16.00, pos_x -16057, pos_y 8207
    // minimap info
	"material"	"overviews/hlw_village"	// texture file
	"pos_x"		"-8200"							// X coordinate,
	"pos_y"		"8200"							// Y coordinate,
	"scale"		"16" 								// and used scale used when taking the screenshot
	"rotate"		"0"								// map was rotated by 90 degress in image editor
	"zoom"		"1.0"								// optimal zoom factor if map is shown in full size
}

