"hlw_synth"
{
	"material"	"overviews/hlw_synth"	// texture file
	"pos_x"		"-5902"						// X coordinate,
	"pos_y"		"5902"						// Y coordinate,
	"scale"		"11.5" 						// and used scale used when taking the screenshot
	"rotate"	"0"							// map was rotated by 90 degress in image editor
	"zoom"		"1.0"						// optimal zoom factor if map is shown in full size
}

