"hlw_meltdown"
{
	// minimap info
	"material"	"overviews/hlw_washedaway"	// texture file
	"pos_x"		"-5126"						// X coordinate,
	"pos_y"		"5126"						// Y coordinate,
	"scale"		"10.0" 						// and used scale used when taking the screenshot
	"rotate"	"0"							// map was rotated by 90 degress in image editor
	"zoom"		"1.0"						// optimal zoom factor if map is shown in full size
	
	// Fog of war color
    "fow_r"     "0.05"
    "fow_g"     "0.15"
    "fow_b"     "0.25"
    "fow_a"     "0.7"
}