"hlw_fortress"
{
	// minimap info


	"material"	"overviews/hlw_fortress"	// texture file
	"pos_x"		"-10500"	// X coordinate,
	"pos_y"		"11700"	// Y coordinate,
	"scale"		"22" 	// and used scale used when taking the screenshot
	"rotate"	"0"	// map was rotated by 90 degress in image editor
	"zoom"		"1"	// optimal zoom factor if map is shown in full size
	
	// Fog of war color
    "fow_r"     "0.70"
    "fow_g"     "0.20"
    "fow_b"     "0.0"
    "fow_a"     "0.1"
}

