"hlw_woodland"
{
    // minimap info
	"material"	"overviews/hlw_woodland_winter"	// texture file
	"pos_x"		"-11756"						// X coordinate,
	"pos_y"		"11781"						// Y coordinate,
	"scale"		"23.0" 						// and used scale used when taking the screenshot
	"rotate"	"0"							// map was rotated by 90 degress in image editor
	"zoom"		"1.0"						// optimal zoom factor if map is shown in full size
}
