hlw_mine
{
	material	overviews/hlw_mine	// texture file
	pos_x		-5397			// X coordinate  -1765
	pos_y		5607			// Y coordinate  6709
	scale		10.00 			// scale used when taking the screenshot
	rotate		0			// map was rotated by 90 degrees in image editor
	zoom		1.1			// optimal zoom factor if map is shown in full size
}



