"hlw_skyfight"
{
	// Overview: scale 12.00, pos_x -5827, pos_y 5971
	"material"	"overviews/hlw_skyfight"
	"pos_x"		"-5827"
	"pos_y"		"5971"
	"scale"		"12"
	"rotate"	"0"

	// Fog of war clr
	"fow_r"	"0.4"
	"for_g"	"0.85"
	"for_b"	"0.55"
	"fow_a"	"0.7"
}