hlw_mine
{
	material	overviews/hlw_mine_winter	// texture file
	pos_x		-6367			// X coordinate  -1765
	pos_y		6723			// Y coordinate  6709
	scale		12.00 			// scale used when taking the screenshot
	rotate		0			// map was rotated by 90 degrees in image editor
	zoom		1.1			// optimal zoom factor if map is shown in full size
}



