"hlw_waste"
{
    // minimap info Overview: scale 16.00, pos_x -10139, pos_y 2232
	"material"	"overviews/hlw_waste"	// texture file
	"pos_x"		"-9295"					// X coordinate,
	"pos_y"		"9295"					// Y coordinate,
	"scale"		"18.0" 					// and used scale used when taking the screenshot
	"rotate"		"0"						// map was rotated by 90 degress in image editor
	"zoom"		"1.0"					// optimal zoom factor if map is shown in full size
}

