"hlw_battlemounds"
{
    	// minimap info

	"material"	"overviews/hlw_base4"	// texture file
	"pos_x"		"-9049"				// X coordinate,
	"pos_y"		"8897"				// Y coordinate,
	"scale"		"17.00" 			// and used scale used when taking the screenshot
	"rotate"	"0"				// map was rotated by 90 degress in image editor
	"zoom"		"1.1"				// optimal zoom factor if map is shown in full size
}

