"hlw_battlemounds"
{
	// Overview: scale 10.00, pos_x -11687, pos_y 5385


	"material"	"overviews/hlw_city16"	// texture file
	"pos_x"		"-5450"				// X coordinate,
	"pos_y"		"6200"				// Y coordinate,
	"scale"		"11.5" 			// and used scale used when taking the screenshot
	"rotate"	"0"				// map was rotated by 90 degress in image editor
	"zoom"		"1.0"				// optimal zoom factor if map is shown in full size
}

