"hlw_thirst"
{
	// minimap info
	"material"	"overviews/hlw_thirst"	// texture file
	"pos_x"		"-6076"						// X coordinate,
	"pos_y"		"6051"						// Y coordinate,
	"scale"		"12" 						// and used scale used when taking the screenshot
	"rotate"	"0"							// map was rotated by 90 degress in image editor
	"zoom"		"1"						// optimal zoom factor if map is shown in full size

}

