"hlw_outland"
{
    // minimap info
	"material"	"overviews/hlw_outland"	// texture file
	"pos_x"		"-10981"	// X coordinate,
	"pos_y"		"10994"	// Y coordinate,
	"scale"		"22.00" 	// and used scale used when taking the screenshot
	"rotate"	"0"	// map was rotated by 90 degress in image editor
	"zoom"		"1.0"	// optimal zoom factor if map is shown in full size
}

