"or_city"
{
    	// minimap info
	"material"	"overviews/or_city"	// texture file
	"pos_x"		"-205"				// X coordinate,
	"pos_y"		"2121"				// Y coordinate,
	"scale"		"2.00" 			// and used scale used when taking the screenshot
	"rotate"	"0"				// map was rotated by 90 degress in image editor
	"zoom"		"1.0"				// optimal zoom factor if map is shown in full size
}


