"or_crashed"
{
    // minimap info
	"material"	"overviews/hlw_crashed"	// texture file
	"pos_x"		"-2919"	// X coordinate,
	"pos_y"		"2900"	// Y coordinate,
	"scale"		"5.70" 	// and used scale used when taking the screenshot
	"rotate"	"0"	// map was rotated by 90 degress in image editor
	"zoom"		"1.0"	// optimal zoom factor if map is shown in full size
}

