"or_hill"
{
	// minimap info
	"material"	"overviews/or_hill"	// texture file
	"pos_x"		"-4343"	// X coordinate,
	"pos_y"		"9311"	// Y coordinate,
	"scale"		"11.50" 	// and used scale used when taking the screenshot
	"rotate"	"0"	// map was rotated by 90 degress in image editor
	"zoom"		"1.0"	// optimal zoom factor if map is shown in full size
}

