"or_hot_sand"
{
    // minimap info
	"material"	"overviews/or_hot_sand"	// texture file
	"pos_x"		"-4888"	// X coordinate,
	"pos_y"		"5137"	// Y coordinate,
	"scale"		"10.00" // and used scale used when taking the screenshot
	"rotate"	"0"	// map was rotated by 90 degress in image editor
	"zoom"		"1.0"	// optimal zoom factor if map is shown in full size
}
