"or_trapped"
{
    // minimap info
	"material"	"overviews/or_trapped"	// texture file
	"pos_x"		"-2977"	// X coordinate,
	"pos_y"		"2607"	// Y coordinate,
	"scale"		"6.00" 	// and used scale used when taking the screenshot
	"rotate"	"0"	// map was rotated by 90 degress in image editor
	"zoom"		"1.0"	// optimal zoom factor if map is shown in full size
    
    // Fog of war color
    "fow_r"     "0.2"
    "fow_g"     "0.2"
    "fow_b"     "0.23"
    "fow_a"     "0.35"
}
