"UnlitGeneric"
{
	"$basetexture" "VGUI/combine/hud_button_hover"
	"$translucent" "1"
	
	// give it a slight outer soft edge
	$softedges 1
	$edgesoftnessstart 0.5
    $edgesoftnessend 0.4
	$scaleedgesoftnessbasedonscreenres 1
	
	$distancealpha 1
	"$ignorez"     "1"
	"$no_fullbright" "1"
}
