// envmaptint_fix
"vertexlitgeneric"
{
	"$basetexture" "metal/metalpipe010a"
	"%keywords" "c17industrial"
	"$surfaceprop"  "metal"
	"$detail" "detail\metal_detail_01"
	"$detailscale" "4.283"
	"$detailblendfactor" .65
	"$detailblendmode" "0"

	"$envmaptint" "[ .25 .25 .25 ]"
	"$envmap" "env_cubemap"
	"$envmapcontrast" 1
	"$envmapsaturation" 1
}
