"Unit"
{
	"$basetexture" "models/pg_props/pg_buildings/combine/pg_CombineBarrackSheet"
	 "$teamcolormap" "models/pg_props/pg_buildings/combine/pg_CombineBarrackSheet_color"
        	"Proxies"
       	 {
                	"TeamColor"
              	 	{
                	}
       	 }
}
