/*
==============================================================================

View model my model

==============================================================================
*/

$scale 1.0

$modelname PG_props\pg_weapons\pg_cp_shield_w.mdl
$cdmaterials models\pg_props\pg_weapons

// whole body
$body pg_cp_shield "pg_cp_shield.smd" 

$surfaceprop metal

//__skinfamilies__
$texturegroup skinfamilies
{
	{ "pg_cp_shield"   }
	{ "pg_cp_shield_skin2"   }
}

$sequence idle "pg_cp_shield" fps 30

$jointsurfaceprop "ValveBiped.Bip01_L_Hand" "ValveBiped.Bip01_L_Hand"

$collisionmodel "pg_cp_shield_phy.smd"
{
$concave
$mass 25
} 