"UnlitGeneric"
{
	"$basetexture" "VGUI/combine/units/unit_combine_roller"
	"$translucent" "1"
	"$ignorez"     "1"
	"$vertexalpha" "1"
	"$no_fullbright" "1"
	
	"$teamcolormap" "vgui/combine/units/unit_combine_roller_color"
	"Proxies"
	{
		"UITeamColor"
		{
		}
	}
}
