lightmappedgeneric
{
$basetexture "concrete\concretewall082_base"
$bumpmap "concrete\concretewall082_base_normal"
$surfaceprop concrete
$envmap env_cubemap
$normalmapalphaenvmapmask 1
$envmapcontrast 1
$envmapsaturation 1
$envmaptint "[ .03 .03 .03 ]"
}