versioninfo
{
	"editorversion" "400"
	"editorbuild" "5032"
	"mapversion" "11"
	"formatversion" "100"
	"prefab" "0"
}
visgroups
{
}
viewsettings
{
	"bSnapToGrid" "1"
	"bShowGrid" "1"
	"bShowLogicalGrid" "0"
	"nGridSpacing" "2"
	"bShow3DGrid" "0"
}
world
{
	"id" "1"
	"mapversion" "11"
	"classname" "worldspawn"
	"detailmaterial" "detail/detailsprites"
	"detailvbsp" "detail.vbsp"
	"maxpropscreenwidth" "-1"
	"skyname" "sky_day01_01"
}
entity
{
	"id" "15"
	"classname" "func_detail"
	solid
	{
		"id" "2"
		side
		{
			"id" "72"
			"plane" "(64 0 4) (64 -160 4) (0 -160 4)"
			"material" "METAL/METALGRATE013B"
			"uaxis" "[1 0 0 0] 0.25"
			"vaxis" "[0 -1 0 0] 0.21"
			"rotation" "0"
			"lightmapscale" "16"
			"smoothing_groups" "0"
		}
		side
		{
			"id" "71"
			"plane" "(64 -160 0) (64 0 0) (0 0 0)"
			"material" "TOOLS/TOOLSNODRAW"
			"uaxis" "[-1 0 0 0] 0.25"
			"vaxis" "[0 -1 0 0] 0.25"
			"rotation" "0"
			"lightmapscale" "16"
			"smoothing_groups" "0"
		}
		side
		{
			"id" "70"
			"plane" "(0 -160 4) (0 -160 0) (0 0 0)"
			"material" "METAL/METALTRUSS008A"
			"uaxis" "[0 0 1 0] 0.06"
			"vaxis" "[0 1 0 106.667] 0.06"
			"rotation" "0"
			"lightmapscale" "16"
			"smoothing_groups" "0"
		}
		side
		{
			"id" "69"
			"plane" "(64 -160 0) (64 -160 4) (64 0 4)"
			"material" "METAL/METALTRUSS008A"
			"uaxis" "[0 0 1 0] 0.06"
			"vaxis" "[0 1 0 106.667] 0.06"
			"rotation" "90"
			"lightmapscale" "16"
			"smoothing_groups" "0"
		}
		side
		{
			"id" "68"
			"plane" "(0 0 4) (0 0 0) (64 0 0)"
			"material" "METAL/METALTRUSS008A"
			"uaxis" "[0 0 1 0] 0.06"
			"vaxis" "[-1 0 0 -362.674] 0.06"
			"rotation" "0"
			"lightmapscale" "16"
			"smoothing_groups" "0"
		}
		side
		{
			"id" "67"
			"plane" "(0 -160 0) (0 -160 4) (64 -160 4)"
			"material" "METAL/METALTRUSS008A"
			"uaxis" "[0 0 1 0] 0.06"
			"vaxis" "[1 0 0 469.315] 0.06"
			"rotation" "0"
			"lightmapscale" "16"
			"smoothing_groups" "0"
		}
		editor
		{
			"color" "0 180 0"
			"visgroupshown" "1"
			"visgroupautoshown" "1"
		}
	}
	solid
	{
		"id" "3"
		side
		{
			"id" "78"
			"plane" "(2 -158 44) (0 -160 44) (0 0 44)"
			"material" "METAL/METALTRUSS008A"
			"uaxis" "[1 0 0 0] 0.03"
			"vaxis" "[0 -1 0 -511.997] 0.03"
			"rotation" "0"
			"lightmapscale" "16"
			"smoothing_groups" "0"
		}
		side
		{
			"id" "77"
			"plane" "(2 -2 4) (0 0 4) (0 -160 4)"
			"material" "TOOLS/TOOLSNODRAW"
			"uaxis" "[1 0 0 0] 0.25"
			"vaxis" "[0 -1 0 0] 0.25"
			"rotation" "0"
			"lightmapscale" "16"
			"smoothing_groups" "0"
		}
		side
		{
			"id" "76"
			"plane" "(0 -160 4) (0 0 4) (0 0 44)"
			"material" "METAL/METALGRATE013B"
			"uaxis" "[0 0 1 -25] 0.16"
			"vaxis" "[0 -1 0 0] 0.21"
			"rotation" "0"
			"lightmapscale" "16"
			"smoothing_groups" "0"
		}
		side
		{
			"id" "75"
			"plane" "(2 -158 44) (2 -2 44) (2 -2 4)"
			"material" "METAL/METALGRATE013B"
			"uaxis" "[0 0 1 -25] 0.16"
			"vaxis" "[0 -1 0 0] 0.21"
			"rotation" "0"
			"lightmapscale" "16"
			"smoothing_groups" "0"
		}
		side
		{
			"id" "74"
			"plane" "(0 0 4) (2 -2 4) (2 -2 44)"
			"material" "TOOLS/TOOLSNODRAW"
			"uaxis" "[0 1 0 0] 0.25"
			"vaxis" "[0 0 -1 16] 0.25"
			"rotation" "0"
			"lightmapscale" "16"
			"smoothing_groups" "0"
		}
		side
		{
			"id" "73"
			"plane" "(0 -160 44) (2 -158 44) (2 -158 4)"
			"material" "TOOLS/TOOLSNODRAW"
			"uaxis" "[0 1 0 0] 0.25"
			"vaxis" "[0 0 -1 16] 0.25"
			"rotation" "0"
			"lightmapscale" "16"
			"smoothing_groups" "0"
		}
		editor
		{
			"color" "0 180 0"
			"visgroupshown" "1"
			"visgroupautoshown" "1"
		}
	}
	solid
	{
		"id" "4"
		side
		{
			"id" "84"
			"plane" "(2 -108 40) (62 -108 40) (62 -110 40)"
			"material" "METAL/METALTRUSS008A"
			"uaxis" "[0 1 0 -45.3333] 0.03"
			"vaxis" "[1 0 0 -66.6667] 0.03"
			"rotation" "90"
			"lightmapscale" "16"
			"smoothing_groups" "0"
		}
		side
		{
			"id" "83"
			"plane" "(2 -110 4) (62 -110 4) (62 -108 4)"
			"material" "TOOLS/TOOLSNODRAW"
			"uaxis" "[-1 0 0 0] 0.25"
			"vaxis" "[0 -1 0 -48] 0.25"
			"rotation" "0"
			"lightmapscale" "16"
			"smoothing_groups" "0"
		}
		side
		{
			"id" "82"
			"plane" "(2 -108 40) (2 -110 40) (2 -110 4)"
			"material" "TOOLS/TOOLSNODRAW"
			"uaxis" "[0 -1 0 -48] 0.25"
			"vaxis" "[0 0 -1 16] 0.25"
			"rotation" "0"
			"lightmapscale" "16"
			"smoothing_groups" "0"
		}
		side
		{
			"id" "81"
			"plane" "(62 -108 4) (62 -110 4) (62 -110 40)"
			"material" "TOOLS/TOOLSNODRAW"
			"uaxis" "[0 1 0 48] 0.25"
			"vaxis" "[0 0 -1 16] 0.25"
			"rotation" "0"
			"lightmapscale" "16"
			"smoothing_groups" "0"
		}
		side
		{
			"id" "80"
			"plane" "(62 -108 40) (2 -108 40) (2 -108 4)"
			"material" "METAL/METALGRATE013B"
			"uaxis" "[1 0 0 -8.53333] 0.234375"
			"vaxis" "[0 0 -1 28.4444] 0.140625"
			"rotation" "0"
			"lightmapscale" "16"
			"smoothing_groups" "0"
		}
		side
		{
			"id" "79"
			"plane" "(62 -110 4) (2 -110 4) (2 -110 40)"
			"material" "METAL/METALGRATE013B"
			"uaxis" "[1 0 0 -8.53333] 0.234375"
			"vaxis" "[0 0 -1 28.4444] 0.140625"
			"rotation" "0"
			"lightmapscale" "16"
			"smoothing_groups" "0"
		}
		editor
		{
			"color" "0 180 0"
			"visgroupshown" "1"
			"visgroupautoshown" "1"
		}
	}
	solid
	{
		"id" "7"
		side
		{
			"id" "90"
			"plane" "(62 -158 44) (64 -160 44) (0 -160 44)"
			"material" "METAL/METALTRUSS008A"
			"uaxis" "[0 1 0 21.3334] 0.03"
			"vaxis" "[1 0 0 0] 0.03"
			"rotation" "90"
			"lightmapscale" "16"
			"smoothing_groups" "0"
		}
		side
		{
			"id" "89"
			"plane" "(64 -160 4) (62 -158 4) (2 -158 4)"
			"material" "TOOLS/TOOLSNODRAW"
			"uaxis" "[1 0 0 0] 0.25"
			"vaxis" "[0 -1 0 0] 0.25"
			"rotation" "0"
			"lightmapscale" "16"
			"smoothing_groups" "0"
		}
		side
		{
			"id" "88"
			"plane" "(64 -160 4) (64 -160 44) (62 -158 44)"
			"material" "TOOLS/TOOLSNODRAW"
			"uaxis" "[0 1 0 0] 0.25"
			"vaxis" "[0 0 -1 16] 0.25"
			"rotation" "0"
			"lightmapscale" "16"
			"smoothing_groups" "0"
		}
		side
		{
			"id" "87"
			"plane" "(0 -160 44) (0 -160 4) (2 -158 4)"
			"material" "TOOLS/TOOLSNODRAW"
			"uaxis" "[0 1 0 0] 0.25"
			"vaxis" "[0 0 -1 16] 0.25"
			"rotation" "0"
			"lightmapscale" "16"
			"smoothing_groups" "0"
		}
		side
		{
			"id" "86"
			"plane" "(0 -160 4) (0 -160 44) (64 -160 44)"
			"material" "METAL/METALGRATE013B"
			"uaxis" "[0 0 1 -25.6] 0.15625"
			"vaxis" "[1 0 0 0] 0.25"
			"rotation" "0"
			"lightmapscale" "16"
			"smoothing_groups" "0"
		}
		side
		{
			"id" "85"
			"plane" "(2 -158 44) (2 -158 4) (62 -158 4)"
			"material" "METAL/METALGRATE013B"
			"uaxis" "[0 0 1 -25.6] 0.15625"
			"vaxis" "[1 0 0 -8.53331] 0.234375"
			"rotation" "0"
			"lightmapscale" "16"
			"smoothing_groups" "0"
		}
		editor
		{
			"color" "0 180 0"
			"visgroupshown" "1"
			"visgroupautoshown" "1"
		}
	}
	solid
	{
		"id" "5"
		side
		{
			"id" "96"
			"plane" "(2 -2 44) (0 0 44) (64 0 44)"
			"material" "METAL/METALTRUSS008A"
			"uaxis" "[0 1 0 2.6615] 0.03"
			"vaxis" "[1 0 0 0] 0.03"
			"rotation" "90"
			"lightmapscale" "16"
			"smoothing_groups" "0"
		}
		side
		{
			"id" "95"
			"plane" "(0 0 4) (2 -2 4) (62 -2 4)"
			"material" "TOOLS/TOOLSNODRAW"
			"uaxis" "[1 0 0 0] 0.25"
			"vaxis" "[0 -1 0 0] 0.25"
			"rotation" "0"
			"lightmapscale" "16"
			"smoothing_groups" "0"
		}
		side
		{
			"id" "94"
			"plane" "(0 0 4) (0 0 44) (2 -2 44)"
			"material" "TOOLS/TOOLSNODRAW"
			"uaxis" "[0 1 0 0] 0.25"
			"vaxis" "[0 0 -1 16] 0.25"
			"rotation" "0"
			"lightmapscale" "16"
			"smoothing_groups" "0"
		}
		side
		{
			"id" "93"
			"plane" "(64 0 44) (64 0 4) (62 -2 4)"
			"material" "TOOLS/TOOLSNODRAW"
			"uaxis" "[0 1 0 0] 0.25"
			"vaxis" "[0 0 -1 16] 0.25"
			"rotation" "0"
			"lightmapscale" "16"
			"smoothing_groups" "0"
		}
		side
		{
			"id" "92"
			"plane" "(64 0 4) (64 0 44) (0 0 44)"
			"material" "METAL/METALGRATE013B"
			"uaxis" "[0 0 1 -25.6] 0.15625"
			"vaxis" "[1 0 0 0] 0.25"
			"rotation" "0"
			"lightmapscale" "16"
			"smoothing_groups" "0"
		}
		side
		{
			"id" "91"
			"plane" "(62 -2 44) (62 -2 4) (2 -2 4)"
			"material" "METAL/METALGRATE013B"
			"uaxis" "[0 0 1 -25.6] 0.15625"
			"vaxis" "[1 0 0 -8.53331] 0.234375"
			"rotation" "0"
			"lightmapscale" "16"
			"smoothing_groups" "0"
		}
		editor
		{
			"color" "0 180 0"
			"visgroupshown" "1"
			"visgroupautoshown" "1"
		}
	}
	solid
	{
		"id" "6"
		side
		{
			"id" "102"
			"plane" "(62 -2 44) (64 0 44) (64 -160 44)"
			"material" "METAL/METALTRUSS008A"
			"uaxis" "[1 0 0 45.3328] 0.03"
			"vaxis" "[0 -1 0 -511.997] 0.03"
			"rotation" "0"
			"lightmapscale" "16"
			"smoothing_groups" "0"
		}
		side
		{
			"id" "101"
			"plane" "(62 -158 4) (64 -160 4) (64 0 4)"
			"material" "TOOLS/TOOLSNODRAW"
			"uaxis" "[1 0 0 0] 0.25"
			"vaxis" "[0 -1 0 0] 0.25"
			"rotation" "0"
			"lightmapscale" "16"
			"smoothing_groups" "0"
		}
		side
		{
			"id" "100"
			"plane" "(64 0 4) (64 -160 4) (64 -160 44)"
			"material" "METAL/METALGRATE013B"
			"uaxis" "[0 0 1 -25] 0.16"
			"vaxis" "[0 -1 0 0] 0.21"
			"rotation" "0"
			"lightmapscale" "16"
			"smoothing_groups" "0"
		}
		side
		{
			"id" "99"
			"plane" "(62 -2 44) (62 -158 44) (62 -158 4)"
			"material" "METAL/METALGRATE013B"
			"uaxis" "[0 0 1 -25] 0.16"
			"vaxis" "[0 -1 0 0] 0.21"
			"rotation" "0"
			"lightmapscale" "16"
			"smoothing_groups" "0"
		}
		side
		{
			"id" "98"
			"plane" "(64 -160 4) (62 -158 4) (62 -158 44)"
			"material" "TOOLS/TOOLSNODRAW"
			"uaxis" "[0 1 0 0] 0.25"
			"vaxis" "[0 0 -1 16] 0.25"
			"rotation" "0"
			"lightmapscale" "16"
			"smoothing_groups" "0"
		}
		side
		{
			"id" "97"
			"plane" "(64 0 44) (62 -2 44) (62 -2 4)"
			"material" "TOOLS/TOOLSNODRAW"
			"uaxis" "[0 1 0 0] 0.25"
			"vaxis" "[0 0 -1 16] 0.25"
			"rotation" "0"
			"lightmapscale" "16"
			"smoothing_groups" "0"
		}
		editor
		{
			"color" "0 180 0"
			"visgroupshown" "1"
			"visgroupautoshown" "1"
		}
	}
	editor
	{
		"color" "0 180 0"
		"visgroupshown" "1"
		"visgroupautoshown" "1"
		"logicalpos" "[0 0]"
	}
}
cameras
{
	"activecamera" "-1"
}
cordons
{
	"active" "0"
}
