versioninfo
{
	"editorversion" "400"
	"editorbuild" "5032"
	"mapversion" "88"
	"formatversion" "100"
	"prefab" "0"
}
visgroups
{
}
viewsettings
{
	"bSnapToGrid" "1"
	"bShowGrid" "1"
	"bShowLogicalGrid" "0"
	"nGridSpacing" "2"
	"bShow3DGrid" "0"
}
world
{
	"id" "1"
	"mapversion" "88"
	"classname" "worldspawn"
	"detailmaterial" "detail/detailsprites"
	"detailvbsp" "detail.vbsp"
	"maxpropscreenwidth" "-1"
	"skyname" "sky_day01_01"
	solid
	{
		"id" "3076"
		side
		{
			"id" "993"
			"plane" "(184.114 -44 64.6) (182.762 -43.6377 64.6) (184.211 -38.2285 64.6)"
			"material" "WOOD/EP2_WOODWALL01"
			"uaxis" "[-0.258819 -0.965926 0 257.437] 0.175"
			"vaxis" "[-0.965926 0.258819 0 229.305] 0.175"
			"rotation" "0"
			"lightmapscale" "16"
			"smoothing_groups" "0"
		}
		side
		{
			"id" "994"
			"plane" "(176 -41.8259 -2.6) (177.352 -42.1883 -2.6) (178.802 -36.7791 -2.6)"
			"material" "WOOD/EP2_WOODWALL01"
			"uaxis" "[0.258819 0.965926 0 -257.437] 0.175"
			"vaxis" "[-0.965926 0.258819 0 229.305] 0.175"
			"rotation" "0"
			"lightmapscale" "16"
			"smoothing_groups" "0"
		}
		side
		{
			"id" "995"
			"plane" "(184.211 -38.2285 64.6) (177.449 -36.4167 -2.6) (178.802 -36.7791 -2.6)"
			"material" "WOOD/EP2_WOODWALL01"
			"uaxis" "[-0.965926 0.258819 0 229.305] 0.175"
			"vaxis" "[0 0 -1 49.1429] 0.175"
			"rotation" "0"
			"lightmapscale" "16"
			"smoothing_groups" "0"
		}
		side
		{
			"id" "996"
			"plane" "(176 -41.8259 -2.6) (182.762 -43.6377 64.6) (184.114 -44 64.6)"
			"material" "WOOD/EP2_WOODWALL01"
			"uaxis" "[0.965926 -0.258819 0 -229.305] 0.175"
			"vaxis" "[0 0 -1 49.1429] 0.175"
			"rotation" "0"
			"lightmapscale" "16"
			"smoothing_groups" "0"
		}
		side
		{
			"id" "997"
			"plane" "(185.563 -38.5908 64.6) (178.802 -36.7791 -2.6) (177.352 -42.1883 -2.6)"
			"material" "WOOD/EP2_WOODWALL01"
			"uaxis" "[0.258819 0.965926 0 -257.437] 0.175"
			"vaxis" "[0 0 -1 49.1429] 0.175"
			"rotation" "0"
			"lightmapscale" "16"
			"smoothing_groups" "0"
		}
		side
		{
			"id" "998"
			"plane" "(177.449 -36.4167 -2.6) (184.211 -38.2285 64.6) (182.762 -43.6377 64.6)"
			"material" "WOOD/EP2_WOODWALL01"
			"uaxis" "[-0.258819 -0.965926 0 257.437] 0.175"
			"vaxis" "[0 0 -1 49.1429] 0.175"
			"rotation" "0"
			"lightmapscale" "16"
			"smoothing_groups" "0"
		}
		editor
		{
			"color" "0 213 190"
			"visgroupshown" "1"
			"visgroupautoshown" "1"
		}
	}
}
entity
{
	"id" "474"
	"classname" "func_detail"
	solid
	{
		"id" "231"
		side
		{
			"id" "198"
			"plane" "(156 -312 88) (156 -264 88) (158 -264 88)"
			"material" "WOOD/EP2_WOODWALL01"
			"uaxis" "[0.965926 0 0.258819 0] 0.25"
			"vaxis" "[0 -1 0 0] 0.25"
			"rotation" "0"
			"lightmapscale" "16"
			"smoothing_groups" "0"
		}
		side
		{
			"id" "197"
			"plane" "(178 -264 0) (178 -312 0) (180 -312 0)"
			"material" "WOOD/EP2_WOODWALL01"
			"uaxis" "[-0.965926 0 -0.258819 0] 0.25"
			"vaxis" "[0 -1 0 0] 0.25"
			"rotation" "0"
			"lightmapscale" "16"
			"smoothing_groups" "0"
		}
		side
		{
			"id" "196"
			"plane" "(178 -264 0) (156 -264 88) (156 -312 88)"
			"material" "WOOD/EP2_WOODWALL01"
			"uaxis" "[0 -1 0 0] 0.25"
			"vaxis" "[0.258819 0 -0.965926 0] 0.25"
			"rotation" "0"
			"lightmapscale" "16"
			"smoothing_groups" "0"
		}
		side
		{
			"id" "195"
			"plane" "(158 -264 88) (180 -264 0) (180 -312 0)"
			"material" "WOOD/EP2_WOODWALL01"
			"uaxis" "[0 1 0 0] 0.25"
			"vaxis" "[0.258819 0 -0.965926 0] 0.25"
			"rotation" "0"
			"lightmapscale" "16"
			"smoothing_groups" "0"
		}
		side
		{
			"id" "194"
			"plane" "(180 -264 0) (158 -264 88) (156 -264 88)"
			"material" "WOOD/EP2_WOODWALL01"
			"uaxis" "[-1 0 0 0] 0.25"
			"vaxis" "[0 0 -1 0] 0.25"
			"rotation" "0"
			"lightmapscale" "16"
			"smoothing_groups" "0"
		}
		side
		{
			"id" "193"
			"plane" "(158 -312 88) (180 -312 0) (178 -312 0)"
			"material" "WOOD/EP2_WOODWALL01"
			"uaxis" "[1 0 0 0] 0.25"
			"vaxis" "[0 0 -1 0] 0.25"
			"rotation" "0"
			"lightmapscale" "16"
			"smoothing_groups" "0"
		}
		editor
		{
			"color" "0 180 0"
			"visgroupshown" "1"
			"visgroupautoshown" "1"
		}
	}
	editor
	{
		"color" "0 180 0"
		"visgroupshown" "1"
		"visgroupautoshown" "1"
		"logicalpos" "[0 -8268]"
	}
}
entity
{
	"id" "478"
	"classname" "func_detail"
	solid
	{
		"id" "226"
		side
		{
			"id" "204"
			"plane" "(152 -248 72) (160 -248 72) (160 -328 72)"
			"material" "CONCRETE/CONCRETEWALL015A"
			"uaxis" "[1 0 0 0] 0.25"
			"vaxis" "[0 -1 0 0] 0.25"
			"rotation" "0"
			"lightmapscale" "16"
			"smoothing_groups" "0"
		}
		side
		{
			"id" "203"
			"plane" "(152 -328 0) (160 -328 0) (160 -248 0)"
			"material" "CONCRETE/CONCRETEWALL015A"
			"uaxis" "[-1 0 0 0] 0.25"
			"vaxis" "[0 -1 0 0] 0.25"
			"rotation" "0"
			"lightmapscale" "16"
			"smoothing_groups" "0"
		}
		side
		{
			"id" "202"
			"plane" "(152 -248 72) (152 -328 72) (152 -328 0)"
			"material" "CONCRETE/CONCRETEWALL015A"
			"uaxis" "[0 -1 0 0] 0.25"
			"vaxis" "[0 0 -1 0] 0.25"
			"rotation" "0"
			"lightmapscale" "16"
			"smoothing_groups" "0"
		}
		side
		{
			"id" "201"
			"plane" "(160 -248 0) (160 -328 0) (160 -328 72)"
			"material" "CONCRETE/CONCRETEWALL015A"
			"uaxis" "[0 1 0 0] 0.25"
			"vaxis" "[0 0 -1 0] 0.25"
			"rotation" "0"
			"lightmapscale" "16"
			"smoothing_groups" "0"
		}
		side
		{
			"id" "200"
			"plane" "(160 -248 72) (152 -248 72) (152 -248 0)"
			"material" "CONCRETE/CONCRETEWALL015A"
			"uaxis" "[-1 0 0 0] 0.25"
			"vaxis" "[0 0 -1 0] 0.25"
			"rotation" "0"
			"lightmapscale" "16"
			"smoothing_groups" "0"
		}
		side
		{
			"id" "199"
			"plane" "(160 -328 0) (152 -328 0) (152 -328 72)"
			"material" "CONCRETE/CONCRETEWALL015A"
			"uaxis" "[1 0 0 0] 0.25"
			"vaxis" "[0 0 -1 0] 0.25"
			"rotation" "0"
			"lightmapscale" "16"
			"smoothing_groups" "0"
		}
		editor
		{
			"color" "0 180 0"
			"visgroupshown" "1"
			"visgroupautoshown" "1"
		}
	}
	editor
	{
		"color" "0 180 0"
		"visgroupshown" "1"
		"visgroupautoshown" "1"
		"logicalpos" "[0 -7768]"
	}
}
entity
{
	"id" "487"
	"classname" "func_detail"
	solid
	{
		"id" "170"
		side
		{
			"id" "210"
			"plane" "(88 -440 128) (88 -328 128) (96 -328 128)"
			"material" "WOOD/EP2_WOODWALL01"
			"uaxis" "[1 0 0 0] 0.5"
			"vaxis" "[0 -1 0 0] 0.5"
			"rotation" "0"
			"lightmapscale" "16"
			"smoothing_groups" "0"
		}
		side
		{
			"id" "209"
			"plane" "(88 -328 96) (88 -328 128) (88 -440 128)"
			"material" "CONCRETE/CONCRETEWALL015A"
			"uaxis" "[0 -1 0 0] 0.25"
			"vaxis" "[0 0 -1 0] 0.25"
			"rotation" "0"
			"lightmapscale" "16"
			"smoothing_groups" "0"
		}
		side
		{
			"id" "208"
			"plane" "(96 -440 96) (96 -440 128) (96 -328 128)"
			"material" "CONCRETE/CONCRETEWALL015A"
			"uaxis" "[0 1 0 0] 0.25"
			"vaxis" "[0 0 -1 0] 0.25"
			"rotation" "0"
			"lightmapscale" "16"
			"smoothing_groups" "0"
		}
		side
		{
			"id" "207"
			"plane" "(96 -328 96) (96 -328 128) (88 -328 128)"
			"material" "CONCRETE/CONCRETEWALL015A"
			"uaxis" "[-1 0 0 0] 0.25"
			"vaxis" "[0 0 -1 0] 0.25"
			"rotation" "0"
			"lightmapscale" "16"
			"smoothing_groups" "0"
		}
		side
		{
			"id" "206"
			"plane" "(88 -440 96) (88 -440 128) (96 -440 128)"
			"material" "CONCRETE/CONCRETEWALL015A"
			"uaxis" "[1 0 0 0] 0.25"
			"vaxis" "[0 0 -1 0] 0.25"
			"rotation" "0"
			"lightmapscale" "16"
			"smoothing_groups" "0"
		}
		side
		{
			"id" "205"
			"plane" "(88 -328 96) (88 -440 96) (96 -440 96)"
			"material" "WOOD/EP2_WOODWALL01"
			"uaxis" "[-1 0 0 0] 0.5"
			"vaxis" "[0 -1 0 0] 0.5"
			"rotation" "0"
			"lightmapscale" "16"
			"smoothing_groups" "0"
		}
		editor
		{
			"color" "0 180 0"
			"visgroupshown" "1"
			"visgroupautoshown" "1"
		}
	}
	solid
	{
		"id" "181"
		side
		{
			"id" "216"
			"plane" "(88 -320 128) (96 -320 128) (96 -328 128)"
			"material" "WOOD/EP2_WOODWALL01"
			"uaxis" "[1 0 0 0] 0.5"
			"vaxis" "[0 -1 0 0] 0.5"
			"rotation" "0"
			"lightmapscale" "16"
			"smoothing_groups" "0"
		}
		side
		{
			"id" "215"
			"plane" "(88 -328 0) (96 -328 0) (96 -320 0)"
			"material" "WOOD/EP2_WOODWALL01"
			"uaxis" "[-1 0 0 0] 0.5"
			"vaxis" "[0 -1 0 0] 0.5"
			"rotation" "0"
			"lightmapscale" "16"
			"smoothing_groups" "0"
		}
		side
		{
			"id" "214"
			"plane" "(88 -320 128) (88 -328 128) (88 -328 0)"
			"material" "WOOD/EP2_WOODWALL01"
			"uaxis" "[0 -1 0 0] 0.5"
			"vaxis" "[0 0 -1 0] 0.5"
			"rotation" "0"
			"lightmapscale" "16"
			"smoothing_groups" "0"
		}
		side
		{
			"id" "213"
			"plane" "(96 -320 0) (96 -328 0) (96 -328 128)"
			"material" "WOOD/EP2_WOODWALL01"
			"uaxis" "[0 1 0 0] 0.5"
			"vaxis" "[0 0 -1 0] 0.5"
			"rotation" "0"
			"lightmapscale" "16"
			"smoothing_groups" "0"
		}
		side
		{
			"id" "212"
			"plane" "(96 -320 128) (88 -320 128) (88 -320 0)"
			"material" "WOOD/EP2_WOODWALL01"
			"uaxis" "[-1 0 0 0] 0.5"
			"vaxis" "[0 0 -1 0] 0.5"
			"rotation" "0"
			"lightmapscale" "16"
			"smoothing_groups" "0"
		}
		side
		{
			"id" "211"
			"plane" "(96 -328 0) (88 -328 0) (88 -328 128)"
			"material" "WOOD/EP2_WOODWALL01"
			"uaxis" "[1 0 0 0] 0.5"
			"vaxis" "[0 0 -1 0] 0.5"
			"rotation" "0"
			"lightmapscale" "16"
			"smoothing_groups" "0"
		}
		editor
		{
			"color" "0 180 0"
			"visgroupshown" "1"
			"visgroupautoshown" "1"
		}
	}
	solid
	{
		"id" "109"
		side
		{
			"id" "222"
			"plane" "(96 -328 96) (96 -360 96) (88 -360 96)"
			"material" "CONCRETE/CONCRETEWALL015A"
			"uaxis" "[0 1 0 -256] 0.25"
			"vaxis" "[1 0 0 -320] 0.25"
			"rotation" "0"
			"lightmapscale" "16"
			"smoothing_groups" "0"
		}
		side
		{
			"id" "221"
			"plane" "(96 -360 0) (96 -328 0) (88 -328 0)"
			"material" "CONCRETE/CONCRETEWALL015A"
			"uaxis" "[0 -1 0 256] 0.25"
			"vaxis" "[1 0 0 -320] 0.25"
			"rotation" "0"
			"lightmapscale" "16"
			"smoothing_groups" "0"
		}
		side
		{
			"id" "220"
			"plane" "(88 -328 96) (88 -360 96) (88 -360 0)"
			"material" "CONCRETE/CONCRETEWALL015A"
			"uaxis" "[0 -1 0 256] 0.25"
			"vaxis" "[0 0 -1 0] 0.25"
			"rotation" "0"
			"lightmapscale" "16"
			"smoothing_groups" "0"
		}
		side
		{
			"id" "219"
			"plane" "(96 -360 96) (96 -328 96) (96 -328 0)"
			"material" "CONCRETE/CONCRETEWALL015A"
			"uaxis" "[0 1 0 -256] 0.25"
			"vaxis" "[0 0 -1 0] 0.25"
			"rotation" "0"
			"lightmapscale" "16"
			"smoothing_groups" "0"
		}
		side
		{
			"id" "218"
			"plane" "(96 -328 96) (88 -328 96) (88 -328 0)"
			"material" "CONCRETE/CONCRETEWALL015A"
			"uaxis" "[-1 0 0 320] 0.25"
			"vaxis" "[0 0 -1 0] 0.25"
			"rotation" "0"
			"lightmapscale" "16"
			"smoothing_groups" "0"
		}
		side
		{
			"id" "217"
			"plane" "(88 -360 96) (96 -360 96) (96 -360 0)"
			"material" "WOOD/EP2_WOODWALL01"
			"uaxis" "[1 0 0 0] 0.5"
			"vaxis" "[0 0 -1 0] 0.5"
			"rotation" "0"
			"lightmapscale" "16"
			"smoothing_groups" "0"
		}
		editor
		{
			"color" "0 180 0"
			"visgroupshown" "1"
			"visgroupautoshown" "1"
		}
	}
	solid
	{
		"id" "124"
		side
		{
			"id" "228"
			"plane" "(96 -408 0) (96 -360 0) (88 -360 0)"
			"material" "CONCRETE/CONCRETEWALL015A"
			"uaxis" "[0 -1 0 256] 0.25"
			"vaxis" "[1 0 0 -320] 0.25"
			"rotation" "0"
			"lightmapscale" "16"
			"smoothing_groups" "0"
		}
		side
		{
			"id" "227"
			"plane" "(88 -360 0) (88 -360 40) (88 -408 40)"
			"material" "CONCRETE/CONCRETEWALL015A"
			"uaxis" "[0 -1 0 256] 0.25"
			"vaxis" "[0 0 -1 0] 0.25"
			"rotation" "0"
			"lightmapscale" "16"
			"smoothing_groups" "0"
		}
		side
		{
			"id" "226"
			"plane" "(96 -408 0) (96 -408 40) (96 -360 40)"
			"material" "CONCRETE/CONCRETEWALL015A"
			"uaxis" "[0 1 0 -256] 0.25"
			"vaxis" "[0 0 -1 0] 0.25"
			"rotation" "0"
			"lightmapscale" "16"
			"smoothing_groups" "0"
		}
		side
		{
			"id" "225"
			"plane" "(96 -360 0) (96 -360 40) (88 -360 40)"
			"material" "CONCRETE/CONCRETEWALL015A"
			"uaxis" "[-1 0 0 0] 0.25"
			"vaxis" "[0 0 -1 0] 0.25"
			"rotation" "0"
			"lightmapscale" "16"
			"smoothing_groups" "0"
		}
		side
		{
			"id" "224"
			"plane" "(88 -408 0) (88 -408 40) (96 -408 40)"
			"material" "CONCRETE/CONCRETEWALL015A"
			"uaxis" "[1 0 0 0] 0.25"
			"vaxis" "[0 0 -1 0] 0.25"
			"rotation" "0"
			"lightmapscale" "16"
			"smoothing_groups" "0"
		}
		side
		{
			"id" "223"
			"plane" "(96 -360 40) (96 -408 40) (88 -408 40)"
			"material" "WOOD/EP2_WOODWALL01"
			"uaxis" "[1 0 0 0] 0.5"
			"vaxis" "[0 -1 0 0] 0.5"
			"rotation" "0"
			"lightmapscale" "16"
			"smoothing_groups" "0"
		}
		editor
		{
			"color" "0 180 0"
			"visgroupshown" "1"
			"visgroupautoshown" "1"
		}
	}
	solid
	{
		"id" "107"
		side
		{
			"id" "234"
			"plane" "(88 -408 96) (96 -408 96) (96 -440 96)"
			"material" "CONCRETE/CONCRETEWALL015A"
			"uaxis" "[0 1 0 -256] 0.25"
			"vaxis" "[1 0 0 -320] 0.25"
			"rotation" "0"
			"lightmapscale" "16"
			"smoothing_groups" "0"
		}
		side
		{
			"id" "233"
			"plane" "(96 -440 0) (96 -408 0) (88 -408 0)"
			"material" "CONCRETE/CONCRETEWALL015A"
			"uaxis" "[0 -1 0 256] 0.25"
			"vaxis" "[1 0 0 -320] 0.25"
			"rotation" "0"
			"lightmapscale" "16"
			"smoothing_groups" "0"
		}
		side
		{
			"id" "232"
			"plane" "(88 -440 96) (96 -440 96) (96 -440 0)"
			"material" "CONCRETE/CONCRETEWALL015A"
			"uaxis" "[1 0 0 -320] 0.25"
			"vaxis" "[0 0 -1 0] 0.25"
			"rotation" "0"
			"lightmapscale" "16"
			"smoothing_groups" "0"
		}
		side
		{
			"id" "231"
			"plane" "(88 -408 96) (88 -440 96) (88 -440 0)"
			"material" "CONCRETE/CONCRETEWALL015A"
			"uaxis" "[0 -1 0 256] 0.25"
			"vaxis" "[0 0 -1 0] 0.25"
			"rotation" "0"
			"lightmapscale" "16"
			"smoothing_groups" "0"
		}
		side
		{
			"id" "230"
			"plane" "(96 -440 96) (96 -408 96) (96 -408 0)"
			"material" "CONCRETE/CONCRETEWALL015A"
			"uaxis" "[0 1 0 -256] 0.25"
			"vaxis" "[0 0 -1 0] 0.25"
			"rotation" "0"
			"lightmapscale" "16"
			"smoothing_groups" "0"
		}
		side
		{
			"id" "229"
			"plane" "(96 -408 96) (88 -408 96) (88 -408 0)"
			"material" "WOOD/EP2_WOODWALL01"
			"uaxis" "[-1 0 0 0] 0.5"
			"vaxis" "[0 0 -1 0] 0.5"
			"rotation" "0"
			"lightmapscale" "16"
			"smoothing_groups" "0"
		}
		editor
		{
			"color" "0 180 0"
			"visgroupshown" "1"
			"visgroupautoshown" "1"
		}
	}
	solid
	{
		"id" "189"
		side
		{
			"id" "240"
			"plane" "(88 -440 128) (96 -440 128) (96 -448 128)"
			"material" "WOOD/EP2_WOODWALL01"
			"uaxis" "[1 0 0 0] 0.5"
			"vaxis" "[0 -1 0 0] 0.5"
			"rotation" "0"
			"lightmapscale" "16"
			"smoothing_groups" "0"
		}
		side
		{
			"id" "239"
			"plane" "(88 -448 0) (96 -448 0) (96 -440 0)"
			"material" "WOOD/EP2_WOODWALL01"
			"uaxis" "[-1 0 0 0] 0.5"
			"vaxis" "[0 -1 0 0] 0.5"
			"rotation" "0"
			"lightmapscale" "16"
			"smoothing_groups" "0"
		}
		side
		{
			"id" "238"
			"plane" "(88 -440 128) (88 -448 128) (88 -448 0)"
			"material" "WOOD/EP2_WOODWALL01"
			"uaxis" "[0 -1 0 0] 0.5"
			"vaxis" "[0 0 -1 0] 0.5"
			"rotation" "0"
			"lightmapscale" "16"
			"smoothing_groups" "0"
		}
		side
		{
			"id" "237"
			"plane" "(96 -440 0) (96 -448 0) (96 -448 128)"
			"material" "WOOD/EP2_WOODWALL01"
			"uaxis" "[0 1 0 0] 0.5"
			"vaxis" "[0 0 -1 0] 0.5"
			"rotation" "0"
			"lightmapscale" "16"
			"smoothing_groups" "0"
		}
		side
		{
			"id" "236"
			"plane" "(96 -440 128) (88 -440 128) (88 -440 0)"
			"material" "WOOD/EP2_WOODWALL01"
			"uaxis" "[-1 0 0 0] 0.5"
			"vaxis" "[0 0 -1 0] 0.5"
			"rotation" "0"
			"lightmapscale" "16"
			"smoothing_groups" "0"
		}
		side
		{
			"id" "235"
			"plane" "(96 -448 0) (88 -448 0) (88 -448 128)"
			"material" "WOOD/EP2_WOODWALL01"
			"uaxis" "[1 0 0 0] 0.5"
			"vaxis" "[0 0 -1 0] 0.5"
			"rotation" "0"
			"lightmapscale" "16"
			"smoothing_groups" "0"
		}
		editor
		{
			"color" "0 180 0"
			"visgroupshown" "1"
			"visgroupautoshown" "1"
		}
	}
	editor
	{
		"color" "0 180 0"
		"visgroupshown" "1"
		"visgroupautoshown" "1"
		"logicalpos" "[0 -7268]"
	}
}
entity
{
	"id" "495"
	"classname" "prop_static"
	"angles" "0 351 0"
	"fademindist" "-1"
	"fadescale" "1"
	"model" "models/props_silo/tirestack.mdl"
	"renderamt" "255"
	"rendercolor" "255 255 255"
	"skin" "0"
	"solid" "6"
	"origin" "128 -240 0"
	editor
	{
		"color" "255 255 0"
		"visgroupshown" "1"
		"visgroupautoshown" "1"
		"logicalpos" "[0 -6768]"
	}
}
entity
{
	"id" "1629"
	"classname" "prop_physics"
	"angles" "0 15 0"
	"damagetoenablemotion" "0"
	"Damagetype" "0"
	"disablereceiveshadows" "0"
	"ExplodeDamage" "0"
	"ExplodeRadius" "0"
	"ExploitableByPlayer" "0"
	"fademindist" "-1"
	"fadescale" "1"
	"forcetoenablemotion" "0"
	"inertiaScale" "1.0"
	"massScale" "0"
	"minhealthdmg" "0"
	"model" "models/props_combine/breenbust.mdl"
	"nodamageforces" "0"
	"PerformanceMode" "0"
	"physdamagescale" "0.1"
	"pressuredelay" "0"
	"renderamt" "255"
	"rendercolor" "255 255 255"
	"renderfx" "0"
	"rendermode" "0"
	"shadowcastdist" "0"
	"skin" "0"
	"spawnflags" "1551"
	"targetname" "breen01"
	"origin" "124 -480 50.2029"
	editor
	{
		"color" "220 30 220"
		"visgroupshown" "1"
		"visgroupautoshown" "1"
		"logicalpos" "[500 14000]"
	}
}
entity
{
	"id" "1712"
	"classname" "func_detail"
	solid
	{
		"id" "1677"
		side
		{
			"id" "710"
			"plane" "(144 -528 35.5554) (128 -532 35.5554) (112 -468 35.5554)"
			"material" "WOOD/EP2_WOODWALL01"
			"uaxis" "[-0.212052 0.848208 0.485363 -138.946] 0.5"
			"vaxis" "[0.970142 0.242536 0 -94.3943] 0.5"
			"rotation" "0"
			"lightmapscale" "16"
			"smoothing_groups" "0"
		}
		side
		{
			"id" "709"
			"plane" "(128 -464 -0.444559) (112 -468 -0.444559) (128 -532 -0.444559)"
			"material" "WOOD/EP2_WOODWALL01"
			"uaxis" "[0.965926 -0.258819 0 -181.541] 0.5"
			"vaxis" "[-0.258819 -0.965926 0 115.732] 0.5"
			"rotation" "0"
			"lightmapscale" "16"
			"smoothing_groups" "0"
		}
		side
		{
			"id" "708"
			"plane" "(128 -532 -0.444559) (112 -468 -0.444559) (112 -468 35.5554)"
			"material" "WOOD/EP2_WOODWALL01"
			"uaxis" "[0.258819 0.965926 0 -115.732] 0.5"
			"vaxis" "[0 0 -1 0] 0.5"
			"rotation" "0"
			"lightmapscale" "16"
			"smoothing_groups" "0"
		}
		side
		{
			"id" "707"
			"plane" "(144 -528 35.5554) (128 -464 35.5554) (128 -464 -0.444559)"
			"material" "WOOD/EP2_WOODWALL01"
			"uaxis" "[0.258819 0.965926 0 -115.732] 0.5"
			"vaxis" "[0 0 -1 0] 0.5"
			"rotation" "0"
			"lightmapscale" "16"
			"smoothing_groups" "0"
		}
		side
		{
			"id" "706"
			"plane" "(112 -468 -0.444559) (128 -464 -0.444559) (128 -464 35.5554)"
			"material" "WOOD/EP2_WOODWALL01"
			"uaxis" "[0.965926 -0.258819 0 -181.541] 0.5"
			"vaxis" "[0 0 -1 0] 0.5"
			"rotation" "0"
			"lightmapscale" "16"
			"smoothing_groups" "0"
		}
		side
		{
			"id" "705"
			"plane" "(128 -532 35.5554) (144 -528 35.5554) (144 -528 -0.444559)"
			"material" "WOOD/EP2_WOODWALL01"
			"uaxis" "[0.965926 -0.258819 0 -181.541] 0.5"
			"vaxis" "[0 0 -1 0] 0.5"
			"rotation" "0"
			"lightmapscale" "16"
			"smoothing_groups" "0"
		}
		editor
		{
			"color" "0 180 0"
			"visgroupshown" "1"
			"visgroupautoshown" "1"
		}
	}
	editor
	{
		"color" "0 180 0"
		"visgroupshown" "1"
		"visgroupautoshown" "1"
		"logicalpos" "[500 15500]"
	}
}
entity
{
	"id" "1921"
	"classname" "func_detail"
	solid
	{
		"id" "1922"
		side
		{
			"id" "956"
			"plane" "(736 -310.883 32) (740.469 -182.962 32) (772.445 -184.079 32)"
			"material" "METAL/CITADEL_METALWALL074A"
			"uaxis" "[1 0 0 384] 0.25"
			"vaxis" "[0 -1 0 128] 0.25"
			"rotation" "0"
			"lightmapscale" "16"
			"smoothing_groups" "0"
		}
		side
		{
			"id" "955"
			"plane" "(740.467 -182.962 30) (736 -310.882 30) (767.98 -312 30)"
			"material" "METAL/CITADEL_METALWALL074A"
			"uaxis" "[-1 0 0 -384] 0.25"
			"vaxis" "[0 -1 0 128] 0.25"
			"rotation" "0"
			"lightmapscale" "16"
			"smoothing_groups" "0"
		}
		side
		{
			"id" "954"
			"plane" "(772.449 -184.079 30) (772.445 -184.079 32) (740.469 -182.962 32)"
			"material" "METAL/CITADEL_METALWALL074A"
			"uaxis" "[-1 0.0348992 0 128] 0.25"
			"vaxis" "[0 0 -1 8] 0.25"
			"rotation" "0"
			"lightmapscale" "16"
			"smoothing_groups" "0"
		}
		side
		{
			"id" "953"
			"plane" "(736 -310.882 30) (736 -310.883 32) (767.98 -312 32)"
			"material" "METAL/CITADEL_METALWALL074A"
			"uaxis" "[1 -0.0348997 0 -128] 0.25"
			"vaxis" "[0 0 -1 8] 0.25"
			"rotation" "0"
			"lightmapscale" "16"
			"smoothing_groups" "0"
		}
		side
		{
			"id" "952"
			"plane" "(767.98 -312 30) (767.98 -312 32) (772.445 -184.079 32)"
			"material" "METAL/CITADEL_METALWALL074A"
			"uaxis" "[0.0348997 1 0 -384] 0.25"
			"vaxis" "[0 0 -1 200] 0.25"
			"rotation" "0"
			"lightmapscale" "16"
			"smoothing_groups" "0"
		}
		side
		{
			"id" "951"
			"plane" "(740.467 -182.962 30) (740.469 -182.962 32) (736 -310.883 32)"
			"material" "METAL/CITADEL_METALWALL074A"
			"uaxis" "[-0.0348997 -1 0 384] 0.25"
			"vaxis" "[0 0 -1 8] 0.25"
			"rotation" "0"
			"lightmapscale" "16"
			"smoothing_groups" "0"
		}
		editor
		{
			"color" "0 180 0"
			"visgroupshown" "1"
			"visgroupautoshown" "1"
		}
	}
	solid
	{
		"id" "1923"
		side
		{
			"id" "962"
			"plane" "(738.792 -230.931 30) (738.863 -228.934 30) (740.863 -229 30)"
			"material" "TOOLS/TOOLSNODRAW"
			"uaxis" "[1 0 0 0] 0.25"
			"vaxis" "[0 -1 0 0] 0.25"
			"rotation" "0"
			"lightmapscale" "16"
			"smoothing_groups" "0"
		}
		side
		{
			"id" "961"
			"plane" "(738.862 -228.932 0) (738.793 -230.931 0) (740.789 -231 0)"
			"material" "TOOLS/TOOLSNODRAW"
			"uaxis" "[-1 0 0 0] 0.25"
			"vaxis" "[0 -1 0 0] 0.25"
			"rotation" "0"
			"lightmapscale" "16"
			"smoothing_groups" "0"
		}
		side
		{
			"id" "960"
			"plane" "(740.859 -229 0) (740.863 -229 30) (738.863 -228.934 30)"
			"material" "METAL/CITADEL_METALWALL074A"
			"uaxis" "[-1 0.0348969 0 128] 0.25"
			"vaxis" "[0 0 -1 8] 0.25"
			"rotation" "0"
			"lightmapscale" "16"
			"smoothing_groups" "0"
		}
		side
		{
			"id" "959"
			"plane" "(738.793 -230.931 0) (738.792 -230.931 30) (740.789 -231 30)"
			"material" "METAL/CITADEL_METALWALL074A"
			"uaxis" "[1 -0.0348969 0 -128] 0.25"
			"vaxis" "[0 0 -1 8] 0.25"
			"rotation" "0"
			"lightmapscale" "16"
			"smoothing_groups" "0"
		}
		side
		{
			"id" "958"
			"plane" "(740.789 -231 0) (740.789 -231 30) (740.863 -229 30)"
			"material" "METAL/CITADEL_METALWALL074A"
			"uaxis" "[0.0348817 1 0 -8] 0.25"
			"vaxis" "[0 0 -1 8] 0.25"
			"rotation" "0"
			"lightmapscale" "16"
			"smoothing_groups" "0"
		}
		side
		{
			"id" "957"
			"plane" "(738.862 -228.932 0) (738.863 -228.934 30) (738.792 -230.931 30)"
			"material" "METAL/CITADEL_METALWALL074A"
			"uaxis" "[-0.0348817 -1 0 8] 0.25"
			"vaxis" "[0 0 -1 8] 0.25"
			"rotation" "0"
			"lightmapscale" "16"
			"smoothing_groups" "0"
		}
		editor
		{
			"color" "0 180 0"
			"visgroupshown" "1"
			"visgroupautoshown" "1"
		}
	}
	solid
	{
		"id" "1924"
		side
		{
			"id" "968"
			"plane" "(740.397 -184.959 30) (740.469 -182.963 30) (742.469 -183.033 30)"
			"material" "TOOLS/TOOLSNODRAW"
			"uaxis" "[1 0 0 0] 0.25"
			"vaxis" "[0 -1 0 0] 0.25"
			"rotation" "0"
			"lightmapscale" "16"
			"smoothing_groups" "0"
		}
		side
		{
			"id" "967"
			"plane" "(740.467 -182.961 0) (740.398 -184.959 0) (742.395 -185.029 0)"
			"material" "TOOLS/TOOLSNODRAW"
			"uaxis" "[-1 0 0 0] 0.25"
			"vaxis" "[0 -1 0 0] 0.25"
			"rotation" "0"
			"lightmapscale" "16"
			"smoothing_groups" "0"
		}
		side
		{
			"id" "966"
			"plane" "(742.469 -183.031 0) (742.469 -183.033 30) (740.469 -182.963 30)"
			"material" "METAL/CITADEL_METALWALL074A"
			"uaxis" "[-1 0.0348969 0 128] 0.25"
			"vaxis" "[0 0 -1 0] 0.25"
			"rotation" "0"
			"lightmapscale" "16"
			"smoothing_groups" "0"
		}
		side
		{
			"id" "965"
			"plane" "(740.398 -184.959 0) (740.397 -184.959 30) (742.398 -185.029 30)"
			"material" "METAL/CITADEL_METALWALL074A"
			"uaxis" "[1 -0.0348969 0 -128] 0.25"
			"vaxis" "[0 0 -1 0] 0.25"
			"rotation" "0"
			"lightmapscale" "16"
			"smoothing_groups" "0"
		}
		side
		{
			"id" "964"
			"plane" "(742.395 -185.029 0) (742.398 -185.029 30) (742.469 -183.033 30)"
			"material" "METAL/CITADEL_METALWALL074A"
			"uaxis" "[0.0349121 1 0 -384] 0.25"
			"vaxis" "[0 0 -1 0] 0.25"
			"rotation" "0"
			"lightmapscale" "16"
			"smoothing_groups" "0"
		}
		side
		{
			"id" "963"
			"plane" "(740.467 -182.961 0) (740.469 -182.963 30) (740.397 -184.959 30)"
			"material" "METAL/CITADEL_METALWALL074A"
			"uaxis" "[-0.0349121 -1 0 384] 0.25"
			"vaxis" "[0 0 -1 0] 0.25"
			"rotation" "0"
			"lightmapscale" "16"
			"smoothing_groups" "0"
		}
		editor
		{
			"color" "0 180 0"
			"visgroupshown" "1"
			"visgroupautoshown" "1"
		}
	}
	solid
	{
		"id" "1925"
		side
		{
			"id" "974"
			"plane" "(736 -310.882 30) (736.074 -308.884 30) (738.07 -308.954 30)"
			"material" "TOOLS/TOOLSNODRAW"
			"uaxis" "[1 0 0 0] 0.25"
			"vaxis" "[0 -1 0 0] 0.25"
			"rotation" "0"
			"lightmapscale" "16"
			"smoothing_groups" "0"
		}
		side
		{
			"id" "973"
			"plane" "(736.07 -308.886 0) (736 -310.882 0) (738 -310.952 0)"
			"material" "TOOLS/TOOLSNODRAW"
			"uaxis" "[-1 0 0 0] 0.25"
			"vaxis" "[0 -1 0 0] 0.25"
			"rotation" "0"
			"lightmapscale" "16"
			"smoothing_groups" "0"
		}
		side
		{
			"id" "972"
			"plane" "(738.07 -308.956 0) (738.07 -308.954 30) (736.074 -308.884 30)"
			"material" "METAL/CITADEL_METALWALL074A"
			"uaxis" "[-1 0.0348969 0 128] 0.25"
			"vaxis" "[0 0 -1 8] 0.25"
			"rotation" "0"
			"lightmapscale" "16"
			"smoothing_groups" "0"
		}
		side
		{
			"id" "971"
			"plane" "(736 -310.882 0) (736 -310.882 30) (738 -310.952 30)"
			"material" "METAL/CITADEL_METALWALL074A"
			"uaxis" "[1 -0.0348969 0 -128] 0.25"
			"vaxis" "[0 0 -1 8] 0.25"
			"rotation" "0"
			"lightmapscale" "16"
			"smoothing_groups" "0"
		}
		side
		{
			"id" "970"
			"plane" "(738 -310.952 0) (738 -310.952 30) (738.07 -308.954 30)"
			"material" "METAL/CITADEL_METALWALL074A"
			"uaxis" "[0.0349121 1 0 -384] 0.25"
			"vaxis" "[0 0 -1 8] 0.25"
			"rotation" "0"
			"lightmapscale" "16"
			"smoothing_groups" "0"
		}
		side
		{
			"id" "969"
			"plane" "(736.07 -308.886 0) (736.074 -308.884 30) (736 -310.882 30)"
			"material" "METAL/CITADEL_METALWALL074A"
			"uaxis" "[-0.0349121 -1 0 384] 0.25"
			"vaxis" "[0 0 -1 8] 0.25"
			"rotation" "0"
			"lightmapscale" "16"
			"smoothing_groups" "0"
		}
		editor
		{
			"color" "0 180 0"
			"visgroupshown" "1"
			"visgroupautoshown" "1"
		}
	}
	solid
	{
		"id" "1926"
		side
		{
			"id" "980"
			"plane" "(770.379 -186 30) (770.449 -184 30) (772.445 -184.075 30)"
			"material" "TOOLS/TOOLSNODRAW"
			"uaxis" "[1 0 0 0] 0.25"
			"vaxis" "[0 -1 0 0] 0.25"
			"rotation" "0"
			"lightmapscale" "16"
			"smoothing_groups" "0"
		}
		side
		{
			"id" "979"
			"plane" "(770.449 -184 0) (770.379 -186 0) (772.379 -186.077 0)"
			"material" "TOOLS/TOOLSNODRAW"
			"uaxis" "[-1 0 0 0] 0.25"
			"vaxis" "[0 -1 0 0] 0.25"
			"rotation" "0"
			"lightmapscale" "16"
			"smoothing_groups" "0"
		}
		side
		{
			"id" "978"
			"plane" "(772.445 -184.077 0) (772.445 -184.075 30) (770.449 -184 30)"
			"material" "METAL/CITADEL_METALWALL074A"
			"uaxis" "[-1 0.0348969 0 128] 0.25"
			"vaxis" "[0 0 -1 0] 0.25"
			"rotation" "0"
			"lightmapscale" "16"
			"smoothing_groups" "0"
		}
		side
		{
			"id" "977"
			"plane" "(770.379 -186 0) (770.379 -186 30) (772.379 -186.079 30)"
			"material" "METAL/CITADEL_METALWALL074A"
			"uaxis" "[1 -0.0348969 0 -128] 0.25"
			"vaxis" "[0 0 -1 0] 0.25"
			"rotation" "0"
			"lightmapscale" "16"
			"smoothing_groups" "0"
		}
		side
		{
			"id" "976"
			"plane" "(772.379 -186.077 0) (772.379 -186.079 30) (772.445 -184.075 30)"
			"material" "METAL/CITADEL_METALWALL074A"
			"uaxis" "[0.0349121 1 0 -384] 0.25"
			"vaxis" "[0 0 -1 0] 0.25"
			"rotation" "0"
			"lightmapscale" "16"
			"smoothing_groups" "0"
		}
		side
		{
			"id" "975"
			"plane" "(770.449 -184 0) (770.449 -184 30) (770.379 -186 30)"
			"material" "METAL/CITADEL_METALWALL074A"
			"uaxis" "[-0.0349121 -1 0 384] 0.25"
			"vaxis" "[0 0 -1 0] 0.25"
			"rotation" "0"
			"lightmapscale" "16"
			"smoothing_groups" "0"
		}
		editor
		{
			"color" "0 180 0"
			"visgroupshown" "1"
			"visgroupautoshown" "1"
		}
	}
	solid
	{
		"id" "1927"
		side
		{
			"id" "986"
			"plane" "(768.774 -231.977 30) (768.844 -229.979 30) (770.844 -230.049 30)"
			"material" "TOOLS/TOOLSNODRAW"
			"uaxis" "[1 0 0 0] 0.25"
			"vaxis" "[0 -1 0 0] 0.25"
			"rotation" "0"
			"lightmapscale" "16"
			"smoothing_groups" "0"
		}
		side
		{
			"id" "985"
			"plane" "(768.844 -229.979 0) (768.773 -231.979 0) (770.77 -232.049 0)"
			"material" "TOOLS/TOOLSNODRAW"
			"uaxis" "[-1 0 0 0] 0.25"
			"vaxis" "[0 -1 0 0] 0.25"
			"rotation" "0"
			"lightmapscale" "16"
			"smoothing_groups" "0"
		}
		side
		{
			"id" "984"
			"plane" "(770.84 -230.048 0) (770.844 -230.049 30) (768.844 -229.979 30)"
			"material" "METAL/CITADEL_METALWALL074A"
			"uaxis" "[-1 0.0349121 0 128] 0.25"
			"vaxis" "[0 0 -1 8] 0.25"
			"rotation" "0"
			"lightmapscale" "16"
			"smoothing_groups" "0"
		}
		side
		{
			"id" "983"
			"plane" "(768.773 -231.979 0) (768.774 -231.977 30) (770.773 -232.047 30)"
			"material" "METAL/CITADEL_METALWALL074A"
			"uaxis" "[1 -0.0349121 0 -128] 0.25"
			"vaxis" "[0 0 -1 8] 0.25"
			"rotation" "0"
			"lightmapscale" "16"
			"smoothing_groups" "0"
		}
		side
		{
			"id" "982"
			"plane" "(770.77 -232.049 0) (770.773 -232.047 30) (770.844 -230.049 30)"
			"material" "METAL/CITADEL_METALWALL074A"
			"uaxis" "[0.0348817 1 0 -8] 0.25"
			"vaxis" "[0 0 -1 8] 0.25"
			"rotation" "0"
			"lightmapscale" "16"
			"smoothing_groups" "0"
		}
		side
		{
			"id" "981"
			"plane" "(768.844 -229.979 0) (768.844 -229.979 30) (768.774 -231.977 30)"
			"material" "METAL/CITADEL_METALWALL074A"
			"uaxis" "[-0.0348817 -1 0 8] 0.25"
			"vaxis" "[0 0 -1 8] 0.25"
			"rotation" "0"
			"lightmapscale" "16"
			"smoothing_groups" "0"
		}
		editor
		{
			"color" "0 180 0"
			"visgroupshown" "1"
			"visgroupautoshown" "1"
		}
	}
	solid
	{
		"id" "1928"
		side
		{
			"id" "992"
			"plane" "(765.982 -311.93 30) (766.051 -309.931 30) (768.051 -310 30)"
			"material" "TOOLS/TOOLSNODRAW"
			"uaxis" "[1 0 0 0] 0.25"
			"vaxis" "[0 -1 0 0] 0.25"
			"rotation" "0"
			"lightmapscale" "16"
			"smoothing_groups" "0"
		}
		side
		{
			"id" "991"
			"plane" "(766.052 -309.931 0) (765.98 -311.931 0) (767.98 -312 0)"
			"material" "TOOLS/TOOLSNODRAW"
			"uaxis" "[-1 0 0 0] 0.25"
			"vaxis" "[0 -1 0 0] 0.25"
			"rotation" "0"
			"lightmapscale" "16"
			"smoothing_groups" "0"
		}
		side
		{
			"id" "990"
			"plane" "(768.051 -310 0) (768.051 -310 30) (766.051 -309.931 30)"
			"material" "METAL/CITADEL_METALWALL074A"
			"uaxis" "[-1 0.0349121 0 128] 0.25"
			"vaxis" "[0 0 -1 8] 0.25"
			"rotation" "0"
			"lightmapscale" "16"
			"smoothing_groups" "0"
		}
		side
		{
			"id" "989"
			"plane" "(765.98 -311.931 0) (765.982 -311.93 30) (767.98 -312 30)"
			"material" "METAL/CITADEL_METALWALL074A"
			"uaxis" "[1 -0.0349121 0 -128] 0.25"
			"vaxis" "[0 0 -1 8] 0.25"
			"rotation" "0"
			"lightmapscale" "16"
			"smoothing_groups" "0"
		}
		side
		{
			"id" "988"
			"plane" "(767.98 -312 0) (767.98 -312 30) (768.051 -310 30)"
			"material" "METAL/CITADEL_METALWALL074A"
			"uaxis" "[0.0349121 1 0 -384] 0.25"
			"vaxis" "[0 0 -1 8] 0.25"
			"rotation" "0"
			"lightmapscale" "16"
			"smoothing_groups" "0"
		}
		side
		{
			"id" "987"
			"plane" "(766.052 -309.931 0) (766.051 -309.931 30) (765.982 -311.93 30)"
			"material" "METAL/CITADEL_METALWALL074A"
			"uaxis" "[-0.0349121 -1 0 384] 0.25"
			"vaxis" "[0 0 -1 8] 0.25"
			"rotation" "0"
			"lightmapscale" "16"
			"smoothing_groups" "0"
		}
		editor
		{
			"color" "0 180 0"
			"visgroupshown" "1"
			"visgroupautoshown" "1"
		}
	}
	editor
	{
		"color" "0 180 0"
		"visgroupshown" "1"
		"visgroupautoshown" "1"
		"logicalpos" "[500 -10768]"
	}
}
entity
{
	"id" "337"
	"classname" "info_overlay"
	"angles" "0 0 45"
	"BasisNormal" "0.970142 -0.171499 0.171499"
	"BasisOrigin" "168 -288 39.5636"
	"BasisU" "0 0.707107 0.707107"
	"BasisV" "-0.242536 -0.685994 0.685994"
	"EndU" "1"
	"EndV" "0"
	"fademindist" "-1"
	"material" "decals/bunker_decal05"
	"RenderOrder" "1"
	"sides" "195"
	"StartU" "0"
	"StartV" "1"
	"uv0" "-23.0334 -23.5695 0"
	"uv1" "-22.7315 23.2739 0"
	"uv2" "23.0334 23.5695 0"
	"uv3" "22.7315 -23.2739 0"
	"origin" "168 -288 39.5636"
	editor
	{
		"color" "80 150 225"
		"visgroupshown" "1"
		"visgroupautoshown" "1"
		"logicalpos" "[0 -8768]"
	}
}
entity
{
	"id" "3034"
	"classname" "info_overlay"
	"angles" "0 0 45"
	"BasisNormal" "0.970142 -0.171499 0.171499"
	"BasisOrigin" "176 -287.309 39.3414"
	"BasisU" "0 0.707107 0.707107"
	"BasisV" "-0.242536 -0.685994 0.685994"
	"EndU" "1"
	"EndV" "0"
	"fademindist" "-1"
	"material" "decals/bunker_decal05"
	"RenderOrder" "1"
	"sides" "195"
	"StartU" "0"
	"StartV" "1"
	"uv0" "-15.462 -16.3397 0"
	"uv1" "-14.827 15.7092 0"
	"uv2" "15.462 16.3397 0"
	"uv3" "14.827 -15.7092 0"
	"origin" "176 -287.309 39.3414"
	editor
	{
		"color" "80 150 225"
		"visgroupshown" "1"
		"visgroupautoshown" "1"
		"logicalpos" "[0 -8768]"
	}
}
entity
{
	"id" "3220"
	"classname" "func_detail"
	solid
	{
		"id" "1857"
		side
		{
			"id" "1004"
			"plane" "(736 -448 32) (736 -320 32) (768 -320 32)"
			"material" "METAL/CITADEL_METALWALL074A"
			"uaxis" "[0 1 0 384] 0.25"
			"vaxis" "[1 0 0 128] 0.25"
			"rotation" "0"
			"lightmapscale" "16"
			"smoothing_groups" "0"
		}
		side
		{
			"id" "1003"
			"plane" "(736 -320 30) (736 -448 30) (768 -448 30)"
			"material" "METAL/CITADEL_METALWALL074A"
			"uaxis" "[0 -1 0 -384] 0.25"
			"vaxis" "[1 0 0 128] 0.25"
			"rotation" "0"
			"lightmapscale" "16"
			"smoothing_groups" "0"
		}
		side
		{
			"id" "1002"
			"plane" "(736 -448 30) (736 -448 32) (768 -448 32)"
			"material" "METAL/CITADEL_METALWALL074A"
			"uaxis" "[1 0 0 128] 0.25"
			"vaxis" "[0 0 -1 8] 0.25"
			"rotation" "0"
			"lightmapscale" "16"
			"smoothing_groups" "0"
		}
		side
		{
			"id" "1001"
			"plane" "(768 -320 30) (768 -320 32) (736 -320 32)"
			"material" "METAL/CITADEL_METALWALL074A"
			"uaxis" "[-1 0 0 -128] 0.25"
			"vaxis" "[0 0 -1 8] 0.25"
			"rotation" "0"
			"lightmapscale" "16"
			"smoothing_groups" "0"
		}
		side
		{
			"id" "1000"
			"plane" "(736 -320 30) (736 -320 32) (736 -448 32)"
			"material" "METAL/CITADEL_METALWALL074A"
			"uaxis" "[0 -1 0 -384] 0.25"
			"vaxis" "[0 0 -1 200] 0.25"
			"rotation" "0"
			"lightmapscale" "16"
			"smoothing_groups" "0"
		}
		side
		{
			"id" "999"
			"plane" "(768 -448 30) (768 -448 32) (768 -320 32)"
			"material" "METAL/CITADEL_METALWALL074A"
			"uaxis" "[0 1 0 384] 0.25"
			"vaxis" "[0 0 -1 8] 0.25"
			"rotation" "0"
			"lightmapscale" "16"
			"smoothing_groups" "0"
		}
		editor
		{
			"color" "0 180 0"
			"visgroupshown" "1"
			"visgroupautoshown" "1"
		}
	}
	solid
	{
		"id" "1860"
		side
		{
			"id" "1010"
			"plane" "(766 -322 30) (766 -320 30) (768 -320 30)"
			"material" "TOOLS/TOOLSNODRAW"
			"uaxis" "[0 1 0 0] 0.25"
			"vaxis" "[1 0 0 0] 0.25"
			"rotation" "0"
			"lightmapscale" "16"
			"smoothing_groups" "0"
		}
		side
		{
			"id" "1009"
			"plane" "(766 -320 0) (766 -322 0) (768 -322 0)"
			"material" "TOOLS/TOOLSNODRAW"
			"uaxis" "[0 -1 0 0] 0.25"
			"vaxis" "[1 0 0 0] 0.25"
			"rotation" "0"
			"lightmapscale" "16"
			"smoothing_groups" "0"
		}
		side
		{
			"id" "1008"
			"plane" "(766 -322 0) (766 -322 30) (768 -322 30)"
			"material" "METAL/CITADEL_METALWALL074A"
			"uaxis" "[1 0 0 128] 0.25"
			"vaxis" "[0 0 -1 8] 0.25"
			"rotation" "0"
			"lightmapscale" "16"
			"smoothing_groups" "0"
		}
		side
		{
			"id" "1007"
			"plane" "(768 -320 0) (768 -320 30) (766 -320 30)"
			"material" "METAL/CITADEL_METALWALL074A"
			"uaxis" "[-1 0 0 -128] 0.25"
			"vaxis" "[0 0 -1 8] 0.25"
			"rotation" "0"
			"lightmapscale" "16"
			"smoothing_groups" "0"
		}
		side
		{
			"id" "1006"
			"plane" "(766 -320 0) (766 -320 30) (766 -322 30)"
			"material" "METAL/CITADEL_METALWALL074A"
			"uaxis" "[0 -1 0 -384] 0.25"
			"vaxis" "[0 0 -1 8] 0.25"
			"rotation" "0"
			"lightmapscale" "16"
			"smoothing_groups" "0"
		}
		side
		{
			"id" "1005"
			"plane" "(768 -322 0) (768 -322 30) (768 -320 30)"
			"material" "METAL/CITADEL_METALWALL074A"
			"uaxis" "[0 1 0 384] 0.25"
			"vaxis" "[0 0 -1 8] 0.25"
			"rotation" "0"
			"lightmapscale" "16"
			"smoothing_groups" "0"
		}
		editor
		{
			"color" "0 180 0"
			"visgroupshown" "1"
			"visgroupautoshown" "1"
		}
	}
	solid
	{
		"id" "1884"
		side
		{
			"id" "1016"
			"plane" "(736 -322 30) (736 -320 30) (738 -320 30)"
			"material" "TOOLS/TOOLSNODRAW"
			"uaxis" "[0 1 0 0] 0.25"
			"vaxis" "[1 0 0 0] 0.25"
			"rotation" "0"
			"lightmapscale" "16"
			"smoothing_groups" "0"
		}
		side
		{
			"id" "1015"
			"plane" "(736 -320 0) (736 -322 0) (738 -322 0)"
			"material" "TOOLS/TOOLSNODRAW"
			"uaxis" "[0 -1 0 0] 0.25"
			"vaxis" "[1 0 0 0] 0.25"
			"rotation" "0"
			"lightmapscale" "16"
			"smoothing_groups" "0"
		}
		side
		{
			"id" "1014"
			"plane" "(736 -322 0) (736 -322 30) (738 -322 30)"
			"material" "METAL/CITADEL_METALWALL074A"
			"uaxis" "[1 0 0 128] 0.25"
			"vaxis" "[0 0 -1 8] 0.25"
			"rotation" "0"
			"lightmapscale" "16"
			"smoothing_groups" "0"
		}
		side
		{
			"id" "1013"
			"plane" "(738 -320 0) (738 -320 30) (736 -320 30)"
			"material" "METAL/CITADEL_METALWALL074A"
			"uaxis" "[-1 0 0 -128] 0.25"
			"vaxis" "[0 0 -1 8] 0.25"
			"rotation" "0"
			"lightmapscale" "16"
			"smoothing_groups" "0"
		}
		side
		{
			"id" "1012"
			"plane" "(736 -320 0) (736 -320 30) (736 -322 30)"
			"material" "METAL/CITADEL_METALWALL074A"
			"uaxis" "[0 -1 0 -384] 0.25"
			"vaxis" "[0 0 -1 8] 0.25"
			"rotation" "0"
			"lightmapscale" "16"
			"smoothing_groups" "0"
		}
		side
		{
			"id" "1011"
			"plane" "(738 -322 0) (738 -322 30) (738 -320 30)"
			"material" "METAL/CITADEL_METALWALL074A"
			"uaxis" "[0 1 0 384] 0.25"
			"vaxis" "[0 0 -1 8] 0.25"
			"rotation" "0"
			"lightmapscale" "16"
			"smoothing_groups" "0"
		}
		editor
		{
			"color" "0 180 0"
			"visgroupshown" "1"
			"visgroupautoshown" "1"
		}
	}
	solid
	{
		"id" "1885"
		side
		{
			"id" "1022"
			"plane" "(736 -402 30) (736 -400 30) (738 -400 30)"
			"material" "TOOLS/TOOLSNODRAW"
			"uaxis" "[0 1 0 0] 0.25"
			"vaxis" "[1 0 0 0] 0.25"
			"rotation" "0"
			"lightmapscale" "16"
			"smoothing_groups" "0"
		}
		side
		{
			"id" "1021"
			"plane" "(736 -400 0) (736 -402 0) (738 -402 0)"
			"material" "TOOLS/TOOLSNODRAW"
			"uaxis" "[0 -1 0 0] 0.25"
			"vaxis" "[1 0 0 0] 0.25"
			"rotation" "0"
			"lightmapscale" "16"
			"smoothing_groups" "0"
		}
		side
		{
			"id" "1020"
			"plane" "(736 -402 0) (736 -402 30) (738 -402 30)"
			"material" "METAL/CITADEL_METALWALL074A"
			"uaxis" "[1 0 0 128] 0.25"
			"vaxis" "[0 0 -1 8] 0.25"
			"rotation" "0"
			"lightmapscale" "16"
			"smoothing_groups" "0"
		}
		side
		{
			"id" "1019"
			"plane" "(738 -400 0) (738 -400 30) (736 -400 30)"
			"material" "METAL/CITADEL_METALWALL074A"
			"uaxis" "[-1 0 0 -128] 0.25"
			"vaxis" "[0 0 -1 8] 0.25"
			"rotation" "0"
			"lightmapscale" "16"
			"smoothing_groups" "0"
		}
		side
		{
			"id" "1018"
			"plane" "(736 -400 0) (736 -400 30) (736 -402 30)"
			"material" "METAL/CITADEL_METALWALL074A"
			"uaxis" "[0 -1 0 -8] 0.25"
			"vaxis" "[0 0 -1 8] 0.25"
			"rotation" "0"
			"lightmapscale" "16"
			"smoothing_groups" "0"
		}
		side
		{
			"id" "1017"
			"plane" "(738 -402 0) (738 -402 30) (738 -400 30)"
			"material" "METAL/CITADEL_METALWALL074A"
			"uaxis" "[0 1 0 8] 0.25"
			"vaxis" "[0 0 -1 8] 0.25"
			"rotation" "0"
			"lightmapscale" "16"
			"smoothing_groups" "0"
		}
		editor
		{
			"color" "0 180 0"
			"visgroupshown" "1"
			"visgroupautoshown" "1"
		}
	}
	solid
	{
		"id" "1858"
		side
		{
			"id" "1028"
			"plane" "(766 -402 30) (766 -400 30) (768 -400 30)"
			"material" "TOOLS/TOOLSNODRAW"
			"uaxis" "[0 1 0 0] 0.25"
			"vaxis" "[1 0 0 0] 0.25"
			"rotation" "0"
			"lightmapscale" "16"
			"smoothing_groups" "0"
		}
		side
		{
			"id" "1027"
			"plane" "(766 -400 0) (766 -402 0) (768 -402 0)"
			"material" "TOOLS/TOOLSNODRAW"
			"uaxis" "[0 -1 0 0] 0.25"
			"vaxis" "[1 0 0 0] 0.25"
			"rotation" "0"
			"lightmapscale" "16"
			"smoothing_groups" "0"
		}
		side
		{
			"id" "1026"
			"plane" "(766 -402 0) (766 -402 30) (768 -402 30)"
			"material" "METAL/CITADEL_METALWALL074A"
			"uaxis" "[1 0 0 128] 0.25"
			"vaxis" "[0 0 -1 8] 0.25"
			"rotation" "0"
			"lightmapscale" "16"
			"smoothing_groups" "0"
		}
		side
		{
			"id" "1025"
			"plane" "(768 -400 0) (768 -400 30) (766 -400 30)"
			"material" "METAL/CITADEL_METALWALL074A"
			"uaxis" "[-1 0 0 -128] 0.25"
			"vaxis" "[0 0 -1 8] 0.25"
			"rotation" "0"
			"lightmapscale" "16"
			"smoothing_groups" "0"
		}
		side
		{
			"id" "1024"
			"plane" "(766 -400 0) (766 -400 30) (766 -402 30)"
			"material" "METAL/CITADEL_METALWALL074A"
			"uaxis" "[0 -1 0 -8] 0.25"
			"vaxis" "[0 0 -1 8] 0.25"
			"rotation" "0"
			"lightmapscale" "16"
			"smoothing_groups" "0"
		}
		side
		{
			"id" "1023"
			"plane" "(768 -402 0) (768 -402 30) (768 -400 30)"
			"material" "METAL/CITADEL_METALWALL074A"
			"uaxis" "[0 1 0 8] 0.25"
			"vaxis" "[0 0 -1 8] 0.25"
			"rotation" "0"
			"lightmapscale" "16"
			"smoothing_groups" "0"
		}
		editor
		{
			"color" "0 180 0"
			"visgroupshown" "1"
			"visgroupautoshown" "1"
		}
	}
	solid
	{
		"id" "1859"
		side
		{
			"id" "1034"
			"plane" "(766 -448 30) (766 -446 30) (768 -446 30)"
			"material" "TOOLS/TOOLSNODRAW"
			"uaxis" "[0 1 0 0] 0.25"
			"vaxis" "[1 0 0 0] 0.25"
			"rotation" "0"
			"lightmapscale" "16"
			"smoothing_groups" "0"
		}
		side
		{
			"id" "1033"
			"plane" "(766 -446 0) (766 -448 0) (768 -448 0)"
			"material" "TOOLS/TOOLSNODRAW"
			"uaxis" "[0 -1 0 0] 0.25"
			"vaxis" "[1 0 0 0] 0.25"
			"rotation" "0"
			"lightmapscale" "16"
			"smoothing_groups" "0"
		}
		side
		{
			"id" "1032"
			"plane" "(766 -448 0) (766 -448 30) (768 -448 30)"
			"material" "METAL/CITADEL_METALWALL074A"
			"uaxis" "[1 0 0 128] 0.25"
			"vaxis" "[0 0 -1 0] 0.25"
			"rotation" "0"
			"lightmapscale" "16"
			"smoothing_groups" "0"
		}
		side
		{
			"id" "1031"
			"plane" "(768 -446 0) (768 -446 30) (766 -446 30)"
			"material" "METAL/CITADEL_METALWALL074A"
			"uaxis" "[-1 0 0 -128] 0.25"
			"vaxis" "[0 0 -1 0] 0.25"
			"rotation" "0"
			"lightmapscale" "16"
			"smoothing_groups" "0"
		}
		side
		{
			"id" "1030"
			"plane" "(766 -446 0) (766 -446 30) (766 -448 30)"
			"material" "METAL/CITADEL_METALWALL074A"
			"uaxis" "[0 -1 0 -384] 0.25"
			"vaxis" "[0 0 -1 0] 0.25"
			"rotation" "0"
			"lightmapscale" "16"
			"smoothing_groups" "0"
		}
		side
		{
			"id" "1029"
			"plane" "(768 -448 0) (768 -448 30) (768 -446 30)"
			"material" "METAL/CITADEL_METALWALL074A"
			"uaxis" "[0 1 0 384] 0.25"
			"vaxis" "[0 0 -1 0] 0.25"
			"rotation" "0"
			"lightmapscale" "16"
			"smoothing_groups" "0"
		}
		editor
		{
			"color" "0 180 0"
			"visgroupshown" "1"
			"visgroupautoshown" "1"
		}
	}
	solid
	{
		"id" "1886"
		side
		{
			"id" "1040"
			"plane" "(736 -448 30) (736 -446 30) (738 -446 30)"
			"material" "TOOLS/TOOLSNODRAW"
			"uaxis" "[0 1 0 0] 0.25"
			"vaxis" "[1 0 0 0] 0.25"
			"rotation" "0"
			"lightmapscale" "16"
			"smoothing_groups" "0"
		}
		side
		{
			"id" "1039"
			"plane" "(736 -446 0) (736 -448 0) (738 -448 0)"
			"material" "TOOLS/TOOLSNODRAW"
			"uaxis" "[0 -1 0 0] 0.25"
			"vaxis" "[1 0 0 0] 0.25"
			"rotation" "0"
			"lightmapscale" "16"
			"smoothing_groups" "0"
		}
		side
		{
			"id" "1038"
			"plane" "(736 -448 0) (736 -448 30) (738 -448 30)"
			"material" "METAL/CITADEL_METALWALL074A"
			"uaxis" "[1 0 0 128] 0.25"
			"vaxis" "[0 0 -1 0] 0.25"
			"rotation" "0"
			"lightmapscale" "16"
			"smoothing_groups" "0"
		}
		side
		{
			"id" "1037"
			"plane" "(738 -446 0) (738 -446 30) (736 -446 30)"
			"material" "METAL/CITADEL_METALWALL074A"
			"uaxis" "[-1 0 0 -128] 0.25"
			"vaxis" "[0 0 -1 0] 0.25"
			"rotation" "0"
			"lightmapscale" "16"
			"smoothing_groups" "0"
		}
		side
		{
			"id" "1036"
			"plane" "(736 -446 0) (736 -446 30) (736 -448 30)"
			"material" "METAL/CITADEL_METALWALL074A"
			"uaxis" "[0 -1 0 -384] 0.25"
			"vaxis" "[0 0 -1 0] 0.25"
			"rotation" "0"
			"lightmapscale" "16"
			"smoothing_groups" "0"
		}
		side
		{
			"id" "1035"
			"plane" "(738 -448 0) (738 -448 30) (738 -446 30)"
			"material" "METAL/CITADEL_METALWALL074A"
			"uaxis" "[0 1 0 384] 0.25"
			"vaxis" "[0 0 -1 0] 0.25"
			"rotation" "0"
			"lightmapscale" "16"
			"smoothing_groups" "0"
		}
		editor
		{
			"color" "0 180 0"
			"visgroupshown" "1"
			"visgroupautoshown" "1"
		}
	}
	editor
	{
		"color" "0 180 0"
		"visgroupshown" "1"
		"visgroupautoshown" "1"
		"logicalpos" "[0 500]"
	}
}
entity
{
	"id" "3244"
	"classname" "func_breakable"
	"disablereceiveshadows" "0"
	"disableshadows" "0"
	"ExplodeDamage" "0"
	"explodemagnitude" "0"
	"ExplodeRadius" "0"
	"explosion" "0"
	"gibdir" "0 0 0"
	"health" "1"
	"material" "10"
	"minhealthdmg" "0"
	"nodamageforces" "0"
	"origin" "124 -482 49.6"
	"PerformanceMode" "1"
	"physdamagescale" "1.0"
	"pressuredelay" "0"
	"propdata" "0"
	"renderamt" "255"
	"rendercolor" "255 255 255"
	"renderfx" "0"
	"rendermode" "0"
	"spawnflags" "0"
	"spawnobject" "0"
	connections
	{
		"OnBreak" "breen01Break0-1"
		"OnBreak" "breen01Kill60-1"
	}
	solid
	{
		"id" "1741"
		side
		{
			"id" "1046"
			"plane" "(130 -484 64) (120 -488 64) (118 -480 64)"
			"material" "TOOLS/TOOLSNODRAW"
			"uaxis" "[1 0 0 0] 0.25"
			"vaxis" "[0 -1 0 0] 0.25"
			"rotation" "0"
			"lightmapscale" "16"
			"smoothing_groups" "0"
		}
		side
		{
			"id" "1045"
			"plane" "(128 -476 51.1997) (118 -480 51.1997) (120 -488 51.1997)"
			"material" "TOOLS/TOOLSNODRAW"
			"uaxis" "[-1 0 0 0] 0.25"
			"vaxis" "[0 -1 0 0] 0.25"
			"rotation" "0"
			"lightmapscale" "16"
			"smoothing_groups" "0"
		}
		side
		{
			"id" "1044"
			"plane" "(120 -488 51.1997) (118 -480 51.1997) (118 -480 64)"
			"material" "TOOLS/TOOLSNODRAW"
			"uaxis" "[0 -1 0 0] 0.25"
			"vaxis" "[0 0 -1 19.1871] 0.106669"
			"rotation" "0"
			"lightmapscale" "16"
			"smoothing_groups" "0"
		}
		side
		{
			"id" "1043"
			"plane" "(130 -484 64) (128 -476 64) (128 -476 51.1997)"
			"material" "TOOLS/TOOLSNODRAW"
			"uaxis" "[0 1 0 0] 0.25"
			"vaxis" "[0 0 -1 19.1871] 0.106669"
			"rotation" "0"
			"lightmapscale" "16"
			"smoothing_groups" "0"
		}
		side
		{
			"id" "1042"
			"plane" "(118 -480 51.1997) (128 -476 51.1997) (128 -476 64)"
			"material" "TOOLS/TOOLSNODRAW"
			"uaxis" "[-1 0 0 0] 0.25"
			"vaxis" "[0 0 -1 19.1871] 0.106669"
			"rotation" "0"
			"lightmapscale" "16"
			"smoothing_groups" "0"
		}
		side
		{
			"id" "1041"
			"plane" "(120 -488 64) (130 -484 64) (130 -484 51.1997)"
			"material" "TOOLS/TOOLSNODRAW"
			"uaxis" "[1 0 0 0] 0.25"
			"vaxis" "[0 0 -1 19.1871] 0.106669"
			"rotation" "0"
			"lightmapscale" "16"
			"smoothing_groups" "0"
		}
		editor
		{
			"color" "220 30 220"
			"visgroupshown" "1"
			"visgroupautoshown" "1"
		}
	}
	solid
	{
		"id" "1736"
		side
		{
			"id" "1052"
			"plane" "(128 -472 52) (132 -488 52) (120 -492 52)"
			"material" "TOOLS/TOOLSNODRAW"
			"uaxis" "[1 0 0 0] 0.25"
			"vaxis" "[0 -1 0 0] 0.25"
			"rotation" "0"
			"lightmapscale" "16"
			"smoothing_groups" "0"
		}
		side
		{
			"id" "1051"
			"plane" "(132 -488 35.1997) (128 -472 35.1997) (116 -476 35.1997)"
			"material" "TOOLS/TOOLSNODRAW"
			"uaxis" "[-1 0 0 0] 0.25"
			"vaxis" "[0 -1 0 0] 0.25"
			"rotation" "0"
			"lightmapscale" "16"
			"smoothing_groups" "0"
		}
		side
		{
			"id" "1050"
			"plane" "(120 -492 52) (120 -492 35.1997) (116 -476 35.1997)"
			"material" "TOOLS/TOOLSNODRAW"
			"uaxis" "[0 -1 0 0] 0.25"
			"vaxis" "[0 0 -1 46.6231] 0.140003"
			"rotation" "0"
			"lightmapscale" "16"
			"smoothing_groups" "0"
		}
		side
		{
			"id" "1049"
			"plane" "(132 -488 35.1997) (132 -488 52) (128 -472 52)"
			"material" "TOOLS/TOOLSNODRAW"
			"uaxis" "[0 1 0 0] 0.25"
			"vaxis" "[0 0 -1 46.6231] 0.140003"
			"rotation" "0"
			"lightmapscale" "16"
			"smoothing_groups" "0"
		}
		side
		{
			"id" "1048"
			"plane" "(116 -476 52) (116 -476 35.1997) (128 -472 35.1997)"
			"material" "TOOLS/TOOLSNODRAW"
			"uaxis" "[-1 0 0 0] 0.25"
			"vaxis" "[0 0 -1 46.6231] 0.140003"
			"rotation" "0"
			"lightmapscale" "16"
			"smoothing_groups" "0"
		}
		side
		{
			"id" "1047"
			"plane" "(120 -492 35.1997) (120 -492 52) (132 -488 52)"
			"material" "TOOLS/TOOLSNODRAW"
			"uaxis" "[1 0 0 0] 0.25"
			"vaxis" "[0 0 -1 46.6231] 0.140003"
			"rotation" "0"
			"lightmapscale" "16"
			"smoothing_groups" "0"
		}
		editor
		{
			"color" "220 30 220"
			"visgroupshown" "1"
			"visgroupautoshown" "1"
		}
	}
	editor
	{
		"color" "220 30 220"
		"visgroupshown" "1"
		"visgroupautoshown" "1"
		"logicalpos" "[0 0]"
	}
}
entity
{
	"id" "3286"
	"classname" "func_instance"
	"angles" "-0 -15 0"
	"file" "pre_target02"
	"origin" "192 -28 -3.83958"
	editor
	{
		"color" "220 30 220"
		"visgroupshown" "1"
		"visgroupautoshown" "1"
		"logicalpos" "[0 0]"
	}
}
cameras
{
	"activecamera" "-1"
}
cordons
{
	"active" "0"
}
