
VertexLitGeneric
{
$baseTexture "models/props/vehicles/tank_truck/tank_truck"
$model 1
$blendtintbybasealpha 1
$bumpmap "models/props/vehicles/tank_truck/tank_truck_normal"

$phong 1
$phongboost 1
$phongexponent 30

$phongfresnelranges "[1 3 10]"




}