"Flora"
{
	"$baseTexture" "models\props_foliage\arbre01"

	"$AlphaTest" "1"
	"$AlphaTestReference" "0.5"
	"!360?$AllowAlphaToCoverage" "1"

	"$nocull" 1	
	"$model" 1

	"$FlashlightNoLambert" "1"
}
