//Reference File generated by the Wall Worm SMD Exporter 1.73
//www.wallworm.com
version 1
nodes
0 "Box001" -1
end
skeleton
time 0
0 0 0 -11.8893 0 0 0
end
triangles
pg_null
0 -1 -1 -11.8893 0 0 -1 1 0
0 -1 1 -11.8893 0 0 -1 1 1
0 1 1 -11.8893 0 0 -1 0 1
pg_null
0 1 1 -11.8893 0 0 -1 0 1
0 1 -1 -11.8893 0 0 -1 0 0
0 -1 -1 -11.8893 0 0 -1 1 0
end
