version 1
nodes
  0 "Plane006"  -1
  1 "Plane010"  -1
  2 "Plane011"  -1
  3 "Plane012"  -1
  4 "Plane013"  -1
  5 "Plane015"  -1
  6 "Plane016"  -1
  7 "Plane017"  -1
end
skeleton
time 0
  0 3.228287 -5.296644 27.901205 1.343904 -0.000000 -2.321052
  1 -6.195429 -2.000644 27.798748 1.791664 0.060616 -1.374690
  2 6.361567 -1.468835 22.190447 1.501996 -0.227845 -2.007337
  3 -10.437960 -9.616781 11.258281 1.069667 -0.262074 2.114081
  4 -7.877911 -2.544303 12.156503 -1.408425 3.018468 -0.519491
  5 10.339831 -8.053020 23.273861 -1.235852 -3.128532 -1.453081
  6 1.206663 -3.222664 24.605263 -1.432483 3.015100 0.613451
  7 2.102287 -2.383511 21.950592 1.451308 -0.288115 -0.343502
end
triangles
pg_grass_v2.psd
  0 10.601195 9.153185 -0.370977 -0.693008 0.645935 0.320167 0.264724 0.799072 1 0 1.000000
  0 -10.668093 -13.666107 -0.370977 -0.693008 0.645935 0.320167 0.453542 0.799072 1 0 1.000000
  0 -4.144621 -19.746473 56.173386 -0.693008 0.645935 0.320167 0.453542 0.987890 1 0 1.000000
pg_grass_v2.psd
  0 -4.144621 -19.746473 56.173386 -0.693008 0.645935 0.320167 0.453542 0.987890 1 0 1.000000
  0 17.124666 3.072819 56.173386 -0.693008 0.645935 0.320167 0.264724 0.987890 1 0 1.000000
  0 10.601195 9.153185 -0.370977 -0.693008 0.645935 0.320167 0.264724 0.799072 1 0 1.000000
pg_grass_v2.psd
  0 -15.536604 -2.472903 -0.370975 -0.030441 -0.945997 0.173081 0.264724 0.799072 1 0 1.000000
  0 15.657986 -2.472906 -0.370974 -0.030441 -0.945997 0.173081 0.453542 0.799072 1 0 1.000000
  0 15.657984 6.444857 56.173389 -0.030441 -0.945997 0.173081 0.453542 0.987890 1 0 1.000000
pg_grass_v2.psd
  0 15.657984 6.444857 56.173389 -0.030441 -0.945997 0.173081 0.453542 0.987890 1 0 1.000000
  0 -15.536606 6.444861 56.173386 -0.030441 -0.945997 0.173081 0.264724 0.987890 1 0 1.000000
  0 -15.536604 -2.472903 -0.370975 -0.030441 -0.945997 0.173081 0.264724 0.799072 1 0 1.000000
pg_grass_v2.psd
  0 9.103030 -15.053592 -0.370975 0.782244 0.573505 0.214445 0.264724 0.799072 1 0 1.000000
  0 -8.770700 10.512650 -0.370979 0.782244 0.573505 0.214445 0.453542 0.799072 1 0 1.000000
  0 -16.079454 5.402994 56.173386 0.782244 0.573505 0.214445 0.453542 0.987890 1 0 1.000000
pg_grass_v2.psd
  0 -16.079454 5.402994 56.173386 0.782244 0.573505 0.214445 0.453542 0.987890 1 0 1.000000
  0 1.794276 -20.163248 56.173389 0.782244 0.573505 0.214445 0.264724 0.987890 1 0 1.000000
  0 9.103030 -15.053592 -0.370975 0.782244 0.573505 0.214445 0.264724 0.799072 1 0 1.000000
pg_grass_v2.psd
  1 -9.464818 14.456569 28.817060 -0.959592 -0.177102 -0.218674 0.022634 0.618806 1 1 1.000000
  1 -3.603443 17.357912 0.746210 -0.959592 -0.177102 -0.218674 0.022634 0.466007 1 1 1.000000
  1 -0.334054 0.900701 -0.272102 -0.935816 -0.022820 -0.351749 0.123000 0.466007 1 1 1.000000
pg_grass_v2.psd
  1 -0.334054 0.900701 -0.272102 -0.935816 -0.022820 -0.351749 0.123000 0.466007 1 1 1.000000
  1 -6.195429 -2.000644 27.798748 -0.972778 0.133666 -0.189307 0.123000 0.618806 1 1 1.000000
  1 -9.464818 14.456569 28.817060 -0.959592 -0.177102 -0.218674 0.022634 0.618806 1 1 1.000000
pg_grass_v2.psd
  1 -0.334054 0.900701 -0.272102 -0.935816 -0.022820 -0.351749 0.123000 0.466007 1 1 1.000000
  1 2.935335 -15.556512 -1.290415 -0.753088 -0.109466 -0.648749 0.223367 0.466007 1 1 1.000000
  1 -16.732021 -11.550811 20.864136 -0.890613 0.288102 -0.351861 0.223367 0.618806 1 1 1.000000
pg_grass_v2.psd
  1 -16.732021 -11.550811 20.864136 -0.890613 0.288102 -0.351861 0.223367 0.618806 1 1 1.000000
  1 -6.195429 -2.000644 27.798748 -0.972778 0.133666 -0.189307 0.123000 0.618806 1 1 1.000000
  1 -0.334054 0.900701 -0.272102 -0.935816 -0.022820 -0.351749 0.123000 0.466007 1 1 1.000000
pg_grass_v2.psd
  1 -16.732021 -11.550811 20.864136 -0.890613 0.288102 -0.351861 0.223367 0.618806 1 1 1.000000
  1 -23.846205 -13.206140 48.627979 -0.788029 0.575713 -0.218094 0.223367 0.771605 1 1 1.000000
  1 -12.056804 -4.901989 55.869598 -0.963343 0.157866 -0.216907 0.123000 0.771605 1 1 1.000000
pg_grass_v2.psd
  1 -12.056804 -4.901989 55.869598 -0.963343 0.157866 -0.216907 0.123000 0.771605 1 1 1.000000
  1 -6.195429 -2.000644 27.798748 -0.972778 0.133666 -0.189307 0.123000 0.618806 1 1 1.000000
  1 -16.732021 -11.550811 20.864136 -0.890613 0.288102 -0.351861 0.223367 0.618806 1 1 1.000000
pg_grass_v2.psd
  1 -12.056804 -4.901989 55.869598 -0.963343 0.157866 -0.216907 0.123000 0.771605 1 1 1.000000
  1 -15.326193 11.555224 56.887909 -0.959592 -0.177102 -0.218674 0.022634 0.771605 1 1 1.000000
  1 -9.464818 14.456569 28.817060 -0.959592 -0.177102 -0.218674 0.022634 0.618806 1 1 1.000000
pg_grass_v2.psd
  1 -9.464818 14.456569 28.817060 -0.959592 -0.177102 -0.218674 0.022634 0.618806 1 1 1.000000
  1 -6.195429 -2.000644 27.798748 -0.972778 0.133666 -0.189307 0.123000 0.618806 1 1 1.000000
  1 -12.056804 -4.901989 55.869598 -0.963343 0.157866 -0.216907 0.123000 0.771605 1 1 1.000000
pg_grass_v2.psd
  2 15.239408 13.930657 40.940147 -0.897510 0.435878 0.066969 0.257017 0.699462 1 2 1.000000
  2 8.205847 6.112861 -2.439377 -0.897510 0.435878 0.066969 0.257017 0.486583 1 2 1.000000
  2 4.517286 -9.050530 46.820271 -0.897510 0.435878 0.066969 0.378143 0.699462 1 2 1.000000
pg_grass_v2.psd
  2 -2.516275 -16.868328 3.440746 -0.897510 0.435878 0.066969 0.378143 0.486583 1 2 1.000000
  2 4.517286 -9.050530 46.820271 -0.897510 0.435878 0.066969 0.378143 0.699462 1 2 1.000000
  2 8.205847 6.112861 -2.439377 -0.897510 0.435878 0.066969 0.257017 0.486583 1 2 1.000000
pg_grass_v2.psd
  3 -10.470096 -21.128933 19.919819 0.815104 0.346840 0.464013 0.257017 0.699462 1 3 1.000000
  3 -3.158022 -10.106224 -1.164113 0.815104 0.346840 0.464013 0.257017 0.486583 1 3 1.000000
  3 -17.717897 -9.127338 23.680676 0.815104 0.346840 0.464013 0.378143 0.699462 1 3 1.000000
pg_grass_v2.psd
  3 -10.405824 1.895370 2.596744 0.815104 0.346840 0.464013 0.378143 0.486583 1 3 1.000000
  3 -17.717897 -9.127338 23.680676 0.815104 0.346840 0.464013 0.378143 0.699462 1 3 1.000000
  3 -3.158022 -10.106224 -1.164113 0.815104 0.346840 0.464013 0.257017 0.486583 1 3 1.000000
pg_grass_v2.psd
  4 -1.935729 -3.624978 25.236088 0.507144 0.846798 -0.160435 0.257017 0.699462 1 4 1.000000
  4 -1.314594 -8.615355 0.859684 0.507144 0.846798 -0.160435 0.257017 0.486583 1 4 1.000000
  4 -14.441227 3.526749 23.453321 0.507144 0.846798 -0.160435 0.378143 0.699462 1 4 1.000000
pg_grass_v2.psd
  4 -13.820092 -1.463628 -0.923082 0.507144 0.846798 -0.160435 0.378143 0.486583 1 4 1.000000
  4 -14.441227 3.526749 23.453321 0.507144 0.846798 -0.160435 0.378143 0.699462 1 4 1.000000
  4 -1.314594 -8.615355 0.859684 0.507144 0.846798 -0.160435 0.257017 0.486583 1 4 1.000000
pg_grass_v2.psd
  5 3.763504 -26.185677 23.657213 0.989781 -0.090386 -0.110293 0.022634 0.618806 1 5 1.000000
  5 2.863184 -25.504614 -4.164318 0.992610 0.117773 -0.029238 0.022634 0.466007 1 5 1.000000
  5 0.889153 -8.812680 -3.944773 0.942376 -0.022320 -0.333811 0.123000 0.466007 1 5 1.000000
pg_grass_v2.psd
  5 0.889153 -8.812680 -3.944773 0.942376 -0.022320 -0.333811 0.123000 0.466007 1 5 1.000000
  5 9.507539 -8.193260 23.332546 0.940468 -0.170794 -0.293851 0.120444 0.613141 1 5 1.000000
  5 3.763504 -26.185677 23.657213 0.989781 -0.090386 -0.110293 0.022634 0.618806 1 5 1.000000
pg_grass_v2.psd
  5 0.889153 -8.812680 -3.944773 0.942376 -0.022320 -0.333811 0.123000 0.466007 1 5 1.000000
  5 -1.084877 7.879254 -3.725227 0.826497 0.105018 -0.553058 0.223367 0.466007 1 5 1.000000
  5 15.765718 0.725760 20.098160 0.885664 -0.201757 -0.418203 0.223367 0.618806 1 5 1.000000
pg_grass_v2.psd
  5 15.765718 0.725760 20.098160 0.885664 -0.201757 -0.418203 0.223367 0.618806 1 5 1.000000
  5 9.507539 -8.193260 23.332546 0.940468 -0.170794 -0.293851 0.120444 0.613141 1 5 1.000000
  5 0.889153 -8.812680 -3.944773 0.942376 -0.022320 -0.333811 0.123000 0.466007 1 5 1.000000
pg_grass_v2.psd
  5 15.765718 0.725760 20.098160 0.885664 -0.201757 -0.418203 0.223367 0.618806 1 5 1.000000
  5 29.259495 -0.688169 46.136147 0.648315 -0.603412 -0.464309 0.223367 0.771605 1 5 1.000000
  5 18.125923 -7.573841 50.609863 0.894230 -0.332156 -0.300042 0.123000 0.771605 1 5 1.000000
pg_grass_v2.psd
  5 18.125923 -7.573841 50.609863 0.894230 -0.332156 -0.300042 0.123000 0.771605 1 5 1.000000
  5 9.507539 -8.193260 23.332546 0.940468 -0.170794 -0.293851 0.120444 0.613141 1 5 1.000000
  5 15.765718 0.725760 20.098160 0.885664 -0.201757 -0.418203 0.223367 0.618806 1 5 1.000000
pg_grass_v2.psd
  5 18.125923 -7.573841 50.609863 0.894230 -0.332156 -0.300042 0.123000 0.771605 1 5 1.000000
  5 2.041014 -27.308683 51.663685 0.957159 -0.287233 0.036655 0.022634 0.771605 1 5 1.000000
  5 3.763504 -26.185677 23.657213 0.989781 -0.090386 -0.110293 0.022634 0.618806 1 5 1.000000
pg_grass_v2.psd
  5 3.763504 -26.185677 23.657213 0.989781 -0.090386 -0.110293 0.022634 0.618806 1 5 1.000000
  5 9.507539 -8.193260 23.332546 0.940468 -0.170794 -0.293851 0.120444 0.613141 1 5 1.000000
  5 18.125923 -7.573841 50.609863 0.894230 -0.332156 -0.300042 0.123000 0.771605 1 5 1.000000
pg_grass_v2.psd
  6 14.841566 6.377229 26.725904 -0.555972 0.819871 -0.136772 0.022634 0.618806 1 6 1.000000
  6 20.074057 5.201242 -1.593424 -0.555972 0.819871 -0.136772 0.022634 0.466007 1 6 1.000000
  6 6.439154 -4.398652 -3.714066 -0.404821 0.875520 -0.263789 0.123000 0.466007 1 6 1.000000
pg_grass_v2.psd
  6 6.439154 -4.398652 -3.714066 -0.404821 0.875520 -0.263789 0.123000 0.466007 1 6 1.000000
  6 1.206663 -3.222664 24.605263 -0.278526 0.956092 -0.091165 0.123000 0.618806 1 6 1.000000
  6 14.841566 6.377229 26.725904 -0.555972 0.819871 -0.136772 0.022634 0.618806 1 6 1.000000
pg_grass_v2.psd
  6 6.439154 -4.398652 -3.714066 -0.404821 0.875520 -0.263789 0.123000 0.466007 1 6 1.000000
  6 -7.195749 -13.998545 -5.834707 -0.406529 0.705610 -0.580387 0.223367 0.466007 1 6 1.000000
  6 -11.798061 3.138721 18.223713 -0.102959 0.961991 -0.252927 0.223367 0.618806 1 6 1.000000
pg_grass_v2.psd
  6 -11.798061 3.138721 18.223713 -0.102959 0.961991 -0.252927 0.223367 0.618806 1 6 1.000000
  6 1.206663 -3.222664 24.605263 -0.278526 0.956092 -0.091165 0.123000 0.618806 1 6 1.000000
  6 6.439154 -4.398652 -3.714066 -0.404821 0.875520 -0.263789 0.123000 0.466007 1 6 1.000000
pg_grass_v2.psd
  6 -11.798061 3.138721 18.223713 -0.102959 0.961991 -0.252927 0.223367 0.618806 1 6 1.000000
  6 -16.410723 5.992746 46.415215 0.200533 0.972866 -0.115408 0.223367 0.771605 1 6 1.000000
  6 -4.025829 -2.046677 52.924591 -0.252422 0.960357 -0.118309 0.123000 0.771605 1 6 1.000000
pg_grass_v2.psd
  6 -4.025829 -2.046677 52.924591 -0.252422 0.960357 -0.118309 0.123000 0.771605 1 6 1.000000
  6 1.206663 -3.222664 24.605263 -0.278526 0.956092 -0.091165 0.123000 0.618806 1 6 1.000000
  6 -11.798061 3.138721 18.223713 -0.102959 0.961991 -0.252927 0.223367 0.618806 1 6 1.000000
pg_grass_v2.psd
  6 -4.025829 -2.046677 52.924591 -0.252422 0.960357 -0.118309 0.123000 0.771605 1 6 1.000000
  6 9.609074 7.553216 55.045235 -0.555972 0.819871 -0.136772 0.022634 0.771605 1 6 1.000000
  6 14.841566 6.377229 26.725904 -0.555972 0.819871 -0.136772 0.022634 0.618806 1 6 1.000000
pg_grass_v2.psd
  6 14.841566 6.377229 26.725904 -0.555972 0.819871 -0.136772 0.022634 0.618806 1 6 1.000000
  6 1.206663 -3.222664 24.605263 -0.278526 0.956092 -0.091165 0.123000 0.618806 1 6 1.000000
  6 -4.025829 -2.046677 52.924591 -0.252422 0.960357 -0.118309 0.123000 0.771605 1 6 1.000000
pg_grass_v2.psd
  7 -14.680776 6.444950 39.497639 -0.366277 -0.923460 0.114291 0.257017 0.699462 1 7 1.000000
  7 -4.615741 -2.806067 -2.993370 -0.366277 -0.923460 0.114291 0.257017 0.486583 1 7 1.000000
  7 8.820314 -1.960954 46.894554 -0.366277 -0.923460 0.114291 0.378143 0.699462 1 7 1.000000
pg_grass_v2.psd
  7 18.885349 -11.211971 4.403545 -0.366277 -0.923460 0.114291 0.378143 0.486583 1 7 1.000000
  7 8.820314 -1.960954 46.894554 -0.366277 -0.923460 0.114291 0.378143 0.699462 1 7 1.000000
  7 -4.615741 -2.806067 -2.993370 -0.366277 -0.923460 0.114291 0.257017 0.486583 1 7 1.000000
end
