﻿//Sequence File generated by the Wall Worm SMD Exporter 1.52
//www.wallworm.com
version 1
nodes
0 "Plane002" -1
1 "Plane003" -1
2 "Plane001" -1
end
skeleton
time 0
0 12.116129 -6.576327 -0.356692 0.153736 0.040622 -2.284962
1 -10.623142 -6.374388 -0.356692 0.284269 0.035611 2.194554
2 2.595857 11.405917 -0.356692 0.364625 0.046024 0.012488
time 1
0 12.116130 -6.576326 -0.356692 0.290450 0.029780 -2.283038
1 -10.623143 -6.374388 -0.356692 0.394877 0.025771 2.195803
2 2.595857 11.405918 -0.356692 0.459162 0.034102 0.014051
time 2
0 12.116130 -6.576328 -0.356692 0.427164 0.018938 -2.281114
1 -10.623142 -6.374389 -0.356692 0.505484 0.015931 2.197054
2 2.595857 11.405918 -0.356692 0.553698 0.022179 0.015614
time 3
0 12.116129 -6.576326 -0.356692 0.563878 0.008096 -2.279190
1 -10.623142 -6.374388 -0.356692 0.616091 0.006091 2.198304
2 2.595857 11.405917 -0.356692 0.648234 0.010257 0.017177
time 4
0 12.116129 -6.576327 -0.356692 0.700592 -0.002746 -2.277266
1 -10.623142 -6.374388 -0.356692 0.726699 -0.003748 2.199555
2 2.595857 11.405918 -0.356692 0.742770 -0.001666 0.018740
time 5
0 12.116129 -6.576327 -0.356692 0.837306 -0.013588 -2.275342
1 -10.623142 -6.374388 -0.356692 0.837306 -0.013588 2.200805
2 2.595857 11.405917 -0.356692 0.837306 -0.013588 0.020303
end
