﻿//Sequence File generated by the Wall Worm SMD Exporter 1.52
//www.wallworm.com
version 1
nodes
0 "Plane002" -1
1 "Plane003" -1
2 "Plane001" -1
end
skeleton
time 0
0 12.116129 -6.576327 -0.356692 0.153736 0.040622 -2.284962
1 -10.623142 -6.374388 -0.356692 0.284269 0.035611 2.194554
2 2.595857 11.405917 -0.356692 0.364625 0.046024 0.012488
end
