﻿//Sequence File generated by the Wall Worm SMD Exporter 1.52
//www.wallworm.com
version 1
nodes
0 "Plane005" -1
1 "Plane006" -1
2 "Plane008" -1
3 "Plane009" -1
4 "Plane004" -1
end
skeleton
time 0
0 1.052559 -1.299936 -0.356692 0.868671 0.016746 2.372975
1 1.052559 -1.299936 -0.356692 0.974673 0.002768 -0.019033
2 -3.128792 -2.496841 -0.356692 1.558354 -0.014897 1.476766
3 -5.399358 -0.180221 -0.356692 1.454983 0.169565 -0.473360
4 1.052559 -1.299936 -0.356692 0.837306 -0.013588 -2.275342
time 1
0 1.052559 -1.299936 -0.356692 0.772212 0.021786 2.370089
1 1.052559 -1.299936 -0.356692 0.771165 0.007176 -0.022109
2 -3.128791 -2.496841 -0.356692 1.767454 -0.051128 1.408210
3 -5.399358 -0.180221 -0.356692 1.240000 0.108266 -0.339955
4 1.052559 -1.299936 -0.356692 0.695646 -0.009032 -2.260785
time 2
0 1.052559 -1.299936 -0.356692 0.675753 0.026826 2.367202
1 1.052559 -1.299936 -0.356692 0.567657 0.011583 -0.025185
2 -3.128792 -2.496842 -0.356692 1.976555 -0.087359 1.339653
3 -5.399359 -0.180221 -0.356692 1.025016 0.046968 -0.206549
4 1.052559 -1.299936 -0.356692 0.553985 -0.004475 -2.246228
time 3
0 1.052559 -1.299936 -0.356692 0.579295 0.031865 2.364316
1 1.052559 -1.299936 -0.356692 0.364148 0.015991 -0.028260
2 -3.128792 -2.496841 -0.356692 2.185654 -0.123590 1.271097
3 -5.399358 -0.180221 -0.356692 0.810033 -0.014331 -0.073142
4 1.052559 -1.299936 -0.356692 0.412324 0.000082 -2.231670
time 4
0 1.052559 -1.299936 -0.356692 0.482836 0.036905 2.361429
1 1.052559 -1.299936 -0.356692 0.160640 0.020399 -0.031336
2 -3.128792 -2.496842 -0.356692 2.394754 -0.159820 1.202541
3 -5.399359 -0.180221 -0.356692 0.595049 -0.075629 0.060265
4 1.052559 -1.299936 -0.356692 0.270663 0.004639 -2.217113
time 5
0 1.052559 -1.299936 -0.356692 0.386377 0.041945 2.358543
1 1.052559 -1.299936 -0.356692 -0.042868 0.024807 -0.034413
2 -3.128792 -2.496841 -0.356692 2.603854 -0.196051 1.133984
3 -5.399358 -0.180221 -0.356692 0.380066 -0.136928 0.193671
4 1.052559 -1.299936 -0.356692 0.129003 0.009196 -2.202556
end
