"vertexlitgeneric"
{
	"$baseTexture" "models\PG_props\pg_obj/pg_box01_heal"
	"$bumpmap" "models\PG_props\pg_obj/pg_box01_bump"
	"$normalmapalphaenvmapmask" "1"
	"$model" "1"

	"$phong"     "1"
	"$phongexponent"  "10"
	"$phongboost"   "0.5"
	"$phongfresnelranges"   "[1 9 3]"
	"$phongalbedotint" "1"
	"$halflambert" "1"


}
