
VertexLitGeneric
{
$baseTexture "models/props/floor/metal_flashing/metal_flashing_256.vtf"
$model 1
$blendtintbybasealpha 1
$bumpmap "dev/flat_normal"

$phong 1
$phongboost ".5"
$phongexponent 5

$phongfresnelranges "[1 3 10]"
}