"UnlitGeneric"
{
	"$basetexture" "vgui\rebels\units\unit_rebel_scout"
	"$translucent" "1"
	"$ignorez"     "1"
	"$vertexalpha" "1"
	"$no_fullbright" "1"
	
	"$teamcolormap" "vgui\rebels\units\unit_rebel_scout_color"
	"Proxies"
	{
		"UITeamColor"
		{
		}
	}
}
    