
VertexLitGeneric
{
$baseTexture "models/props/floor/panels/panel_01.vtf"
$model 1
$blendtintbybasealpha 1
$bumpmap "dev/flat_normal"

$phong 1
$phongboost 1
$phongexponent 8

$phongfresnelranges "[1 3 10]"




}