versioninfo
{
	"editorversion" "400"
	"editorbuild" "8456"
	"mapversion" "121"
	"formatversion" "100"
	"prefab" "0"
}
visgroups
{
}
viewsettings
{
	"bSnapToGrid" "1"
	"bShowGrid" "1"
	"bShowLogicalGrid" "0"
	"nGridSpacing" "4"
	"bShow3DGrid" "0"
}
world
{
	"id" "1"
	"mapversion" "121"
	"classname" "worldspawn"
	"detailmaterial" "detail/detailsprites"
	"detailvbsp" "detail.vbsp"
	"maxpropscreenwidth" "-1"
	"skyname" "sky_day01_01"
	solid
	{
		"id" "803"
		side
		{
			"id" "990"
			"plane" "(16 -16 128) (0 0 128) (0 768 128)"
			"material" "TOOLS/TOOLSBLACK"
			"uaxis" "[1 0 0 0] 0.25"
			"vaxis" "[0 -1 0 0] 0.25"
			"rotation" "0"
			"lightmapscale" "16"
			"smoothing_groups" "0"
		}
		side
		{
			"id" "991"
			"plane" "(16 784 0) (0 768 0) (0 0 0)"
			"material" "DEV/REFLECTIVITY_10"
			"uaxis" "[1 0 0 0] 0.25"
			"vaxis" "[0 -1 0 0] 0.25"
			"rotation" "0"
			"lightmapscale" "16"
			"smoothing_groups" "0"
		}
		side
		{
			"id" "992"
			"plane" "(0 0 0) (0 768 0) (0 768 128)"
			"material" "PLASTER/PLASTERWALL029A"
			"uaxis" "[0 1 0 0] 0.25"
			"vaxis" "[0 0 -1 0] 0.25"
			"rotation" "0"
			"lightmapscale" "16"
			"smoothing_groups" "0"
		}
		side
		{
			"id" "993"
			"plane" "(16 -16 128) (16 784 128) (16 784 0)"
			"material" "PLASTER/PLASTERWALL050D"
			"uaxis" "[0 1 0 504] 0.31"
			"vaxis" "[0 0 -1 410] 0.31"
			"rotation" "0"
			"lightmapscale" "16"
			"smoothing_groups" "0"
		}
		side
		{
			"id" "994"
			"plane" "(0 768 0) (16 784 0) (16 784 128)"
			"material" "DEV/REFLECTIVITY_10"
			"uaxis" "[1 0 0 0] 0.25"
			"vaxis" "[0 0 -1 0] 0.25"
			"rotation" "0"
			"lightmapscale" "16"
			"smoothing_groups" "0"
		}
		side
		{
			"id" "995"
			"plane" "(0 0 128) (16 -16 128) (16 -16 0)"
			"material" "DEV/REFLECTIVITY_10"
			"uaxis" "[1 0 0 0] 0.25"
			"vaxis" "[0 0 -1 0] 0.25"
			"rotation" "0"
			"lightmapscale" "16"
			"smoothing_groups" "0"
		}
		editor
		{
			"color" "0 106 119"
			"visgroupshown" "1"
			"visgroupautoshown" "1"
		}
	}
	solid
	{
		"id" "810"
		side
		{
			"id" "1008"
			"plane" "(-1024 896 128) (-1024 576 128) (-1040 560 128)"
			"material" "TOOLS/TOOLSBLACK"
			"uaxis" "[1 0 0 0] 0.25"
			"vaxis" "[0 -1 0 0] 0.25"
			"rotation" "0"
			"lightmapscale" "16"
			"smoothing_groups" "0"
		}
		side
		{
			"id" "1009"
			"plane" "(-1024 576 0) (-1024 896 0) (-1040 912 0)"
			"material" "DEV/REFLECTIVITY_10"
			"uaxis" "[1 0 0 0] 0.25"
			"vaxis" "[0 -1 0 0] 0.25"
			"rotation" "0"
			"lightmapscale" "16"
			"smoothing_groups" "0"
		}
		side
		{
			"id" "1010"
			"plane" "(-1040 912 128) (-1040 560 128) (-1040 560 0)"
			"material" "PLASTER/PLASTERWALL050D"
			"uaxis" "[0 1 0 504] 0.31"
			"vaxis" "[0 0 -1 410] 0.31"
			"rotation" "0"
			"lightmapscale" "16"
			"smoothing_groups" "0"
		}
		side
		{
			"id" "1011"
			"plane" "(-1024 576 128) (-1024 896 128) (-1024 896 0)"
			"material" "PLASTER/PLASTERWALL029A"
			"uaxis" "[0 1 0 0] 0.25"
			"vaxis" "[0 0 -1 0] 0.25"
			"rotation" "0"
			"lightmapscale" "16"
			"smoothing_groups" "0"
		}
		side
		{
			"id" "1012"
			"plane" "(-1024 896 128) (-1040 912 128) (-1040 912 0)"
			"material" "DEV/REFLECTIVITY_10"
			"uaxis" "[1 0 0 0] 0.25"
			"vaxis" "[0 0 -1 0] 0.25"
			"rotation" "0"
			"lightmapscale" "16"
			"smoothing_groups" "0"
		}
		side
		{
			"id" "1013"
			"plane" "(-1040 560 128) (-1024 576 128) (-1024 576 0)"
			"material" "DEV/REFLECTIVITY_10"
			"uaxis" "[1 0 0 0] 0.25"
			"vaxis" "[0 0 -1 0] 0.25"
			"rotation" "0"
			"lightmapscale" "16"
			"smoothing_groups" "0"
		}
		editor
		{
			"color" "0 164 245"
			"visgroupshown" "1"
			"visgroupautoshown" "1"
		}
	}
	solid
	{
		"id" "964"
		side
		{
			"id" "1037"
			"plane" "(-1040 560 0) (-1040 912 0) (16 784 0)"
			"material" "WOOD/WOODFLOOR005A"
			"uaxis" "[1 0 0 0] 0.25"
			"vaxis" "[0 -1 0 0] 0.25"
			"rotation" "0"
			"lightmapscale" "16"
			"smoothing_groups" "0"
		}
		side
		{
			"id" "1036"
			"plane" "(-1040 912 -32) (-1040 560 -32) (16 428 -32)"
			"material" "TOOLS/TOOLSNODRAW"
			"uaxis" "[1 0 0 0] 0.25"
			"vaxis" "[0 -1 0 0] 0.25"
			"rotation" "0"
			"lightmapscale" "16"
			"smoothing_groups" "0"
		}
		side
		{
			"id" "1035"
			"plane" "(-1040 560 -32) (-1040 912 -32) (-1040 912 0)"
			"material" "PLASTER/PLASTERWALL050D"
			"uaxis" "[0 1 0 504] 0.31"
			"vaxis" "[0 0 -1 410] 0.31"
			"rotation" "0"
			"lightmapscale" "16"
			"smoothing_groups" "0"
		}
		side
		{
			"id" "1034"
			"plane" "(-1040 912 -32) (16 784 -32) (16 784 0)"
			"material" "PLASTER/PLASTERWALL050D"
			"uaxis" "[1 0 0 504] 0.31"
			"vaxis" "[0 0 -1 410] 0.31"
			"rotation" "0"
			"lightmapscale" "16"
			"smoothing_groups" "0"
		}
		side
		{
			"id" "1033"
			"plane" "(16 428 -32) (-1040 560 -32) (-1040 560 0)"
			"material" "PLASTER/PLASTERWALL050D"
			"uaxis" "[1 0 0 504] 0.31"
			"vaxis" "[0 0 -1 410] 0.31"
			"rotation" "0"
			"lightmapscale" "16"
			"smoothing_groups" "0"
		}
		side
		{
			"id" "1032"
			"plane" "(16 784 -32) (16 428 -32) (16 428 0)"
			"material" "PLASTER/PLASTERWALL050D"
			"uaxis" "[0 1 0 504] 0.31"
			"vaxis" "[0 0 -1 410] 0.31"
			"rotation" "0"
			"lightmapscale" "16"
			"smoothing_groups" "0"
		}
		editor
		{
			"color" "0 218 103"
			"visgroupshown" "1"
			"visgroupautoshown" "1"
		}
	}
	solid
	{
		"id" "990"
		side
		{
			"id" "1043"
			"plane" "(-336 -16 0) (-336 472 0) (16 428 0)"
			"material" "WOOD/WOODFLOOR005A"
			"uaxis" "[0 1 0 0] 0.25"
			"vaxis" "[1 0 0 0] 0.25"
			"rotation" "90"
			"lightmapscale" "16"
			"smoothing_groups" "0"
		}
		side
		{
			"id" "1042"
			"plane" "(-336 472 -32) (-336 -16 -32) (16 -16 -32)"
			"material" "TOOLS/TOOLSNODRAW"
			"uaxis" "[0 1 0 0] 0.25"
			"vaxis" "[1 0 0 0] 0.25"
			"rotation" "90"
			"lightmapscale" "16"
			"smoothing_groups" "0"
		}
		side
		{
			"id" "1041"
			"plane" "(-336 -16 -32) (-336 472 -32) (-336 472 0)"
			"material" "PLASTER/PLASTERWALL050D"
			"uaxis" "[0 1 0 504] 0.31"
			"vaxis" "[0 0 -1 410] 0.31"
			"rotation" "0"
			"lightmapscale" "16"
			"smoothing_groups" "0"
		}
		side
		{
			"id" "1040"
			"plane" "(16 428 -32) (16 -16 -32) (16 -16 0)"
			"material" "PLASTER/PLASTERWALL050D"
			"uaxis" "[0 1 0 504] 0.31"
			"vaxis" "[0 0 -1 410] 0.31"
			"rotation" "0"
			"lightmapscale" "16"
			"smoothing_groups" "0"
		}
		side
		{
			"id" "1039"
			"plane" "(16 -16 -32) (-336 -16 -32) (-336 -16 0)"
			"material" "PLASTER/PLASTERWALL050D"
			"uaxis" "[1 0 0 504] 0.31"
			"vaxis" "[0 0 -1 410] 0.31"
			"rotation" "0"
			"lightmapscale" "16"
			"smoothing_groups" "0"
		}
		side
		{
			"id" "1038"
			"plane" "(-336 472 -32) (16 428 -32) (16 428 0)"
			"material" "DEV/REFLECTIVITY_10"
			"uaxis" "[0 0 1 0] 0.25"
			"vaxis" "[1 0 0 0] 0.25"
			"rotation" "90"
			"lightmapscale" "16"
			"smoothing_groups" "0"
		}
		editor
		{
			"color" "0 100 149"
			"visgroupshown" "1"
			"visgroupautoshown" "1"
		}
	}
	solid
	{
		"id" "993"
		side
		{
			"id" "1067"
			"plane" "(1.52588e-05 1.06738e-05 144) (-320 1.06738e-05 144) (-320 768 144)"
			"material" "TOOLS/TOOLSBLOCKLIGHT"
			"uaxis" "[1 0 0 0] 2"
			"vaxis" "[0 -1 0 0] 2"
			"rotation" "0"
			"lightmapscale" "16"
			"smoothing_groups" "0"
		}
		side
		{
			"id" "1066"
			"plane" "(1.52588e-05 768 128) (-320 768 128) (-320 1.06738e-05 128)"
			"material" "TOOLS/TOOLSBLOCKLIGHT"
			"uaxis" "[1 0 0 0] 2"
			"vaxis" "[0 -1 0 0] 2"
			"rotation" "0"
			"lightmapscale" "16"
			"smoothing_groups" "0"
		}
		side
		{
			"id" "1065"
			"plane" "(-320 768 128) (1.52588e-05 768 128) (1.52588e-05 768 144)"
			"material" "TOOLS/TOOLSBLOCKLIGHT"
			"uaxis" "[1 0 0 0] 2"
			"vaxis" "[0 0 -1 8] 2"
			"rotation" "0"
			"lightmapscale" "16"
			"smoothing_groups" "0"
		}
		side
		{
			"id" "1064"
			"plane" "(1.52588e-05 1.06738e-05 128) (-320 1.06738e-05 128) (-320 1.06738e-05 144)"
			"material" "TOOLS/TOOLSBLOCKLIGHT"
			"uaxis" "[1 0 0 0] 2"
			"vaxis" "[0 0 -1 8] 2"
			"rotation" "0"
			"lightmapscale" "16"
			"smoothing_groups" "0"
		}
		side
		{
			"id" "1063"
			"plane" "(1.52588e-05 768 128) (1.52588e-05 1.06738e-05 128) (1.52588e-05 1.06738e-05 144)"
			"material" "TOOLS/TOOLSBLOCKLIGHT"
			"uaxis" "[0 1 0 0] 2"
			"vaxis" "[0 0 -1 8] 2"
			"rotation" "0"
			"lightmapscale" "16"
			"smoothing_groups" "0"
		}
		side
		{
			"id" "1062"
			"plane" "(-320 1.06738e-05 128) (-320 768 128) (-320 768 144)"
			"material" "TOOLS/TOOLSBLOCKLIGHT"
			"uaxis" "[0 1 0 0] 2"
			"vaxis" "[0 0 -1 8] 2"
			"rotation" "0"
			"lightmapscale" "16"
			"smoothing_groups" "0"
		}
		editor
		{
			"color" "139 132 0"
			"groupid" "992"
			"visgroupshown" "1"
			"visgroupautoshown" "1"
		}
	}
	solid
	{
		"id" "994"
		side
		{
			"id" "1073"
			"plane" "(1.52588e-05 1.06738e-05 136) (-320 1.06738e-05 136) (-320 768 136)"
			"material" "TOOLS/TOOLSBLOCK_LOS"
			"uaxis" "[1 0 0 0] 2"
			"vaxis" "[0 -1 0 0] 2"
			"rotation" "0"
			"lightmapscale" "16"
			"smoothing_groups" "0"
		}
		side
		{
			"id" "1072"
			"plane" "(1.52588e-05 768 128) (-320 768 128) (-320 1.06738e-05 128)"
			"material" "TOOLS/TOOLSBLOCK_LOS"
			"uaxis" "[1 0 0 0] 2"
			"vaxis" "[0 -1 0 0] 2"
			"rotation" "0"
			"lightmapscale" "16"
			"smoothing_groups" "0"
		}
		side
		{
			"id" "1071"
			"plane" "(-320 768 128) (1.52588e-05 768 128) (1.52588e-05 768 136)"
			"material" "TOOLS/TOOLSBLOCK_LOS"
			"uaxis" "[1 0 0 0] 2"
			"vaxis" "[0 0 -1 8] 2"
			"rotation" "0"
			"lightmapscale" "16"
			"smoothing_groups" "0"
		}
		side
		{
			"id" "1070"
			"plane" "(1.52588e-05 1.06738e-05 128) (-320 1.06738e-05 128) (-320 1.06738e-05 136)"
			"material" "TOOLS/TOOLSBLOCK_LOS"
			"uaxis" "[1 0 0 0] 2"
			"vaxis" "[0 0 -1 8] 2"
			"rotation" "0"
			"lightmapscale" "16"
			"smoothing_groups" "0"
		}
		side
		{
			"id" "1069"
			"plane" "(1.52588e-05 768 128) (1.52588e-05 1.06738e-05 128) (1.52588e-05 1.06738e-05 136)"
			"material" "TOOLS/TOOLSBLOCK_LOS"
			"uaxis" "[0 1 0 0] 2"
			"vaxis" "[0 0 -1 8] 2"
			"rotation" "0"
			"lightmapscale" "16"
			"smoothing_groups" "0"
		}
		side
		{
			"id" "1068"
			"plane" "(-320 1.06738e-05 128) (-320 768 128) (-320 768 136)"
			"material" "TOOLS/TOOLSBLOCK_LOS"
			"uaxis" "[0 1 0 0] 2"
			"vaxis" "[0 0 -1 8] 2"
			"rotation" "0"
			"lightmapscale" "16"
			"smoothing_groups" "0"
		}
		editor
		{
			"color" "139 132 0"
			"groupid" "992"
			"visgroupshown" "1"
			"visgroupautoshown" "1"
		}
	}
	solid
	{
		"id" "995"
		side
		{
			"id" "1079"
			"plane" "(1.52588e-05 1.06738e-05 132) (-320 1.06738e-05 132) (-320 768 132)"
			"material" "TOOLS/TOOLSNPCCLIP"
			"uaxis" "[1 0 0 0] 2"
			"vaxis" "[0 -1 0 0] 2"
			"rotation" "0"
			"lightmapscale" "16"
			"smoothing_groups" "0"
		}
		side
		{
			"id" "1078"
			"plane" "(1.52588e-05 768 128) (-320 768 128) (-320 1.06738e-05 128)"
			"material" "TOOLS/TOOLSNPCCLIP"
			"uaxis" "[1 0 0 0] 2"
			"vaxis" "[0 -1 0 0] 2"
			"rotation" "0"
			"lightmapscale" "16"
			"smoothing_groups" "0"
		}
		side
		{
			"id" "1077"
			"plane" "(-320 768 128) (1.52588e-05 768 128) (1.52588e-05 768 132)"
			"material" "TOOLS/TOOLSNPCCLIP"
			"uaxis" "[1 0 0 0] 2"
			"vaxis" "[0 0 -1 8] 2"
			"rotation" "0"
			"lightmapscale" "16"
			"smoothing_groups" "0"
		}
		side
		{
			"id" "1076"
			"plane" "(1.52588e-05 1.06738e-05 128) (-320 1.06738e-05 128) (-320 1.06738e-05 132)"
			"material" "TOOLS/TOOLSNPCCLIP"
			"uaxis" "[1 0 0 0] 2"
			"vaxis" "[0 0 -1 8] 2"
			"rotation" "0"
			"lightmapscale" "16"
			"smoothing_groups" "0"
		}
		side
		{
			"id" "1075"
			"plane" "(1.52588e-05 768 128) (1.52588e-05 1.06738e-05 128) (1.52588e-05 1.06738e-05 132)"
			"material" "TOOLS/TOOLSNPCCLIP"
			"uaxis" "[0 1 0 0] 2"
			"vaxis" "[0 0 -1 8] 2"
			"rotation" "0"
			"lightmapscale" "16"
			"smoothing_groups" "0"
		}
		side
		{
			"id" "1074"
			"plane" "(-320 1.06738e-05 128) (-320 768 128) (-320 768 132)"
			"material" "TOOLS/TOOLSNPCCLIP"
			"uaxis" "[0 1 0 0] 2"
			"vaxis" "[0 0 -1 8] 2"
			"rotation" "0"
			"lightmapscale" "16"
			"smoothing_groups" "0"
		}
		editor
		{
			"color" "139 132 0"
			"groupid" "992"
			"visgroupshown" "1"
			"visgroupautoshown" "1"
		}
	}
	solid
	{
		"id" "1714"
		side
		{
			"id" "1193"
			"plane" "(0 448 144) (-1024 576 144) (-1024 896 144)"
			"material" "TOOLS/TOOLSBLOCKLIGHT"
			"uaxis" "[1 0 0 0] 2"
			"vaxis" "[0 -1 0 0] 2"
			"rotation" "0"
			"lightmapscale" "16"
			"smoothing_groups" "0"
		}
		side
		{
			"id" "1192"
			"plane" "(-1024 896 128) (-1024 576 128) (0 448 128)"
			"material" "TOOLS/TOOLSBLOCKLIGHT"
			"uaxis" "[1 0 0 0] 2"
			"vaxis" "[0 -1 0 0] 2"
			"rotation" "0"
			"lightmapscale" "16"
			"smoothing_groups" "0"
		}
		side
		{
			"id" "1191"
			"plane" "(-1024 576 128) (-1024 896 128) (-1024 896 144)"
			"material" "TOOLS/TOOLSBLOCKLIGHT"
			"uaxis" "[0 1 0 0] 2"
			"vaxis" "[0 0 -1 8] 2"
			"rotation" "0"
			"lightmapscale" "16"
			"smoothing_groups" "0"
		}
		side
		{
			"id" "1190"
			"plane" "(0 448 128) (-1024 576 128) (-1024 576 144)"
			"material" "TOOLS/TOOLSBLOCKLIGHT"
			"uaxis" "[1 0 0 0] 0.25"
			"vaxis" "[0 0 -1 0] 0.25"
			"rotation" "0"
			"lightmapscale" "16"
			"smoothing_groups" "0"
		}
		side
		{
			"id" "1189"
			"plane" "(0 768 128) (0 448 128) (0 448 144)"
			"material" "TOOLS/TOOLSBLOCKLIGHT"
			"uaxis" "[0 1 0 0] 0.25"
			"vaxis" "[0 0 -1 0] 0.25"
			"rotation" "0"
			"lightmapscale" "16"
			"smoothing_groups" "0"
		}
		side
		{
			"id" "1188"
			"plane" "(-1024 896 128) (-0 768 128) (0 768 144)"
			"material" "TOOLS/TOOLSBLOCKLIGHT"
			"uaxis" "[1 0 0 0] 0.25"
			"vaxis" "[0 0 -1 0] 0.25"
			"rotation" "0"
			"lightmapscale" "16"
			"smoothing_groups" "0"
		}
		editor
		{
			"color" "139 132 0"
			"groupid" "1007"
			"visgroupshown" "1"
			"visgroupautoshown" "1"
		}
	}
	solid
	{
		"id" "1715"
		side
		{
			"id" "1199"
			"plane" "(0 448 136) (-1024 576 136) (-1024 896 136)"
			"material" "TOOLS/TOOLSBLOCK_LOS"
			"uaxis" "[1 0 0 0] 2"
			"vaxis" "[0 -1 0 0] 2"
			"rotation" "0"
			"lightmapscale" "16"
			"smoothing_groups" "0"
		}
		side
		{
			"id" "1198"
			"plane" "(-1024 896 128) (-1024 576 128) (0 448 128)"
			"material" "TOOLS/TOOLSBLOCK_LOS"
			"uaxis" "[1 0 0 0] 2"
			"vaxis" "[0 -1 0 0] 2"
			"rotation" "0"
			"lightmapscale" "16"
			"smoothing_groups" "0"
		}
		side
		{
			"id" "1197"
			"plane" "(-1024 576 128) (-1024 896 128) (-1024 896 136)"
			"material" "TOOLS/TOOLSBLOCK_LOS"
			"uaxis" "[0 1 0 0] 2"
			"vaxis" "[0 0 -1 8] 2"
			"rotation" "0"
			"lightmapscale" "16"
			"smoothing_groups" "0"
		}
		side
		{
			"id" "1196"
			"plane" "(0 448 128) (-1024 576 128) (-1024 576 136)"
			"material" "TOOLS/TOOLSBLOCK_LOS"
			"uaxis" "[1 0 0 0] 0.25"
			"vaxis" "[0 0 -1 0] 0.25"
			"rotation" "0"
			"lightmapscale" "16"
			"smoothing_groups" "0"
		}
		side
		{
			"id" "1195"
			"plane" "(0 768 128) (0 448 128) (0 448 136)"
			"material" "TOOLS/TOOLSBLOCK_LOS"
			"uaxis" "[0 1 0 0] 0.25"
			"vaxis" "[0 0 -1 0] 0.25"
			"rotation" "0"
			"lightmapscale" "16"
			"smoothing_groups" "0"
		}
		side
		{
			"id" "1194"
			"plane" "(-1024 896 128) (-0 768 128) (0 768 136)"
			"material" "TOOLS/TOOLSBLOCK_LOS"
			"uaxis" "[1 0 0 0] 0.25"
			"vaxis" "[0 0 -1 0] 0.25"
			"rotation" "0"
			"lightmapscale" "16"
			"smoothing_groups" "0"
		}
		editor
		{
			"color" "139 132 0"
			"groupid" "1007"
			"visgroupshown" "1"
			"visgroupautoshown" "1"
		}
	}
	solid
	{
		"id" "1716"
		side
		{
			"id" "1205"
			"plane" "(0 448 132) (-1024 576 132) (-1024 896 132)"
			"material" "TOOLS/TOOLSNPCCLIP"
			"uaxis" "[1 0 0 0] 2"
			"vaxis" "[0 -1 0 0] 2"
			"rotation" "0"
			"lightmapscale" "16"
			"smoothing_groups" "0"
		}
		side
		{
			"id" "1204"
			"plane" "(-1024 896 128) (-1024 576 128) (0 448 128)"
			"material" "TOOLS/TOOLSNPCCLIP"
			"uaxis" "[1 0 0 0] 2"
			"vaxis" "[0 -1 0 0] 2"
			"rotation" "0"
			"lightmapscale" "16"
			"smoothing_groups" "0"
		}
		side
		{
			"id" "1203"
			"plane" "(-1024 576 128) (-1024 896 128) (-1024 896 132)"
			"material" "TOOLS/TOOLSNPCCLIP"
			"uaxis" "[0 1 0 0] 2"
			"vaxis" "[0 0 -1 8] 2"
			"rotation" "0"
			"lightmapscale" "16"
			"smoothing_groups" "0"
		}
		side
		{
			"id" "1202"
			"plane" "(0 448 128) (-1024 576 128) (-1024 576 132)"
			"material" "TOOLS/TOOLSNPCCLIP"
			"uaxis" "[1 0 0 0] 0.25"
			"vaxis" "[0 0 -1 0] 0.25"
			"rotation" "0"
			"lightmapscale" "16"
			"smoothing_groups" "0"
		}
		side
		{
			"id" "1201"
			"plane" "(0 768 128) (0 448 128) (0 448 132)"
			"material" "TOOLS/TOOLSNPCCLIP"
			"uaxis" "[0 1 0 0] 0.25"
			"vaxis" "[0 0 -1 0] 0.25"
			"rotation" "0"
			"lightmapscale" "16"
			"smoothing_groups" "0"
		}
		side
		{
			"id" "1200"
			"plane" "(-1024 896 128) (-0 768 128) (0 768 132)"
			"material" "TOOLS/TOOLSNPCCLIP"
			"uaxis" "[1 0 0 0] 0.25"
			"vaxis" "[0 0 -1 0] 0.25"
			"rotation" "0"
			"lightmapscale" "16"
			"smoothing_groups" "0"
		}
		editor
		{
			"color" "139 132 0"
			"groupid" "1007"
			"visgroupshown" "1"
			"visgroupautoshown" "1"
		}
	}
	solid
	{
		"id" "1825"
		side
		{
			"id" "1362"
			"plane" "(-336 -16 128) (-336 128 128) (-320 128 128)"
			"material" "TOOLS/TOOLSBLACK"
			"uaxis" "[1 0 0 0] 0.25"
			"vaxis" "[0 -1 0 0] 0.25"
			"rotation" "0"
			"lightmapscale" "16"
			"smoothing_groups" "0"
		}
		side
		{
			"id" "1361"
			"plane" "(-336 128 0) (-336 -16 0) (-320 0 0)"
			"material" "DEV/REFLECTIVITY_10"
			"uaxis" "[1 0 0 0] 0.25"
			"vaxis" "[0 -1 0 0] 0.25"
			"rotation" "0"
			"lightmapscale" "16"
			"smoothing_groups" "0"
		}
		side
		{
			"id" "1360"
			"plane" "(-336 -16 0) (-336 128 0) (-336 128 128)"
			"material" "PLASTER/PLASTERWALL050D"
			"uaxis" "[0 1 0 504] 0.31"
			"vaxis" "[0 0 -1 410] 0.31"
			"rotation" "0"
			"lightmapscale" "16"
			"smoothing_groups" "0"
		}
		side
		{
			"id" "1359"
			"plane" "(-320 128 0) (-320 0 0) (-320 0 128)"
			"material" "PLASTER/PLASTERWALL029A"
			"uaxis" "[0 1 0 0] 0.25"
			"vaxis" "[0 0 -1 0] 0.25"
			"rotation" "0"
			"lightmapscale" "16"
			"smoothing_groups" "0"
		}
		side
		{
			"id" "1358"
			"plane" "(-320 0 0) (-336 -16 0) (-336 -16 128)"
			"material" "DEV/REFLECTIVITY_10"
			"uaxis" "[1 0 0 0] 0.25"
			"vaxis" "[0 0 -1 0] 0.25"
			"rotation" "0"
			"lightmapscale" "16"
			"smoothing_groups" "0"
		}
		side
		{
			"id" "1357"
			"plane" "(-336 128 0) (-320 128 0) (-320 128 128)"
			"material" "TOOLS/TOOLSBLACK"
			"uaxis" "[1 0 0 0] 0.25"
			"vaxis" "[0 0 -1 0] 0.25"
			"rotation" "0"
			"lightmapscale" "16"
			"smoothing_groups" "0"
		}
		editor
		{
			"color" "0 100 169"
			"visgroupshown" "1"
			"visgroupautoshown" "1"
		}
	}
	solid
	{
		"id" "1826"
		side
		{
			"id" "1368"
			"plane" "(-336 128 128) (-336 256 128) (-320 256 128)"
			"material" "TOOLS/TOOLSBLACK"
			"uaxis" "[1 0 0 0] 0.25"
			"vaxis" "[0 -1 0 0] 0.25"
			"rotation" "0"
			"lightmapscale" "16"
			"smoothing_groups" "0"
		}
		side
		{
			"id" "1367"
			"plane" "(-336 256 112) (-336 128 112) (-320 128 112)"
			"material" "DEV/REFLECTIVITY_10"
			"uaxis" "[1 0 0 0] 0.25"
			"vaxis" "[0 -1 0 0] 0.25"
			"rotation" "0"
			"lightmapscale" "16"
			"smoothing_groups" "0"
		}
		side
		{
			"id" "1366"
			"plane" "(-336 128 112) (-336 256 112) (-336 256 128)"
			"material" "PLASTER/PLASTERWALL050D"
			"uaxis" "[0 1 0 504] 0.31"
			"vaxis" "[0 0 -1 410] 0.31"
			"rotation" "0"
			"lightmapscale" "16"
			"smoothing_groups" "0"
		}
		side
		{
			"id" "1365"
			"plane" "(-320 256 112) (-320 128 112) (-320 128 128)"
			"material" "PLASTER/PLASTERWALL029A"
			"uaxis" "[0 1 0 0] 0.25"
			"vaxis" "[0 0 -1 0] 0.25"
			"rotation" "0"
			"lightmapscale" "16"
			"smoothing_groups" "0"
		}
		side
		{
			"id" "1364"
			"plane" "(-336 256 112) (-320 256 112) (-320 256 128)"
			"material" "TOOLS/TOOLSBLACK"
			"uaxis" "[1 0 0 0] 0.25"
			"vaxis" "[0 0 -1 0] 0.25"
			"rotation" "0"
			"lightmapscale" "16"
			"smoothing_groups" "0"
		}
		side
		{
			"id" "1363"
			"plane" "(-320 128 112) (-336 128 112) (-336 128 128)"
			"material" "TOOLS/TOOLSBLACK"
			"uaxis" "[1 0 0 0] 0.25"
			"vaxis" "[0 0 -1 0] 0.25"
			"rotation" "0"
			"lightmapscale" "16"
			"smoothing_groups" "0"
		}
		editor
		{
			"color" "0 100 169"
			"visgroupshown" "1"
			"visgroupautoshown" "1"
		}
	}
	solid
	{
		"id" "1827"
		side
		{
			"id" "1374"
			"plane" "(-336 256 128) (-336 472 128) (-320 488 128)"
			"material" "TOOLS/TOOLSBLACK"
			"uaxis" "[1 0 0 0] 0.25"
			"vaxis" "[0 -1 0 0] 0.25"
			"rotation" "0"
			"lightmapscale" "16"
			"smoothing_groups" "0"
		}
		side
		{
			"id" "1373"
			"plane" "(-336 472 0) (-336 256 0) (-320 256 0)"
			"material" "DEV/REFLECTIVITY_10"
			"uaxis" "[1 0 0 0] 0.25"
			"vaxis" "[0 -1 0 0] 0.25"
			"rotation" "0"
			"lightmapscale" "16"
			"smoothing_groups" "0"
		}
		side
		{
			"id" "1372"
			"plane" "(-336 256 0) (-336 472 0) (-336 472 128)"
			"material" "PLASTER/PLASTERWALL050D"
			"uaxis" "[0 1 0 504] 0.31"
			"vaxis" "[0 0 -1 410] 0.31"
			"rotation" "0"
			"lightmapscale" "16"
			"smoothing_groups" "0"
		}
		side
		{
			"id" "1371"
			"plane" "(-320 488 0) (-320 256 0) (-320 256 128)"
			"material" "PLASTER/PLASTERWALL029A"
			"uaxis" "[0 1 0 0] 0.25"
			"vaxis" "[0 0 -1 0] 0.25"
			"rotation" "0"
			"lightmapscale" "16"
			"smoothing_groups" "0"
		}
		side
		{
			"id" "1370"
			"plane" "(-336 472 0) (-320 488 0) (-320 488 128)"
			"material" "DEV/REFLECTIVITY_10"
			"uaxis" "[1 0 0 0] 0.25"
			"vaxis" "[0 0 -1 0] 0.25"
			"rotation" "0"
			"lightmapscale" "16"
			"smoothing_groups" "0"
		}
		side
		{
			"id" "1369"
			"plane" "(-320 256 0) (-336 256 0) (-336 256 128)"
			"material" "TOOLS/TOOLSBLACK"
			"uaxis" "[1 0 0 0] 0.25"
			"vaxis" "[0 0 -1 0] 0.25"
			"rotation" "0"
			"lightmapscale" "16"
			"smoothing_groups" "0"
		}
		editor
		{
			"color" "0 100 169"
			"visgroupshown" "1"
			"visgroupautoshown" "1"
		}
	}
	solid
	{
		"id" "1997"
		side
		{
			"id" "1536"
			"plane" "(-64 0 128) (0 0 128) (16 -16 128)"
			"material" "TOOLS/TOOLSBLACK"
			"uaxis" "[1 0 0 0] 0.25"
			"vaxis" "[0 -1 0 0] 0.25"
			"rotation" "0"
			"lightmapscale" "16"
			"smoothing_groups" "0"
		}
		side
		{
			"id" "1535"
			"plane" "(16 -16 0) (0 0 0) (-64 0 0)"
			"material" "DEV/REFLECTIVITY_10"
			"uaxis" "[1 0 0 0] 0.25"
			"vaxis" "[0 -1 0 0] 0.25"
			"rotation" "0"
			"lightmapscale" "16"
			"smoothing_groups" "0"
		}
		side
		{
			"id" "1534"
			"plane" "(0 0 0) (16 -16 0) (16 -16 128)"
			"material" "DEV/REFLECTIVITY_10"
			"uaxis" "[0 1 0 0] 0.25"
			"vaxis" "[0 0 -1 0] 0.25"
			"rotation" "0"
			"lightmapscale" "16"
			"smoothing_groups" "0"
		}
		side
		{
			"id" "1533"
			"plane" "(-64 0 0) (0 0 0) (0 0 128)"
			"material" "PLASTER/PLASTERWALL029A"
			"uaxis" "[1 0 0 0] 0.25"
			"vaxis" "[0 0 -1 0] 0.25"
			"rotation" "0"
			"lightmapscale" "16"
			"smoothing_groups" "0"
		}
		side
		{
			"id" "1532"
			"plane" "(16 -16 0) (-64 -16 0) (-64 -16 128)"
			"material" "PLASTER/PLASTERWALL050D"
			"uaxis" "[1 0 0 504] 0.31"
			"vaxis" "[0 0 -1 410] 0.31"
			"rotation" "0"
			"lightmapscale" "16"
			"smoothing_groups" "0"
		}
		side
		{
			"id" "1531"
			"plane" "(-64 -16 0) (-64 0 0) (-64 0 128)"
			"material" "TOOLS/TOOLSBLACK"
			"uaxis" "[0 1 0 0] 0.25"
			"vaxis" "[0 0 -1 0] 0.25"
			"rotation" "0"
			"lightmapscale" "16"
			"smoothing_groups" "0"
		}
		editor
		{
			"color" "0 172 249"
			"visgroupshown" "1"
			"visgroupautoshown" "1"
		}
	}
	solid
	{
		"id" "1999"
		side
		{
			"id" "1548"
			"plane" "(-336 -16 128) (-320 0 128) (-112 0 128)"
			"material" "TOOLS/TOOLSBLACK"
			"uaxis" "[1 0 0 0] 0.25"
			"vaxis" "[0 -1 0 0] 0.25"
			"rotation" "0"
			"lightmapscale" "16"
			"smoothing_groups" "0"
		}
		side
		{
			"id" "1547"
			"plane" "(-320 0 0) (-336 -16 0) (-112 -16 0)"
			"material" "DEV/REFLECTIVITY_10"
			"uaxis" "[1 0 0 0] 0.25"
			"vaxis" "[0 -1 0 0] 0.25"
			"rotation" "0"
			"lightmapscale" "16"
			"smoothing_groups" "0"
		}
		side
		{
			"id" "1546"
			"plane" "(-320 0 0) (-320 0 128) (-336 -16 128)"
			"material" "DEV/REFLECTIVITY_10"
			"uaxis" "[0 1 0 0] 0.25"
			"vaxis" "[0 0 -1 0] 0.25"
			"rotation" "0"
			"lightmapscale" "16"
			"smoothing_groups" "0"
		}
		side
		{
			"id" "1545"
			"plane" "(-112 0 0) (-112 0 128) (-320 0 128)"
			"material" "PLASTER/PLASTERWALL029A"
			"uaxis" "[1 0 0 0] 0.25"
			"vaxis" "[0 0 -1 0] 0.25"
			"rotation" "0"
			"lightmapscale" "16"
			"smoothing_groups" "0"
		}
		side
		{
			"id" "1544"
			"plane" "(-336 -16 0) (-336 -16 128) (-112 -16 128)"
			"material" "PLASTER/PLASTERWALL050D"
			"uaxis" "[1 0 0 504] 0.31"
			"vaxis" "[0 0 -1 410] 0.31"
			"rotation" "0"
			"lightmapscale" "16"
			"smoothing_groups" "0"
		}
		side
		{
			"id" "1543"
			"plane" "(-112 -16 0) (-112 -16 128) (-112 0 128)"
			"material" "TOOLS/TOOLSBLACK"
			"uaxis" "[0 1 0 0] 0.25"
			"vaxis" "[0 0 -1 0] 0.25"
			"rotation" "0"
			"lightmapscale" "16"
			"smoothing_groups" "0"
		}
		editor
		{
			"color" "0 172 249"
			"visgroupshown" "1"
			"visgroupautoshown" "1"
		}
	}
	solid
	{
		"id" "2004"
		side
		{
			"id" "1554"
			"plane" "(-112 -16 128) (-112 0 128) (-64 0 128)"
			"material" "TOOLS/TOOLSBLACK"
			"uaxis" "[1 0 0 0] 0.25"
			"vaxis" "[0 -1 0 0] 0.25"
			"rotation" "0"
			"lightmapscale" "16"
			"smoothing_groups" "0"
		}
		side
		{
			"id" "1553"
			"plane" "(-64 0 128) (-112 0 128) (-112 0 96)"
			"material" "PLASTER/PLASTERWALL029A"
			"uaxis" "[1 0 0 0] 0.25"
			"vaxis" "[0 0 -1 0] 0.25"
			"rotation" "0"
			"lightmapscale" "16"
			"smoothing_groups" "0"
		}
		side
		{
			"id" "1552"
			"plane" "(-112 -16 128) (-64 -16 128) (-64 -16 96)"
			"material" "PLASTER/PLASTERWALL050D"
			"uaxis" "[1 0 0 504] 0.31"
			"vaxis" "[0 0 -1 410] 0.31"
			"rotation" "0"
			"lightmapscale" "16"
			"smoothing_groups" "0"
		}
		side
		{
			"id" "1551"
			"plane" "(-112 0 128) (-112 -16 128) (-112 -16 96)"
			"material" "TOOLS/TOOLSBLACK"
			"uaxis" "[0 1 0 0] 0.25"
			"vaxis" "[0 0 -1 0] 0.25"
			"rotation" "0"
			"lightmapscale" "16"
			"smoothing_groups" "0"
		}
		side
		{
			"id" "1550"
			"plane" "(-64 -16 128) (-64 0 128) (-64 0 96)"
			"material" "TOOLS/TOOLSBLACK"
			"uaxis" "[0 1 0 0] 0.25"
			"vaxis" "[0 0 -1 0] 0.25"
			"rotation" "0"
			"lightmapscale" "16"
			"smoothing_groups" "0"
		}
		side
		{
			"id" "1549"
			"plane" "(-112 0 96) (-112 -16 96) (-64 -16 96)"
			"material" "TOOLS/TOOLSBLACK"
			"uaxis" "[1 0 0 0] 0.25"
			"vaxis" "[0 -1 0 0] 0.25"
			"rotation" "0"
			"lightmapscale" "16"
			"smoothing_groups" "0"
		}
		editor
		{
			"color" "0 172 249"
			"visgroupshown" "1"
			"visgroupautoshown" "1"
		}
	}
	solid
	{
		"id" "2005"
		side
		{
			"id" "1560"
			"plane" "(-112 0 0) (-112 -16 0) (-64 -16 0)"
			"material" "DEV/REFLECTIVITY_10"
			"uaxis" "[1 0 0 0] 0.25"
			"vaxis" "[0 -1 0 0] 0.25"
			"rotation" "0"
			"lightmapscale" "16"
			"smoothing_groups" "0"
		}
		side
		{
			"id" "1559"
			"plane" "(-64 0 0) (-64 0 32) (-112 0 32)"
			"material" "PLASTER/PLASTERWALL029A"
			"uaxis" "[1 0 0 0] 0.25"
			"vaxis" "[0 0 -1 0] 0.25"
			"rotation" "0"
			"lightmapscale" "16"
			"smoothing_groups" "0"
		}
		side
		{
			"id" "1558"
			"plane" "(-112 -16 0) (-112 -16 32) (-64 -16 32)"
			"material" "PLASTER/PLASTERWALL050D"
			"uaxis" "[1 0 0 504] 0.31"
			"vaxis" "[0 0 -1 410] 0.31"
			"rotation" "0"
			"lightmapscale" "16"
			"smoothing_groups" "0"
		}
		side
		{
			"id" "1557"
			"plane" "(-112 0 0) (-112 0 32) (-112 -16 32)"
			"material" "TOOLS/TOOLSBLACK"
			"uaxis" "[0 1 0 0] 0.25"
			"vaxis" "[0 0 -1 0] 0.25"
			"rotation" "0"
			"lightmapscale" "16"
			"smoothing_groups" "0"
		}
		side
		{
			"id" "1556"
			"plane" "(-64 -16 0) (-64 -16 32) (-64 0 32)"
			"material" "TOOLS/TOOLSBLACK"
			"uaxis" "[0 1 0 0] 0.25"
			"vaxis" "[0 0 -1 0] 0.25"
			"rotation" "0"
			"lightmapscale" "16"
			"smoothing_groups" "0"
		}
		side
		{
			"id" "1555"
			"plane" "(-112 -16 32) (-112 0 32) (-64 0 32)"
			"material" "TOOLS/TOOLSBLACK"
			"uaxis" "[1 0 0 0] 0.25"
			"vaxis" "[0 -1 0 0] 0.25"
			"rotation" "0"
			"lightmapscale" "16"
			"smoothing_groups" "0"
		}
		editor
		{
			"color" "0 172 249"
			"visgroupshown" "1"
			"visgroupautoshown" "1"
		}
	}
	solid
	{
		"id" "2539"
		side
		{
			"id" "1620"
			"plane" "(-1040 560 128) (-1024 576 128) (-896 560 128)"
			"material" "TOOLS/TOOLSBLACK"
			"uaxis" "[1 0 0 0] 0.25"
			"vaxis" "[0 -1 0 0] 0.25"
			"rotation" "0"
			"lightmapscale" "16"
			"smoothing_groups" "0"
		}
		side
		{
			"id" "1619"
			"plane" "(-1024 576 0) (-1040 560 0) (-896 542 0)"
			"material" "DEV/REFLECTIVITY_10"
			"uaxis" "[1 0 0 0] 0.25"
			"vaxis" "[0 -1 0 0] 0.25"
			"rotation" "0"
			"lightmapscale" "16"
			"smoothing_groups" "0"
		}
		side
		{
			"id" "1618"
			"plane" "(-1040 560 0) (-1024 576 0) (-1024 576 128)"
			"material" "DEV/REFLECTIVITY_10"
			"uaxis" "[0 1 0 0] 0.25"
			"vaxis" "[0 0 -1 0] 0.25"
			"rotation" "0"
			"lightmapscale" "16"
			"smoothing_groups" "0"
		}
		side
		{
			"id" "1617"
			"plane" "(-1024 576 0) (-896 560 0) (-896 560 128)"
			"material" "PLASTER/PLASTERWALL029A"
			"uaxis" "[1 0 0 0] 0.25"
			"vaxis" "[0 0 -1 0] 0.25"
			"rotation" "0"
			"lightmapscale" "16"
			"smoothing_groups" "0"
		}
		side
		{
			"id" "1616"
			"plane" "(-896 542 0) (-1040 560 0) (-1040 560 128)"
			"material" "PLASTER/PLASTERWALL050D"
			"uaxis" "[1 0 0 504] 0.31"
			"vaxis" "[0 0 -1 410] 0.31"
			"rotation" "0"
			"lightmapscale" "16"
			"smoothing_groups" "0"
		}
		side
		{
			"id" "1615"
			"plane" "(-896 560 0) (-896 542 0) (-896 542 128)"
			"material" "TOOLS/TOOLSBLACK"
			"uaxis" "[0 1 0 0] 0.25"
			"vaxis" "[0 0 -1 0] 0.25"
			"rotation" "0"
			"lightmapscale" "16"
			"smoothing_groups" "0"
		}
		editor
		{
			"color" "0 108 197"
			"visgroupshown" "1"
			"visgroupautoshown" "1"
		}
	}
	solid
	{
		"id" "2573"
		side
		{
			"id" "1638"
			"plane" "(-840 535 128) (-896 542 128) (-896 560 128)"
			"material" "TOOLS/TOOLSBLACK"
			"uaxis" "[1 0 0 0] 0.25"
			"vaxis" "[0 -1 0 0] 0.25"
			"rotation" "0"
			"lightmapscale" "16"
			"smoothing_groups" "0"
		}
		side
		{
			"id" "1637"
			"plane" "(-840 553 112) (-840 553 128) (-896 560 128)"
			"material" "PLASTER/PLASTERWALL029A"
			"uaxis" "[1 0 0 0] 0.25"
			"vaxis" "[0 0 -1 0] 0.25"
			"rotation" "0"
			"lightmapscale" "16"
			"smoothing_groups" "0"
		}
		side
		{
			"id" "1636"
			"plane" "(-896 542 112) (-896 542 128) (-840 535 128)"
			"material" "PLASTER/PLASTERWALL050D"
			"uaxis" "[1 0 0 504] 0.31"
			"vaxis" "[0 0 -1 410] 0.31"
			"rotation" "0"
			"lightmapscale" "16"
			"smoothing_groups" "0"
		}
		side
		{
			"id" "1635"
			"plane" "(-896 560 112) (-896 560 128) (-896 542 128)"
			"material" "TOOLS/TOOLSBLACK"
			"uaxis" "[0 1 0 0] 0.25"
			"vaxis" "[0 0 -1 0] 0.25"
			"rotation" "0"
			"lightmapscale" "16"
			"smoothing_groups" "0"
		}
		side
		{
			"id" "1634"
			"plane" "(-840 535 112) (-840 535 128) (-840 553 128)"
			"material" "TOOLS/TOOLSBLACK"
			"uaxis" "[0 1 0 0] 0.25"
			"vaxis" "[0 0 -1 0] 0.25"
			"rotation" "0"
			"lightmapscale" "16"
			"smoothing_groups" "0"
		}
		side
		{
			"id" "1633"
			"plane" "(-840 553 112) (-896 560 112) (-896 542 112)"
			"material" "TOOLS/TOOLSBLACK"
			"uaxis" "[1 0 0 0] 0.25"
			"vaxis" "[0 -1 0 0] 0.25"
			"rotation" "0"
			"lightmapscale" "16"
			"smoothing_groups" "0"
		}
		editor
		{
			"color" "0 108 197"
			"visgroupshown" "1"
			"visgroupautoshown" "1"
		}
	}
	solid
	{
		"id" "2574"
		side
		{
			"id" "1644"
			"plane" "(-840 553 0) (-896 560 0) (-896 542 0)"
			"material" "DEV/REFLECTIVITY_10"
			"uaxis" "[1 0 0 0] 0.25"
			"vaxis" "[0 -1 0 0] 0.25"
			"rotation" "0"
			"lightmapscale" "16"
			"smoothing_groups" "0"
		}
		side
		{
			"id" "1643"
			"plane" "(-896 560 0) (-840 553 0) (-840 553 112)"
			"material" "PLASTER/PLASTERWALL029A"
			"uaxis" "[1 0 0 0] 0.25"
			"vaxis" "[0 0 -1 0] 0.25"
			"rotation" "0"
			"lightmapscale" "16"
			"smoothing_groups" "0"
		}
		side
		{
			"id" "1642"
			"plane" "(-840 535 0) (-896 542 0) (-896 542 112)"
			"material" "WOOD/WOODDOOR038A"
			"uaxis" "[1 0 0 0] 0.25"
			"vaxis" "[0 0 -1 0] 0.25"
			"rotation" "0"
			"lightmapscale" "16"
			"smoothing_groups" "0"
		}
		side
		{
			"id" "1641"
			"plane" "(-896 542 0) (-896 560 0) (-896 560 112)"
			"material" "TOOLS/TOOLSBLACK"
			"uaxis" "[0 1 0 0] 0.25"
			"vaxis" "[0 0 -1 0] 0.25"
			"rotation" "0"
			"lightmapscale" "16"
			"smoothing_groups" "0"
		}
		side
		{
			"id" "1640"
			"plane" "(-840 553 0) (-840 535 0) (-840 535 112)"
			"material" "TOOLS/TOOLSBLACK"
			"uaxis" "[0 1 0 0] 0.25"
			"vaxis" "[0 0 -1 0] 0.25"
			"rotation" "0"
			"lightmapscale" "16"
			"smoothing_groups" "0"
		}
		side
		{
			"id" "1639"
			"plane" "(-840 535 112) (-896 542 112) (-896 560 112)"
			"material" "TOOLS/TOOLSBLACK"
			"uaxis" "[1 0 0 0] 0.25"
			"vaxis" "[0 -1 0 0] 0.25"
			"rotation" "0"
			"lightmapscale" "16"
			"smoothing_groups" "0"
		}
		editor
		{
			"color" "0 108 197"
			"visgroupshown" "1"
			"visgroupautoshown" "1"
		}
	}
	solid
	{
		"id" "2614"
		side
		{
			"id" "1848"
			"plane" "(-704 536 128) (-320 488 128) (-336 472 128)"
			"material" "TOOLS/TOOLSBLACK"
			"uaxis" "[1 0 0 0] 0.25"
			"vaxis" "[0 -1 0 0] 0.25"
			"rotation" "0"
			"lightmapscale" "16"
			"smoothing_groups" "0"
		}
		side
		{
			"id" "1847"
			"plane" "(-704 518 0) (-336 472 0) (-320 488 0)"
			"material" "DEV/REFLECTIVITY_10"
			"uaxis" "[1 0 0 0] 0.25"
			"vaxis" "[0 -1 0 0] 0.25"
			"rotation" "0"
			"lightmapscale" "16"
			"smoothing_groups" "0"
		}
		side
		{
			"id" "1846"
			"plane" "(-320 488 0) (-336 472 0) (-336 472 128)"
			"material" "DEV/REFLECTIVITY_10"
			"uaxis" "[0 1 0 0] 0.25"
			"vaxis" "[0 0 -1 0] 0.25"
			"rotation" "0"
			"lightmapscale" "16"
			"smoothing_groups" "0"
		}
		side
		{
			"id" "1845"
			"plane" "(-704 536 0) (-320 488 0) (-320 488 128)"
			"material" "PLASTER/PLASTERWALL029A"
			"uaxis" "[1 0 0 0] 0.25"
			"vaxis" "[0 0 -1 0] 0.25"
			"rotation" "0"
			"lightmapscale" "16"
			"smoothing_groups" "0"
		}
		side
		{
			"id" "1844"
			"plane" "(-336 472 0) (-704 518 0) (-704 518 128)"
			"material" "PLASTER/PLASTERWALL050D"
			"uaxis" "[1 0 0 504] 0.31"
			"vaxis" "[0 0 -1 410] 0.31"
			"rotation" "0"
			"lightmapscale" "16"
			"smoothing_groups" "0"
		}
		side
		{
			"id" "1843"
			"plane" "(-704 518 0) (-704 536 0) (-704 536 128)"
			"material" "TOOLS/TOOLSBLACK"
			"uaxis" "[0 1 0 0] 0.25"
			"vaxis" "[0 0 -1 0] 0.25"
			"rotation" "0"
			"lightmapscale" "16"
			"smoothing_groups" "0"
		}
		editor
		{
			"color" "0 108 197"
			"visgroupshown" "1"
			"visgroupautoshown" "1"
		}
	}
	solid
	{
		"id" "2616"
		side
		{
			"id" "1860"
			"plane" "(-840 553 128) (-752 542 128) (-752 524 128)"
			"material" "TOOLS/TOOLSBLACK"
			"uaxis" "[1 0 0 0] 0.25"
			"vaxis" "[0 -1 0 0] 0.25"
			"rotation" "0"
			"lightmapscale" "16"
			"smoothing_groups" "0"
		}
		side
		{
			"id" "1859"
			"plane" "(-840 535 0) (-752 524 0) (-752 542 0)"
			"material" "DEV/REFLECTIVITY_10"
			"uaxis" "[1 0 0 0] 0.25"
			"vaxis" "[0 -1 0 0] 0.25"
			"rotation" "0"
			"lightmapscale" "16"
			"smoothing_groups" "0"
		}
		side
		{
			"id" "1858"
			"plane" "(-840 553 0) (-752 542 0) (-752 542 128)"
			"material" "PLASTER/PLASTERWALL029A"
			"uaxis" "[1 0 0 0] 0.25"
			"vaxis" "[0 0 -1 0] 0.25"
			"rotation" "0"
			"lightmapscale" "16"
			"smoothing_groups" "0"
		}
		side
		{
			"id" "1857"
			"plane" "(-752 524 0) (-840 535 0) (-840 535 128)"
			"material" "PLASTER/PLASTERWALL050D"
			"uaxis" "[1 0 0 504] 0.31"
			"vaxis" "[0 0 -1 410] 0.31"
			"rotation" "0"
			"lightmapscale" "16"
			"smoothing_groups" "0"
		}
		side
		{
			"id" "1856"
			"plane" "(-840 535 0) (-840 553 0) (-840 553 128)"
			"material" "TOOLS/TOOLSBLACK"
			"uaxis" "[0 1 0 0] 0.25"
			"vaxis" "[0 0 -1 0] 0.25"
			"rotation" "0"
			"lightmapscale" "16"
			"smoothing_groups" "0"
		}
		side
		{
			"id" "1855"
			"plane" "(-752 542 0) (-752 524 0) (-752 524 128)"
			"material" "TOOLS/TOOLSBLACK"
			"uaxis" "[0 1 0 0] 0.25"
			"vaxis" "[0 0 -1 0] 0.25"
			"rotation" "0"
			"lightmapscale" "16"
			"smoothing_groups" "0"
		}
		editor
		{
			"color" "0 108 197"
			"visgroupshown" "1"
			"visgroupautoshown" "1"
		}
	}
	solid
	{
		"id" "2623"
		side
		{
			"id" "1866"
			"plane" "(-704 518 128) (-752 524 128) (-752 542 128)"
			"material" "TOOLS/TOOLSBLACK"
			"uaxis" "[1 0 0 0] 0.25"
			"vaxis" "[0 -1 0 0] 0.25"
			"rotation" "0"
			"lightmapscale" "16"
			"smoothing_groups" "0"
		}
		side
		{
			"id" "1865"
			"plane" "(-704 536 96) (-704 536 128) (-752 542 128)"
			"material" "PLASTER/PLASTERWALL029A"
			"uaxis" "[1 0 0 0] 0.25"
			"vaxis" "[0 0 -1 0] 0.25"
			"rotation" "0"
			"lightmapscale" "16"
			"smoothing_groups" "0"
		}
		side
		{
			"id" "1864"
			"plane" "(-752 524 96) (-752 524 128) (-704 518 128)"
			"material" "PLASTER/PLASTERWALL050D"
			"uaxis" "[1 0 0 504] 0.31"
			"vaxis" "[0 0 -1 410] 0.31"
			"rotation" "0"
			"lightmapscale" "16"
			"smoothing_groups" "0"
		}
		side
		{
			"id" "1863"
			"plane" "(-752 542 96) (-752 542 128) (-752 524 128)"
			"material" "TOOLS/TOOLSBLACK"
			"uaxis" "[0 1 0 0] 0.25"
			"vaxis" "[0 0 -1 0] 0.25"
			"rotation" "0"
			"lightmapscale" "16"
			"smoothing_groups" "0"
		}
		side
		{
			"id" "1862"
			"plane" "(-704 518 96) (-704 518 128) (-704 536 128)"
			"material" "TOOLS/TOOLSBLACK"
			"uaxis" "[0 1 0 0] 0.25"
			"vaxis" "[0 0 -1 0] 0.25"
			"rotation" "0"
			"lightmapscale" "16"
			"smoothing_groups" "0"
		}
		side
		{
			"id" "1861"
			"plane" "(-704 536 96) (-752 542 96) (-752 524 96)"
			"material" "TOOLS/TOOLSBLACK"
			"uaxis" "[1 0 0 0] 0.25"
			"vaxis" "[0 -1 0 0] 0.25"
			"rotation" "0"
			"lightmapscale" "16"
			"smoothing_groups" "0"
		}
		editor
		{
			"color" "0 108 197"
			"visgroupshown" "1"
			"visgroupautoshown" "1"
		}
	}
	solid
	{
		"id" "2624"
		side
		{
			"id" "1686"
			"plane" "(-704 536 0) (-752 542 0) (-752 524 0)"
			"material" "DEV/REFLECTIVITY_10"
			"uaxis" "[1 0 0 0] 0.25"
			"vaxis" "[0 -1 0 0] 0.25"
			"rotation" "0"
			"lightmapscale" "16"
			"smoothing_groups" "0"
		}
		side
		{
			"id" "1685"
			"plane" "(-752 542 0) (-704 536 0) (-704 536 32)"
			"material" "PLASTER/PLASTERWALL029A"
			"uaxis" "[1 0 0 0] 0.25"
			"vaxis" "[0 0 -1 0] 0.25"
			"rotation" "0"
			"lightmapscale" "16"
			"smoothing_groups" "0"
		}
		side
		{
			"id" "1684"
			"plane" "(-704 518 0) (-752 524 0) (-752 524 32)"
			"material" "PLASTER/PLASTERWALL050D"
			"uaxis" "[1 0 0 504] 0.31"
			"vaxis" "[0 0 -1 410] 0.31"
			"rotation" "0"
			"lightmapscale" "16"
			"smoothing_groups" "0"
		}
		side
		{
			"id" "1683"
			"plane" "(-752 524 0) (-752 542 0) (-752 542 32)"
			"material" "TOOLS/TOOLSBLACK"
			"uaxis" "[0 1 0 0] 0.25"
			"vaxis" "[0 0 -1 0] 0.25"
			"rotation" "0"
			"lightmapscale" "16"
			"smoothing_groups" "0"
		}
		side
		{
			"id" "1682"
			"plane" "(-704 536 0) (-704 518 0) (-704 518 32)"
			"material" "TOOLS/TOOLSBLACK"
			"uaxis" "[0 1 0 0] 0.25"
			"vaxis" "[0 0 -1 0] 0.25"
			"rotation" "0"
			"lightmapscale" "16"
			"smoothing_groups" "0"
		}
		side
		{
			"id" "1681"
			"plane" "(-704 518 32) (-752 524 32) (-752 542 32)"
			"material" "TOOLS/TOOLSBLACK"
			"uaxis" "[1 0 0 0] 0.25"
			"vaxis" "[0 -1 0 0] 0.25"
			"rotation" "0"
			"lightmapscale" "16"
			"smoothing_groups" "0"
		}
		editor
		{
			"color" "0 108 197"
			"visgroupshown" "1"
			"visgroupautoshown" "1"
		}
	}
	solid
	{
		"id" "3537"
		side
		{
			"id" "2058"
			"plane" "(-64 793.697 128) (16 784 128) (-0 768 128)"
			"material" "TOOLS/TOOLSBLACK"
			"uaxis" "[1 0 0 0] 0.25"
			"vaxis" "[0 -1 0 0] 0.25"
			"rotation" "0"
			"lightmapscale" "16"
			"smoothing_groups" "0"
		}
		side
		{
			"id" "2057"
			"plane" "(-64 776 0) (0.0103149 768 0) (16.0104 784 0)"
			"material" "DEV/REFLECTIVITY_10"
			"uaxis" "[1 0 0 0] 0.25"
			"vaxis" "[0 -1 0 0] 0.25"
			"rotation" "0"
			"lightmapscale" "16"
			"smoothing_groups" "0"
		}
		side
		{
			"id" "2056"
			"plane" "(16 784 0) (-0 768 0) (-0 768 128)"
			"material" "DEV/REFLECTIVITY_10"
			"uaxis" "[0 1 0 0] 0.25"
			"vaxis" "[0 0 -1 0] 0.25"
			"rotation" "0"
			"lightmapscale" "16"
			"smoothing_groups" "0"
		}
		side
		{
			"id" "2055"
			"plane" "(-64 793.697 0) (16 784 0) (16 784 128)"
			"material" "PLASTER/PLASTERWALL050D"
			"uaxis" "[1 0 0 504] 0.31"
			"vaxis" "[0 0 -1 410] 0.31"
			"rotation" "0"
			"lightmapscale" "16"
			"smoothing_groups" "0"
		}
		side
		{
			"id" "2054"
			"plane" "(0 768 0) (-64 776 0) (-64 776 128)"
			"material" "PLASTER/PLASTERWALL029A"
			"uaxis" "[1 0 0 0] 0.25"
			"vaxis" "[0 0 -1 0] 0.25"
			"rotation" "0"
			"lightmapscale" "16"
			"smoothing_groups" "0"
		}
		side
		{
			"id" "2053"
			"plane" "(-64 776 0) (-64 793.697 0) (-64 793.699 128)"
			"material" "TOOLS/TOOLSBLACK"
			"uaxis" "[0 1 0 0] 0.25"
			"vaxis" "[0 0 -1 0] 0.25"
			"rotation" "0"
			"lightmapscale" "16"
			"smoothing_groups" "0"
		}
		editor
		{
			"color" "0 174 123"
			"visgroupshown" "1"
			"visgroupautoshown" "1"
		}
	}
	solid
	{
		"id" "3538"
		side
		{
			"id" "2064"
			"plane" "(-64 776 128) (-192 792 128) (-192 809.213 128)"
			"material" "TOOLS/TOOLSBLACK"
			"uaxis" "[1 0 0 0] 0.25"
			"vaxis" "[0 -1 0 0] 0.25"
			"rotation" "0"
			"lightmapscale" "16"
			"smoothing_groups" "0"
		}
		side
		{
			"id" "2063"
			"plane" "(-64 793.697 0) (-192 809.212 0) (-192 792 0)"
			"material" "DEV/REFLECTIVITY_10"
			"uaxis" "[1 0 0 0] 0.25"
			"vaxis" "[0 -1 0 0] 0.25"
			"rotation" "0"
			"lightmapscale" "16"
			"smoothing_groups" "0"
		}
		side
		{
			"id" "2062"
			"plane" "(-192 809.212 0) (-64 793.697 0) (-64 793.697 128)"
			"material" "PLASTER/PLASTERWALL050D"
			"uaxis" "[1 0 0 504] 0.31"
			"vaxis" "[0 0 -1 410] 0.31"
			"rotation" "0"
			"lightmapscale" "16"
			"smoothing_groups" "0"
		}
		side
		{
			"id" "2061"
			"plane" "(-64 776 0) (-192 792 0) (-192 792 128)"
			"material" "WOOD/EP2_WOODFLOOR01"
			"uaxis" "[1 0 0 0] 0.25"
			"vaxis" "[0 0 -1 0] 0.25"
			"rotation" "0"
			"lightmapscale" "16"
			"smoothing_groups" "0"
		}
		side
		{
			"id" "2060"
			"plane" "(-64 793.695 0) (-64 776 0) (-64 776 128)"
			"material" "TOOLS/TOOLSBLACK"
			"uaxis" "[0 1 0 0] 0.25"
			"vaxis" "[0 0 -1 0] 0.25"
			"rotation" "0"
			"lightmapscale" "16"
			"smoothing_groups" "0"
		}
		side
		{
			"id" "2059"
			"plane" "(-192 792 0) (-192 809.212 0) (-192 809.215 128)"
			"material" "TOOLS/TOOLSBLACK"
			"uaxis" "[0 1 0 0] 0.25"
			"vaxis" "[0 0 -1 0] 0.25"
			"rotation" "0"
			"lightmapscale" "16"
			"smoothing_groups" "0"
		}
		editor
		{
			"color" "0 174 123"
			"visgroupshown" "1"
			"visgroupautoshown" "1"
		}
	}
	solid
	{
		"id" "3539"
		side
		{
			"id" "2070"
			"plane" "(-192 792 128) (-1024 896 128) (-1040 912 128)"
			"material" "TOOLS/TOOLSBLACK"
			"uaxis" "[1 0 0 0] 0.25"
			"vaxis" "[0 -1 0 0] 0.25"
			"rotation" "0"
			"lightmapscale" "16"
			"smoothing_groups" "0"
		}
		side
		{
			"id" "2069"
			"plane" "(-192 809.212 0) (-1040 912 0) (-1024 896 0)"
			"material" "DEV/REFLECTIVITY_10"
			"uaxis" "[1 0 0 0] 0.25"
			"vaxis" "[0 -1 0 0] 0.25"
			"rotation" "0"
			"lightmapscale" "16"
			"smoothing_groups" "0"
		}
		side
		{
			"id" "2068"
			"plane" "(-1024 896 0) (-1040 912 0) (-1040 912 128)"
			"material" "DEV/REFLECTIVITY_10"
			"uaxis" "[0 1 0 0] 0.25"
			"vaxis" "[0 0 -1 0] 0.25"
			"rotation" "0"
			"lightmapscale" "16"
			"smoothing_groups" "0"
		}
		side
		{
			"id" "2067"
			"plane" "(-1040 912 0) (-192 809.212 0) (-192 809.212 128)"
			"material" "PLASTER/PLASTERWALL050D"
			"uaxis" "[1 0 0 504] 0.31"
			"vaxis" "[0 0 -1 410] 0.31"
			"rotation" "0"
			"lightmapscale" "16"
			"smoothing_groups" "0"
		}
		side
		{
			"id" "2066"
			"plane" "(-192 792 0) (-1024 896 0) (-1024 896 128)"
			"material" "PLASTER/PLASTERWALL029A"
			"uaxis" "[1 0 0 0] 0.25"
			"vaxis" "[0 0 -1 0] 0.25"
			"rotation" "0"
			"lightmapscale" "16"
			"smoothing_groups" "0"
		}
		side
		{
			"id" "2065"
			"plane" "(-192 809.215 0) (-192 792 0) (-192 792 128)"
			"material" "TOOLS/TOOLSBLACK"
			"uaxis" "[0 1 0 0] 0.25"
			"vaxis" "[0 0 -1 0] 0.25"
			"rotation" "0"
			"lightmapscale" "16"
			"smoothing_groups" "0"
		}
		editor
		{
			"color" "0 174 123"
			"visgroupshown" "1"
			"visgroupautoshown" "1"
		}
	}
	group
	{
		"id" "991"
		editor
		{
			"color" "139 132 0"
			"visgroupshown" "1"
			"visgroupautoshown" "1"
		}
	}
	group
	{
		"id" "992"
		editor
		{
			"color" "139 132 0"
			"groupid" "991"
			"visgroupshown" "1"
			"visgroupautoshown" "1"
		}
	}
	group
	{
		"id" "1006"
		editor
		{
			"color" "139 132 0"
			"visgroupshown" "1"
			"visgroupautoshown" "1"
		}
	}
	group
	{
		"id" "1007"
		editor
		{
			"color" "139 132 0"
			"groupid" "1006"
			"visgroupshown" "1"
			"visgroupautoshown" "1"
		}
	}
}
entity
{
	"id" "1800"
	"classname" "func_detail"
	solid
	{
		"id" "1801"
		side
		{
			"id" "1332"
			"plane" "(-336 252 108) (-336 256 112) (-320 256 112)"
			"material" "WOOD/WOODFLOOR008A"
			"uaxis" "[0 0 1 0] 0.25"
			"vaxis" "[-1 0 0 -256] 0.25"
			"rotation" "90"
			"lightmapscale" "16"
			"smoothing_groups" "0"
		}
		side
		{
			"id" "1331"
			"plane" "(-320 256 0) (-336 256 0) (-336 252 0)"
			"material" "WOOD/WOODFLOOR008A"
			"uaxis" "[0 -1 0 -256] 0.25"
			"vaxis" "[-1 0 0 -256] 0.25"
			"rotation" "90"
			"lightmapscale" "16"
			"smoothing_groups" "0"
		}
		side
		{
			"id" "1330"
			"plane" "(-336 256 0) (-320 256 0) (-320 256 112)"
			"material" "WOOD/WOODFLOOR008A"
			"uaxis" "[0 0 1 0] 0.25"
			"vaxis" "[-1 0 0 -256] 0.25"
			"rotation" "90"
			"lightmapscale" "16"
			"smoothing_groups" "0"
		}
		side
		{
			"id" "1329"
			"plane" "(-336 256 112) (-336 252 108) (-336 252 0)"
			"material" "WOOD/WOODFLOOR008A"
			"uaxis" "[0 0 1 0] 0.25"
			"vaxis" "[0 -1 0 -256] 0.25"
			"rotation" "90"
			"lightmapscale" "16"
			"smoothing_groups" "0"
		}
		side
		{
			"id" "1328"
			"plane" "(-320 256 0) (-320 252 0) (-320 252 108)"
			"material" "WOOD/WOODFLOOR008A"
			"uaxis" "[0 0 1 0] 0.25"
			"vaxis" "[0 -1 0 -256] 0.25"
			"rotation" "90"
			"lightmapscale" "16"
			"smoothing_groups" "0"
		}
		side
		{
			"id" "1327"
			"plane" "(-320 252 0) (-336 252 0) (-336 252 108)"
			"material" "WOOD/WOODFLOOR008A"
			"uaxis" "[0 0 1 0] 0.25"
			"vaxis" "[-1 0 0 -256] 0.25"
			"rotation" "90"
			"lightmapscale" "16"
			"smoothing_groups" "0"
		}
		editor
		{
			"color" "0 180 0"
			"visgroupshown" "1"
			"visgroupautoshown" "1"
		}
	}
	solid
	{
		"id" "1802"
		side
		{
			"id" "1338"
			"plane" "(-336 128 112) (-336 256 112) (-320 256 112)"
			"material" "WOOD/WOODFLOOR008A"
			"uaxis" "[0 -1 0 -256] 0.25"
			"vaxis" "[-1 0 0 -256] 0.25"
			"rotation" "90"
			"lightmapscale" "16"
			"smoothing_groups" "0"
		}
		side
		{
			"id" "1337"
			"plane" "(-336 256 112) (-336 128 112) (-336 132 108)"
			"material" "WOOD/WOODFLOOR008A"
			"uaxis" "[0 -1 0 -256] 0.25"
			"vaxis" "[0 0 1 144] 0.25"
			"rotation" "0"
			"lightmapscale" "16"
			"smoothing_groups" "0"
		}
		side
		{
			"id" "1336"
			"plane" "(-320 132 108) (-320 128 112) (-320 256 112)"
			"material" "WOOD/WOODFLOOR008A"
			"uaxis" "[0 -1 0 -256] 0.25"
			"vaxis" "[0 0 -1 432] 0.25"
			"rotation" "0"
			"lightmapscale" "16"
			"smoothing_groups" "0"
		}
		side
		{
			"id" "1335"
			"plane" "(-336 132 108) (-336 128 112) (-320 128 112)"
			"material" "WOOD/WOODFLOOR008A"
			"uaxis" "[0 0 1 0] 0.25"
			"vaxis" "[-1 0 0 -256] 0.25"
			"rotation" "90"
			"lightmapscale" "16"
			"smoothing_groups" "0"
		}
		side
		{
			"id" "1334"
			"plane" "(-320 252 108) (-320 256 112) (-336 256 112)"
			"material" "WOOD/WOODFLOOR008A"
			"uaxis" "[0 0 1 0] 0.25"
			"vaxis" "[-1 0 0 -256] 0.25"
			"rotation" "90"
			"lightmapscale" "16"
			"smoothing_groups" "0"
		}
		side
		{
			"id" "1333"
			"plane" "(-320 132 108) (-320 252 108) (-336 252 108)"
			"material" "TOOLS/TOOLSNODRAW"
			"uaxis" "[-1 0 0 0] 0.25"
			"vaxis" "[0 1 0 0] 0.25"
			"rotation" "0"
			"lightmapscale" "16"
			"smoothing_groups" "0"
		}
		editor
		{
			"color" "0 180 0"
			"visgroupshown" "1"
			"visgroupautoshown" "1"
		}
	}
	solid
	{
		"id" "1803"
		side
		{
			"id" "1344"
			"plane" "(-320 132 108) (-320 128 112) (-336 128 112)"
			"material" "WOOD/WOODFLOOR008A"
			"uaxis" "[0 0 1 0] 0.25"
			"vaxis" "[-1 0 0 -256] 0.25"
			"rotation" "90"
			"lightmapscale" "16"
			"smoothing_groups" "0"
		}
		side
		{
			"id" "1343"
			"plane" "(-336 132 0) (-336 128 0) (-320 128 0)"
			"material" "WOOD/WOODFLOOR008A"
			"uaxis" "[0 -1 0 -256] 0.25"
			"vaxis" "[-1 0 0 -256] 0.25"
			"rotation" "90"
			"lightmapscale" "16"
			"smoothing_groups" "0"
		}
		side
		{
			"id" "1342"
			"plane" "(-320 128 0) (-336 128 0) (-336 128 112)"
			"material" "WOOD/WOODFLOOR008A"
			"uaxis" "[0 0 1 0] 0.25"
			"vaxis" "[-1 0 0 -256] 0.25"
			"rotation" "90"
			"lightmapscale" "16"
			"smoothing_groups" "0"
		}
		side
		{
			"id" "1341"
			"plane" "(-336 128 0) (-336 132 0) (-336 132 108)"
			"material" "WOOD/WOODFLOOR008A"
			"uaxis" "[0 0 1 0] 0.25"
			"vaxis" "[0 -1 0 -256] 0.25"
			"rotation" "90"
			"lightmapscale" "16"
			"smoothing_groups" "0"
		}
		side
		{
			"id" "1340"
			"plane" "(-320 128 112) (-320 132 108) (-320 132 0)"
			"material" "WOOD/WOODFLOOR008A"
			"uaxis" "[0 0 1 0] 0.25"
			"vaxis" "[0 -1 0 -256] 0.25"
			"rotation" "90"
			"lightmapscale" "16"
			"smoothing_groups" "0"
		}
		side
		{
			"id" "1339"
			"plane" "(-336 132 0) (-320 132 0) (-320 132 108)"
			"material" "WOOD/WOODFLOOR008A"
			"uaxis" "[0 0 1 0] 0.25"
			"vaxis" "[-1 0 0 -256] 0.25"
			"rotation" "90"
			"lightmapscale" "16"
			"smoothing_groups" "0"
		}
		editor
		{
			"color" "0 180 0"
			"visgroupshown" "1"
			"visgroupautoshown" "1"
		}
	}
	editor
	{
		"color" "0 180 0"
		"visgroupshown" "1"
		"visgroupautoshown" "1"
		"logicalpos" "[0 10000]"
	}
}
entity
{
	"id" "1852"
	"classname" "func_detail"
	solid
	{
		"id" "1853"
		side
		{
			"id" "1410"
			"plane" "(-368 130 -16) (-384 130 -16) (-384 254 -16)"
			"material" "WOOD/WOODFLOOR005A"
			"uaxis" "[1 0 0 0] 0.25"
			"vaxis" "[0 -1 0 0] 0.25"
			"rotation" "0"
			"lightmapscale" "16"
			"smoothing_groups" "0"
		}
		side
		{
			"id" "1409"
			"plane" "(-368 254 -18) (-384 254 -18) (-384 130 -18)"
			"material" "TOOLS/TOOLSNODRAW"
			"uaxis" "[0 1 0 0] 0.25"
			"vaxis" "[1 0 0 0] 0.25"
			"rotation" "90"
			"lightmapscale" "16"
			"smoothing_groups" "0"
		}
		side
		{
			"id" "1408"
			"plane" "(-384 130 -18) (-384 254 -18) (-384 254 -16)"
			"material" "WOOD/WOODFLOOR005A"
			"uaxis" "[0 1 0 0] 0.25"
			"vaxis" "[0 0 -1 0] 0.25"
			"rotation" "0"
			"lightmapscale" "16"
			"smoothing_groups" "0"
		}
		side
		{
			"id" "1407"
			"plane" "(-368 130 -16) (-368 254 -16) (-368 254 -18)"
			"material" "WOOD/WOODFLOOR005A"
			"uaxis" "[0 1 0 0] 0.25"
			"vaxis" "[0 0 -1 0] 0.25"
			"rotation" "0"
			"lightmapscale" "16"
			"smoothing_groups" "0"
		}
		side
		{
			"id" "1406"
			"plane" "(-384 254 -18) (-368 254 -18) (-368 254 -16)"
			"material" "WOOD/WOODFLOOR005A"
			"uaxis" "[1 0 0 0] 0.25"
			"vaxis" "[0 0 -1 0] 0.25"
			"rotation" "0"
			"lightmapscale" "16"
			"smoothing_groups" "0"
		}
		side
		{
			"id" "1405"
			"plane" "(-384 130 -16) (-368 130 -16) (-368 130 -18)"
			"material" "WOOD/WOODFLOOR005A"
			"uaxis" "[1 0 0 0] 0.25"
			"vaxis" "[0 0 -1 0] 0.25"
			"rotation" "0"
			"lightmapscale" "16"
			"smoothing_groups" "0"
		}
		editor
		{
			"color" "0 180 0"
			"visgroupshown" "1"
			"visgroupautoshown" "1"
		}
	}
	solid
	{
		"id" "1829"
		side
		{
			"id" "1386"
			"plane" "(-336 130 0) (-352 130 0) (-352 254 0)"
			"material" "WOOD/WOODFLOOR005A"
			"uaxis" "[1 0 0 0] 0.25"
			"vaxis" "[0 -1 0 0] 0.25"
			"rotation" "0"
			"lightmapscale" "16"
			"smoothing_groups" "0"
		}
		side
		{
			"id" "1385"
			"plane" "(-336 254 -2) (-352 254 -2) (-352 130 -2)"
			"material" "TOOLS/TOOLSNODRAW"
			"uaxis" "[0 1 0 0] 0.25"
			"vaxis" "[1 0 0 0] 0.25"
			"rotation" "90"
			"lightmapscale" "16"
			"smoothing_groups" "0"
		}
		side
		{
			"id" "1384"
			"plane" "(-352 130 -2) (-352 254 -2) (-352 254 0)"
			"material" "WOOD/WOODFLOOR005A"
			"uaxis" "[0 1 0 0] 0.25"
			"vaxis" "[0 0 -1 0] 0.25"
			"rotation" "0"
			"lightmapscale" "16"
			"smoothing_groups" "0"
		}
		side
		{
			"id" "1383"
			"plane" "(-336 130 0) (-336 254 0) (-336 254 -2)"
			"material" "WOOD/WOODFLOOR005A"
			"uaxis" "[0 1 0 0] 0.25"
			"vaxis" "[0 0 -1 0] 0.25"
			"rotation" "0"
			"lightmapscale" "16"
			"smoothing_groups" "0"
		}
		side
		{
			"id" "1382"
			"plane" "(-352 254 -2) (-336 254 -2) (-336 254 0)"
			"material" "WOOD/WOODFLOOR005A"
			"uaxis" "[1 0 0 0] 0.25"
			"vaxis" "[0 0 -1 0] 0.25"
			"rotation" "0"
			"lightmapscale" "16"
			"smoothing_groups" "0"
		}
		side
		{
			"id" "1381"
			"plane" "(-352 130 0) (-336 130 0) (-336 130 -2)"
			"material" "WOOD/WOODFLOOR005A"
			"uaxis" "[1 0 0 0] 0.25"
			"vaxis" "[0 0 -1 0] 0.25"
			"rotation" "0"
			"lightmapscale" "16"
			"smoothing_groups" "0"
		}
		editor
		{
			"color" "0 180 0"
			"visgroupshown" "1"
			"visgroupautoshown" "1"
		}
	}
	solid
	{
		"id" "1837"
		side
		{
			"id" "1398"
			"plane" "(-352 130 -8) (-368 130 -8) (-368 254 -8)"
			"material" "WOOD/WOODFLOOR005A"
			"uaxis" "[1 0 0 0] 0.25"
			"vaxis" "[0 -1 0 0] 0.25"
			"rotation" "0"
			"lightmapscale" "16"
			"smoothing_groups" "0"
		}
		side
		{
			"id" "1397"
			"plane" "(-352 254 -10) (-368 254 -10) (-368 130 -10)"
			"material" "TOOLS/TOOLSNODRAW"
			"uaxis" "[0 1 0 0] 0.25"
			"vaxis" "[1 0 0 0] 0.25"
			"rotation" "90"
			"lightmapscale" "16"
			"smoothing_groups" "0"
		}
		side
		{
			"id" "1396"
			"plane" "(-368 130 -10) (-368 254 -10) (-368 254 -8)"
			"material" "WOOD/WOODFLOOR005A"
			"uaxis" "[0 1 0 0] 0.25"
			"vaxis" "[0 0 -1 0] 0.25"
			"rotation" "0"
			"lightmapscale" "16"
			"smoothing_groups" "0"
		}
		side
		{
			"id" "1395"
			"plane" "(-352 130 -8) (-352 254 -8) (-352 254 -10)"
			"material" "WOOD/WOODFLOOR005A"
			"uaxis" "[0 1 0 0] 0.25"
			"vaxis" "[0 0 -1 0] 0.25"
			"rotation" "0"
			"lightmapscale" "16"
			"smoothing_groups" "0"
		}
		side
		{
			"id" "1394"
			"plane" "(-368 254 -10) (-352 254 -10) (-352 254 -8)"
			"material" "WOOD/WOODFLOOR005A"
			"uaxis" "[1 0 0 0] 0.25"
			"vaxis" "[0 0 -1 0] 0.25"
			"rotation" "0"
			"lightmapscale" "16"
			"smoothing_groups" "0"
		}
		side
		{
			"id" "1393"
			"plane" "(-368 130 -8) (-352 130 -8) (-352 130 -10)"
			"material" "WOOD/WOODFLOOR005A"
			"uaxis" "[1 0 0 0] 0.25"
			"vaxis" "[0 0 -1 0] 0.25"
			"rotation" "0"
			"lightmapscale" "16"
			"smoothing_groups" "0"
		}
		editor
		{
			"color" "0 180 0"
			"visgroupshown" "1"
			"visgroupautoshown" "1"
		}
	}
	solid
	{
		"id" "1898"
		side
		{
			"id" "1458"
			"plane" "(-336 254 0) (-352 254 0) (-352 256 0)"
			"material" "WOOD/WOODFLOOR005A"
			"uaxis" "[0 1 0 0] 0.25"
			"vaxis" "[1 0 0 0] 0.25"
			"rotation" "90"
			"lightmapscale" "16"
			"smoothing_groups" "0"
		}
		side
		{
			"id" "1457"
			"plane" "(-384 256 -16) (-384 254 -16) (-384 254 -32)"
			"material" "WOOD/WOODFLOOR005A"
			"uaxis" "[0 0 1 0] 0.25"
			"vaxis" "[0 1 0 0] 0.25"
			"rotation" "90"
			"lightmapscale" "16"
			"smoothing_groups" "0"
		}
		side
		{
			"id" "1456"
			"plane" "(-336 256 0) (-336 256 -8) (-336 254 -8)"
			"material" "WOOD/WOODFLOOR005A"
			"uaxis" "[0 0 1 0] 0.25"
			"vaxis" "[0 1 0 0] 0.25"
			"rotation" "90"
			"lightmapscale" "16"
			"smoothing_groups" "0"
		}
		side
		{
			"id" "1455"
			"plane" "(-336 256 0) (-352 256 0) (-384 256 -16)"
			"material" "WOOD/WOODFLOOR005A"
			"uaxis" "[0 0 1 0] 0.25"
			"vaxis" "[1 0 0 0] 0.25"
			"rotation" "90"
			"lightmapscale" "16"
			"smoothing_groups" "0"
		}
		side
		{
			"id" "1454"
			"plane" "(-352 254 0) (-336 254 0) (-336 254 -8)"
			"material" "WOOD/WOODFLOOR005A"
			"uaxis" "[0 0 1 0] 0.25"
			"vaxis" "[1 0 0 0] 0.25"
			"rotation" "90"
			"lightmapscale" "16"
			"smoothing_groups" "0"
		}
		side
		{
			"id" "1453"
			"plane" "(-352 256 0) (-352 254 0) (-384 254 -16)"
			"material" "WOOD/WOODFLOOR005A"
			"uaxis" "[0 1 0 0] 0.25"
			"vaxis" "[1 0 0 0] 0.25"
			"rotation" "90"
			"lightmapscale" "16"
			"smoothing_groups" "0"
		}
		side
		{
			"id" "1452"
			"plane" "(-336 254 -8) (-336 256 -8) (-384 256 -32)"
			"material" "WOOD/WOODFLOOR005A"
			"uaxis" "[1 0 0 0] 0.25"
			"vaxis" "[0 -1 0 0] 0.25"
			"rotation" "0"
			"lightmapscale" "16"
			"smoothing_groups" "0"
		}
		editor
		{
			"color" "0 180 0"
			"visgroupshown" "1"
			"visgroupautoshown" "1"
		}
	}
	solid
	{
		"id" "1885"
		side
		{
			"id" "1444"
			"plane" "(-336 128 0) (-352 128 0) (-352 130 0)"
			"material" "WOOD/WOODFLOOR005A"
			"uaxis" "[0 1 0 0] 0.25"
			"vaxis" "[1 0 0 0] 0.25"
			"rotation" "90"
			"lightmapscale" "16"
			"smoothing_groups" "0"
		}
		side
		{
			"id" "1443"
			"plane" "(-384 130 -16) (-384 128 -16) (-384 128 -32)"
			"material" "WOOD/WOODFLOOR005A"
			"uaxis" "[0 0 1 0] 0.25"
			"vaxis" "[0 1 0 0] 0.25"
			"rotation" "90"
			"lightmapscale" "16"
			"smoothing_groups" "0"
		}
		side
		{
			"id" "1442"
			"plane" "(-336 130 0) (-336 130 -8) (-336 128 -8)"
			"material" "WOOD/WOODFLOOR005A"
			"uaxis" "[0 0 1 0] 0.25"
			"vaxis" "[0 1 0 0] 0.25"
			"rotation" "90"
			"lightmapscale" "16"
			"smoothing_groups" "0"
		}
		side
		{
			"id" "1441"
			"plane" "(-336 130 0) (-352 130 0) (-384 130 -16)"
			"material" "WOOD/WOODFLOOR005A"
			"uaxis" "[0 0 1 0] 0.25"
			"vaxis" "[1 0 0 0] 0.25"
			"rotation" "90"
			"lightmapscale" "16"
			"smoothing_groups" "0"
		}
		side
		{
			"id" "1440"
			"plane" "(-352 128 0) (-336 128 0) (-336 128 -8)"
			"material" "WOOD/WOODFLOOR005A"
			"uaxis" "[0 0 1 0] 0.25"
			"vaxis" "[1 0 0 0] 0.25"
			"rotation" "90"
			"lightmapscale" "16"
			"smoothing_groups" "0"
		}
		side
		{
			"id" "1439"
			"plane" "(-352 130 0) (-352 128 0) (-384 128 -16)"
			"material" "WOOD/WOODFLOOR005A"
			"uaxis" "[0 1 0 0] 0.25"
			"vaxis" "[1 0 0 0] 0.25"
			"rotation" "90"
			"lightmapscale" "16"
			"smoothing_groups" "0"
		}
		side
		{
			"id" "1438"
			"plane" "(-336 128 -8) (-336 130 -8) (-384 130 -32)"
			"material" "WOOD/WOODFLOOR005A"
			"uaxis" "[1 0 0 0] 0.25"
			"vaxis" "[0 -1 0 0] 0.25"
			"rotation" "0"
			"lightmapscale" "16"
			"smoothing_groups" "0"
		}
		editor
		{
			"color" "0 180 0"
			"visgroupshown" "1"
			"visgroupautoshown" "1"
		}
	}
	editor
	{
		"color" "0 180 0"
		"visgroupshown" "1"
		"visgroupautoshown" "1"
		"logicalpos" "[0 7000]"
	}
}
entity
{
	"id" "2069"
	"classname" "light_spot"
	"_cone" "89"
	"_constant_attn" "30000"
	"_distance" "1500"
	"_exponent" "1"
	"_inner_cone" "1"
	"_light" "220 234 239 130"
	"_lightHDR" "-1 -1 -1 1"
	"_lightscaleHDR" "1"
	"_quadratic_attn" "1"
	"angles" "0 90 90"
	"pitch" "0"
	"origin" "-96 0 64"
	editor
	{
		"color" "220 30 220"
		"visgroupshown" "1"
		"visgroupautoshown" "1"
		"logicalpos" "[0 6500]"
	}
}
entity
{
	"id" "2089"
	"classname" "light_spot"
	"_cone" "89"
	"_constant_attn" "30000"
	"_distance" "1500"
	"_exponent" "1"
	"_inner_cone" "1"
	"_light" "220 234 239 130"
	"_lightHDR" "-1 -1 -1 1"
	"_lightscaleHDR" "1"
	"_quadratic_attn" "1"
	"angles" "0 0 90"
	"pitch" "0"
	"origin" "-320 192 64"
	editor
	{
		"color" "220 30 220"
		"visgroupshown" "1"
		"visgroupautoshown" "1"
		"logicalpos" "[0 6500]"
	}
}
entity
{
	"id" "2123"
	"classname" "prop_static"
	"angles" "0 181 0"
	"fademindist" "-1"
	"fadescale" "1"
	"model" "models/props_c17/furniturecouch001a_static.mdl"
	"renderamt" "255"
	"rendercolor" "255 255 255"
	"skin" "0"
	"solid" "6"
	"uniformscale" "1"
	"origin" "-29 313 16.8565"
	editor
	{
		"color" "255 255 0"
		"visgroupshown" "1"
		"visgroupautoshown" "1"
		"logicalpos" "[0 13500]"
	}
}
entity
{
	"id" "2182"
	"classname" "prop_static"
	"angles" "0 0 0"
	"fademindist" "-1"
	"fadescale" "1"
	"model" "models/props_forest/shelves_wood.mdl"
	"renderamt" "255"
	"rendercolor" "255 255 255"
	"skin" "0"
	"solid" "6"
	"uniformscale" "1"
	"origin" "-16 640 0.249878"
	editor
	{
		"color" "255 255 0"
		"visgroupshown" "1"
		"visgroupautoshown" "1"
		"logicalpos" "[0 14000]"
	}
}
entity
{
	"id" "2214"
	"classname" "prop_static"
	"angles" "0 263.5 0"
	"fademindist" "-1"
	"fadescale" "1"
	"model" "models/props_forest/shelves_wood.mdl"
	"renderamt" "255"
	"rendercolor" "255 255 255"
	"skin" "0"
	"solid" "6"
	"uniformscale" "1"
	"origin" "-624 544 0.249863"
	editor
	{
		"color" "255 255 0"
		"visgroupshown" "1"
		"visgroupautoshown" "1"
		"logicalpos" "[0 14000]"
	}
}
entity
{
	"id" "2277"
	"classname" "prop_static"
	"angles" "0 262.5 0"
	"fademindist" "-1"
	"fadescale" "1"
	"model" "models/props_interiors/furniture_couch01a_static.mdl"
	"renderamt" "255"
	"rendercolor" "255 255 255"
	"skin" "0"
	"solid" "6"
	"uniformscale" "1"
	"origin" "-476 805 21.6139"
	editor
	{
		"color" "255 255 0"
		"visgroupshown" "1"
		"visgroupautoshown" "1"
		"logicalpos" "[0 13500]"
	}
}
entity
{
	"id" "2289"
	"classname" "info_overlay"
	"angles" "0 185.48 0"
	"BasisNormal" "0 0 1"
	"BasisOrigin" "-275 187 0"
	"BasisU" "-0.995396 -0.0958458 0"
	"BasisV" "0.0958458 -0.995396 0"
	"EndU" "1"
	"EndV" "0"
	"fademindist" "-1"
	"material" "decals/decalrug004a"
	"sides" "1043"
	"StartU" "0"
	"StartV" "1"
	"uv0" "-55.5995 -63.1802 0"
	"uv1" "-55.6439 63.2187 0"
	"uv2" "55.5995 63.1802 0"
	"uv3" "55.6439 -63.2187 0"
	"origin" "-275 187 0"
	editor
	{
		"color" "80 150 225"
		"visgroupshown" "1"
		"visgroupautoshown" "1"
		"logicalpos" "[0 15000]"
	}
}
entity
{
	"id" "2415"
	"classname" "prop_physics_override"
	"angles" "0 0 0"
	"damagetoenablemotion" "0"
	"Damagetype" "0"
	"ExplodeDamage" "0"
	"ExplodeRadius" "0"
	"fademindist" "-1"
	"fadescale" "1"
	"forcetoenablemotion" "0"
	"health" "0"
	"inertiaScale" "1.0"
	"massScale" "0"
	"minhealthdmg" "0"
	"model" "models/props_c17/furnituretable002a.mdl"
	"nodamageforces" "0"
	"PerformanceMode" "0"
	"physdamagescale" "0.1"
	"pressuredelay" "0"
	"shadowcastdist" "0"
	"skin" "0"
	"spawnflags" "305"
	"origin" "-296 391 18.4438"
	editor
	{
		"color" "220 30 220"
		"visgroupshown" "1"
		"visgroupautoshown" "1"
		"logicalpos" "[0 15500]"
	}
}
entity
{
	"id" "2426"
	"classname" "infodecal"
	"texture" "decals/bills03a"
	"origin" "-320 340.415 73.8074"
	editor
	{
		"color" "220 30 220"
		"visgroupshown" "1"
		"visgroupautoshown" "1"
		"logicalpos" "[0 -16268]"
	}
}
entity
{
	"id" "2429"
	"classname" "infodecal"
	"texture" "decals/bills01a"
	"origin" "-320 374.052 69.7996"
	editor
	{
		"color" "220 30 220"
		"visgroupshown" "1"
		"visgroupautoshown" "1"
		"logicalpos" "[0 -15768]"
	}
}
entity
{
	"id" "2432"
	"classname" "infodecal"
	"texture" "decals/bills04a"
	"origin" "-320 395.541 77.4587"
	editor
	{
		"color" "220 30 220"
		"visgroupshown" "1"
		"visgroupautoshown" "1"
		"logicalpos" "[0 -15268]"
	}
}
entity
{
	"id" "2438"
	"classname" "infodecal"
	"texture" "decals/bills05a"
	"origin" "-320 399.406 59.6012"
	editor
	{
		"color" "220 30 220"
		"visgroupshown" "1"
		"visgroupautoshown" "1"
		"logicalpos" "[0 -14268]"
	}
}
entity
{
	"id" "2476"
	"classname" "prop_physics_override"
	"angles" "0 0 0"
	"damagetoenablemotion" "0"
	"Damagetype" "0"
	"ExplodeDamage" "0"
	"ExplodeRadius" "0"
	"fademindist" "-1"
	"fadescale" "1"
	"forcetoenablemotion" "0"
	"health" "0"
	"inertiaScale" "1.0"
	"massScale" "0"
	"minhealthdmg" "0"
	"model" "models/props_c17/furnituretable001a.mdl"
	"nodamageforces" "0"
	"PerformanceMode" "0"
	"physdamagescale" "0.1"
	"pressuredelay" "0"
	"shadowcastdist" "0"
	"skin" "0"
	"spawnflags" "305"
	"origin" "-376 786 18.207"
	editor
	{
		"color" "220 30 220"
		"visgroupshown" "1"
		"visgroupautoshown" "1"
		"logicalpos" "[0 15500]"
	}
}
entity
{
	"id" "3027"
	"classname" "func_detail"
	solid
	{
		"id" "2968"
		side
		{
			"id" "1740"
			"plane" "(-750 523.75 34) (-750 541.75 34) (-706 536.25 34)"
			"material" "WOOD/WOODBEAM001A"
			"uaxis" "[0 1 0 0] 0.25"
			"vaxis" "[1 0 0 0] 0.25"
			"rotation" "90"
			"lightmapscale" "16"
			"smoothing_groups" "0"
		}
		side
		{
			"id" "1739"
			"plane" "(-752 542 32) (-752 524 32) (-704 518 32)"
			"material" "WOOD/WOODBEAM001A"
			"uaxis" "[0 1 0 0] 0.25"
			"vaxis" "[1 0 0 0] 0.25"
			"rotation" "90"
			"lightmapscale" "16"
			"smoothing_groups" "0"
		}
		side
		{
			"id" "1738"
			"plane" "(-752 524 32) (-752 542 32) (-750 541.746 34)"
			"material" "WOOD/WOODBEAM001A"
			"uaxis" "[0 0 1 0] 0.25"
			"vaxis" "[0 1 0 0] 0.25"
			"rotation" "90"
			"lightmapscale" "16"
			"smoothing_groups" "0"
		}
		side
		{
			"id" "1737"
			"plane" "(-704 536 32) (-704 518 32) (-706 518.25 34)"
			"material" "WOOD/WOODBEAM001A"
			"uaxis" "[0 0 1 0] 0.25"
			"vaxis" "[0 1 0 0] 0.25"
			"rotation" "90"
			"lightmapscale" "16"
			"smoothing_groups" "0"
		}
		side
		{
			"id" "1736"
			"plane" "(-752 542 32) (-704 536 32) (-706 536.25 34)"
			"material" "WOOD/WOODBEAM001A"
			"uaxis" "[0 0 1 0] 0.25"
			"vaxis" "[1 0 0 0] 0.25"
			"rotation" "90"
			"lightmapscale" "16"
			"smoothing_groups" "0"
		}
		side
		{
			"id" "1735"
			"plane" "(-704 518 32) (-752 524 32) (-750 523.75 34)"
			"material" "WOOD/WOODBEAM001A"
			"uaxis" "[0 0 1 0] 0.25"
			"vaxis" "[1 0 0 0] 0.25"
			"rotation" "90"
			"lightmapscale" "16"
			"smoothing_groups" "0"
		}
		editor
		{
			"color" "0 180 0"
			"visgroupshown" "1"
			"visgroupautoshown" "1"
		}
	}
	solid
	{
		"id" "2969"
		side
		{
			"id" "1746"
			"plane" "(-750 541.75 94) (-750 523.75 94) (-752 524 96)"
			"material" "WOOD/WOODBEAM001A"
			"uaxis" "[0 1 0 0] 0.25"
			"vaxis" "[0 0 -1 0] 0.25"
			"rotation" "0"
			"lightmapscale" "16"
			"smoothing_groups" "0"
		}
		side
		{
			"id" "1745"
			"plane" "(-752 542 32) (-752 524 32) (-750 523.75 34)"
			"material" "WOOD/WOODBEAM001A"
			"uaxis" "[0 1 0 0] 0.25"
			"vaxis" "[0 0 -1 0] 0.25"
			"rotation" "0"
			"lightmapscale" "16"
			"smoothing_groups" "0"
		}
		side
		{
			"id" "1744"
			"plane" "(-752 524 32) (-752 542 32) (-752 542 96)"
			"material" "WOOD/WOODBEAM001A"
			"uaxis" "[0 1 0 0] 0.25"
			"vaxis" "[0 0 -1 0] 0.25"
			"rotation" "0"
			"lightmapscale" "16"
			"smoothing_groups" "0"
		}
		side
		{
			"id" "1743"
			"plane" "(-750 541.75 34) (-750 523.75 34) (-750 523.75 94)"
			"material" "WOOD/WOODBEAM001A"
			"uaxis" "[0 1 0 0] 0.25"
			"vaxis" "[0 0 -1 0] 0.25"
			"rotation" "0"
			"lightmapscale" "16"
			"smoothing_groups" "0"
		}
		side
		{
			"id" "1742"
			"plane" "(-752 542 32) (-750 541.75 34) (-750 541.75 94)"
			"material" "WOOD/WOODBEAM001A"
			"uaxis" "[1 0 0 0] 0.25"
			"vaxis" "[0 0 -1 0] 0.25"
			"rotation" "0"
			"lightmapscale" "16"
			"smoothing_groups" "0"
		}
		side
		{
			"id" "1741"
			"plane" "(-752 524 96) (-750 523.75 94) (-750 523.75 34)"
			"material" "WOOD/WOODBEAM001A"
			"uaxis" "[1 0 0 0] 0.25"
			"vaxis" "[0 0 -1 0] 0.25"
			"rotation" "0"
			"lightmapscale" "16"
			"smoothing_groups" "0"
		}
		editor
		{
			"color" "0 180 0"
			"visgroupshown" "1"
			"visgroupautoshown" "1"
		}
	}
	solid
	{
		"id" "2970"
		side
		{
			"id" "1752"
			"plane" "(-750 541.746 94) (-750 523.75 94) (-706 518.25 94)"
			"material" "TOOLS/TOOLSNODRAW"
			"uaxis" "[1 0 0 0] 0.25"
			"vaxis" "[0 -1 0 0] 0.25"
			"rotation" "0"
			"lightmapscale" "16"
			"smoothing_groups" "0"
		}
		side
		{
			"id" "1751"
			"plane" "(-752 524 96) (-752 542 96) (-704 536 96)"
			"material" "WOOD/WOODBEAM001A"
			"uaxis" "[0 1 0 0] 0.25"
			"vaxis" "[1 0 0 0] 0.25"
			"rotation" "90"
			"lightmapscale" "16"
			"smoothing_groups" "0"
		}
		side
		{
			"id" "1750"
			"plane" "(-706 536.246 94) (-706 518.25 94) (-704 518 96)"
			"material" "WOOD/WOODBEAM001A"
			"uaxis" "[0 0 1 0] 0.25"
			"vaxis" "[0 1 0 0] 0.25"
			"rotation" "90"
			"lightmapscale" "16"
			"smoothing_groups" "0"
		}
		side
		{
			"id" "1749"
			"plane" "(-750 523.75 94) (-750 541.749 94) (-752 542 96)"
			"material" "WOOD/WOODBEAM001A"
			"uaxis" "[0 0 1 0] 0.25"
			"vaxis" "[0 1 0 0] 0.25"
			"rotation" "90"
			"lightmapscale" "16"
			"smoothing_groups" "0"
		}
		side
		{
			"id" "1748"
			"plane" "(-750 541.749 94) (-706 536.249 94) (-704 536 96)"
			"material" "WOOD/WOODBEAM001A"
			"uaxis" "[0 0 1 0] 0.25"
			"vaxis" "[1 0 0 0] 0.25"
			"rotation" "90"
			"lightmapscale" "16"
			"smoothing_groups" "0"
		}
		side
		{
			"id" "1747"
			"plane" "(-706 518.25 94) (-750 523.75 94) (-752 524 96)"
			"material" "WOOD/WOODBEAM001A"
			"uaxis" "[0 0 1 0] 0.25"
			"vaxis" "[1 0 0 0] 0.25"
			"rotation" "90"
			"lightmapscale" "16"
			"smoothing_groups" "0"
		}
		editor
		{
			"color" "0 180 0"
			"visgroupshown" "1"
			"visgroupautoshown" "1"
		}
	}
	solid
	{
		"id" "2971"
		side
		{
			"id" "1758"
			"plane" "(-706 536.25 34) (-706 518.25 34) (-704 518 32)"
			"material" "WOOD/WOODBEAM001A"
			"uaxis" "[0 1 0 0] 0.25"
			"vaxis" "[0 0 -1 0] 0.25"
			"rotation" "0"
			"lightmapscale" "16"
			"smoothing_groups" "0"
		}
		side
		{
			"id" "1757"
			"plane" "(-706 518.25 94) (-706 536.25 94) (-704 536 96)"
			"material" "WOOD/WOODBEAM001A"
			"uaxis" "[0 1 0 0] 0.25"
			"vaxis" "[0 0 -1 0] 0.25"
			"rotation" "0"
			"lightmapscale" "16"
			"smoothing_groups" "0"
		}
		side
		{
			"id" "1756"
			"plane" "(-704 536 32) (-704 518 32) (-704 518 96)"
			"material" "WOOD/WOODBEAM001A"
			"uaxis" "[0 1 0 0] 0.25"
			"vaxis" "[0 0 -1 0] 0.25"
			"rotation" "0"
			"lightmapscale" "16"
			"smoothing_groups" "0"
		}
		side
		{
			"id" "1755"
			"plane" "(-706 518.25 34) (-706 536.25 34) (-706 536.25 94)"
			"material" "WOOD/WOODBEAM001A"
			"uaxis" "[0 1 0 0] 0.25"
			"vaxis" "[0 0 -1 0] 0.25"
			"rotation" "0"
			"lightmapscale" "16"
			"smoothing_groups" "0"
		}
		side
		{
			"id" "1754"
			"plane" "(-704 536 96) (-706 536.25 94) (-706 536.25 34)"
			"material" "WOOD/WOODBEAM001A"
			"uaxis" "[1 0 0 0] 0.25"
			"vaxis" "[0 0 -1 0] 0.25"
			"rotation" "0"
			"lightmapscale" "16"
			"smoothing_groups" "0"
		}
		side
		{
			"id" "1753"
			"plane" "(-704 518 32) (-706 518.25 34) (-706 518.25 94)"
			"material" "WOOD/WOODBEAM001A"
			"uaxis" "[1 0 0 0] 0.25"
			"vaxis" "[0 0 -1 0] 0.25"
			"rotation" "0"
			"lightmapscale" "16"
			"smoothing_groups" "0"
		}
		editor
		{
			"color" "0 180 0"
			"visgroupshown" "1"
			"visgroupautoshown" "1"
		}
	}
	editor
	{
		"color" "0 180 0"
		"visgroupshown" "1"
		"visgroupautoshown" "1"
		"logicalpos" "[0 -3268]"
	}
}
entity
{
	"id" "3237"
	"classname" "func_detail"
	solid
	{
		"id" "3238"
		side
		{
			"id" "2022"
			"plane" "(-66 -16 34) (-110 -16 34) (-110 0 34)"
			"material" "WOOD/WOODBEAM001A"
			"uaxis" "[0 1 0 0] 0.25"
			"vaxis" "[1 0 0 448] 0.25"
			"rotation" "0"
			"lightmapscale" "16"
			"smoothing_groups" "0"
		}
		side
		{
			"id" "2021"
			"plane" "(-64 0 32) (-112 0 32) (-112 -16 32)"
			"material" "WOOD/WOODBEAM001A"
			"uaxis" "[0 1 0 0] 0.25"
			"vaxis" "[1 0 0 448] 0.25"
			"rotation" "0"
			"lightmapscale" "16"
			"smoothing_groups" "0"
		}
		side
		{
			"id" "2020"
			"plane" "(-64 -16 32) (-112 -16 32) (-110 -16 34)"
			"material" "WOOD/WOODBEAM001A"
			"uaxis" "[0 0 1 -200] 0.25"
			"vaxis" "[1 0 0 448] 0.25"
			"rotation" "0"
			"lightmapscale" "16"
			"smoothing_groups" "0"
		}
		side
		{
			"id" "2019"
			"plane" "(-112 0 32) (-64 0 32) (-66 0 34)"
			"material" "WOOD/WOODBEAM001A"
			"uaxis" "[0 0 -1 136] 0.25"
			"vaxis" "[1 0 0 448] 0.25"
			"rotation" "0"
			"lightmapscale" "16"
			"smoothing_groups" "0"
		}
		side
		{
			"id" "2018"
			"plane" "(-112 -16 32) (-112 0 32) (-110 0 34)"
			"material" "WOOD/WOODBEAM001A"
			"uaxis" "[0 1 0 0] 0.25"
			"vaxis" "[0 0 -1 0] 0.25"
			"rotation" "0"
			"lightmapscale" "16"
			"smoothing_groups" "0"
		}
		side
		{
			"id" "2017"
			"plane" "(-64 0 32) (-64 -16 32) (-66 -16 34)"
			"material" "WOOD/WOODBEAM001A"
			"uaxis" "[0 1 0 0] 0.25"
			"vaxis" "[0 0 -1 0] 0.25"
			"rotation" "0"
			"lightmapscale" "16"
			"smoothing_groups" "0"
		}
		editor
		{
			"color" "0 180 0"
			"visgroupshown" "1"
			"visgroupautoshown" "1"
		}
	}
	solid
	{
		"id" "3239"
		side
		{
			"id" "2028"
			"plane" "(-112 0 96) (-110 0 94) (-110 -16 94)"
			"material" "WOOD/WOODBEAM001A"
			"uaxis" "[0 1 0 0] 0.25"
			"vaxis" "[1 0 0 448] 0.25"
			"rotation" "0"
			"lightmapscale" "16"
			"smoothing_groups" "0"
		}
		side
		{
			"id" "2027"
			"plane" "(-112 -16 32) (-110 -16 34) (-110 0 34)"
			"material" "WOOD/WOODBEAM001A"
			"uaxis" "[0 1 0 0] 0.25"
			"vaxis" "[1 0 0 448] 0.25"
			"rotation" "0"
			"lightmapscale" "16"
			"smoothing_groups" "0"
		}
		side
		{
			"id" "2026"
			"plane" "(-112 -16 96) (-110 -16 94) (-110 -16 34)"
			"material" "WOOD/WOODBEAM001A"
			"uaxis" "[-1 0 0 -192] 0.25"
			"vaxis" "[0 0 -1 0] 0.25"
			"rotation" "0"
			"lightmapscale" "16"
			"smoothing_groups" "0"
		}
		side
		{
			"id" "2025"
			"plane" "(-112 0 32) (-110 0 34) (-110 0 94)"
			"material" "WOOD/WOODBEAM001A"
			"uaxis" "[-1 0 0 -192] 0.25"
			"vaxis" "[0 0 -1 0] 0.25"
			"rotation" "0"
			"lightmapscale" "16"
			"smoothing_groups" "0"
		}
		side
		{
			"id" "2024"
			"plane" "(-112 -16 32) (-112 0 32) (-112 0 96)"
			"material" "WOOD/WOODBEAM001A"
			"uaxis" "[0 1 0 0] 0.25"
			"vaxis" "[0 0 -1 0] 0.25"
			"rotation" "0"
			"lightmapscale" "16"
			"smoothing_groups" "0"
		}
		side
		{
			"id" "2023"
			"plane" "(-110 0 34) (-110 -16 34) (-110 -16 94)"
			"material" "WOOD/WOODBEAM001A"
			"uaxis" "[0 1 0 0] 0.25"
			"vaxis" "[0 0 -1 0] 0.25"
			"rotation" "0"
			"lightmapscale" "16"
			"smoothing_groups" "0"
		}
		editor
		{
			"color" "0 180 0"
			"visgroupshown" "1"
			"visgroupautoshown" "1"
		}
	}
	solid
	{
		"id" "3240"
		side
		{
			"id" "2034"
			"plane" "(-66 0 94) (-110 0 94) (-110 -16 94)"
			"material" "TOOLS/TOOLSNODRAW"
			"uaxis" "[-1 0 0 0] 0.25"
			"vaxis" "[0 1 0 0] 0.25"
			"rotation" "90"
			"lightmapscale" "16"
			"smoothing_groups" "0"
		}
		side
		{
			"id" "2033"
			"plane" "(-64 -16 96) (-112 -16 96) (-112 0 96)"
			"material" "WOOD/WOODBEAM001A"
			"uaxis" "[0 1 0 0] 0.25"
			"vaxis" "[1 0 0 448] 0.25"
			"rotation" "0"
			"lightmapscale" "16"
			"smoothing_groups" "0"
		}
		side
		{
			"id" "2032"
			"plane" "(-66 -16 94) (-110 -16 94) (-112 -16 96)"
			"material" "WOOD/WOODBEAM001A"
			"uaxis" "[0 0 -1 56] 0.25"
			"vaxis" "[1 0 0 448] 0.25"
			"rotation" "0"
			"lightmapscale" "16"
			"smoothing_groups" "0"
		}
		side
		{
			"id" "2031"
			"plane" "(-110 0 94) (-66 0 94) (-64 0 96)"
			"material" "WOOD/WOODBEAM001A"
			"uaxis" "[0 0 1 -120] 0.25"
			"vaxis" "[1 0 0 448] 0.25"
			"rotation" "0"
			"lightmapscale" "16"
			"smoothing_groups" "0"
		}
		side
		{
			"id" "2030"
			"plane" "(-66 0 94) (-66 -16 94) (-64 -16 96)"
			"material" "WOOD/WOODBEAM001A"
			"uaxis" "[0 1 0 0] 0.25"
			"vaxis" "[0 0 -1 0] 0.25"
			"rotation" "0"
			"lightmapscale" "16"
			"smoothing_groups" "0"
		}
		side
		{
			"id" "2029"
			"plane" "(-110 -16 94) (-110 0 94) (-112 0 96)"
			"material" "WOOD/WOODBEAM001A"
			"uaxis" "[0 1 0 0] 0.25"
			"vaxis" "[0 0 -1 0] 0.25"
			"rotation" "0"
			"lightmapscale" "16"
			"smoothing_groups" "0"
		}
		editor
		{
			"color" "0 180 0"
			"visgroupshown" "1"
			"visgroupautoshown" "1"
		}
	}
	solid
	{
		"id" "3241"
		side
		{
			"id" "2040"
			"plane" "(-64 0 32) (-66 0 34) (-66 -16 34)"
			"material" "WOOD/WOODBEAM001A"
			"uaxis" "[0 1 0 0] 0.25"
			"vaxis" "[0 0 -1 0] 0.25"
			"rotation" "0"
			"lightmapscale" "16"
			"smoothing_groups" "0"
		}
		side
		{
			"id" "2039"
			"plane" "(-64 -16 96) (-66 -16 94) (-66 0 94)"
			"material" "WOOD/WOODBEAM001A"
			"uaxis" "[0 1 0 0] 0.25"
			"vaxis" "[0 0 -1 0] 0.25"
			"rotation" "0"
			"lightmapscale" "16"
			"smoothing_groups" "0"
		}
		side
		{
			"id" "2038"
			"plane" "(-64 -16 32) (-66 -16 34) (-66 -16 94)"
			"material" "WOOD/WOODBEAM001A"
			"uaxis" "[-1 0 0 -192] 0.25"
			"vaxis" "[0 0 -1 0] 0.25"
			"rotation" "0"
			"lightmapscale" "16"
			"smoothing_groups" "0"
		}
		side
		{
			"id" "2037"
			"plane" "(-66 0 34) (-64 0 32) (-64 0 96)"
			"material" "WOOD/WOODBEAM001A"
			"uaxis" "[-1 0 0 -192] 0.25"
			"vaxis" "[0 0 -1 0] 0.25"
			"rotation" "0"
			"lightmapscale" "16"
			"smoothing_groups" "0"
		}
		side
		{
			"id" "2036"
			"plane" "(-64 0 32) (-64 -16 32) (-64 -16 96)"
			"material" "WOOD/WOODBEAM001A"
			"uaxis" "[0 1 0 0] 0.25"
			"vaxis" "[0 0 -1 0] 0.25"
			"rotation" "0"
			"lightmapscale" "16"
			"smoothing_groups" "0"
		}
		side
		{
			"id" "2035"
			"plane" "(-66 -16 34) (-66 0 34) (-66 0 94)"
			"material" "WOOD/WOODBEAM001A"
			"uaxis" "[0 1 0 0] 0.25"
			"vaxis" "[0 0 -1 0] 0.25"
			"rotation" "0"
			"lightmapscale" "16"
			"smoothing_groups" "0"
		}
		editor
		{
			"color" "0 180 0"
			"visgroupshown" "1"
			"visgroupautoshown" "1"
		}
	}
	editor
	{
		"color" "0 180 0"
		"visgroupshown" "1"
		"visgroupautoshown" "1"
		"logicalpos" "[0 7500]"
	}
}
entity
{
	"id" "3268"
	"classname" "light_spot"
	"_cone" "89"
	"_constant_attn" "30000"
	"_distance" "1500"
	"_exponent" "1"
	"_inner_cone" "1"
	"_light" "220 234 239 130"
	"_lightHDR" "-1 -1 -1 1"
	"_lightscaleHDR" "1"
	"_quadratic_attn" "1"
	"angles" "0 90 90"
	"pitch" "0"
	"origin" "-736 544 64"
	editor
	{
		"color" "220 30 220"
		"visgroupshown" "1"
		"visgroupautoshown" "1"
		"logicalpos" "[0 6500]"
	}
}
entity
{
	"id" "3315"
	"classname" "prop_static"
	"angles" "0 263.5 0"
	"fademindist" "-1"
	"fadescale" "1"
	"model" "models/props_wasteland/cafeteria_table001a.mdl"
	"renderamt" "255"
	"rendercolor" "255 255 255"
	"skin" "0"
	"solid" "6"
	"uniformscale" "1"
	"origin" "-898 581 15.6282"
	editor
	{
		"color" "255 255 0"
		"visgroupshown" "1"
		"visgroupautoshown" "1"
		"logicalpos" "[500 11000]"
	}
}
entity
{
	"id" "3354"
	"classname" "prop_static"
	"angles" "0 0 0"
	"fademindist" "-1"
	"fadescale" "1"
	"model" "models/brush/target_wood01.mdl"
	"renderamt" "255"
	"rendercolor" "255 255 255"
	"skin" "0"
	"solid" "6"
	"uniformscale" "1"
	"origin" "-1024 672 0"
	editor
	{
		"color" "255 255 0"
		"visgroupshown" "1"
		"visgroupautoshown" "1"
		"logicalpos" "[500 11500]"
	}
}
entity
{
	"id" "3366"
	"classname" "prop_static"
	"angles" "0 0 0"
	"fademindist" "-1"
	"fadescale" "1"
	"model" "models/brush/target_wood01.mdl"
	"renderamt" "255"
	"rendercolor" "255 255 255"
	"skin" "1"
	"solid" "6"
	"uniformscale" "1"
	"origin" "-1024 752 0"
	editor
	{
		"color" "255 255 0"
		"visgroupshown" "1"
		"visgroupautoshown" "1"
		"logicalpos" "[500 11500]"
	}
}
entity
{
	"id" "3397"
	"classname" "infodecal"
	"texture" "decals/decal_posters001a"
	"origin" "-840.944 873.118 58.9061"
	editor
	{
		"color" "220 30 220"
		"visgroupshown" "1"
		"visgroupautoshown" "1"
		"logicalpos" "[500 12000]"
	}
}
entity
{
	"id" "3403"
	"classname" "infodecal"
	"texture" "decals/decal_posters003a"
	"origin" "-745.995 861.249 69.2937"
	editor
	{
		"color" "220 30 220"
		"visgroupshown" "1"
		"visgroupautoshown" "1"
		"logicalpos" "[500 13000]"
	}
}
entity
{
	"id" "3422"
	"classname" "prop_static"
	"angles" "-89 246.5 -89.9998"
	"fademindist" "-1"
	"fadescale" "1"
	"model" "models/props_c17/furniturecouch001a_static.mdl"
	"renderamt" "255"
	"rendercolor" "255 255 255"
	"skin" "0"
	"solid" "6"
	"uniformscale" "1"
	"origin" "-989 834 23.3338"
	editor
	{
		"color" "255 255 0"
		"visgroupshown" "1"
		"visgroupautoshown" "1"
		"logicalpos" "[0 13500]"
	}
}
entity
{
	"id" "3503"
	"classname" "infodecal"
	"angles" "0 0 0"
	"texture" "decals/decalgraffiti012a"
	"origin" "-304 804 76.0474"
	editor
	{
		"color" "220 30 220"
		"visgroupshown" "1"
		"visgroupautoshown" "1"
		"logicalpos" "[500 15500]"
	}
}
entity
{
	"id" "3563"
	"classname" "prop_physics_override"
	"angles" "0 248 0"
	"damagetoenablemotion" "0"
	"Damagetype" "0"
	"ExplodeDamage" "0"
	"ExplodeRadius" "0"
	"fademindist" "-1"
	"fadescale" "1"
	"forcetoenablemotion" "0"
	"health" "0"
	"inertiaScale" "1.0"
	"massScale" "0"
	"minhealthdmg" "0"
	"model" "models/props_junk/cardboard_box002a_static.mdl"
	"nodamageforces" "0"
	"PerformanceMode" "0"
	"physdamagescale" "0.1"
	"pressuredelay" "0"
	"shadowcastdist" "0"
	"skin" "0"
	"spawnflags" "305"
	"origin" "-632.679 745.829 12.2372"
	editor
	{
		"color" "220 30 220"
		"visgroupshown" "1"
		"visgroupautoshown" "1"
		"logicalpos" "[0 0]"
	}
}
entity
{
	"id" "3571"
	"classname" "prop_physics_override"
	"angles" "0 354.5 0"
	"damagetoenablemotion" "0"
	"Damagetype" "0"
	"ExplodeDamage" "0"
	"ExplodeRadius" "0"
	"fademindist" "-1"
	"fadescale" "1"
	"forcetoenablemotion" "0"
	"health" "0"
	"inertiaScale" "1.0"
	"massScale" "0"
	"minhealthdmg" "0"
	"model" "models/props_junk/cardboard_box002a_static.mdl"
	"nodamageforces" "0"
	"PerformanceMode" "0"
	"physdamagescale" "0.1"
	"pressuredelay" "0"
	"shadowcastdist" "0"
	"skin" "0"
	"spawnflags" "305"
	"origin" "-19.1512 125.587 12.2372"
	editor
	{
		"color" "220 30 220"
		"visgroupshown" "1"
		"visgroupautoshown" "1"
		"logicalpos" "[0 0]"
	}
}
entity
{
	"id" "3606"
	"classname" "prop_physics_override"
	"angles" "-1.24337 222.305 83.3841"
	"disableshadows" "1"
	"fademaxdist" "3500"
	"fademindist" "2500"
	"fadescale" "1"
	"inertiaScale" "1.0"
	"model" "models/props_junk/garbage_takeoutcarton001a_item.mdl"
	"physdamagescale" "0.1"
	"skin" "0"
	"spawnflags" "305"
	"origin" "-874.644 684.902 17.0757"
	editor
	{
		"color" "220 30 220"
		"visgroupshown" "1"
		"visgroupautoshown" "1"
		"logicalpos" "[0 500]"
	}
}
entity
{
	"id" "3610"
	"classname" "infodecal"
	"angles" "0 0 0"
	"texture" "decals/plaster020a"
	"origin" "16 384 64"
	editor
	{
		"color" "220 30 220"
		"visgroupshown" "1"
		"visgroupautoshown" "1"
		"logicalpos" "[500 -13268]"
	}
}
entity
{
	"id" "3624"
	"classname" "infodecal"
	"texture" "decals/plaster015a"
	"origin" "16 591.586 26.6913"
	editor
	{
		"color" "220 30 220"
		"visgroupshown" "1"
		"visgroupautoshown" "1"
		"logicalpos" "[500 -12768]"
	}
}
cameras
{
	"activecamera" "-1"
}
cordons
{
	"active" "0"
}
