versioninfo
{
	"editorversion" "400"
	"editorbuild" "5032"
	"mapversion" "6"
	"formatversion" "100"
	"prefab" "0"
}
visgroups
{
}
viewsettings
{
	"bSnapToGrid" "1"
	"bShowGrid" "1"
	"bShowLogicalGrid" "0"
	"nGridSpacing" "8"
	"bShow3DGrid" "0"
}
world
{
	"id" "1"
	"mapversion" "6"
	"classname" "worldspawn"
	"detailmaterial" "detail/detailsprites"
	"detailvbsp" "detail.vbsp"
	"maxpropscreenwidth" "-1"
	"skyname" "sky_day01_01"
	solid
	{
		"id" "40"
		side
		{
			"id" "43"
			"plane" "(0 8 68) (200 8 68) (200 0 68)"
			"material" "TOOLS/TOOLSNPCCLIP"
			"uaxis" "[1 0 0 0] 0.25"
			"vaxis" "[0 -1 0 0] 0.25"
			"rotation" "0"
			"lightmapscale" "16"
			"smoothing_groups" "0"
		}
		side
		{
			"id" "44"
			"plane" "(0 0 0) (200 0 0) (200 8 0)"
			"material" "TOOLS/TOOLSNPCCLIP"
			"uaxis" "[1 0 0 0] 0.25"
			"vaxis" "[0 -1 0 0] 0.25"
			"rotation" "0"
			"lightmapscale" "16"
			"smoothing_groups" "0"
		}
		side
		{
			"id" "45"
			"plane" "(0 8 68) (0 0 68) (0 0 0)"
			"material" "TOOLS/TOOLSNPCCLIP"
			"uaxis" "[0 1 0 0] 0.25"
			"vaxis" "[0 0 -1 0] 0.25"
			"rotation" "0"
			"lightmapscale" "16"
			"smoothing_groups" "0"
		}
		side
		{
			"id" "46"
			"plane" "(200 8 0) (200 0 0) (200 0 68)"
			"material" "TOOLS/TOOLSNPCCLIP"
			"uaxis" "[0 1 0 0] 0.25"
			"vaxis" "[0 0 -1 0] 0.25"
			"rotation" "0"
			"lightmapscale" "16"
			"smoothing_groups" "0"
		}
		side
		{
			"id" "47"
			"plane" "(200 8 68) (0 8 68) (0 8 0)"
			"material" "TOOLS/TOOLSNPCCLIP"
			"uaxis" "[1 0 0 0] 0.25"
			"vaxis" "[0 0 -1 0] 0.25"
			"rotation" "0"
			"lightmapscale" "16"
			"smoothing_groups" "0"
		}
		side
		{
			"id" "48"
			"plane" "(200 0 0) (0 0 0) (0 0 68)"
			"material" "TOOLS/TOOLSNPCCLIP"
			"uaxis" "[1 0 0 0] 0.25"
			"vaxis" "[0 0 -1 0] 0.25"
			"rotation" "0"
			"lightmapscale" "16"
			"smoothing_groups" "0"
		}
		editor
		{
			"color" "0 186 203"
			"visgroupshown" "1"
			"visgroupautoshown" "1"
		}
	}
}
entity
{
	"id" "9"
	"classname" "func_detail"
	solid
	{
		"id" "2"
		side
		{
			"id" "1"
			"plane" "(0 4 68) (200 4 68) (200 0 68)"
			"material" "WOOD/WOODFLOOR005A"
			"uaxis" "[0 1 0 0] 0.25"
			"vaxis" "[1 0 0 0] 0.25"
			"rotation" "90"
			"lightmapscale" "16"
			"smoothing_groups" "0"
		}
		side
		{
			"id" "2"
			"plane" "(0 0 64) (200 0 64) (200 4 64)"
			"material" "TOOLS/TOOLSNODRAW"
			"uaxis" "[1 0 0 0] 0.25"
			"vaxis" "[0 -1 0 0] 0.25"
			"rotation" "0"
			"lightmapscale" "16"
			"smoothing_groups" "0"
		}
		side
		{
			"id" "3"
			"plane" "(0 4 68) (0 0 68) (0 0 64)"
			"material" "WOOD/WOODFLOOR005A"
			"uaxis" "[0 0 1 0] 0.25"
			"vaxis" "[0 1 0 0] 0.25"
			"rotation" "90"
			"lightmapscale" "16"
			"smoothing_groups" "0"
		}
		side
		{
			"id" "4"
			"plane" "(200 4 64) (200 0 64) (200 0 68)"
			"material" "WOOD/WOODFLOOR005A"
			"uaxis" "[0 0 1 0] 0.25"
			"vaxis" "[0 1 0 0] 0.25"
			"rotation" "90"
			"lightmapscale" "16"
			"smoothing_groups" "0"
		}
		side
		{
			"id" "5"
			"plane" "(200 4 68) (0 4 68) (0 4 64)"
			"material" "WOOD/WOODFLOOR005A"
			"uaxis" "[0 0 1 0] 0.25"
			"vaxis" "[1 0 0 0] 0.25"
			"rotation" "90"
			"lightmapscale" "16"
			"smoothing_groups" "0"
		}
		side
		{
			"id" "6"
			"plane" "(200 0 64) (0 0 64) (0 0 68)"
			"material" "WOOD/WOODFLOOR005A"
			"uaxis" "[0 0 1 0] 0.25"
			"vaxis" "[1 0 0 0] 0.25"
			"rotation" "90"
			"lightmapscale" "16"
			"smoothing_groups" "0"
		}
		editor
		{
			"color" "0 180 0"
			"visgroupshown" "1"
			"visgroupautoshown" "1"
		}
	}
	editor
	{
		"color" "0 180 0"
		"visgroupshown" "1"
		"visgroupautoshown" "1"
		"logicalpos" "[0 500]"
	}
}
entity
{
	"id" "14"
	"classname" "func_detail"
	solid
	{
		"id" "12"
		side
		{
			"id" "18"
			"plane" "(188 4 64) (192 4 64) (192 0 64)"
			"material" "WOOD/WOODFLOOR005A"
			"uaxis" "[1 0 0 0] 0.25"
			"vaxis" "[0 -1 0 0] 0.25"
			"rotation" "0"
			"lightmapscale" "16"
			"smoothing_groups" "0"
		}
		side
		{
			"id" "17"
			"plane" "(188 0 0) (192 0 0) (192 4 0)"
			"material" "TOOLS/TOOLSNODRAW"
			"uaxis" "[1 0 0 0] 0.25"
			"vaxis" "[0 -1 0 0] 0.25"
			"rotation" "0"
			"lightmapscale" "16"
			"smoothing_groups" "0"
		}
		side
		{
			"id" "16"
			"plane" "(188 4 64) (188 0 64) (188 0 0)"
			"material" "WOOD/WOODFLOOR005A"
			"uaxis" "[0 1 0 0] 0.25"
			"vaxis" "[0 0 -1 0] 0.25"
			"rotation" "0"
			"lightmapscale" "16"
			"smoothing_groups" "0"
		}
		side
		{
			"id" "15"
			"plane" "(192 4 0) (192 0 0) (192 0 64)"
			"material" "WOOD/WOODFLOOR005A"
			"uaxis" "[0 1 0 0] 0.25"
			"vaxis" "[0 0 -1 0] 0.25"
			"rotation" "0"
			"lightmapscale" "16"
			"smoothing_groups" "0"
		}
		side
		{
			"id" "14"
			"plane" "(192 4 64) (188 4 64) (188 4 0)"
			"material" "WOOD/WOODFLOOR005A"
			"uaxis" "[1 0 0 0] 0.25"
			"vaxis" "[0 0 -1 0] 0.25"
			"rotation" "0"
			"lightmapscale" "16"
			"smoothing_groups" "0"
		}
		side
		{
			"id" "13"
			"plane" "(192 0 0) (188 0 0) (188 0 64)"
			"material" "WOOD/WOODFLOOR005A"
			"uaxis" "[1 0 0 0] 0.25"
			"vaxis" "[0 0 -1 0] 0.25"
			"rotation" "0"
			"lightmapscale" "16"
			"smoothing_groups" "0"
		}
		editor
		{
			"color" "0 180 0"
			"visgroupshown" "1"
			"visgroupautoshown" "1"
		}
	}
	editor
	{
		"color" "0 180 0"
		"visgroupshown" "1"
		"visgroupautoshown" "1"
		"logicalpos" "[0 1500]"
	}
}
entity
{
	"id" "29"
	"classname" "func_detail"
	solid
	{
		"id" "23"
		side
		{
			"id" "30"
			"plane" "(188 4 4) (188 0 4) (128 0 64)"
			"material" "WOOD/WOODFLOOR005A"
			"uaxis" "[0 1 0 0] 0.25"
			"vaxis" "[1 0 0 0] 0.25"
			"rotation" "90"
			"lightmapscale" "16"
			"smoothing_groups" "0"
		}
		side
		{
			"id" "29"
			"plane" "(188 0 0) (188 4 0) (124 4 64)"
			"material" "WOOD/WOODFLOOR005A"
			"uaxis" "[0 1 0 0] 0.25"
			"vaxis" "[1 0 0 0] 0.25"
			"rotation" "90"
			"lightmapscale" "16"
			"smoothing_groups" "0"
		}
		side
		{
			"id" "28"
			"plane" "(128 0 64) (124 0 64) (124 4 64)"
			"material" "WOOD/WOODFLOOR005A"
			"uaxis" "[0 1 0 0] 0.25"
			"vaxis" "[1 0 0 0] 0.25"
			"rotation" "90"
			"lightmapscale" "16"
			"smoothing_groups" "0"
		}
		side
		{
			"id" "27"
			"plane" "(188 0 0) (188 0 4) (188 4 4)"
			"material" "WOOD/WOODFLOOR005A"
			"uaxis" "[0 0 1 0] 0.25"
			"vaxis" "[0 1 0 0] 0.25"
			"rotation" "90"
			"lightmapscale" "16"
			"smoothing_groups" "0"
		}
		side
		{
			"id" "26"
			"plane" "(128 4 64) (124 4 64) (188 4 0)"
			"material" "WOOD/WOODFLOOR005A"
			"uaxis" "[-0.707107 0 -0.707107 47.058] 0.25"
			"vaxis" "[0.5 0.707107 -0.5 372.686] 0.25"
			"rotation" "0"
			"lightmapscale" "16"
			"smoothing_groups" "0"
		}
		side
		{
			"id" "25"
			"plane" "(124 0 64) (128 0 64) (188 0 4)"
			"material" "WOOD/WOODFLOOR005A"
			"uaxis" "[0.707107 0 0.707107 -31.058] 0.25"
			"vaxis" "[0.5 -0.707107 -0.5 384] 0.25"
			"rotation" "0"
			"lightmapscale" "16"
			"smoothing_groups" "0"
		}
		editor
		{
			"color" "0 180 0"
			"visgroupshown" "1"
			"visgroupautoshown" "1"
		}
	}
	editor
	{
		"color" "0 180 0"
		"visgroupshown" "1"
		"visgroupautoshown" "1"
		"logicalpos" "[0 2500]"
	}
}
entity
{
	"id" "32"
	"classname" "func_detail"
	solid
	{
		"id" "33"
		side
		{
			"id" "42"
			"plane" "(60 4 64) (60 0 64) (0 0 4)"
			"material" "WOOD/WOODFLOOR005A"
			"uaxis" "[0 1 0 0] 0.25"
			"vaxis" "[0 0 -1 0] 0.25"
			"rotation" "0"
			"lightmapscale" "16"
			"smoothing_groups" "0"
		}
		side
		{
			"id" "41"
			"plane" "(64 0 64) (64 4 64) (0 4 0)"
			"material" "WOOD/WOODFLOOR005A"
			"uaxis" "[0 1 0 0] 0.25"
			"vaxis" "[0 0 -1 0] 0.25"
			"rotation" "0"
			"lightmapscale" "16"
			"smoothing_groups" "0"
		}
		side
		{
			"id" "40"
			"plane" "(60 4 64) (64 4 64) (64 0 64)"
			"material" "WOOD/WOODFLOOR005A"
			"uaxis" "[1 0 0 0] 0.25"
			"vaxis" "[0 -1 0 0] 0.25"
			"rotation" "0"
			"lightmapscale" "16"
			"smoothing_groups" "0"
		}
		side
		{
			"id" "39"
			"plane" "(0 4 0) (0 4 4) (0 0 4)"
			"material" "WOOD/WOODFLOOR005A"
			"uaxis" "[0 1 0 0] 0.25"
			"vaxis" "[0 0 -1 0] 0.25"
			"rotation" "0"
			"lightmapscale" "16"
			"smoothing_groups" "0"
		}
		side
		{
			"id" "38"
			"plane" "(0 4 4) (0 4 0) (64 4 64)"
			"material" "WOOD/WOODFLOOR005A"
			"uaxis" "[0.707107 0 -0.707107 27.3137] 0.25"
			"vaxis" "[-0.5 -0.707107 -0.5 3.31371] 0.25"
			"rotation" "0"
			"lightmapscale" "16"
			"smoothing_groups" "0"
		}
		side
		{
			"id" "37"
			"plane" "(0 0 0) (0 0 4) (60 0 64)"
			"material" "WOOD/WOODFLOOR005A"
			"uaxis" "[-0.707107 0 0.707107 -11.3137] 0.25"
			"vaxis" "[-0.5 0.707107 -0.5 -8] 0.25"
			"rotation" "0"
			"lightmapscale" "16"
			"smoothing_groups" "0"
		}
		editor
		{
			"color" "0 180 0"
			"visgroupshown" "1"
			"visgroupautoshown" "1"
		}
	}
	editor
	{
		"color" "0 180 0"
		"visgroupshown" "1"
		"visgroupautoshown" "1"
		"logicalpos" "[0 2500]"
	}
}
cameras
{
	"activecamera" "-1"
}
cordons
{
	"active" "0"
}
