versioninfo
{
	"editorversion" "400"
	"editorbuild" "5032"
	"mapversion" "11"
	"formatversion" "100"
	"prefab" "0"
}
visgroups
{
}
viewsettings
{
	"bSnapToGrid" "1"
	"bShowGrid" "1"
	"bShowLogicalGrid" "0"
	"nGridSpacing" "4"
	"bShow3DGrid" "0"
}
world
{
	"id" "1"
	"mapversion" "11"
	"classname" "worldspawn"
	"detailmaterial" "detail/detailsprites"
	"detailvbsp" "detail.vbsp"
	"maxpropscreenwidth" "-1"
	"skyname" "sky_day01_01"
	solid
	{
		"id" "96"
		side
		{
			"id" "163"
			"plane" "(104 -7.99999 48) (106 -7.99999 48) (106 -88 48)"
			"material" "WOOD/WOODFLOOR005A"
			"uaxis" "[0 1 0 0] 0.25"
			"vaxis" "[1 0 0 0] 0.25"
			"rotation" "90"
			"lightmapscale" "16"
			"smoothing_groups" "0"
		}
		side
		{
			"id" "164"
			"plane" "(104 -88 44) (106 -88 44) (106 -7.99999 44)"
			"material" "TOOLS/TOOLSNODRAW"
			"uaxis" "[0 1 0 0] 0.25"
			"vaxis" "[1 0 0 4] 0.25"
			"rotation" "90"
			"lightmapscale" "16"
			"smoothing_groups" "0"
		}
		side
		{
			"id" "165"
			"plane" "(104 -7.99999 48) (104 -88 48) (104 -88 44)"
			"material" "WOOD/WOODFLOOR005A"
			"uaxis" "[0 0 1 0] 0.25"
			"vaxis" "[0 1 0 0] 0.25"
			"rotation" "90"
			"lightmapscale" "16"
			"smoothing_groups" "0"
		}
		side
		{
			"id" "166"
			"plane" "(106 -7.99999 44) (106 -88 44) (106 -88 48)"
			"material" "WOOD/WOODFLOOR005A"
			"uaxis" "[0 0 1 0] 0.25"
			"vaxis" "[0 1 0 0] 0.25"
			"rotation" "90"
			"lightmapscale" "16"
			"smoothing_groups" "0"
		}
		side
		{
			"id" "167"
			"plane" "(106 -7.99999 48) (104 -7.99999 48) (104 -7.99999 44)"
			"material" "WOOD/WOODFLOOR005A"
			"uaxis" "[0 0 1 0] 0.25"
			"vaxis" "[1 0 0 0] 0.25"
			"rotation" "90"
			"lightmapscale" "16"
			"smoothing_groups" "0"
		}
		side
		{
			"id" "168"
			"plane" "(106 -88 44) (104 -88 44) (104 -88 48)"
			"material" "WOOD/WOODFLOOR005A"
			"uaxis" "[0 0 1 0] 0.25"
			"vaxis" "[1 0 0 0] 0.25"
			"rotation" "90"
			"lightmapscale" "16"
			"smoothing_groups" "0"
		}
		editor
		{
			"color" "0 181 170"
			"visgroupshown" "1"
			"visgroupautoshown" "1"
		}
	}
	solid
	{
		"id" "98"
		side
		{
			"id" "180"
			"plane" "(6 -7.99999 48) (8 -7.99999 48) (8 -88 48)"
			"material" "WOOD/WOODFLOOR005A"
			"uaxis" "[0 1 0 0] 0.25"
			"vaxis" "[1 0 0 0] 0.25"
			"rotation" "90"
			"lightmapscale" "16"
			"smoothing_groups" "0"
		}
		side
		{
			"id" "179"
			"plane" "(6 -88 44) (8 -88 44) (8 -7.99999 44)"
			"material" "TOOLS/TOOLSNODRAW"
			"uaxis" "[0 1 0 0] 0.25"
			"vaxis" "[1 0 0 4] 0.25"
			"rotation" "90"
			"lightmapscale" "16"
			"smoothing_groups" "0"
		}
		side
		{
			"id" "178"
			"plane" "(6 -7.99999 48) (6 -88 48) (6 -88 44)"
			"material" "WOOD/WOODFLOOR005A"
			"uaxis" "[0 0 1 0] 0.25"
			"vaxis" "[0 1 0 0] 0.25"
			"rotation" "90"
			"lightmapscale" "16"
			"smoothing_groups" "0"
		}
		side
		{
			"id" "177"
			"plane" "(8 -7.99999 44) (8 -88 44) (8 -88 48)"
			"material" "WOOD/WOODFLOOR005A"
			"uaxis" "[0 0 1 0] 0.25"
			"vaxis" "[0 1 0 0] 0.25"
			"rotation" "90"
			"lightmapscale" "16"
			"smoothing_groups" "0"
		}
		side
		{
			"id" "176"
			"plane" "(8 -7.99999 48) (6 -7.99999 48) (6 -7.99999 44)"
			"material" "WOOD/WOODFLOOR005A"
			"uaxis" "[0 0 1 0] 0.25"
			"vaxis" "[1 0 0 0] 0.25"
			"rotation" "90"
			"lightmapscale" "16"
			"smoothing_groups" "0"
		}
		side
		{
			"id" "175"
			"plane" "(8 -88 44) (6 -88 44) (6 -88 48)"
			"material" "WOOD/WOODFLOOR005A"
			"uaxis" "[0 0 1 0] 0.25"
			"vaxis" "[1 0 0 0] 0.25"
			"rotation" "90"
			"lightmapscale" "16"
			"smoothing_groups" "0"
		}
		editor
		{
			"color" "0 181 170"
			"visgroupshown" "1"
			"visgroupautoshown" "1"
		}
	}
	solid
	{
		"id" "353"
		side
		{
			"id" "444"
			"plane" "(4 -80 192) (4 -64 192) (111 -64 192)"
			"material" "WOOD/WOODWALL043A"
			"uaxis" "[0 1 0 0] 0.25"
			"vaxis" "[1 0 0 4] 0.25"
			"rotation" "90"
			"lightmapscale" "16"
			"smoothing_groups" "0"
		}
		side
		{
			"id" "443"
			"plane" "(111 -80 190) (111 -64 190) (4 -64 190)"
			"material" "TOOLS/TOOLSNODRAW"
			"uaxis" "[0 1 0 0] 0.25"
			"vaxis" "[1 0 0 4] 0.25"
			"rotation" "90"
			"lightmapscale" "16"
			"smoothing_groups" "0"
		}
		side
		{
			"id" "442"
			"plane" "(111 -64 190) (111 -80 190) (111 -80 192)"
			"material" "WOOD/WOODWALL043A"
			"uaxis" "[0 0 1 0] 0.25"
			"vaxis" "[0 1 0 0] 0.25"
			"rotation" "90"
			"lightmapscale" "16"
			"smoothing_groups" "0"
		}
		side
		{
			"id" "441"
			"plane" "(4 -80 190) (4 -64 190) (4 -64 192)"
			"material" "WOOD/WOODWALL043A"
			"uaxis" "[0 0 1 0] 0.25"
			"vaxis" "[0 1 0 0] 0.25"
			"rotation" "90"
			"lightmapscale" "16"
			"smoothing_groups" "0"
		}
		side
		{
			"id" "440"
			"plane" "(111 -80 190) (4 -80 190) (4 -80 192)"
			"material" "WOOD/WOODWALL043A"
			"uaxis" "[1 0 0 4] 0.25"
			"vaxis" "[0 0 -1 0] 0.25"
			"rotation" "0"
			"lightmapscale" "16"
			"smoothing_groups" "0"
		}
		side
		{
			"id" "439"
			"plane" "(4 -64 190) (111 -64 190) (111 -64 192)"
			"material" "WOOD/WOODWALL043A"
			"uaxis" "[1 0 0 4] 0.25"
			"vaxis" "[0 0 -1 0] 0.25"
			"rotation" "0"
			"lightmapscale" "16"
			"smoothing_groups" "0"
		}
		editor
		{
			"color" "0 235 152"
			"visgroupshown" "1"
			"visgroupautoshown" "1"
		}
	}
	solid
	{
		"id" "352"
		side
		{
			"id" "450"
			"plane" "(111 -83.8389 192) (110.511 -97.8304 192) (0.578422 -93.9915 192)"
			"material" "WOOD/WOODWALL043A"
			"uaxis" "[0.0348995 1 0 -0.339211] 0.25"
			"vaxis" "[1 -0.0348995 0 -15.4352] 0.25"
			"rotation" "90"
			"lightmapscale" "16"
			"smoothing_groups" "0"
		}
		side
		{
			"id" "449"
			"plane" "(1.06701 -80 190) (0.578422 -93.9915 190) (110.511 -97.8304 190)"
			"material" "TOOLS/TOOLSNODRAW"
			"uaxis" "[0.0348995 1 0 -0.339211] 0.25"
			"vaxis" "[1 -0.0348995 0 -15.4352] 0.25"
			"rotation" "90"
			"lightmapscale" "16"
			"smoothing_groups" "0"
		}
		side
		{
			"id" "448"
			"plane" "(111 -83.8389 190) (110.511 -97.8304 190) (110.511 -97.8304 192)"
			"material" "WOOD/WOODWALL043A"
			"uaxis" "[0 0 1 0] 0.25"
			"vaxis" "[0.0348995 1 0 -0.339211] 0.25"
			"rotation" "90"
			"lightmapscale" "16"
			"smoothing_groups" "0"
		}
		side
		{
			"id" "447"
			"plane" "(110.511 -97.8304 190) (0.578422 -93.9915 190) (0.578422 -93.9915 192)"
			"material" "WOOD/WOODWALL043A"
			"uaxis" "[0 0 1 0] 0.25"
			"vaxis" "[1 -0.0348995 0 -15.4352] 0.25"
			"rotation" "90"
			"lightmapscale" "16"
			"smoothing_groups" "0"
		}
		side
		{
			"id" "446"
			"plane" "(0.578422 -93.9915 190) (1.06701 -80 190) (1.06701 -80 192)"
			"material" "WOOD/WOODWALL043A"
			"uaxis" "[0 0 1 0] 0.25"
			"vaxis" "[0.0348995 1 0 -0.339211] 0.25"
			"rotation" "90"
			"lightmapscale" "16"
			"smoothing_groups" "0"
		}
		side
		{
			"id" "445"
			"plane" "(1.06701 -80 190) (111 -83.8389 190) (111 -83.8389 192)"
			"material" "WOOD/WOODWALL043A"
			"uaxis" "[1 -0.0348995 0 -15.4352] 0.25"
			"vaxis" "[0 0 -1 0] 0.25"
			"rotation" "0"
			"lightmapscale" "16"
			"smoothing_groups" "0"
		}
		editor
		{
			"color" "0 235 152"
			"visgroupshown" "1"
			"visgroupautoshown" "1"
		}
	}
	solid
	{
		"id" "413"
		side
		{
			"id" "456"
			"plane" "(1 -63 192) (1 -34 192) (113 -34 192)"
			"material" "WOOD/WOODWALL043A"
			"uaxis" "[0 1 0 8] 0.25"
			"vaxis" "[1 0 0 -4] 0.25"
			"rotation" "90"
			"lightmapscale" "16"
			"smoothing_groups" "0"
		}
		side
		{
			"id" "455"
			"plane" "(113 -63 190) (113 -34 190) (1 -34 190)"
			"material" "TOOLS/TOOLSNODRAW"
			"uaxis" "[0 1 0 8] 0.25"
			"vaxis" "[1 0 0 -4] 0.25"
			"rotation" "90"
			"lightmapscale" "16"
			"smoothing_groups" "0"
		}
		side
		{
			"id" "454"
			"plane" "(113 -34 190) (113 -63 190) (113 -63 192)"
			"material" "WOOD/WOODWALL043A"
			"uaxis" "[0 0 1 0] 0.25"
			"vaxis" "[0 1 0 8] 0.25"
			"rotation" "90"
			"lightmapscale" "16"
			"smoothing_groups" "0"
		}
		side
		{
			"id" "453"
			"plane" "(1 -63 190) (1 -34 190) (1 -34 192)"
			"material" "WOOD/WOODWALL043A"
			"uaxis" "[0 0 1 0] 0.25"
			"vaxis" "[0 1 0 8] 0.25"
			"rotation" "90"
			"lightmapscale" "16"
			"smoothing_groups" "0"
		}
		side
		{
			"id" "452"
			"plane" "(113 -63 190) (1 -63 190) (1 -63 192)"
			"material" "WOOD/WOODWALL043A"
			"uaxis" "[1 0 0 -4] 0.25"
			"vaxis" "[0 0 -1 0] 0.25"
			"rotation" "0"
			"lightmapscale" "16"
			"smoothing_groups" "0"
		}
		side
		{
			"id" "451"
			"plane" "(1 -34 190) (113 -34 190) (113 -34 192)"
			"material" "WOOD/WOODWALL043A"
			"uaxis" "[1 0 0 -4] 0.25"
			"vaxis" "[0 0 -1 0] 0.25"
			"rotation" "0"
			"lightmapscale" "16"
			"smoothing_groups" "0"
		}
		editor
		{
			"color" "0 235 152"
			"visgroupshown" "1"
			"visgroupautoshown" "1"
		}
	}
	solid
	{
		"id" "423"
		side
		{
			"id" "468"
			"plane" "(-4.48834 -29.9903 192) (-3.92995 -14 192) (111 -18.0134 192)"
			"material" "WOOD/WOODWALL043A"
			"uaxis" "[0.0348995 1 0 -7.4855] 0.25"
			"vaxis" "[1 -0.0348995 0 13.7662] 0.25"
			"rotation" "90"
			"lightmapscale" "16"
			"smoothing_groups" "0"
		}
		side
		{
			"id" "467"
			"plane" "(110.442 -34.0037 190) (111 -18.0134 190) (-3.92995 -14 190)"
			"material" "TOOLS/TOOLSNODRAW"
			"uaxis" "[0.0348995 1 0 -7.4855] 0.25"
			"vaxis" "[1 -0.0348995 0 13.7662] 0.25"
			"rotation" "90"
			"lightmapscale" "16"
			"smoothing_groups" "0"
		}
		side
		{
			"id" "466"
			"plane" "(111 -18.0134 190) (110.442 -34.0037 190) (110.442 -34.0037 192)"
			"material" "WOOD/WOODWALL043A"
			"uaxis" "[0 0 1 0] 0.25"
			"vaxis" "[0.0348995 1 0 -7.4855] 0.25"
			"rotation" "90"
			"lightmapscale" "16"
			"smoothing_groups" "0"
		}
		side
		{
			"id" "465"
			"plane" "(-4.48834 -29.9903 190) (-3.92995 -14 190) (-3.92995 -14 192)"
			"material" "WOOD/WOODWALL043A"
			"uaxis" "[0 0 1 0] 0.25"
			"vaxis" "[0.0348995 1 0 -7.4855] 0.25"
			"rotation" "90"
			"lightmapscale" "16"
			"smoothing_groups" "0"
		}
		side
		{
			"id" "464"
			"plane" "(110.442 -34.0037 190) (-4.48834 -29.9903 190) (-4.48834 -29.9903 192)"
			"material" "WOOD/WOODWALL043A"
			"uaxis" "[1 -0.0348995 0 13.7662] 0.25"
			"vaxis" "[0 0 -1 0] 0.25"
			"rotation" "0"
			"lightmapscale" "16"
			"smoothing_groups" "0"
		}
		side
		{
			"id" "463"
			"plane" "(-3.92995 -14 190) (111 -18.0134 190) (111 -18.0134 192)"
			"material" "WOOD/WOODWALL043A"
			"uaxis" "[1 -0.0348995 0 13.7662] 0.25"
			"vaxis" "[0 0 -1 0] 0.25"
			"rotation" "0"
			"lightmapscale" "16"
			"smoothing_groups" "0"
		}
		editor
		{
			"color" "0 235 152"
			"visgroupshown" "1"
			"visgroupautoshown" "1"
		}
	}
	solid
	{
		"id" "424"
		side
		{
			"id" "474"
			"plane" "(0.122171 -13.9768 192) (0 0.0226278 192) (111.996 1 192)"
			"material" "WOOD/WOODWALL043A"
			"uaxis" "[-0.00872654 1 0 -0.0905858] 0.25"
			"vaxis" "[1 0.00872653 0 0] 0.25"
			"rotation" "90"
			"lightmapscale" "16"
			"smoothing_groups" "0"
		}
		side
		{
			"id" "473"
			"plane" "(112.118 -12.9995 190) (111.996 1 190) (0 0.0226278 190)"
			"material" "TOOLS/TOOLSNODRAW"
			"uaxis" "[-0.00872654 1 0 -0.0905858] 0.25"
			"vaxis" "[1 0.00872653 0 0] 0.25"
			"rotation" "90"
			"lightmapscale" "16"
			"smoothing_groups" "0"
		}
		side
		{
			"id" "472"
			"plane" "(111.996 1 190) (112.118 -12.9995 190) (112.118 -12.9995 192)"
			"material" "WOOD/WOODWALL043A"
			"uaxis" "[0 0 1 0] 0.25"
			"vaxis" "[-0.00872654 1 0 -0.0905858] 0.25"
			"rotation" "90"
			"lightmapscale" "16"
			"smoothing_groups" "0"
		}
		side
		{
			"id" "471"
			"plane" "(0 0.0226278 190) (111.996 1 190) (111.996 1 192)"
			"material" "WOOD/WOODWALL043A"
			"uaxis" "[0 0 1 0] 0.25"
			"vaxis" "[1 0.00872653 0 0] 0.25"
			"rotation" "90"
			"lightmapscale" "16"
			"smoothing_groups" "0"
		}
		side
		{
			"id" "470"
			"plane" "(0.122171 -13.9768 190) (0 0.0226278 190) (0 0.0226278 192)"
			"material" "WOOD/WOODWALL043A"
			"uaxis" "[0 0 1 0] 0.25"
			"vaxis" "[-0.00872654 1 0 -0.0905858] 0.25"
			"rotation" "90"
			"lightmapscale" "16"
			"smoothing_groups" "0"
		}
		side
		{
			"id" "469"
			"plane" "(112.118 -12.9995 190) (0.122171 -13.9768 190) (0.122171 -13.9768 192)"
			"material" "WOOD/WOODWALL043A"
			"uaxis" "[1 0.00872653 0 0] 0.25"
			"vaxis" "[0 0 -1 0] 0.25"
			"rotation" "0"
			"lightmapscale" "16"
			"smoothing_groups" "0"
		}
		editor
		{
			"color" "0 235 152"
			"visgroupshown" "1"
			"visgroupautoshown" "1"
		}
	}
}
entity
{
	"id" "51"
	"classname" "func_detail"
	solid
	{
		"id" "45"
		side
		{
			"id" "96"
			"plane" "(8 -88 48) (104 -88 48) (104 -90 48)"
			"material" "WOOD/WOODFLOOR005A"
			"uaxis" "[0 1 0 0] 0.25"
			"vaxis" "[1 0 0 0] 0.25"
			"rotation" "90"
			"lightmapscale" "16"
			"smoothing_groups" "0"
		}
		side
		{
			"id" "95"
			"plane" "(8 -90 44) (104 -90 44) (104 -88 44)"
			"material" "TOOLS/TOOLSNODRAW"
			"uaxis" "[0 1 0 0] 0.25"
			"vaxis" "[1 0 0 4] 0.25"
			"rotation" "90"
			"lightmapscale" "16"
			"smoothing_groups" "0"
		}
		side
		{
			"id" "94"
			"plane" "(8 -88 48) (8 -90 48) (8 -90 44)"
			"material" "WOOD/WOODFLOOR005A"
			"uaxis" "[0 0 1 0] 0.25"
			"vaxis" "[0 1 0 0] 0.25"
			"rotation" "90"
			"lightmapscale" "16"
			"smoothing_groups" "0"
		}
		side
		{
			"id" "93"
			"plane" "(104 -88 44) (104 -90 44) (104 -90 48)"
			"material" "WOOD/WOODFLOOR005A"
			"uaxis" "[0 0 1 0] 0.25"
			"vaxis" "[0 1 0 0] 0.25"
			"rotation" "90"
			"lightmapscale" "16"
			"smoothing_groups" "0"
		}
		side
		{
			"id" "92"
			"plane" "(104 -88 48) (8 -88 48) (8 -88 44)"
			"material" "WOOD/WOODFLOOR005A"
			"uaxis" "[0 0 1 0] 0.25"
			"vaxis" "[1 0 0 0] 0.25"
			"rotation" "90"
			"lightmapscale" "16"
			"smoothing_groups" "0"
		}
		side
		{
			"id" "91"
			"plane" "(104 -90 44) (8 -90 44) (8 -90 48)"
			"material" "WOOD/WOODFLOOR005A"
			"uaxis" "[0 0 1 0] 0.25"
			"vaxis" "[1 0 0 0] 0.25"
			"rotation" "90"
			"lightmapscale" "16"
			"smoothing_groups" "0"
		}
		editor
		{
			"color" "0 180 0"
			"visgroupshown" "1"
			"visgroupautoshown" "1"
		}
	}
	editor
	{
		"color" "0 180 0"
		"visgroupshown" "1"
		"visgroupautoshown" "1"
		"logicalpos" "[0 5500]"
	}
}
entity
{
	"id" "55"
	"classname" "func_detail"
	solid
	{
		"id" "40"
		side
		{
			"id" "102"
			"plane" "(4 -4 190) (108 -4 190) (104 -8 190)"
			"material" "WOOD/WOODFLOOR005A"
			"uaxis" "[0 1 0 0] 0.25"
			"vaxis" "[1 0 0 0] 0.25"
			"rotation" "90"
			"lightmapscale" "16"
			"smoothing_groups" "0"
		}
		side
		{
			"id" "101"
			"plane" "(8 -8 184) (104 -8 184) (108 -4 184)"
			"material" "TOOLS/TOOLSNODRAW"
			"uaxis" "[0 1 0 0] 0.25"
			"vaxis" "[1 0 0 4] 0.25"
			"rotation" "90"
			"lightmapscale" "16"
			"smoothing_groups" "0"
		}
		side
		{
			"id" "100"
			"plane" "(108 -4 184) (104 -8 184) (104 -8 190)"
			"material" "WOOD/WOODFLOOR005A"
			"uaxis" "[0 0 1 0] 0.25"
			"vaxis" "[0 1 0 0] 0.25"
			"rotation" "90"
			"lightmapscale" "16"
			"smoothing_groups" "0"
		}
		side
		{
			"id" "99"
			"plane" "(4 -4 190) (8 -8 190) (8 -8 184)"
			"material" "WOOD/WOODFLOOR005A"
			"uaxis" "[0 0 1 0] 0.25"
			"vaxis" "[0 1 0 0] 0.25"
			"rotation" "90"
			"lightmapscale" "16"
			"smoothing_groups" "0"
		}
		side
		{
			"id" "98"
			"plane" "(104 -8 184) (8 -8 184) (8 -8 190)"
			"material" "WOOD/WOODFLOOR005A"
			"uaxis" "[0 0 1 0] 0.25"
			"vaxis" "[1 0 0 0] 0.25"
			"rotation" "90"
			"lightmapscale" "16"
			"smoothing_groups" "0"
		}
		side
		{
			"id" "97"
			"plane" "(108 -4 190) (4 -4 190) (4 -4 184)"
			"material" "WOOD/WOODFLOOR005A"
			"uaxis" "[0 0 1 0] 0.25"
			"vaxis" "[1 0 0 0] 0.25"
			"rotation" "90"
			"lightmapscale" "16"
			"smoothing_groups" "0"
		}
		editor
		{
			"color" "0 180 0"
			"visgroupshown" "1"
			"visgroupautoshown" "1"
		}
	}
	editor
	{
		"color" "0 180 0"
		"visgroupshown" "1"
		"visgroupautoshown" "1"
		"logicalpos" "[0 6000]"
	}
}
entity
{
	"id" "59"
	"classname" "func_detail"
	solid
	{
		"id" "37"
		side
		{
			"id" "108"
			"plane" "(8 -88 190) (4 -92 190) (4 -4 190)"
			"material" "WOOD/WOODFLOOR005A"
			"uaxis" "[0 1 0 0] 0.25"
			"vaxis" "[1 0 0 0] 0.25"
			"rotation" "90"
			"lightmapscale" "16"
			"smoothing_groups" "0"
		}
		side
		{
			"id" "107"
			"plane" "(8 -8 184) (4 -4 184) (4 -92 184)"
			"material" "TOOLS/TOOLSNODRAW"
			"uaxis" "[0 1 0 0] 0.25"
			"vaxis" "[1 0 0 4] 0.25"
			"rotation" "90"
			"lightmapscale" "16"
			"smoothing_groups" "0"
		}
		side
		{
			"id" "106"
			"plane" "(4 -92 184) (4 -4 184) (4 -4 190)"
			"material" "WOOD/WOODFLOOR005A"
			"uaxis" "[0 0 1 0] 0.25"
			"vaxis" "[0 1 0 0] 0.25"
			"rotation" "90"
			"lightmapscale" "16"
			"smoothing_groups" "0"
		}
		side
		{
			"id" "105"
			"plane" "(8 -88 190) (8 -8 190) (8 -8 184)"
			"material" "WOOD/WOODFLOOR005A"
			"uaxis" "[0 0 1 0] 0.25"
			"vaxis" "[0 1 0 0] 0.25"
			"rotation" "90"
			"lightmapscale" "16"
			"smoothing_groups" "0"
		}
		side
		{
			"id" "104"
			"plane" "(4 -4 184) (8 -8 184) (8 -8 190)"
			"material" "WOOD/WOODFLOOR005A"
			"uaxis" "[0 0 1 0] 0.25"
			"vaxis" "[1 0 0 0] 0.25"
			"rotation" "90"
			"lightmapscale" "16"
			"smoothing_groups" "0"
		}
		side
		{
			"id" "103"
			"plane" "(4 -92 190) (8 -88 190) (8 -88 184)"
			"material" "WOOD/WOODFLOOR005A"
			"uaxis" "[0 0 1 0] 0.25"
			"vaxis" "[1 0 0 0] 0.25"
			"rotation" "90"
			"lightmapscale" "16"
			"smoothing_groups" "0"
		}
		editor
		{
			"color" "0 180 0"
			"visgroupshown" "1"
			"visgroupautoshown" "1"
		}
	}
	editor
	{
		"color" "0 180 0"
		"visgroupshown" "1"
		"visgroupautoshown" "1"
		"logicalpos" "[0 6500]"
	}
}
entity
{
	"id" "63"
	"classname" "func_detail"
	solid
	{
		"id" "35"
		side
		{
			"id" "114"
			"plane" "(108 -92 190) (4 -92 190) (8 -88 190)"
			"material" "WOOD/WOODFLOOR005A"
			"uaxis" "[0 1 0 0] 0.25"
			"vaxis" "[1 0 0 0] 0.25"
			"rotation" "90"
			"lightmapscale" "16"
			"smoothing_groups" "0"
		}
		side
		{
			"id" "113"
			"plane" "(104 -88 184) (8 -88 184) (4 -92 184)"
			"material" "TOOLS/TOOLSNODRAW"
			"uaxis" "[0 1 0 0] 0.25"
			"vaxis" "[1 0 0 4] 0.25"
			"rotation" "90"
			"lightmapscale" "16"
			"smoothing_groups" "0"
		}
		side
		{
			"id" "112"
			"plane" "(4 -92 184) (8 -88 184) (8 -88 190)"
			"material" "WOOD/WOODFLOOR005A"
			"uaxis" "[0 0 1 0] 0.25"
			"vaxis" "[0 1 0 0] 0.25"
			"rotation" "90"
			"lightmapscale" "16"
			"smoothing_groups" "0"
		}
		side
		{
			"id" "111"
			"plane" "(108 -92 190) (104 -88 190) (104 -88 184)"
			"material" "WOOD/WOODFLOOR005A"
			"uaxis" "[0 0 1 0] 0.25"
			"vaxis" "[0 1 0 0] 0.25"
			"rotation" "90"
			"lightmapscale" "16"
			"smoothing_groups" "0"
		}
		side
		{
			"id" "110"
			"plane" "(8 -88 184) (104 -88 184) (104 -88 190)"
			"material" "WOOD/WOODFLOOR005A"
			"uaxis" "[0 0 1 0] 0.25"
			"vaxis" "[1 0 0 0] 0.25"
			"rotation" "90"
			"lightmapscale" "16"
			"smoothing_groups" "0"
		}
		side
		{
			"id" "109"
			"plane" "(4 -92 190) (108 -92 190) (108 -92 184)"
			"material" "WOOD/WOODFLOOR005A"
			"uaxis" "[0 0 1 0] 0.25"
			"vaxis" "[1 0 0 0] 0.25"
			"rotation" "90"
			"lightmapscale" "16"
			"smoothing_groups" "0"
		}
		editor
		{
			"color" "0 180 0"
			"visgroupshown" "1"
			"visgroupautoshown" "1"
		}
	}
	editor
	{
		"color" "0 180 0"
		"visgroupshown" "1"
		"visgroupautoshown" "1"
		"logicalpos" "[0 7000]"
	}
}
entity
{
	"id" "67"
	"classname" "func_detail"
	solid
	{
		"id" "39"
		side
		{
			"id" "120"
			"plane" "(104 -8 190) (108 -4 190) (108 -92 190)"
			"material" "WOOD/WOODFLOOR005A"
			"uaxis" "[0 1 0 0] 0.25"
			"vaxis" "[1 0 0 0] 0.25"
			"rotation" "90"
			"lightmapscale" "16"
			"smoothing_groups" "0"
		}
		side
		{
			"id" "119"
			"plane" "(104 -88 184) (108 -92 184) (108 -4 184)"
			"material" "TOOLS/TOOLSNODRAW"
			"uaxis" "[0 1 0 0] 0.25"
			"vaxis" "[1 0 0 4] 0.25"
			"rotation" "90"
			"lightmapscale" "16"
			"smoothing_groups" "0"
		}
		side
		{
			"id" "118"
			"plane" "(108 -4 184) (108 -92 184) (108 -92 190)"
			"material" "WOOD/WOODFLOOR005A"
			"uaxis" "[0 0 1 0] 0.25"
			"vaxis" "[0 1 0 0] 0.25"
			"rotation" "90"
			"lightmapscale" "16"
			"smoothing_groups" "0"
		}
		side
		{
			"id" "117"
			"plane" "(104 -8 190) (104 -88 190) (104 -88 184)"
			"material" "WOOD/WOODFLOOR005A"
			"uaxis" "[0 0 1 0] 0.25"
			"vaxis" "[0 1 0 0] 0.25"
			"rotation" "90"
			"lightmapscale" "16"
			"smoothing_groups" "0"
		}
		side
		{
			"id" "116"
			"plane" "(108 -92 184) (104 -88 184) (104 -88 190)"
			"material" "WOOD/WOODFLOOR005A"
			"uaxis" "[0 0 1 0] 0.25"
			"vaxis" "[0 1 0 0] 0.25"
			"rotation" "90"
			"lightmapscale" "16"
			"smoothing_groups" "0"
		}
		side
		{
			"id" "115"
			"plane" "(108 -4 190) (104 -8 190) (104 -8 184)"
			"material" "WOOD/WOODFLOOR005A"
			"uaxis" "[0 0 1 0] 0.25"
			"vaxis" "[0 1 0 0] 0.25"
			"rotation" "90"
			"lightmapscale" "16"
			"smoothing_groups" "0"
		}
		editor
		{
			"color" "0 180 0"
			"visgroupshown" "1"
			"visgroupautoshown" "1"
		}
	}
	editor
	{
		"color" "0 180 0"
		"visgroupshown" "1"
		"visgroupautoshown" "1"
		"logicalpos" "[0 7500]"
	}
}
entity
{
	"id" "71"
	"classname" "func_detail"
	solid
	{
		"id" "26"
		side
		{
			"id" "126"
			"plane" "(108 -92 184) (104 -92 184) (104 -88 184)"
			"material" "WOOD/WOODFLOOR005A"
			"uaxis" "[1 0 0 0] 0.25"
			"vaxis" "[0 -1 0 0] 0.25"
			"rotation" "0"
			"lightmapscale" "16"
			"smoothing_groups" "0"
		}
		side
		{
			"id" "125"
			"plane" "(108 -88 0) (104 -88 0) (104 -92 0)"
			"material" "TOOLS/TOOLSNODRAW"
			"uaxis" "[0 1 0 0] 0.25"
			"vaxis" "[1 0 0 4] 0.25"
			"rotation" "90"
			"lightmapscale" "16"
			"smoothing_groups" "0"
		}
		side
		{
			"id" "124"
			"plane" "(104 -92 0) (104 -88 0) (104 -88 184)"
			"material" "WOOD/WOODFLOOR005A"
			"uaxis" "[0 1 0 0] 0.25"
			"vaxis" "[0 0 -1 0] 0.25"
			"rotation" "0"
			"lightmapscale" "16"
			"smoothing_groups" "0"
		}
		side
		{
			"id" "123"
			"plane" "(108 -92 184) (108 -88 184) (108 -88 0)"
			"material" "WOOD/WOODFLOOR005A"
			"uaxis" "[0 1 0 0] 0.25"
			"vaxis" "[0 0 -1 0] 0.25"
			"rotation" "0"
			"lightmapscale" "16"
			"smoothing_groups" "0"
		}
		side
		{
			"id" "122"
			"plane" "(104 -88 0) (108 -88 0) (108 -88 184)"
			"material" "WOOD/WOODFLOOR005A"
			"uaxis" "[1 0 0 0] 0.25"
			"vaxis" "[0 0 -1 0] 0.25"
			"rotation" "0"
			"lightmapscale" "16"
			"smoothing_groups" "0"
		}
		side
		{
			"id" "121"
			"plane" "(104 -92 184) (108 -92 184) (108 -92 0)"
			"material" "WOOD/WOODFLOOR005A"
			"uaxis" "[1 0 0 0] 0.25"
			"vaxis" "[0 0 -1 0] 0.25"
			"rotation" "0"
			"lightmapscale" "16"
			"smoothing_groups" "0"
		}
		editor
		{
			"color" "0 180 0"
			"visgroupshown" "1"
			"visgroupautoshown" "1"
		}
	}
	editor
	{
		"color" "0 180 0"
		"visgroupshown" "1"
		"visgroupautoshown" "1"
		"logicalpos" "[0 8000]"
	}
}
entity
{
	"id" "75"
	"classname" "func_detail"
	solid
	{
		"id" "28"
		side
		{
			"id" "132"
			"plane" "(8 -8 184) (4 -8 184) (4 -4 184)"
			"material" "WOOD/WOODFLOOR005A"
			"uaxis" "[1 0 0 0] 0.25"
			"vaxis" "[0 -1 0 0] 0.25"
			"rotation" "0"
			"lightmapscale" "16"
			"smoothing_groups" "0"
		}
		side
		{
			"id" "131"
			"plane" "(8 -4 0) (4 -4 0) (4 -8 0)"
			"material" "TOOLS/TOOLSNODRAW"
			"uaxis" "[0 1 0 0] 0.25"
			"vaxis" "[1 0 0 4] 0.25"
			"rotation" "90"
			"lightmapscale" "16"
			"smoothing_groups" "0"
		}
		side
		{
			"id" "130"
			"plane" "(4 -8 0) (4 -4 0) (4 -4 184)"
			"material" "WOOD/WOODFLOOR005A"
			"uaxis" "[0 1 0 0] 0.25"
			"vaxis" "[0 0 -1 0] 0.25"
			"rotation" "0"
			"lightmapscale" "16"
			"smoothing_groups" "0"
		}
		side
		{
			"id" "129"
			"plane" "(8 -8 184) (8 -4 184) (8 -4 0)"
			"material" "WOOD/WOODFLOOR005A"
			"uaxis" "[0 1 0 0] 0.25"
			"vaxis" "[0 0 -1 0] 0.25"
			"rotation" "0"
			"lightmapscale" "16"
			"smoothing_groups" "0"
		}
		side
		{
			"id" "128"
			"plane" "(4 -4 0) (8 -4 0) (8 -4 184)"
			"material" "WOOD/WOODFLOOR005A"
			"uaxis" "[1 0 0 0] 0.25"
			"vaxis" "[0 0 -1 0] 0.25"
			"rotation" "0"
			"lightmapscale" "16"
			"smoothing_groups" "0"
		}
		side
		{
			"id" "127"
			"plane" "(4 -8 184) (8 -8 184) (8 -8 0)"
			"material" "WOOD/WOODFLOOR005A"
			"uaxis" "[1 0 0 0] 0.25"
			"vaxis" "[0 0 -1 0] 0.25"
			"rotation" "0"
			"lightmapscale" "16"
			"smoothing_groups" "0"
		}
		editor
		{
			"color" "0 180 0"
			"visgroupshown" "1"
			"visgroupautoshown" "1"
		}
	}
	editor
	{
		"color" "0 180 0"
		"visgroupshown" "1"
		"visgroupautoshown" "1"
		"logicalpos" "[0 8500]"
	}
}
entity
{
	"id" "79"
	"classname" "func_detail"
	solid
	{
		"id" "506"
		side
		{
			"id" "480"
			"plane" "(108 -8 0) (108 -4 0) (104 -4 0)"
			"material" "TOOLS/TOOLSNODRAW"
			"uaxis" "[0 1 0 0] 0.25"
			"vaxis" "[1 0 0 4] 0.25"
			"rotation" "90"
			"lightmapscale" "16"
			"smoothing_groups" "0"
		}
		side
		{
			"id" "479"
			"plane" "(100 -8 96) (100 -12 96) (104 -8 0)"
			"material" "WOOD/WOODFLOOR005A"
			"uaxis" "[0 1 0 0] 0.25"
			"vaxis" "[0 0 -1 0] 0.25"
			"rotation" "0"
			"lightmapscale" "16"
			"smoothing_groups" "0"
		}
		side
		{
			"id" "478"
			"plane" "(104 -12 96) (104 -8 96) (108 -4 0)"
			"material" "WOOD/WOODFLOOR005A"
			"uaxis" "[0 1 0 0] 0.25"
			"vaxis" "[0 0 -1 0] 0.25"
			"rotation" "0"
			"lightmapscale" "16"
			"smoothing_groups" "0"
		}
		side
		{
			"id" "477"
			"plane" "(104 -8 96) (100 -8 96) (104 -4 0)"
			"material" "WOOD/WOODFLOOR005A"
			"uaxis" "[1 0 0 0] 0.25"
			"vaxis" "[0 0 -1 0] 0.25"
			"rotation" "0"
			"lightmapscale" "16"
			"smoothing_groups" "0"
		}
		side
		{
			"id" "476"
			"plane" "(100 -12 96) (104 -12 96) (108 -8 0)"
			"material" "WOOD/WOODFLOOR005A"
			"uaxis" "[1 0 0 0] 0.25"
			"vaxis" "[0 0 -1 0] 0.25"
			"rotation" "0"
			"lightmapscale" "16"
			"smoothing_groups" "0"
		}
		side
		{
			"id" "475"
			"plane" "(104 -8 96) (104 -12 96) (100 -12 96)"
			"material" "WOOD/WOODFLOOR005A"
			"uaxis" "[1 0 0 0] 0.25"
			"vaxis" "[0 -1 0 0] 0.25"
			"rotation" "0"
			"lightmapscale" "16"
			"smoothing_groups" "0"
		}
		editor
		{
			"color" "0 180 0"
			"visgroupshown" "1"
			"visgroupautoshown" "1"
		}
	}
	solid
	{
		"id" "507"
		side
		{
			"id" "486"
			"plane" "(108 -4 184) (108 -8 184) (104 -8 184)"
			"material" "WOOD/WOODFLOOR005A"
			"uaxis" "[1 0 0 0] 0.25"
			"vaxis" "[0 -1 0 0] 0.25"
			"rotation" "0"
			"lightmapscale" "16"
			"smoothing_groups" "0"
		}
		side
		{
			"id" "485"
			"plane" "(104 -8 184) (100 -12 96) (100 -8 96)"
			"material" "WOOD/WOODFLOOR005A"
			"uaxis" "[0 1 0 0] 0.25"
			"vaxis" "[0 0 -1 0] 0.25"
			"rotation" "0"
			"lightmapscale" "16"
			"smoothing_groups" "0"
		}
		side
		{
			"id" "484"
			"plane" "(108 -4 184) (104 -8 96) (104 -12 96)"
			"material" "WOOD/WOODFLOOR005A"
			"uaxis" "[0 1 0 0] 0.25"
			"vaxis" "[0 0 -1 0] 0.25"
			"rotation" "0"
			"lightmapscale" "16"
			"smoothing_groups" "0"
		}
		side
		{
			"id" "483"
			"plane" "(104 -4 184) (100 -8 96) (104 -8 96)"
			"material" "WOOD/WOODFLOOR005A"
			"uaxis" "[1 0 0 0] 0.25"
			"vaxis" "[0 0 -1 0] 0.25"
			"rotation" "0"
			"lightmapscale" "16"
			"smoothing_groups" "0"
		}
		side
		{
			"id" "482"
			"plane" "(108 -8 184) (104 -12 96) (100 -12 96)"
			"material" "WOOD/WOODFLOOR005A"
			"uaxis" "[1 0 0 0] 0.25"
			"vaxis" "[0 0 -1 0] 0.25"
			"rotation" "0"
			"lightmapscale" "16"
			"smoothing_groups" "0"
		}
		side
		{
			"id" "481"
			"plane" "(104 -12 96) (104 -8 96) (100 -8 96)"
			"material" "WOOD/WOODFLOOR005A"
			"uaxis" "[1 0 0 0] 0.25"
			"vaxis" "[0 -1 0 0] 0.25"
			"rotation" "0"
			"lightmapscale" "16"
			"smoothing_groups" "0"
		}
		editor
		{
			"color" "0 180 0"
			"visgroupshown" "1"
			"visgroupautoshown" "1"
		}
	}
	editor
	{
		"color" "0 180 0"
		"visgroupshown" "1"
		"visgroupautoshown" "1"
		"logicalpos" "[0 9000]"
	}
}
entity
{
	"id" "85"
	"classname" "func_detail"
	solid
	{
		"id" "13"
		side
		{
			"id" "144"
			"plane" "(8 -92 184) (4 -92 184) (4 -88 184)"
			"material" "WOOD/WOODFLOOR005A"
			"uaxis" "[1 0 0 0] 0.25"
			"vaxis" "[0 -1 0 0] 0.25"
			"rotation" "0"
			"lightmapscale" "16"
			"smoothing_groups" "0"
		}
		side
		{
			"id" "143"
			"plane" "(8 -88 0) (4 -88 0) (4 -92 0)"
			"material" "TOOLS/TOOLSNODRAW"
			"uaxis" "[0 1 0 0] 0.25"
			"vaxis" "[1 0 0 4] 0.25"
			"rotation" "90"
			"lightmapscale" "16"
			"smoothing_groups" "0"
		}
		side
		{
			"id" "142"
			"plane" "(4 -92 0) (4 -88 0) (4 -88 184)"
			"material" "WOOD/WOODFLOOR005A"
			"uaxis" "[0 1 0 0] 0.25"
			"vaxis" "[0 0 -1 0] 0.25"
			"rotation" "0"
			"lightmapscale" "16"
			"smoothing_groups" "0"
		}
		side
		{
			"id" "141"
			"plane" "(8 -92 184) (8 -88 184) (8 -88 0)"
			"material" "WOOD/WOODFLOOR005A"
			"uaxis" "[0 1 0 0] 0.25"
			"vaxis" "[0 0 -1 0] 0.25"
			"rotation" "0"
			"lightmapscale" "16"
			"smoothing_groups" "0"
		}
		side
		{
			"id" "140"
			"plane" "(4 -88 0) (8 -88 0) (8 -88 184)"
			"material" "WOOD/WOODFLOOR005A"
			"uaxis" "[1 0 0 0] 0.25"
			"vaxis" "[0 0 -1 0] 0.25"
			"rotation" "0"
			"lightmapscale" "16"
			"smoothing_groups" "0"
		}
		side
		{
			"id" "139"
			"plane" "(4 -92 184) (8 -92 184) (8 -92 0)"
			"material" "WOOD/WOODFLOOR005A"
			"uaxis" "[1 0 0 0] 0.25"
			"vaxis" "[0 0 -1 0] 0.25"
			"rotation" "0"
			"lightmapscale" "16"
			"smoothing_groups" "0"
		}
		editor
		{
			"color" "0 180 0"
			"visgroupshown" "1"
			"visgroupautoshown" "1"
		}
	}
	editor
	{
		"color" "0 180 0"
		"visgroupshown" "1"
		"visgroupautoshown" "1"
		"logicalpos" "[0 9500]"
	}
}
entity
{
	"id" "92"
	"classname" "func_detail"
	solid
	{
		"id" "93"
		side
		{
			"id" "162"
			"plane" "(8 -6 48) (104 -6 48) (104 -8 48)"
			"material" "WOOD/WOODFLOOR005A"
			"uaxis" "[0 1 0 0] 0.25"
			"vaxis" "[1 0 0 0] 0.25"
			"rotation" "90"
			"lightmapscale" "16"
			"smoothing_groups" "0"
		}
		side
		{
			"id" "161"
			"plane" "(8 -8 44) (104 -8 44) (104 -6 44)"
			"material" "TOOLS/TOOLSNODRAW"
			"uaxis" "[0 1 0 0] 0.25"
			"vaxis" "[1 0 0 4] 0.25"
			"rotation" "90"
			"lightmapscale" "16"
			"smoothing_groups" "0"
		}
		side
		{
			"id" "160"
			"plane" "(8 -6 48) (8 -8 48) (8 -8 44)"
			"material" "WOOD/WOODFLOOR005A"
			"uaxis" "[0 0 1 0] 0.25"
			"vaxis" "[0 1 0 0] 0.25"
			"rotation" "90"
			"lightmapscale" "16"
			"smoothing_groups" "0"
		}
		side
		{
			"id" "159"
			"plane" "(104 -6 44) (104 -8 44) (104 -8 48)"
			"material" "WOOD/WOODFLOOR005A"
			"uaxis" "[0 0 1 0] 0.25"
			"vaxis" "[0 1 0 0] 0.25"
			"rotation" "90"
			"lightmapscale" "16"
			"smoothing_groups" "0"
		}
		side
		{
			"id" "158"
			"plane" "(104 -6 48) (8 -6 48) (8 -6 44)"
			"material" "WOOD/WOODFLOOR005A"
			"uaxis" "[0 0 1 0] 0.25"
			"vaxis" "[1 0 0 0] 0.25"
			"rotation" "90"
			"lightmapscale" "16"
			"smoothing_groups" "0"
		}
		side
		{
			"id" "157"
			"plane" "(104 -8 44) (8 -8 44) (8 -8 48)"
			"material" "WOOD/WOODFLOOR005A"
			"uaxis" "[0 0 1 0] 0.25"
			"vaxis" "[1 0 0 0] 0.25"
			"rotation" "90"
			"lightmapscale" "16"
			"smoothing_groups" "0"
		}
		editor
		{
			"color" "0 180 0"
			"visgroupshown" "1"
			"visgroupautoshown" "1"
		}
	}
	editor
	{
		"color" "0 180 0"
		"visgroupshown" "1"
		"visgroupautoshown" "1"
		"logicalpos" "[0 5500]"
	}
}
entity
{
	"id" "160"
	"classname" "func_detail"
	solid
	{
		"id" "154"
		side
		{
			"id" "204"
			"plane" "(3.8147e-006 -92 152) (110.851 -92 88) (110.851 -94 88)"
			"material" "WOOD/WOODFLOOR005A"
			"uaxis" "[0 1 0 16] 0.25"
			"vaxis" "[0.866025 0 -0.5 272] 0.25"
			"rotation" "90"
			"lightmapscale" "16"
			"smoothing_groups" "0"
		}
		side
		{
			"id" "203"
			"plane" "(-2 -94 148.536) (108.851 -94 84.5359) (108.851 -92 84.5359)"
			"material" "WOOD/WOODFLOOR005A"
			"uaxis" "[0 1 0 16] 0.25"
			"vaxis" "[0.866025 0 -0.5 272] 0.25"
			"rotation" "90"
			"lightmapscale" "16"
			"smoothing_groups" "0"
		}
		side
		{
			"id" "202"
			"plane" "(3.8147e-006 -92 152) (3.8147e-006 -94 152) (-2 -94 148.536)"
			"material" "WOOD/WOODFLOOR005A"
			"uaxis" "[0.5 0 0.866025 -14.5434] 0.25"
			"vaxis" "[0 1 0 16] 0.25"
			"rotation" "90"
			"lightmapscale" "16"
			"smoothing_groups" "0"
		}
		side
		{
			"id" "201"
			"plane" "(108.851 -92 84.5359) (108.851 -94 84.5359) (110.851 -94 88)"
			"material" "WOOD/WOODFLOOR005A"
			"uaxis" "[0.5 0 0.866025 -14.5434] 0.25"
			"vaxis" "[0 1 0 16] 0.25"
			"rotation" "90"
			"lightmapscale" "16"
			"smoothing_groups" "0"
		}
		side
		{
			"id" "200"
			"plane" "(110.851 -92 88) (3.8147e-006 -92 152) (-2 -92 148.536)"
			"material" "WOOD/WOODFLOOR005A"
			"uaxis" "[0.5 0 0.866025 -14.5434] 0.25"
			"vaxis" "[0.866025 0 -0.5 272] 0.25"
			"rotation" "90"
			"lightmapscale" "16"
			"smoothing_groups" "0"
		}
		side
		{
			"id" "199"
			"plane" "(108.851 -94 84.5359) (-2 -94 148.536) (3.8147e-006 -94 152)"
			"material" "WOOD/WOODFLOOR005A"
			"uaxis" "[0.5 0 0.866025 -14.5434] 0.25"
			"vaxis" "[0.866025 0 -0.5 272] 0.25"
			"rotation" "90"
			"lightmapscale" "16"
			"smoothing_groups" "0"
		}
		editor
		{
			"color" "0 180 0"
			"visgroupshown" "1"
			"visgroupautoshown" "1"
		}
	}
	editor
	{
		"color" "0 180 0"
		"visgroupshown" "1"
		"visgroupautoshown" "1"
		"logicalpos" "[0 12000]"
	}
}
entity
{
	"id" "167"
	"classname" "func_detail"
	solid
	{
		"id" "168"
		side
		{
			"id" "216"
			"plane" "(110 -96.9948 109.306) (108 -96.9948 109.306) (108 3.8147e-006 165.306)"
			"material" "WOOD/WOODFLOOR005A"
			"uaxis" "[1 0 0 -280] 0.25"
			"vaxis" "[0 -0.866026 -0.5 362.613] 0.25"
			"rotation" "90"
			"lightmapscale" "16"
			"smoothing_groups" "0"
		}
		side
		{
			"id" "215"
			"plane" "(108 -94.9948 105.842) (110 -94.9948 105.842) (110 2 161.842)"
			"material" "WOOD/WOODFLOOR005A"
			"uaxis" "[1 0 0 -280] 0.25"
			"vaxis" "[0 -0.866026 -0.5 362.613] 0.25"
			"rotation" "90"
			"lightmapscale" "16"
			"smoothing_groups" "0"
		}
		side
		{
			"id" "214"
			"plane" "(108 3.8147e-006 165.306) (108 2 161.842) (110 2 161.842)"
			"material" "WOOD/WOODFLOOR005A"
			"uaxis" "[0 -0.5 0.866026 -60.638] 0.25"
			"vaxis" "[1 0 0 -280] 0.25"
			"rotation" "90"
			"lightmapscale" "16"
			"smoothing_groups" "0"
		}
		side
		{
			"id" "213"
			"plane" "(108 -94.9948 105.842) (108 -96.9948 109.306) (110 -96.9948 109.306)"
			"material" "WOOD/WOODFLOOR005A"
			"uaxis" "[0 -0.5 0.866026 -60.638] 0.25"
			"vaxis" "[1 0 0 -280] 0.25"
			"rotation" "90"
			"lightmapscale" "16"
			"smoothing_groups" "0"
		}
		side
		{
			"id" "212"
			"plane" "(110 3.8147e-006 165.306) (110 2 161.842) (110 -94.9948 105.842)"
			"material" "WOOD/WOODFLOOR005A"
			"uaxis" "[0 -0.5 0.866026 -60.638] 0.25"
			"vaxis" "[0 -0.866026 -0.5 362.613] 0.25"
			"rotation" "90"
			"lightmapscale" "16"
			"smoothing_groups" "0"
		}
		side
		{
			"id" "211"
			"plane" "(108 2 161.842) (108 3.8147e-006 165.306) (108 -96.9948 109.306)"
			"material" "WOOD/WOODFLOOR005A"
			"uaxis" "[0 -0.5 0.866026 -60.638] 0.25"
			"vaxis" "[0 -0.866026 -0.5 362.613] 0.25"
			"rotation" "90"
			"lightmapscale" "16"
			"smoothing_groups" "0"
		}
		editor
		{
			"color" "0 180 0"
			"visgroupshown" "1"
			"visgroupautoshown" "1"
		}
	}
	editor
	{
		"color" "0 180 0"
		"visgroupshown" "1"
		"visgroupautoshown" "1"
		"logicalpos" "[0 12000]"
	}
}
entity
{
	"id" "217"
	"classname" "func_detail"
	solid
	{
		"id" "218"
		side
		{
			"id" "228"
			"plane" "(2 -94.9647 144) (2 -2.23585 119.153) (4 -2.23585 119.153)"
			"material" "WOOD/WOODFLOOR005A"
			"uaxis" "[1 0 0 -368] 0.25"
			"vaxis" "[0 0.965926 -0.258819 3.9954] 0.25"
			"rotation" "90"
			"lightmapscale" "16"
			"smoothing_groups" "0"
		}
		side
		{
			"id" "227"
			"plane" "(4 -96 140.136) (4 -3.27113 115.29) (2 -3.27113 115.29)"
			"material" "WOOD/WOODFLOOR005A"
			"uaxis" "[1 0 0 -368] 0.25"
			"vaxis" "[0 0.965926 -0.258819 3.9954] 0.25"
			"rotation" "90"
			"lightmapscale" "16"
			"smoothing_groups" "0"
		}
		side
		{
			"id" "226"
			"plane" "(4 -96 140.136) (2 -96 140.136) (2 -94.9647 144)"
			"material" "WOOD/WOODFLOOR005A"
			"uaxis" "[0 0.258819 0.965926 53.9414] 0.25"
			"vaxis" "[1 0 0 -368] 0.25"
			"rotation" "90"
			"lightmapscale" "16"
			"smoothing_groups" "0"
		}
		side
		{
			"id" "225"
			"plane" "(4 -2.23585 119.153) (2 -2.23585 119.153) (2 -3.27113 115.29)"
			"material" "WOOD/WOODFLOOR005A"
			"uaxis" "[0 0.258819 0.965926 53.9414] 0.25"
			"vaxis" "[1 0 0 -368] 0.25"
			"rotation" "90"
			"lightmapscale" "16"
			"smoothing_groups" "0"
		}
		side
		{
			"id" "224"
			"plane" "(4 -3.27113 115.29) (4 -96 140.136) (4 -94.9647 144)"
			"material" "WOOD/WOODFLOOR005A"
			"uaxis" "[0 0.258819 0.965926 53.9414] 0.25"
			"vaxis" "[0 0.965926 -0.258819 3.9954] 0.25"
			"rotation" "90"
			"lightmapscale" "16"
			"smoothing_groups" "0"
		}
		side
		{
			"id" "223"
			"plane" "(2 -2.23585 119.153) (2 -94.9647 144) (2 -96 140.136)"
			"material" "WOOD/WOODFLOOR005A"
			"uaxis" "[0 0.258819 0.965926 53.9414] 0.25"
			"vaxis" "[0 0.965926 -0.258819 3.9954] 0.25"
			"rotation" "90"
			"lightmapscale" "16"
			"smoothing_groups" "0"
		}
		editor
		{
			"color" "0 180 0"
			"visgroupshown" "1"
			"visgroupautoshown" "1"
		}
	}
	editor
	{
		"color" "0 180 0"
		"visgroupshown" "1"
		"visgroupautoshown" "1"
		"logicalpos" "[0 12000]"
	}
}
entity
{
	"id" "313"
	"classname" "func_detail"
	solid
	{
		"id" "310"
		side
		{
			"id" "324"
			"plane" "(52 -8 190) (56 -8 190) (56 -88 190)"
			"material" "WOOD/WOODFLOOR005A"
			"uaxis" "[1 0 0 0] 0.25"
			"vaxis" "[0 -1 0 0] 0.25"
			"rotation" "0"
			"lightmapscale" "16"
			"smoothing_groups" "0"
		}
		side
		{
			"id" "323"
			"plane" "(52 -88 184) (56 -88 184) (56 -8 184)"
			"material" "TOOLS/TOOLSNODRAW"
			"uaxis" "[0 1 0 0] 0.25"
			"vaxis" "[1 0 0 4] 0.25"
			"rotation" "90"
			"lightmapscale" "16"
			"smoothing_groups" "0"
		}
		side
		{
			"id" "322"
			"plane" "(52 -8 190) (52 -88 190) (52 -88 184)"
			"material" "WOOD/WOODFLOOR005A"
			"uaxis" "[0 1 0 0] 0.25"
			"vaxis" "[0 0 -1 0] 0.25"
			"rotation" "0"
			"lightmapscale" "16"
			"smoothing_groups" "0"
		}
		side
		{
			"id" "321"
			"plane" "(56 -8 184) (56 -88 184) (56 -88 190)"
			"material" "WOOD/WOODFLOOR005A"
			"uaxis" "[0 1 0 0] 0.25"
			"vaxis" "[0 0 -1 0] 0.25"
			"rotation" "0"
			"lightmapscale" "16"
			"smoothing_groups" "0"
		}
		side
		{
			"id" "320"
			"plane" "(56 -8 190) (52 -8 190) (52 -8 184)"
			"material" "WOOD/WOODFLOOR005A"
			"uaxis" "[1 0 0 0] 0.25"
			"vaxis" "[0 0 -1 0] 0.25"
			"rotation" "0"
			"lightmapscale" "16"
			"smoothing_groups" "0"
		}
		side
		{
			"id" "319"
			"plane" "(56 -88 184) (52 -88 184) (52 -88 190)"
			"material" "WOOD/WOODFLOOR005A"
			"uaxis" "[1 0 0 0] 0.25"
			"vaxis" "[0 0 -1 0] 0.25"
			"rotation" "0"
			"lightmapscale" "16"
			"smoothing_groups" "0"
		}
		editor
		{
			"color" "0 180 0"
			"visgroupshown" "1"
			"visgroupautoshown" "1"
		}
	}
	editor
	{
		"color" "0 180 0"
		"visgroupshown" "1"
		"visgroupautoshown" "1"
		"logicalpos" "[0 -12768]"
	}
}
cameras
{
	"activecamera" "-1"
}
cordons
{
	"active" "0"
}
