versioninfo
{
	"editorversion" "400"
	"editorbuild" "5032"
	"mapversion" "7"
	"formatversion" "100"
	"prefab" "0"
}
visgroups
{
}
viewsettings
{
	"bSnapToGrid" "1"
	"bShowGrid" "1"
	"bShowLogicalGrid" "0"
	"nGridSpacing" "64"
	"bShow3DGrid" "0"
}
world
{
	"id" "1"
	"mapversion" "7"
	"classname" "worldspawn"
	"detailmaterial" "detail/detailsprites"
	"detailvbsp" "detail.vbsp"
	"maxpropscreenwidth" "-1"
	"skyname" "sky_day01_01"
}
entity
{
	"id" "13"
	"classname" "prop_dynamic_override"
	"angles" "0 270 0"
	"DisableBoneFollowers" "0"
	"fademindist" "-1"
	"fadescale" "1"
	"health" "0"
	"HoldAnimation" "0"
	"MaxAnimTime" "10"
	"MinAnimTime" "5"
	"model" "models/props_outland/pumpkin01_item.mdl"
	"RandomAnimation" "0"
	"renderamt" "255"
	"rendercolor" "255 255 255"
	"SetBodyGroup" "0"
	"skin" "0"
	"solid" "6"
	"spawnflags" "16"
	connections
	{
		"OnBreak" "health_pumpkinEnable0-1"
		"OnBreak" "health_pumpkinKill2-1"
	}
	"origin" "0 0 21.125"
	editor
	{
		"color" "220 30 220"
		"visgroupshown" "1"
		"visgroupautoshown" "1"
		"logicalpos" "[0 0]"
	}
}
entity
{
	"id" "17"
	"classname" "trigger_hurt"
	"damage" "-300"
	"damagecap" "20"
	"damagemodel" "0"
	"damagetype" "0"
	"nodmgforce" "0"
	"origin" "0 0 63.94"
	"spawnflags" "4115"
	"StartDisabled" "1"
	"targetname" "health_pumpkin"
	solid
	{
		"id" "15"
		side
		{
			"id" "1"
			"plane" "(-32 32 127.938) (32 32 127.938) (32 -32 127.938)"
			"material" "TOOLS/TOOLSTRIGGER"
			"uaxis" "[1 0 0 0] 0.25"
			"vaxis" "[0 -1 0 0] 0.25"
			"rotation" "0"
			"lightmapscale" "16"
			"smoothing_groups" "0"
		}
		side
		{
			"id" "2"
			"plane" "(-32 -32 -0.0625) (32 -32 -0.0625) (32 32 -0.0625)"
			"material" "TOOLS/TOOLSTRIGGER"
			"uaxis" "[1 0 0 0] 0.25"
			"vaxis" "[0 -1 0 0] 0.25"
			"rotation" "0"
			"lightmapscale" "16"
			"smoothing_groups" "0"
		}
		side
		{
			"id" "3"
			"plane" "(-32 32 127.938) (-32 -32 127.938) (-32 -32 -0.0625)"
			"material" "TOOLS/TOOLSTRIGGER"
			"uaxis" "[0 1 0 0] 0.25"
			"vaxis" "[0 0 -1 0] 0.25"
			"rotation" "0"
			"lightmapscale" "16"
			"smoothing_groups" "0"
		}
		side
		{
			"id" "4"
			"plane" "(32 32 -0.0625) (32 -32 -0.0625) (32 -32 127.938)"
			"material" "TOOLS/TOOLSTRIGGER"
			"uaxis" "[0 1 0 0] 0.25"
			"vaxis" "[0 0 -1 0] 0.25"
			"rotation" "0"
			"lightmapscale" "16"
			"smoothing_groups" "0"
		}
		side
		{
			"id" "5"
			"plane" "(32 32 127.938) (-32 32 127.938) (-32 32 -0.0625)"
			"material" "TOOLS/TOOLSTRIGGER"
			"uaxis" "[1 0 0 0] 0.25"
			"vaxis" "[0 0 -1 0] 0.25"
			"rotation" "0"
			"lightmapscale" "16"
			"smoothing_groups" "0"
		}
		side
		{
			"id" "6"
			"plane" "(32 -32 -0.0625) (-32 -32 -0.0625) (-32 -32 127.938)"
			"material" "TOOLS/TOOLSTRIGGER"
			"uaxis" "[1 0 0 0] 0.25"
			"vaxis" "[0 0 -1 0] 0.25"
			"rotation" "0"
			"lightmapscale" "16"
			"smoothing_groups" "0"
		}
		editor
		{
			"color" "220 30 220"
			"visgroupshown" "1"
			"visgroupautoshown" "1"
		}
	}
	editor
	{
		"color" "220 30 220"
		"visgroupshown" "1"
		"visgroupautoshown" "1"
		"logicalpos" "[0 500]"
	}
}
cameras
{
	"activecamera" "-1"
}
cordons
{
	"active" "0"
}
