MultiBlend
{
%keywords wars
%tooltexture test/terraintest-1
$basetexture nature/forest_dirt_04
$spectexture nature/forest_grass_10a_spec
$scale 1
$rotation -15.0
$basetexture2 nature/mudfloor001a
$spectexture2 nature/forest_grass_10a_spec
$scale2 1
$rotation2 -45.0
$basetexture4 nature/dirtfloor006a
$spectexture4 nature/forest_grass_10a_spec
$scale4 1
$rotation4 0.0
$basetexture3 nature/forest_dirt_01
$spectexture3 nature/forest_grass_10a_spec
$scale3 1
$rotation3 -35.0
$fow _rt_fog_of_war

"%detailtype" "grass01b"
}
