"MultiBlend"
{
	"$basetexture" "nature/forest_gravel_01"
	"$scale" "1.00"
	"$rotation" "0.0"

	"$basetexture2" "nature/dirtfloor003a"
	"$scale2" "1.00"
	"$rotation2" "0.0"

	"$basetexture3" "nature/dirtfloor_mine001a"
	"$scale3" "1.00"
	"$rotation3" "0.0"

	"$basetexture4" "nature/rockwall021_detail"
	"$scale4" "2.00"
	"$rotation4" "0.0"

	"%tooltexture" "blends/multiblend_gravel01_tool"
}