"MultiBlend"
{
	"%keywords" 	"wars"
	"$basetexture"	"lostcoast/nature/sandfloor007b"
	"$bumpmap" 		"lostcoast/nature/sandfloor007b_normal"
	"$spectexture"	"nature/forest_grass_10a_spec"
	"$scale" 		"1.00"
	"$rotation" 	"0.0"

	"$basetexture2" "lostcoast/nature/sandfloor007c"
	"$bumpmap2" 	"lostcoast/nature/sandfloor007c_normal"
	"$spectexture2"	"nature/forest_grass_10a_spec"
	"$scale2" 		"1.00"
	"$rotation2" 	"0.0"

	"$basetexture3" "nature/forest_grass_01"
	"$spectexture3"	"nature/forest_grass_10a_spec"
	"$scale3" 		"1.00"
	"$rotation3" 	"0.0"

	"$basetexture4" "nature/rockfloor002a"
	"$spectexture4"	"nature/forest_grass_10a_spec"
	"$scale4" 		"2.00"
	"$rotation4" 	"0.0"

	"%tooltexture" 	"lostcoast/nature/sandfloor007b"
	
	"$fow" 			"_rt_fog_of_war"
	"%detailtype" 	"grass01b"
}