"VertexLitGeneric"

{
	"$basetexture" "models/Humans/Male/Group01/citizen_sheet_alt"

	// Cloaking
	"$cloakPassEnabled" "1"
	"$cloakfactor" "0.5"
	"$refractamount" "2"
"Proxies"
{
	"TeamColor"
	{
	}
}
}
