"WorldVertexTransition"
{
	"$basetexture" "pg_tex/pg_forest/pg_grass01"
	"$basetexture2" "pg_tex/pg_forest/pg_dirt01"
	"%tooltexture" "pg_tex/pg_forest/pg_forest02_tool"

	"$blendmodulatetexture"    "pg_tex/pg_forest/pg_bledtex"
	"%keywords" "pg"
	"$surfaceprop" "grass"
	"$surfaceprop2" "dirt"

}