"WorldVertexTransition"
{
	"$basetexture" "pg_tex/pg_forest/pg_medieval_roof02"
	"$basetexture2" "pg_tex/pg_forest/pg_medieval_roof02_d"
	"%tooltexture" "pg_tex/pg_forest/pg_medieval_roof02"
	"$blendmodulatetexture"    "pg_tex/pg_forest/pg_bledtex"
	"%keywords" "pg"
	"$bumpmap" "pg_tex/pg_forest/pg_medieval_roof02_bump"
	"$bumpmap2" "pg_tex/pg_forest/pg_medieval_roof02_bump"
	"$surfaceprop" "grass"
	"$surfaceprop2" "grass"
}