"LightmappedGeneric"
{
	"$basetexture" "pg_tex/pg_forest/pg_medieval_wall10"
	"$bumpmap" "pg_tex/pg_forest/pg_medieval_wall10_bump"
	"%keywords" "pg"
	"$surfaceprop" "rock"

$detail detail\plaster_detail_01
$detailscale 6.783
$detailblendfactor .8
$detailblendmode 0


}
