versioninfo
{
	"editorversion" "400"
	"editorbuild" "5032"
	"mapversion" "27"
	"formatversion" "100"
	"prefab" "0"
}
visgroups
{
}
viewsettings
{
	"bSnapToGrid" "1"
	"bShowGrid" "1"
	"bShowLogicalGrid" "0"
	"nGridSpacing" "2"
	"bShow3DGrid" "0"
}
world
{
	"id" "1"
	"mapversion" "27"
	"classname" "worldspawn"
	"detailmaterial" "detail/detailsprites"
	"detailvbsp" "detail.vbsp"
	"maxpropscreenwidth" "-1"
	"skyname" "blacksky"
	solid
	{
		"id" "11"
		side
		{
			"id" "12"
			"plane" "(0 0 192) (0 -416 192) (-4 -420 192)"
			"material" "TOOLS/TOOLSBLACK"
			"uaxis" "[1 0 0 0] 0.5"
			"vaxis" "[0 -1 0 0] 0.5"
			"rotation" "0"
			"lightmapscale" "16"
			"smoothing_groups" "0"
		}
		side
		{
			"id" "11"
			"plane" "(-4 -420 192) (-4 -420 0) (-4 4 0)"
			"material" "METAL/METALWALL070A"
			"uaxis" "[0 1 0 -496] 0.5"
			"vaxis" "[0 0 -1 448] 0.5"
			"rotation" "0"
			"lightmapscale" "16"
			"smoothing_groups" "0"
		}
		side
		{
			"id" "10"
			"plane" "(0 0 192) (0 0 0) (0 -416 0)"
			"material" "METAL/METALWALL070A"
			"uaxis" "[0 1 0 -496] 0.5"
			"vaxis" "[0 0 -1 448] 0.5"
			"rotation" "0"
			"lightmapscale" "16"
			"smoothing_groups" "0"
		}
		side
		{
			"id" "9"
			"plane" "(-4 4 192) (-4 4 0) (0 0 0)"
			"material" "METAL/METALWALL018C"
			"uaxis" "[0 1 0 0] 0.5"
			"vaxis" "[0 0 -1 0] 0.5"
			"rotation" "0"
			"lightmapscale" "16"
			"smoothing_groups" "0"
		}
		side
		{
			"id" "8"
			"plane" "(0 -416 192) (0 -416 0) (-4 -420 0)"
			"material" "METAL/METALWALL018C"
			"uaxis" "[0 1 0 0] 0.5"
			"vaxis" "[0 0 -1 0] 0.5"
			"rotation" "0"
			"lightmapscale" "16"
			"smoothing_groups" "0"
		}
		side
		{
			"id" "7"
			"plane" "(0 -416 0) (0 0 0) (-4 4 0)"
			"material" "METAL/METALWALL018C"
			"uaxis" "[1 0 0 0] 0.5"
			"vaxis" "[0 -1 0 0] 0.5"
			"rotation" "0"
			"lightmapscale" "16"
			"smoothing_groups" "0"
		}
		editor
		{
			"color" "0 142 135"
			"visgroupshown" "1"
			"visgroupautoshown" "1"
		}
	}
	solid
	{
		"id" "12"
		side
		{
			"id" "18"
			"plane" "(292 -420 -32) (292 4 -32) (-4 4 -32)"
			"material" "DEV/DEV_MEASUREGENERIC01"
			"uaxis" "[1 0 0 0] 0.5"
			"vaxis" "[0 -1 0 0] 0.5"
			"rotation" "0"
			"lightmapscale" "16"
			"smoothing_groups" "0"
		}
		side
		{
			"id" "17"
			"plane" "(-4 4 -32) (-4 4 0) (-4 -420 0)"
			"material" "METAL/METALWALL018C"
			"uaxis" "[0 1 0 -496] 0.5"
			"vaxis" "[0 0 -1 448] 0.5"
			"rotation" "0"
			"lightmapscale" "16"
			"smoothing_groups" "0"
		}
		side
		{
			"id" "16"
			"plane" "(292 -420 -32) (292 -420 0) (292 4 0)"
			"material" "METAL/METALWALL018C"
			"uaxis" "[0 1 0 -496] 0.5"
			"vaxis" "[0 0 -1 448] 0.5"
			"rotation" "0"
			"lightmapscale" "16"
			"smoothing_groups" "0"
		}
		side
		{
			"id" "15"
			"plane" "(292 4 -32) (292 4 0) (-4 4 0)"
			"material" "METAL/METALWALL018C"
			"uaxis" "[1 0 0 -496] 0.5"
			"vaxis" "[0 0 -1 448] 0.5"
			"rotation" "0"
			"lightmapscale" "16"
			"smoothing_groups" "0"
		}
		side
		{
			"id" "14"
			"plane" "(-4 -420 -32) (-4 -420 0) (292 -420 0)"
			"material" "METAL/METALWALL018C"
			"uaxis" "[1 0 0 -496] 0.5"
			"vaxis" "[0 0 -1 448] 0.5"
			"rotation" "0"
			"lightmapscale" "16"
			"smoothing_groups" "0"
		}
		side
		{
			"id" "13"
			"plane" "(292 4 0) (292 -420 0) (-4 -420 0)"
			"material" "CONCRETE/CONCRETEFLOOR012A"
			"uaxis" "[1 0 0 0] 0.5"
			"vaxis" "[0 -1 0 0] 0.5"
			"rotation" "0"
			"lightmapscale" "16"
			"smoothing_groups" "0"
		}
		editor
		{
			"color" "0 142 135"
			"visgroupshown" "1"
			"visgroupautoshown" "1"
		}
	}
	solid
	{
		"id" "64"
		side
		{
			"id" "19"
			"plane" "(288 -416 192) (292 -420 192) (-4 -420 192)"
			"material" "TOOLS/TOOLSBLACK"
			"uaxis" "[1 0 0 0] 0.5"
			"vaxis" "[0 -1 0 0] 0.5"
			"rotation" "0"
			"lightmapscale" "16"
			"smoothing_groups" "0"
		}
		side
		{
			"id" "20"
			"plane" "(292 -420 0) (288 -416 0) (0 -416 0)"
			"material" "METAL/METALWALL018C"
			"uaxis" "[1 0 0 0] 0.5"
			"vaxis" "[0 -1 0 0] 0.5"
			"rotation" "0"
			"lightmapscale" "16"
			"smoothing_groups" "0"
		}
		side
		{
			"id" "21"
			"plane" "(0 -416 192) (-4 -420 192) (-4 -420 0)"
			"material" "METAL/METALWALL018C"
			"uaxis" "[0 1 0 0] 0.5"
			"vaxis" "[0 0 -1 0] 0.5"
			"rotation" "0"
			"lightmapscale" "16"
			"smoothing_groups" "0"
		}
		side
		{
			"id" "22"
			"plane" "(292 -420 192) (288 -416 192) (288 -416 0)"
			"material" "METAL/METALWALL018C"
			"uaxis" "[0 1 0 0] 0.5"
			"vaxis" "[0 0 -1 0] 0.5"
			"rotation" "0"
			"lightmapscale" "16"
			"smoothing_groups" "0"
		}
		side
		{
			"id" "23"
			"plane" "(288 -416 192) (0 -416 192) (0 -416 0)"
			"material" "METAL/METALWALL070A"
			"uaxis" "[1 0 0 -496] 0.5"
			"vaxis" "[0 0 -1 448] 0.5"
			"rotation" "0"
			"lightmapscale" "16"
			"smoothing_groups" "0"
		}
		side
		{
			"id" "24"
			"plane" "(-4 -420 192) (292 -420 192) (292 -420 0)"
			"material" "METAL/METALWALL070A"
			"uaxis" "[1 0 0 -496] 0.5"
			"vaxis" "[0 0 -1 448] 0.5"
			"rotation" "0"
			"lightmapscale" "16"
			"smoothing_groups" "0"
		}
		editor
		{
			"color" "0 123 144"
			"visgroupshown" "1"
			"visgroupautoshown" "1"
		}
	}
	solid
	{
		"id" "73"
		side
		{
			"id" "48"
			"plane" "(0 0 192) (-4 4 192) (292 4 192)"
			"material" "TOOLS/TOOLSBLACK"
			"uaxis" "[1 0 0 0] 0.5"
			"vaxis" "[0 -1 0 48] 0.5"
			"rotation" "0"
			"lightmapscale" "16"
			"smoothing_groups" "0"
		}
		side
		{
			"id" "47"
			"plane" "(288 0 0) (292 4 0) (-4 4 0)"
			"material" "METAL/METALWALL018C"
			"uaxis" "[1 0 0 -128] 0.5"
			"vaxis" "[0 -1 0 496] 0.5"
			"rotation" "0"
			"lightmapscale" "16"
			"smoothing_groups" "0"
		}
		side
		{
			"id" "46"
			"plane" "(288 0 192) (292 4 192) (292 4 0)"
			"material" "METAL/METALWALL018C"
			"uaxis" "[0 1 0 496] 0.5"
			"vaxis" "[0 0 -1 0] 0.5"
			"rotation" "0"
			"lightmapscale" "16"
			"smoothing_groups" "0"
		}
		side
		{
			"id" "45"
			"plane" "(-4 4 192) (0 0 192) (0 0 0)"
			"material" "METAL/METALWALL018C"
			"uaxis" "[0 1 0 -496] 0.5"
			"vaxis" "[0 0 -1 0] 0.5"
			"rotation" "0"
			"lightmapscale" "16"
			"smoothing_groups" "0"
		}
		side
		{
			"id" "44"
			"plane" "(0 0 192) (288 0 192) (288 0 0)"
			"material" "METAL/METALWALL070A"
			"uaxis" "[1 0 0 -496] 0.5"
			"vaxis" "[0 0 -1 448] 0.5"
			"rotation" "0"
			"lightmapscale" "16"
			"smoothing_groups" "0"
		}
		side
		{
			"id" "43"
			"plane" "(292 4 192) (-4 4 192) (-4 4 0)"
			"material" "METAL/METALWALL070A"
			"uaxis" "[1 0 0 -496] 0.5"
			"vaxis" "[0 0 -1 448] 0.5"
			"rotation" "0"
			"lightmapscale" "16"
			"smoothing_groups" "0"
		}
		editor
		{
			"color" "0 123 144"
			"visgroupshown" "1"
			"visgroupautoshown" "1"
		}
	}
	solid
	{
		"id" "96"
		side
		{
			"id" "66"
			"plane" "(292 -256 192) (292 -420 192) (288 -416 192)"
			"material" "TOOLS/TOOLSBLACK"
			"uaxis" "[1 0 0 0] 0.5"
			"vaxis" "[0 -1 0 48] 0.5"
			"rotation" "0"
			"lightmapscale" "16"
			"smoothing_groups" "0"
		}
		side
		{
			"id" "65"
			"plane" "(292 -420 192) (292 -256 192) (292 -256 0)"
			"material" "METAL/METALWALL070A"
			"uaxis" "[0 1 0 -496] 0.5"
			"vaxis" "[0 0 -1 448] 0.5"
			"rotation" "0"
			"lightmapscale" "16"
			"smoothing_groups" "0"
		}
		side
		{
			"id" "64"
			"plane" "(288 -416 0) (288 -256 0) (288 -256 192)"
			"material" "METAL/METALWALL070A"
			"uaxis" "[0 1 0 -496] 0.5"
			"vaxis" "[0 0 -1 448] 0.5"
			"rotation" "0"
			"lightmapscale" "16"
			"smoothing_groups" "0"
		}
		side
		{
			"id" "63"
			"plane" "(292 -420 192) (292 -420 0) (288 -416 0)"
			"material" "METAL/METALWALL018C"
			"uaxis" "[0 1 0 -496] 0.5"
			"vaxis" "[0 0 -1 0] 0.5"
			"rotation" "0"
			"lightmapscale" "16"
			"smoothing_groups" "0"
		}
		side
		{
			"id" "62"
			"plane" "(292 -420 0) (292 -256 0) (288 -256 0)"
			"material" "METAL/METALWALL018C"
			"uaxis" "[1 0 0 128] 0.5"
			"vaxis" "[0 -1 0 496] 0.5"
			"rotation" "0"
			"lightmapscale" "16"
			"smoothing_groups" "0"
		}
		side
		{
			"id" "61"
			"plane" "(288 -256 192) (288 -256 0) (292 -256 0)"
			"material" "METAL/METALWALL070A"
			"uaxis" "[-1 0 0 -496] 0.5"
			"vaxis" "[0 0 -1 448] 0.5"
			"rotation" "0"
			"lightmapscale" "16"
			"smoothing_groups" "0"
		}
		editor
		{
			"color" "0 142 135"
			"visgroupshown" "1"
			"visgroupautoshown" "1"
		}
	}
	solid
	{
		"id" "98"
		side
		{
			"id" "78"
			"plane" "(292 4 192) (292 -160 192) (288 -160 192)"
			"material" "TOOLS/TOOLSBLACK"
			"uaxis" "[1 0 0 0] 0.5"
			"vaxis" "[0 -1 0 48] 0.5"
			"rotation" "0"
			"lightmapscale" "16"
			"smoothing_groups" "0"
		}
		side
		{
			"id" "77"
			"plane" "(292 4 0) (292 -160 0) (292 -160 192)"
			"material" "METAL/METALWALL070A"
			"uaxis" "[0 1 0 -496] 0.5"
			"vaxis" "[0 0 -1 448] 0.5"
			"rotation" "0"
			"lightmapscale" "16"
			"smoothing_groups" "0"
		}
		side
		{
			"id" "76"
			"plane" "(288 0 192) (288 -160 192) (288 -160 0)"
			"material" "METAL/METALWALL070A"
			"uaxis" "[0 1 0 -496] 0.5"
			"vaxis" "[0 0 -1 448] 0.5"
			"rotation" "0"
			"lightmapscale" "16"
			"smoothing_groups" "0"
		}
		side
		{
			"id" "75"
			"plane" "(288 0 192) (288 0 0) (292 4 0)"
			"material" "METAL/METALWALL018C"
			"uaxis" "[0 1 0 -496] 0.5"
			"vaxis" "[0 0 -1 0] 0.5"
			"rotation" "0"
			"lightmapscale" "16"
			"smoothing_groups" "0"
		}
		side
		{
			"id" "74"
			"plane" "(292 -160 0) (292 4 0) (288 0 0)"
			"material" "METAL/METALWALL018C"
			"uaxis" "[1 0 0 128] 0.5"
			"vaxis" "[0 -1 0 496] 0.5"
			"rotation" "0"
			"lightmapscale" "16"
			"smoothing_groups" "0"
		}
		side
		{
			"id" "73"
			"plane" "(292 -160 192) (292 -160 0) (288 -160 0)"
			"material" "METAL/METALWALL070A"
			"uaxis" "[1 0 0 -496] 0.5"
			"vaxis" "[0 0 -1 448] 0.5"
			"rotation" "0"
			"lightmapscale" "16"
			"smoothing_groups" "0"
		}
		editor
		{
			"color" "0 142 135"
			"visgroupshown" "1"
			"visgroupautoshown" "1"
		}
	}
	solid
	{
		"id" "104"
		side
		{
			"id" "108"
			"plane" "(0 -416 208) (0 0 208) (288 0 208)"
			"material" "TOOLS/TOOLSBLOCK_LOS"
			"uaxis" "[1 0 0 1.99011] 0.25"
			"vaxis" "[0 -1 0 -9.44641] 0.25"
			"rotation" "0"
			"lightmapscale" "16"
			"smoothing_groups" "0"
		}
		side
		{
			"id" "107"
			"plane" "(0 0 192) (0 -416 192) (288 -416 192)"
			"material" "TOOLS/TOOLSBLOCK_LOS"
			"uaxis" "[-1 0 0 1.99011] 0.25"
			"vaxis" "[0 -1 0 -9.44641] 0.25"
			"rotation" "0"
			"lightmapscale" "16"
			"smoothing_groups" "0"
		}
		side
		{
			"id" "106"
			"plane" "(0 -416 192) (0 0 192) (0 0 208)"
			"material" "TOOLS/TOOLSBLOCK_LOS"
			"uaxis" "[0 -1 0 9.44641] 0.25"
			"vaxis" "[0 0 -1 -25.856] 0.25"
			"rotation" "0"
			"lightmapscale" "16"
			"smoothing_groups" "0"
		}
		side
		{
			"id" "105"
			"plane" "(288 0 192) (288 -416 192) (288 -416 208)"
			"material" "TOOLS/TOOLSBLOCK_LOS"
			"uaxis" "[0 1 0 9.44641] 0.25"
			"vaxis" "[0 0 -1 -25.856] 0.25"
			"rotation" "0"
			"lightmapscale" "16"
			"smoothing_groups" "0"
		}
		side
		{
			"id" "104"
			"plane" "(0 0 192) (288 0 192) (288 0 208)"
			"material" "TOOLS/TOOLSBLOCK_LOS"
			"uaxis" "[-1 0 0 1.99011] 0.25"
			"vaxis" "[0 0 -1 -25.856] 0.25"
			"rotation" "0"
			"lightmapscale" "16"
			"smoothing_groups" "0"
		}
		side
		{
			"id" "103"
			"plane" "(288 -416 192) (0 -416 192) (0 -416 208)"
			"material" "TOOLS/TOOLSBLOCK_LOS"
			"uaxis" "[1 0 0 1.99011] 0.25"
			"vaxis" "[0 0 -1 -25.856] 0.25"
			"rotation" "0"
			"lightmapscale" "16"
			"smoothing_groups" "0"
		}
		editor
		{
			"color" "0 238 191"
			"visgroupshown" "1"
			"visgroupautoshown" "1"
		}
	}
	solid
	{
		"id" "105"
		side
		{
			"id" "114"
			"plane" "(0 -416 208) (0 0 208) (288 0 208)"
			"material" "TOOLS/TOOLSCLIP"
			"uaxis" "[1 0 0 1.99011] 0.25"
			"vaxis" "[0 -1 0 -9.44641] 0.25"
			"rotation" "0"
			"lightmapscale" "16"
			"smoothing_groups" "0"
		}
		side
		{
			"id" "113"
			"plane" "(0 0 192) (0 -416 192) (288 -416 192)"
			"material" "TOOLS/TOOLSCLIP"
			"uaxis" "[-1 0 0 1.99011] 0.25"
			"vaxis" "[0 -1 0 -9.44641] 0.25"
			"rotation" "0"
			"lightmapscale" "16"
			"smoothing_groups" "0"
		}
		side
		{
			"id" "112"
			"plane" "(0 -416 192) (0 0 192) (0 0 208)"
			"material" "TOOLS/TOOLSCLIP"
			"uaxis" "[0 -1 0 9.44641] 0.25"
			"vaxis" "[0 0 -1 -25.856] 0.25"
			"rotation" "0"
			"lightmapscale" "16"
			"smoothing_groups" "0"
		}
		side
		{
			"id" "111"
			"plane" "(288 0 192) (288 -416 192) (288 -416 208)"
			"material" "TOOLS/TOOLSCLIP"
			"uaxis" "[0 1 0 9.44641] 0.25"
			"vaxis" "[0 0 -1 -25.856] 0.25"
			"rotation" "0"
			"lightmapscale" "16"
			"smoothing_groups" "0"
		}
		side
		{
			"id" "110"
			"plane" "(0 0 192) (288 0 192) (288 0 208)"
			"material" "TOOLS/TOOLSCLIP"
			"uaxis" "[-1 0 0 1.99011] 0.25"
			"vaxis" "[0 0 -1 -25.856] 0.25"
			"rotation" "0"
			"lightmapscale" "16"
			"smoothing_groups" "0"
		}
		side
		{
			"id" "109"
			"plane" "(288 -416 192) (0 -416 192) (0 -416 208)"
			"material" "TOOLS/TOOLSCLIP"
			"uaxis" "[1 0 0 1.99011] 0.25"
			"vaxis" "[0 0 -1 -25.856] 0.25"
			"rotation" "0"
			"lightmapscale" "16"
			"smoothing_groups" "0"
		}
		editor
		{
			"color" "0 238 191"
			"visgroupshown" "1"
			"visgroupautoshown" "1"
		}
	}
	solid
	{
		"id" "106"
		side
		{
			"id" "120"
			"plane" "(0 -416 208) (0 0 208) (288 0 208)"
			"material" "TOOLS/TOOLSBLOCKLIGHT"
			"uaxis" "[1 0 0 1.99011] 0.25"
			"vaxis" "[0 -1 0 -9.44641] 0.25"
			"rotation" "0"
			"lightmapscale" "16"
			"smoothing_groups" "0"
		}
		side
		{
			"id" "119"
			"plane" "(0 0 192) (0 -416 192) (288 -416 192)"
			"material" "TOOLS/TOOLSBLOCKLIGHT"
			"uaxis" "[-1 0 0 1.99011] 0.25"
			"vaxis" "[0 -1 0 -9.44641] 0.25"
			"rotation" "0"
			"lightmapscale" "16"
			"smoothing_groups" "0"
		}
		side
		{
			"id" "118"
			"plane" "(0 -416 192) (0 0 192) (0 0 208)"
			"material" "TOOLS/TOOLSBLOCKLIGHT"
			"uaxis" "[0 -1 0 9.44641] 0.25"
			"vaxis" "[0 0 -1 -25.856] 0.25"
			"rotation" "0"
			"lightmapscale" "16"
			"smoothing_groups" "0"
		}
		side
		{
			"id" "117"
			"plane" "(288 0 192) (288 -416 192) (288 -416 208)"
			"material" "TOOLS/TOOLSBLOCKLIGHT"
			"uaxis" "[0 1 0 9.44641] 0.25"
			"vaxis" "[0 0 -1 -25.856] 0.25"
			"rotation" "0"
			"lightmapscale" "16"
			"smoothing_groups" "0"
		}
		side
		{
			"id" "116"
			"plane" "(0 0 192) (288 0 192) (288 0 208)"
			"material" "TOOLS/TOOLSBLOCKLIGHT"
			"uaxis" "[-1 0 0 1.99011] 0.25"
			"vaxis" "[0 0 -1 -25.856] 0.25"
			"rotation" "0"
			"lightmapscale" "16"
			"smoothing_groups" "0"
		}
		side
		{
			"id" "115"
			"plane" "(288 -416 192) (0 -416 192) (0 -416 208)"
			"material" "TOOLS/TOOLSBLOCKLIGHT"
			"uaxis" "[1 0 0 1.99011] 0.25"
			"vaxis" "[0 0 -1 -25.856] 0.25"
			"rotation" "0"
			"lightmapscale" "16"
			"smoothing_groups" "0"
		}
		editor
		{
			"color" "0 238 191"
			"visgroupshown" "1"
			"visgroupautoshown" "1"
		}
	}
	solid
	{
		"id" "367"
		side
		{
			"id" "121"
			"plane" "(0 -32 52.2248) (64 -32 52.2248) (64 -224 52.2248)"
			"material" "TOOLS/TOOLSNPCCLIP"
			"uaxis" "[1 0 0 0] 0.25"
			"vaxis" "[0 -1 0 0] 0.25"
			"rotation" "0"
			"lightmapscale" "16"
			"smoothing_groups" "0"
		}
		side
		{
			"id" "122"
			"plane" "(0 -224 0.224823) (64 -224 0.224823) (64 -32 0.224823)"
			"material" "TOOLS/TOOLSNPCCLIP"
			"uaxis" "[-1 0 0 0] 0.25"
			"vaxis" "[0 -1 0 0] 0.25"
			"rotation" "0"
			"lightmapscale" "16"
			"smoothing_groups" "0"
		}
		side
		{
			"id" "123"
			"plane" "(0 -32 52.2248) (0 -224 52.2248) (0 -224 0.224823)"
			"material" "TOOLS/TOOLSNPCCLIP"
			"uaxis" "[0 -1 0 0] 0.25"
			"vaxis" "[0 0 -1 0] 0.25"
			"rotation" "0"
			"lightmapscale" "16"
			"smoothing_groups" "0"
		}
		side
		{
			"id" "124"
			"plane" "(64 -32 0.224823) (64 -224 0.224823) (64 -224 52.2248)"
			"material" "TOOLS/TOOLSNPCCLIP"
			"uaxis" "[0 1 0 0] 0.25"
			"vaxis" "[0 0 -1 0] 0.25"
			"rotation" "0"
			"lightmapscale" "16"
			"smoothing_groups" "0"
		}
		side
		{
			"id" "125"
			"plane" "(64 -32 52.2248) (0 -32 52.2248) (0 -32 0.224823)"
			"material" "TOOLS/TOOLSNPCCLIP"
			"uaxis" "[-1 0 0 0] 0.25"
			"vaxis" "[0 0 -1 0] 0.25"
			"rotation" "0"
			"lightmapscale" "16"
			"smoothing_groups" "0"
		}
		side
		{
			"id" "126"
			"plane" "(64 -224 0.224823) (0 -224 0.224823) (0 -224 52.2248)"
			"material" "TOOLS/TOOLSNPCCLIP"
			"uaxis" "[1 0 0 0] 0.25"
			"vaxis" "[0 0 -1 0] 0.25"
			"rotation" "0"
			"lightmapscale" "16"
			"smoothing_groups" "0"
		}
		editor
		{
			"color" "0 197 202"
			"visgroupshown" "1"
			"visgroupautoshown" "1"
		}
	}
	solid
	{
		"id" "368"
		side
		{
			"id" "127"
			"plane" "(112 0 24.2372) (200 0 24.2372) (200 -40 24.2372)"
			"material" "TOOLS/TOOLSNPCCLIP"
			"uaxis" "[1 0 0 0] 0.25"
			"vaxis" "[0 -1 0 0] 0.25"
			"rotation" "0"
			"lightmapscale" "16"
			"smoothing_groups" "0"
		}
		side
		{
			"id" "128"
			"plane" "(112 -40 0.237156) (200 -40 0.237156) (200 0 0.237156)"
			"material" "TOOLS/TOOLSNPCCLIP"
			"uaxis" "[-1 0 0 0] 0.25"
			"vaxis" "[0 -1 0 0] 0.25"
			"rotation" "0"
			"lightmapscale" "16"
			"smoothing_groups" "0"
		}
		side
		{
			"id" "129"
			"plane" "(112 0 24.2372) (112 -40 24.2372) (112 -40 0.237156)"
			"material" "TOOLS/TOOLSNPCCLIP"
			"uaxis" "[0 -1 0 0] 0.25"
			"vaxis" "[0 0 -1 0] 0.25"
			"rotation" "0"
			"lightmapscale" "16"
			"smoothing_groups" "0"
		}
		side
		{
			"id" "130"
			"plane" "(200 0 0.237156) (200 -40 0.237156) (200 -40 24.2372)"
			"material" "TOOLS/TOOLSNPCCLIP"
			"uaxis" "[0 1 0 0] 0.25"
			"vaxis" "[0 0 -1 0] 0.25"
			"rotation" "0"
			"lightmapscale" "16"
			"smoothing_groups" "0"
		}
		side
		{
			"id" "131"
			"plane" "(200 0 24.2372) (112 0 24.2372) (112 0 0.237156)"
			"material" "TOOLS/TOOLSNPCCLIP"
			"uaxis" "[-1 0 0 0] 0.25"
			"vaxis" "[0 0 -1 0] 0.25"
			"rotation" "0"
			"lightmapscale" "16"
			"smoothing_groups" "0"
		}
		side
		{
			"id" "132"
			"plane" "(200 -40 0.237156) (112 -40 0.237156) (112 -40 24.2372)"
			"material" "TOOLS/TOOLSNPCCLIP"
			"uaxis" "[1 0 0 0] 0.25"
			"vaxis" "[0 0 -1 0] 0.25"
			"rotation" "0"
			"lightmapscale" "16"
			"smoothing_groups" "0"
		}
		editor
		{
			"color" "0 112 157"
			"visgroupshown" "1"
			"visgroupautoshown" "1"
		}
	}
	solid
	{
		"id" "370"
		side
		{
			"id" "133"
			"plane" "(32 -368 96.9777) (288 -368 96.9777) (288 -416 96.9777)"
			"material" "TOOLS/TOOLSNPCCLIP"
			"uaxis" "[1 0 0 0] 0.25"
			"vaxis" "[0 -1 0 0] 0.25"
			"rotation" "0"
			"lightmapscale" "16"
			"smoothing_groups" "0"
		}
		side
		{
			"id" "134"
			"plane" "(32 -416 -0.0223007) (288 -416 -0.0223007) (288 -368 -0.0223007)"
			"material" "TOOLS/TOOLSNPCCLIP"
			"uaxis" "[-1 0 0 0] 0.25"
			"vaxis" "[0 -1 0 0] 0.25"
			"rotation" "0"
			"lightmapscale" "16"
			"smoothing_groups" "0"
		}
		side
		{
			"id" "135"
			"plane" "(32 -368 96.9777) (32 -416 96.9777) (32 -416 -0.0223007)"
			"material" "TOOLS/TOOLSNPCCLIP"
			"uaxis" "[0 -1 0 0] 0.25"
			"vaxis" "[0 0 -1 0] 0.25"
			"rotation" "0"
			"lightmapscale" "16"
			"smoothing_groups" "0"
		}
		side
		{
			"id" "136"
			"plane" "(288 -368 -0.0223007) (288 -416 -0.0223007) (288 -416 96.9777)"
			"material" "TOOLS/TOOLSNPCCLIP"
			"uaxis" "[0 1 0 0] 0.25"
			"vaxis" "[0 0 -1 0] 0.25"
			"rotation" "0"
			"lightmapscale" "16"
			"smoothing_groups" "0"
		}
		side
		{
			"id" "137"
			"plane" "(288 -368 96.9777) (32 -368 96.9777) (32 -368 -0.0223007)"
			"material" "TOOLS/TOOLSNPCCLIP"
			"uaxis" "[-1 0 0 0] 0.25"
			"vaxis" "[0 0 -1 0] 0.25"
			"rotation" "0"
			"lightmapscale" "16"
			"smoothing_groups" "0"
		}
		side
		{
			"id" "138"
			"plane" "(288 -416 -0.0223007) (32 -416 -0.0223007) (32 -416 96.9777)"
			"material" "TOOLS/TOOLSNPCCLIP"
			"uaxis" "[1 0 0 0] 0.25"
			"vaxis" "[0 0 -1 0] 0.25"
			"rotation" "0"
			"lightmapscale" "16"
			"smoothing_groups" "0"
		}
		editor
		{
			"color" "0 136 201"
			"visgroupshown" "1"
			"visgroupautoshown" "1"
		}
	}
	solid
	{
		"id" "471"
		side
		{
			"id" "192"
			"plane" "(292 -160 192) (292 -256 192) (288 -256 192)"
			"material" "TOOLS/TOOLSBLACK"
			"uaxis" "[1 0 0 0] 0.5"
			"vaxis" "[0 -1 0 48] 0.5"
			"rotation" "0"
			"lightmapscale" "16"
			"smoothing_groups" "0"
		}
		side
		{
			"id" "191"
			"plane" "(292 -160 192) (292 -160 128) (292 -256 128)"
			"material" "METAL/METALWALL070A"
			"uaxis" "[0 1 0 -496] 0.5"
			"vaxis" "[0 0 -1 448] 0.5"
			"rotation" "0"
			"lightmapscale" "16"
			"smoothing_groups" "0"
		}
		side
		{
			"id" "190"
			"plane" "(288 -256 192) (288 -256 128) (288 -160 128)"
			"material" "METAL/METALWALL070A"
			"uaxis" "[0 1 0 -496] 0.5"
			"vaxis" "[0 0 -1 448] 0.5"
			"rotation" "0"
			"lightmapscale" "16"
			"smoothing_groups" "0"
		}
		side
		{
			"id" "189"
			"plane" "(292 -256 192) (292 -256 128) (288 -256 128)"
			"material" "TOOLS/TOOLSBLACK"
			"uaxis" "[1 0 0 0] 0.25"
			"vaxis" "[0 0 -1 0] 0.25"
			"rotation" "0"
			"lightmapscale" "16"
			"smoothing_groups" "0"
		}
		side
		{
			"id" "188"
			"plane" "(288 -160 192) (288 -160 128) (292 -160 128)"
			"material" "TOOLS/TOOLSBLACK"
			"uaxis" "[-1 0 0 0] 0.25"
			"vaxis" "[0 0 -1 0] 0.25"
			"rotation" "0"
			"lightmapscale" "16"
			"smoothing_groups" "0"
		}
		side
		{
			"id" "187"
			"plane" "(292 -256 128) (292 -160 128) (288 -160 128)"
			"material" "TOOLS/TOOLSBLACK"
			"uaxis" "[-1 0 0 0] 0.25"
			"vaxis" "[0 -1 0 0] 0.25"
			"rotation" "0"
			"lightmapscale" "16"
			"smoothing_groups" "0"
		}
		editor
		{
			"color" "0 226 151"
			"visgroupshown" "1"
			"visgroupautoshown" "1"
		}
	}
}
entity
{
	"id" "115"
	"classname" "prop_static"
	"angles" "0 272.5 0"
	"fademaxdist" "4000"
	"fademindist" "3000"
	"fadescale" "1"
	"model" "models/props_silo/pushcart_static.mdl"
	"renderamt" "255"
	"rendercolor" "255 255 255"
	"skin" "0"
	"solid" "6"
	"origin" "29 -76 16.2137"
	editor
	{
		"color" "255 255 0"
		"visgroupshown" "1"
		"visgroupautoshown" "1"
		"logicalpos" "[0 9500]"
	}
}
entity
{
	"id" "155"
	"classname" "prop_static"
	"angles" "0 262.5 0"
	"fademaxdist" "4000"
	"fademindist" "3000"
	"fadescale" "1"
	"model" "models/props_silo/pushcart_static.mdl"
	"renderamt" "255"
	"rendercolor" "255 255 255"
	"skin" "0"
	"solid" "6"
	"origin" "36 -171 16.2136"
	editor
	{
		"color" "255 255 0"
		"visgroupshown" "1"
		"visgroupautoshown" "1"
		"logicalpos" "[0 9500]"
	}
}
entity
{
	"id" "167"
	"classname" "prop_static"
	"angles" "0 182.5 0"
	"fademaxdist" "4000"
	"fademindist" "3000"
	"fadescale" "1"
	"model" "models/props_wasteland/kitchen_shelf001a_static.mdl"
	"renderamt" "255"
	"rendercolor" "255 255 255"
	"skin" "0"
	"solid" "6"
	"origin" "71 -397 0.249998"
	editor
	{
		"color" "255 255 0"
		"visgroupshown" "1"
		"visgroupautoshown" "1"
		"logicalpos" "[0 9500]"
	}
}
entity
{
	"id" "199"
	"classname" "prop_static"
	"angles" "0 179.5 0"
	"fademaxdist" "4000"
	"fademindist" "3000"
	"fadescale" "1"
	"model" "models/props_junk/wood_crate001a_static.mdl"
	"renderamt" "255"
	"rendercolor" "255 255 255"
	"skin" "1"
	"solid" "6"
	"origin" "144 -395 20.1958"
	editor
	{
		"color" "255 255 0"
		"visgroupshown" "1"
		"visgroupautoshown" "1"
		"logicalpos" "[0 9500]"
	}
}
entity
{
	"id" "215"
	"classname" "prop_static"
	"angles" "0 183 0"
	"fademaxdist" "4000"
	"fademindist" "3000"
	"fadescale" "1"
	"model" "models/props_junk/wood_crate001a_static.mdl"
	"renderamt" "255"
	"rendercolor" "255 255 255"
	"skin" "1"
	"solid" "6"
	"origin" "188 -394 20.1958"
	editor
	{
		"color" "255 255 0"
		"visgroupshown" "1"
		"visgroupautoshown" "1"
		"logicalpos" "[0 9500]"
	}
}
entity
{
	"id" "231"
	"classname" "prop_static"
	"angles" "0 183 0"
	"fademaxdist" "4000"
	"fademindist" "3000"
	"fadescale" "1"
	"model" "models/props_junk/wood_crate001a_static.mdl"
	"renderamt" "255"
	"rendercolor" "255 255 255"
	"skin" "1"
	"solid" "6"
	"origin" "180 -393 60.4026"
	editor
	{
		"color" "255 255 0"
		"visgroupshown" "1"
		"visgroupautoshown" "1"
		"logicalpos" "[0 9500]"
	}
}
entity
{
	"id" "288"
	"classname" "prop_static"
	"angles" "0 80.5 0"
	"fademaxdist" "4000"
	"fademindist" "3000"
	"fadescale" "1"
	"model" "models/props_junk/cardboard_box002a_static.mdl"
	"renderamt" "255"
	"rendercolor" "255 255 255"
	"skin" "0"
	"solid" "6"
	"origin" "30 -87 26.8428"
	editor
	{
		"color" "255 255 0"
		"visgroupshown" "1"
		"visgroupautoshown" "1"
		"logicalpos" "[0 9500]"
	}
}
entity
{
	"id" "304"
	"classname" "prop_static"
	"angles" "0 89 0"
	"fademaxdist" "4000"
	"fademindist" "3000"
	"fadescale" "1"
	"model" "models/props_junk/cardboard_box002a_static.mdl"
	"renderamt" "255"
	"rendercolor" "255 255 255"
	"skin" "0"
	"solid" "6"
	"origin" "177 -18 12.2372"
	editor
	{
		"color" "255 255 0"
		"visgroupshown" "1"
		"visgroupautoshown" "1"
		"logicalpos" "[0 9500]"
	}
}
entity
{
	"id" "320"
	"classname" "prop_static"
	"angles" "0 94 0"
	"fademaxdist" "4000"
	"fademindist" "3000"
	"fadescale" "1"
	"model" "models/props_junk/cardboard_box002a_static.mdl"
	"renderamt" "255"
	"rendercolor" "255 255 255"
	"skin" "0"
	"solid" "6"
	"origin" "134 -18 12.2372"
	editor
	{
		"color" "255 255 0"
		"visgroupshown" "1"
		"visgroupautoshown" "1"
		"logicalpos" "[0 9500]"
	}
}
entity
{
	"id" "332"
	"classname" "prop_static"
	"angles" "0 91 0"
	"fademaxdist" "4000"
	"fademindist" "3000"
	"fadescale" "1"
	"model" "models/props_junk/cardboard_box001a_static.mdl"
	"renderamt" "255"
	"rendercolor" "255 255 255"
	"skin" "0"
	"solid" "6"
	"origin" "258 -394 12.2372"
	editor
	{
		"color" "255 255 0"
		"visgroupshown" "1"
		"visgroupautoshown" "1"
		"logicalpos" "[0 9500]"
	}
}
entity
{
	"id" "359"
	"classname" "prop_static"
	"angles" "0 91 0"
	"fademaxdist" "4000"
	"fademindist" "3000"
	"fadescale" "1"
	"model" "models/props_junk/cardboard_box001a_static.mdl"
	"renderamt" "255"
	"rendercolor" "255 255 255"
	"skin" "0"
	"solid" "6"
	"origin" "258 -394 36.7115"
	editor
	{
		"color" "255 255 0"
		"visgroupshown" "1"
		"visgroupautoshown" "1"
		"logicalpos" "[0 9500]"
	}
}
entity
{
	"id" "372"
	"classname" "light_spot"
	"_cone" "89"
	"_constant_attn" "30000"
	"_distance" "1500"
	"_exponent" "1"
	"_inner_cone" "1"
	"_light" "218 235 241 60"
	"_lightHDR" "-1 -1 -1 1"
	"_lightscaleHDR" "1"
	"_quadratic_attn" "1"
	"angles" "0 180 0"
	"pitch" "0"
	"spawnflags" "0"
	"origin" "288 -208 64"
	editor
	{
		"color" "220 30 220"
		"visgroupshown" "1"
		"visgroupautoshown" "1"
		"logicalpos" "[0 -7768]"
	}
}
cameras
{
	"activecamera" "-1"
}
cordons
{
	"active" "0"
}
