
VertexLitGeneric
{
$baseTexture "models/props/crates/SupplyCrate.vtf"
$bumpmap "models/props/crates/SupplyCrate_normal.vtf"

$phong 1
$phongboost 2
$phongexponent 5

$phongfresnelranges "[1 5 10]"
$rimlight 1
$rimlightexponent 30
$rimlightboost 2




$nodecal 1
Proxies
{
}
}
