LightmappedGeneric
{
$basetexture "Metal/metalgrate012a"
$bumpmap "metal/metalgrate012_normal"
$surfaceprop metal
$envmap env_cubemap
$envmapmask "metal/metalgrate012_env"
$envmapcontrast 1
$envmapsaturation 1
$envmaptint "[ .5 .5 .5]"
"%keywords" alienswarm
$normalmapalphaenvmapmask 1
}