//Sequence File generated by the Wall Worm SMD Exporter 1.73
//www.wallworm.com
version 1
nodes
0 "Police_manhack_reference_lod001" -1
1 "Police_manhack_reference_lod002" -1
2 "Police_manhack_reference001" -1
3 "ValveBiped.Bip01_Pelvis" -1
4 "ValveBiped.Bip01_Spine" 3
5 "ValveBiped.Bip01_Spine1" 4
6 "ValveBiped.Bip01_Spine2" 5
7 "ValveBiped.Bip01_Spine4" 6
8 "ValveBiped.Bip01_L_Clavicle" 7
9 "ValveBiped.Bip01_L_UpperArm" 8
10 "ValveBiped.Bip01_L_Forearm" 9
11 "ValveBiped.Bip01_L_Hand" 10
12 "ValveBiped.Bip01_L_Finger0" 11
13 "ValveBiped.Bip01_L_Finger01" 12
14 "ValveBiped.Bip01_L_Finger02" 13
15 "ValveBiped.Bip01_L_Finger1" 11
16 "ValveBiped.Bip01_L_Finger11" 15
17 "ValveBiped.Bip01_L_Finger12" 16
18 "ValveBiped.Bip01_L_Finger2" 11
19 "ValveBiped.Bip01_L_Finger21" 18
20 "ValveBiped.Bip01_L_Finger22" 19
21 "ValveBiped.Bip01_L_Finger3" 11
22 "ValveBiped.Bip01_L_Finger31" 21
23 "ValveBiped.Bip01_L_Finger32" 22
24 "ValveBiped.Bip01_L_Finger4" 11
25 "ValveBiped.Bip01_L_Finger41" 24
26 "ValveBiped.Bip01_L_Finger42" 25
27 "ValveBiped.Anim_Attachment_LH" 11
28 "ValveBiped.Bip01_Neck1" 7
29 "ValveBiped.Bip01_Head1" 28
30 "ValveBiped.forward" 29
31 "ValveBiped.Bip01_R_Clavicle" 7
32 "ValveBiped.Bip01_R_UpperArm" 31
33 "ValveBiped.Bip01_R_Forearm" 32
34 "ValveBiped.Bip01_R_Hand" 33
35 "ValveBiped.Bip01_R_Finger4" 34
36 "ValveBiped.Bip01_R_Finger41" 35
37 "ValveBiped.Bip01_R_Finger42" 36
38 "ValveBiped.Bip01_R_Finger3" 34
39 "ValveBiped.Bip01_R_Finger31" 38
40 "ValveBiped.Bip01_R_Finger32" 39
41 "ValveBiped.Bip01_R_Finger2" 34
42 "ValveBiped.Bip01_R_Finger21" 41
43 "ValveBiped.Bip01_R_Finger22" 42
44 "ValveBiped.Bip01_R_Finger1" 34
45 "ValveBiped.Bip01_R_Finger11" 44
46 "ValveBiped.Bip01_R_Finger12" 45
47 "ValveBiped.baton_parent" 34
48 "ValveBiped.Bip01_R_Finger0" 34
49 "ValveBiped.Bip01_R_Finger01" 48
50 "ValveBiped.Bip01_R_Finger02" 49
51 "ValveBiped.Anim_Attachment_RH" 34
52 "ValveBiped.Bip01_L_Thigh" 3
53 "ValveBiped.Bip01_L_Calf" 52
54 "ValveBiped.Bip01_L_Foot" 53
55 "ValveBiped.Bip01_L_Toe0" 54
56 "ValveBiped.Bip01_R_Thigh" 3
57 "ValveBiped.Bip01_R_Calf" 56
58 "ValveBiped.Bip01_R_Foot" 57
59 "ValveBiped.Bip01_R_Toe0" 58
end
skeleton
time 0
0 0 0 0 0 0 0
1 0 0 0 0 0 0
2 0 0 0 0 0 0
3 0 -0.533615 38.5669 1.5708 0 0
4 0 3.34512 -2.9819 1.5708 0.0862926 1.5708
5 4.01834 0 0 -0.095685 -0.0110871 -0.0287118
6 3.51856 0 0 -0.13068 -0.00198063 0.100466
7 8.94264 0 0 -0.120247 0.0216885 0.192791
8 2.03335 1.00076 1.93766 1.96249 -1.29238 2.6715
9 6.02814 0 0 -0.322857 -1.1328 -1.1615
10 11.6926 0 0 -0.220169 0.263305 -1.10794
11 11.4817 0 0 1.26028 -0.132674 -0.388507
12 0.806038 -0.348915 1.32125 -1.14854 -0.413343 -0.685815
13 1.78979 0 0 0.143113 0.00476408 0.680911
14 1.207 0 0 -0.238539 -0.328321 0.202549
15 3.85985 -0.137939 1.33247 0.716036 -0.20023 -1.35393
16 1.71943 0 0 0 0.00407381 -0.363009
17 1.09966 0 0 0.133915 -0.229714 -0.543028
18 3.88368 -0.0467682 0.431435 0.812672 -0.191549 -1.55027
19 1.71957 0 0 0.194939 -0.171309 -0.606848
20 1.20918 0 0 0.409191 -0.306122 -0.737509
21 3.94232 0.0467796 -0.43145 -0.155014 0.0733279 -0.810648
22 1.53909 0 0 0.0414073 0.089645 -0.69906
23 1.19633 0 0 0 0.00736135 -0.430802
24 3.8597 -0.142393 -1.19198 -0.479144 0.15219 -0.879874
25 1.31256 0 0 0 0.00966515 -0.43972
26 0.729357 0 0 -0.0289802 0.117256 -0.451392
27 2.67608 -1.71243 0 1.5708 0 1.5708
28 3.30728 0 0 -2.94029 -0.130082 0.387322
29 3.59371 0 0 0.170981 0.0296865 0.409131
30 2 -3 0 -1.5708 0 -1.32645
31 2.03336 1.00077 -1.93761 -1.66848 1.28652 2.94295
32 6.02814 0 0 1.63948 -0.00806573 -0.586846
33 11.6926 0 0 0 0 -0.0603724
34 11.4817 0 0 -1.56494 0.106606 0.0441936
35 3.85967 -0.132568 1.1931 0.47914 -0.158545 -0.879041
36 1.31255 0 0 0 -0.011932 -0.439672
37 0.729374 0 0 0 -0.00613404 -0.244271
38 3.94229 0.0503349 0.431046 0.154998 -0.0793048 -0.810205
39 1.53909 0 0 0 -0.00585365 -0.247771
40 1.19633 0 0 0 -0.00966314 -0.430761
41 3.88366 -0.0503235 -0.431041 -0.0859046 -0.0264033 -0.587695
42 1.71957 0 0 0 -0.00797459 -0.366436
43 1.20918 0 0 0 -0.00446085 -0.216376
44 3.85983 -0.148937 -1.33128 -0.354419 0.0385672 -0.532001
45 1.71941 0 0 0 -0.00661335 -0.362969
46 1.09967 0 0 0 -0.00421049 -0.244313
47 2.33845 -1.53574 -6.39151 1.52024 -0.09438 -2.00195
48 0.806019 -0.359833 -1.31833 1.2042 0.673618 -0.793956
49 1.78979 0 0 0 -0.00630052 0.228554
50 1.207 0 0 0 -0.0096185 0.362905
51 2.67609 -1.71244 0 -1.5708 0 -1.5708
52 3.89045 0 0 -1.5708 0.0518391 -1.56557
53 17.8482 0 0 0 0 0.0341999
54 16.5252 0 0 -0.027915 -0.040782 -1.07164
55 6.87945 0 0 -0.00729897 -0.00295064 -0.584373
56 -3.89045 0 0 -1.5708 0.051845 -1.57602
57 17.8482 0 0 0 0 0.0341871
58 16.5253 0 0 0.0386099 0.0407783 -1.07163
59 6.87946 0 0 -0.0813327 -0.00295081 -0.584373
end
