//Sequence File generated by the Wall Worm SMD Exporter 1.73
//www.wallworm.com
version 1
nodes
0 "Police_manhack_reference_lod001" -1
1 "Police_manhack_reference_lod002" -1
2 "Police_manhack_reference001" -1
3 "ValveBiped.Bip01_Pelvis" -1
4 "IK Chain001" -1
5 "IK Chain002" -1
6 "ValveBiped.Bip01_R_Thigh" 3
7 "ValveBiped.Bip01_R_Calf" 6
8 "ValveBiped.Bip01_R_Foot" 7
9 "ValveBiped.Bip01_R_Toe0" 8
10 "ValveBiped.Bip01_Spine" 3
11 "ValveBiped.Bip01_Spine1" 10
12 "ValveBiped.Bip01_Spine2" 11
13 "ValveBiped.Bip01_Spine4" 12
14 "ValveBiped.Bip01_Neck1" 13
15 "ValveBiped.Bip01_Head1" 14
16 "ValveBiped.forward" 15
17 "ValveBiped.Bip01_L_Clavicle" 13
18 "ValveBiped.Bip01_L_UpperArm" 17
19 "ValveBiped.Bip01_L_Forearm" 18
20 "ValveBiped.Bip01_L_Hand" 19
21 "ValveBiped.Anim_Attachment_LH" 20
22 "ValveBiped.Bip01_L_Finger4" 20
23 "ValveBiped.Bip01_L_Finger41" 22
24 "ValveBiped.Bip01_L_Finger42" 23
25 "ValveBiped.Bip01_L_Finger1" 20
26 "ValveBiped.Bip01_L_Finger11" 25
27 "ValveBiped.Bip01_L_Finger12" 26
28 "ValveBiped.Bip01_L_Finger2" 20
29 "ValveBiped.Bip01_L_Finger21" 28
30 "ValveBiped.Bip01_L_Finger22" 29
31 "ValveBiped.Bip01_L_Finger3" 20
32 "ValveBiped.Bip01_L_Finger31" 31
33 "ValveBiped.Bip01_L_Finger32" 32
34 "ValveBiped.Bip01_L_Finger0" 20
35 "ValveBiped.Bip01_L_Finger01" 34
36 "ValveBiped.Bip01_L_Finger02" 35
37 "ValveBiped.Bip01_R_Clavicle" 13
38 "ValveBiped.Bip01_R_UpperArm" 37
39 "ValveBiped.Bip01_R_Forearm" 38
40 "ValveBiped.Bip01_R_Hand" 39
41 "ValveBiped.baton_parent" 40
42 "ValveBiped.Bip01_R_Finger0" 40
43 "ValveBiped.Bip01_R_Finger01" 42
44 "ValveBiped.Bip01_R_Finger02" 43
45 "ValveBiped.Bip01_R_Finger1" 40
46 "ValveBiped.Bip01_R_Finger11" 45
47 "ValveBiped.Bip01_R_Finger12" 46
48 "ValveBiped.Bip01_R_Finger2" 40
49 "ValveBiped.Bip01_R_Finger21" 48
50 "ValveBiped.Bip01_R_Finger22" 49
51 "ValveBiped.Bip01_R_Finger3" 40
52 "ValveBiped.Bip01_R_Finger31" 51
53 "ValveBiped.Bip01_R_Finger32" 52
54 "ValveBiped.Bip01_R_Finger4" 40
55 "ValveBiped.Bip01_R_Finger41" 54
56 "ValveBiped.Bip01_R_Finger42" 55
57 "ValveBiped.Anim_Attachment_RH" 40
58 "ValveBiped.Bip01_L_Thigh" 3
59 "ValveBiped.Bip01_L_Calf" 58
60 "ValveBiped.Bip01_L_Foot" 59
61 "ValveBiped.Bip01_L_Toe0" 60
end
skeleton
time 0
0 0 0 0 0 0 0
1 0 0 0 0 0 0
2 0 0 0 0 0 0
3 0 1.13061 37.3362 1.5708 0 0
4 3.97889 0.975429 2.90422 0 0 0
5 -6.37121 -0.0271204 -2.33238 0 0 0
6 -3.89045 0 0 -1.56886 -0.194951 -1.63342
7 17.8482 0 0 -0.01091 -0.00344369 0.488332
8 16.5253 0 0 0.03861 0.0186014 -0.661947
9 6.87946 0 0 -0.0813326 -0.00295065 -0.584373
10 0 3.34512 -2.98189 1.5708 0.0862926 1.5708
11 4.01834 0 0 0.0317831 -0.0562901 -0.0694709
12 3.51856 0 0 -0.131445 0.0715202 0.142536
13 8.94264 0 0 -0.0150037 -0.0389318 0.264635
14 3.30728 0 0 -2.94022 -0.142547 0.420474
15 3.59371 0 0 0.00189385 -0.122477 0.625105
16 2 -3 0 -1.5708 0 -1.32645
17 2.03336 1.00076 1.93766 0.389031 -1.37008 -2.64616
18 6.02814 0 0 -1.64302 -0.230315 -1.16374
19 11.6926 0 0 -0.189879 0.619871 -1.50852
20 11.4817 0 0 0.837541 -0.0142699 -0.151441
21 2.67608 -1.71243 0 1.5708 0 1.5708
22 3.8597 -0.142393 -1.19197 -0.479144 0.15219 -0.879874
23 1.31256 0 0 0 0.00966513 -0.43972
24 0.729355 0 0 -0.0289803 0.117256 -0.451392
25 3.85986 -0.137939 1.33247 0.716035 -0.20023 -1.35393
26 1.71943 0 0 0 0.0040738 -0.363009
27 1.09966 0 0 0.133915 -0.229714 -0.543028
28 3.88368 -0.0467672 0.431442 0.812672 -0.191549 -1.55027
29 1.71958 0 0 0.194939 -0.171309 -0.606848
30 1.20918 0 0 0.409192 -0.306122 -0.737509
31 3.94232 0.0467777 -0.431442 -0.155013 0.0733279 -0.810648
32 1.53909 0 0 0.0414072 0.089645 -0.69906
33 1.19633 0 0 0 0.00736128 -0.430802
34 0.806038 -0.348916 1.32126 -1.14854 -0.413343 -0.685815
35 1.78979 0 0 0.143113 0.00476414 0.680911
36 1.207 0 0 -0.238539 -0.328321 0.202549
37 2.03337 1.00077 -1.93761 -1.68882 1.14785 2.79016
38 6.02814 0 0 1.66587 0.0413209 -0.700365
39 11.6926 0 0 0.214188 0.00570764 -1.66478
40 11.4817 0 0 -1.60511 -0.19217 -0.199007
41 2.33845 -1.53574 -6.39151 1.52024 -0.0943799 -2.00195
42 0.806017 -0.359833 -1.31833 0.93401 0.297778 -0.930654
43 1.78979 0 0 0.00909531 -0.315148 0.639494
44 1.207 0 0 0.000382639 -0.0702455 0.716388
45 3.85983 -0.148937 -1.33128 -0.354419 0.0385671 -0.532001
46 1.71942 0 0 0.0896101 0.216064 -1.89942
47 1.09966 0 0 0 -0.00421039 -0.244313
48 3.88366 -0.0503235 -0.431042 -0.0400591 -0.165985 -1.2578
49 1.71957 0 0 0.366782 -0.0968551 -2.8629
50 1.20918 0 0 0 -0.00446078 -0.216376
51 3.9423 0.0503349 0.431042 -0.174166 0.127578 -1.20779
52 1.53909 0 0 0 -0.00585368 -0.247771
53 1.19634 0 0 0.0049434 -0.275389 -1.12101
54 3.85968 -0.132565 1.1931 0.47914 -0.158545 -0.879041
55 1.31255 0 0 0 -0.0119319 -0.439672
56 0.729374 0 0 0 -0.00613403 -0.244271
57 2.67609 -1.71244 0 -1.5708 0 -1.5708
58 3.89045 0 0 -1.5708 -0.00376544 -1.56823
59 17.8482 0 0 0 0 -0.00154219
60 16.5252 0 0 -0.0456783 -0.0171037 -1.13
61 6.87945 0 0 -0.00521947 -0.00281233 -0.539668
time 1
0 0 0 0 0 0 0
1 0 0 0 0 0 0
2 0 0 0 0 0 0
3 0 0.453126 37.2148 1.5708 0 0
4 3.97889 0.00460561 4.0347 0 0 0
5 -6.35593 -0.123393 -2.07079 0 0 0
6 -3.89045 0 0 -1.56984 -0.215378 -1.63313
7 17.8482 0 0 -0.0105618 -0.00332804 0.568166
8 16.5253 0 0 0.03861 0.0205144 -0.720222
9 6.87946 0 0 -0.0813326 -0.0029507 -0.584373
10 0 3.34512 -2.9819 1.5708 0.0862926 1.5708
11 4.01834 0 0 0.0131371 -0.0585152 -0.0865799
12 3.51856 0 0 -0.131015 0.069048 0.151097
13 8.94264 0 0 -0.0257096 -0.0413469 0.229016
14 3.30728 0 0 -2.94022 -0.142365 0.419991
15 3.59371 0 0 0.0149511 -0.121046 0.624945
16 2 -3 0 -1.5708 0 -1.32645
17 2.03335 1.00077 1.93766 0.613352 -1.50387 -2.97417
18 6.02814 0 0 -1.68721 -0.346106 -1.10742
19 11.6926 0 0 -0.077235 0.692648 -1.42662
20 11.4817 0 0 0.851499 -0.01427 -0.151441
21 2.67608 -1.71243 0 1.5708 0 1.5708
22 3.8597 -0.142395 -1.19197 -0.479144 0.15219 -0.879874
23 1.31256 0 0 0 0.00966515 -0.43972
24 0.729357 0 0 -0.0289803 0.117256 -0.451392
25 3.85986 -0.137941 1.33247 0.716036 -0.20023 -1.35393
26 1.71943 0 0 0 0.00407384 -0.363009
27 1.09966 0 0 0.133915 -0.229714 -0.543028
28 3.88368 -0.0467701 0.431438 0.812672 -0.191549 -1.55027
29 1.71958 0 0 0.194939 -0.171309 -0.606848
30 1.20918 0 0 0.409192 -0.306122 -0.737509
31 3.94233 0.0467777 -0.431446 -0.155014 0.073328 -0.810648
32 1.53909 0 0 0.0414073 0.089645 -0.69906
33 1.19633 0 0 0 0.00736124 -0.430802
34 0.806038 -0.348918 1.32125 -1.14854 -0.413343 -0.685815
35 1.78979 0 0 0.143113 0.00476409 0.680911
36 1.207 0 0 -0.238539 -0.328321 0.202549
37 2.03336 1.00077 -1.93761 -1.68882 1.14785 2.79016
38 6.02814 0 0 1.66587 0.0413209 -0.700364
39 11.6926 0 0 0.211434 0.00189026 -1.65553
40 11.4817 0 0 -1.60511 -0.19217 -0.199007
41 2.33845 -1.53574 -6.39151 1.52024 -0.09438 -2.00195
42 0.806017 -0.359829 -1.31833 0.93401 0.297779 -0.930655
43 1.78979 0 0 0.00909541 -0.315148 0.639495
44 1.207 0 0 0.000382605 -0.0702455 0.716388
45 3.85983 -0.148937 -1.33128 -0.354419 0.0385672 -0.532001
46 1.71942 0 0 0.0896101 0.216065 -1.89942
47 1.09967 0 0 0 -0.00421051 -0.244313
48 3.88366 -0.0503197 -0.431042 -0.040059 -0.165984 -1.2578
49 1.71957 0 0 0.366782 -0.0968552 -2.8629
50 1.20918 0 0 0 -0.00446081 -0.216376
51 3.9423 0.0503349 0.431046 -0.174166 0.127578 -1.20779
52 1.53909 0 0 0 -0.00585368 -0.247771
53 1.19634 0 0 0.0049433 -0.275389 -1.12101
54 3.85968 -0.132565 1.1931 0.47914 -0.158545 -0.879041
55 1.31255 0 0 0 -0.0119319 -0.439672
56 0.729372 0 0 0 -0.00613406 -0.244271
57 2.67608 -1.71243 0 -1.5708 0 -1.5708
58 3.89045 0 0 -1.57076 -0.267354 -1.56814
59 17.8482 0 0 0 0 0.528502
60 16.5252 0 0 -0.0455354 -0.0177026 -1.14266
61 6.87945 0 0 -0.00521944 -0.00281245 -0.539669
time 2
0 0 0 0 0 0 0
1 0 0 0 0 0 0
2 0 0 0 0 0 0
3 0 -1.0578 36.9189 1.5708 0 0
4 3.97889 -2.131 6.52153 0 0 0
5 -6.31496 -0.364054 -1.37448 0 0 0
6 -3.89045 0 0 -1.57213 -0.26316 -1.63209
7 17.8482 0 0 -0.00955919 -0.00275861 0.743649
8 16.5253 0 0 0.03861 0.0242612 -0.821536
9 6.87946 0 0 -0.0813327 -0.0029507 -0.584373
10 0 3.34512 -2.98189 1.5708 0.0862926 1.5708
11 4.01834 0 0 -0.0278802 -0.0634104 -0.124216
12 3.51856 0 0 -0.130068 0.0636101 0.169931
13 8.94264 0 0 -0.0492604 -0.0466597 0.150664
14 3.30728 0 0 -2.94023 -0.141856 0.418638
15 3.59371 0 0 0.0515098 -0.117039 0.624496
16 2.00001 -3 0 -1.5708 0 -1.32645
17 2.03336 1.00076 1.93766 -2.26051 -1.47803 -0.224073
18 6.02814 0 0 -1.78443 -0.600822 -0.983543
19 11.6926 0 0 0.170559 0.852743 -1.24644
20 11.4817 0 0 0.872774 -0.0142698 -0.151441
21 2.67607 -1.71244 0 1.5708 0 1.5708
22 3.8597 -0.142395 -1.19197 -0.479144 0.15219 -0.879874
23 1.31256 0 0 0 0.00966514 -0.43972
24 0.729357 0 0 -0.0289803 0.117256 -0.451392
25 3.85985 -0.137943 1.33248 0.716035 -0.20023 -1.35393
26 1.71943 0 0 0 0.00407384 -0.363009
27 1.09966 0 0 0.133915 -0.229714 -0.543028
28 3.88368 -0.0467682 0.431442 0.812672 -0.191549 -1.55027
29 1.71957 0 0 0.194939 -0.171309 -0.606848
30 1.20917 0 0 0.409192 -0.306122 -0.737509
31 3.94232 0.0467758 -0.431442 -0.155013 0.073328 -0.810648
32 1.53909 0 0 0.0414074 0.0896451 -0.69906
33 1.19633 0 0 0 0.00736126 -0.430802
34 0.806038 -0.348919 1.32126 -1.14854 -0.413343 -0.685815
35 1.78979 0 0 0.143113 0.00476404 0.680911
36 1.207 0 0 -0.238539 -0.328321 0.202549
37 2.03337 1.00077 -1.93761 -1.68882 1.14785 2.79016
38 6.02814 0 0 1.66587 0.0413207 -0.700364
39 11.6925 0 0 0.203726 -0.00879744 -1.62961
40 11.4817 0 0 -1.60511 -0.19217 -0.199007
41 2.33845 -1.53574 -6.39151 1.52024 -0.0943799 -2.00195
42 0.806017 -0.359829 -1.31833 0.93401 0.297778 -0.930654
43 1.78979 0 0 0.00909531 -0.315148 0.639494
44 1.207 0 0 0.000382611 -0.0702454 0.716388
45 3.85983 -0.148941 -1.33128 -0.354419 0.0385672 -0.532001
46 1.71942 0 0 0.08961 0.216065 -1.89942
47 1.09966 0 0 0 -0.00421066 -0.244313
48 3.88365 -0.0503235 -0.431038 -0.0400591 -0.165984 -1.2578
49 1.71957 0 0 0.366782 -0.0968551 -2.8629
50 1.20918 0 0 0 -0.00446083 -0.216376
51 3.94229 0.0503349 0.431049 -0.174166 0.127578 -1.20779
52 1.53909 0 0 0 -0.00585366 -0.247771
53 1.19634 0 0 0.00494348 -0.275389 -1.12101
54 3.85967 -0.132565 1.1931 0.47914 -0.158544 -0.879041
55 1.31255 0 0 0 -0.0119319 -0.439671
56 0.729372 0 0 0 -0.00613405 -0.244271
57 2.67608 -1.71244 0 -1.5708 0 -1.5708
58 3.89045 0 0 -1.57065 -0.500046 -1.56795
59 17.8482 0 0 0 0 0.970073
60 16.5253 0 0 -0.0452215 -0.0190206 -1.17051
61 6.87945 0 0 -0.00521939 -0.0028124 -0.539669
time 3
0 0 0 0 0 0 0
1 0 0 0 0 0 0
2 0 0 0 0 0 0
3 0 -2.61988 36.5512 1.5708 0 0
4 3.97889 -4.26661 9.00836 0 0 0
5 -6.25565 -0.676897 -0.376043 0 0 0
6 -3.89045 0 0 -1.57469 -0.323114 -1.63035
7 17.8482 0 0 -0.00808281 -0.0018696 0.939801
8 16.5253 0 0 0.0386099 0.0280208 -0.903508
9 6.87946 0 0 -0.0813325 -0.00295082 -0.584373
10 0 3.34512 -2.98189 1.5708 0.0862927 1.5708
11 4.01834 0 0 -0.0688974 -0.0683053 -0.161853
12 3.51856 0 0 -0.129122 0.0581718 0.188764
13 8.94264 0 0 -0.0728111 -0.0519728 0.0723112
14 3.30728 0 0 -2.94023 -0.141075 0.41656
15 3.59371 0 0 0.10765 -0.110887 0.623807
16 2.00001 -3 0 -1.5708 0 -1.32645
17 2.03336 1.00076 1.93766 -2.03619 -1.34423 -0.552089
18 6.02814 0 0 -1.88164 -0.855537 -0.859662
19 11.6926 0 0 0.418354 1.01284 -1.06627
20 11.4817 0 0 0.899739 -0.0142698 -0.151441
21 2.67608 -1.71243 0 1.5708 0 1.5708
22 3.8597 -0.142395 -1.19197 -0.479144 0.15219 -0.879874
23 1.31256 0 0 0 0.00966514 -0.43972
24 0.729351 0 0 -0.0289803 0.117256 -0.451392
25 3.85985 -0.137947 1.33247 0.716036 -0.20023 -1.35393
26 1.71943 0 0 0 0.00407396 -0.363009
27 1.09966 0 0 0.133915 -0.229714 -0.543028
28 3.88368 -0.0467682 0.431437 0.812672 -0.191549 -1.55027
29 1.71957 0 0 0.194939 -0.171309 -0.606848
30 1.20918 0 0 0.409192 -0.306122 -0.737509
31 3.94232 0.0467758 -0.431445 -0.155013 0.073328 -0.810648
32 1.53909 0 0 0.0414073 0.0896451 -0.69906
33 1.19633 0 0 0 0.00736109 -0.430802
34 0.806038 -0.348923 1.32125 -1.14854 -0.413343 -0.685815
35 1.78979 0 0 0.143113 0.00476406 0.680911
36 1.207 0 0 -0.238539 -0.328321 0.202549
37 2.03337 1.00077 -1.93761 -1.68882 1.14785 2.79016
38 6.02814 0 0 1.66587 0.0413209 -0.700364
39 11.6925 0 0 0.191888 -0.0252103 -1.58981
40 11.4817 0 0 -1.60511 -0.19217 -0.199007
41 2.33845 -1.53574 -6.39151 1.52024 -0.09438 -2.00195
42 0.806017 -0.359833 -1.31833 0.93401 0.297778 -0.930654
43 1.78979 0 0 0.00909533 -0.315148 0.639494
44 1.207 0 0 0.000382637 -0.0702455 0.716388
45 3.85983 -0.148945 -1.33129 -0.354419 0.0385673 -0.532001
46 1.71942 0 0 0.0896102 0.216065 -1.89942
47 1.09966 0 0 0 -0.00421039 -0.244313
48 3.88366 -0.0503273 -0.431042 -0.0400591 -0.165985 -1.2578
49 1.71957 0 0 0.366782 -0.0968552 -2.8629
50 1.20918 0 0 0 -0.00446085 -0.216376
51 3.9423 0.0503311 0.431046 -0.174166 0.127578 -1.20779
52 1.53909 0 0 0 -0.00585372 -0.247771
53 1.19634 0 0 0.00494333 -0.275389 -1.12101
54 3.85968 -0.132568 1.1931 0.47914 -0.158545 -0.879041
55 1.31255 0 0 0 -0.0119319 -0.439672
56 0.729376 0 0 0 -0.00613399 -0.244271
57 2.67609 -1.71244 0 -1.5708 0 -1.5708
58 3.89045 0 0 -1.57058 -0.670608 -1.56771
59 17.8482 0 0 0 0 1.27902
60 16.5252 0 0 -0.0449077 -0.0203384 -1.19837
61 6.87945 0 0 -0.00521947 -0.00281232 -0.539669
time 4
0 0 0 0 0 0 0
1 0 0 0 0 0 0
2 0 0 0 0 0 0
3 0 -3.45081 36.2143 1.5708 0 0
4 3.97889 -5.23743 10.1388 0 0 0
5 -6.18534 -0.98974 0.791934 0 0 0
6 -3.89045 0 0 -1.57635 -0.398407 -1.62851
7 17.8482 0 0 -0.0063815 -0.00102347 1.12473
8 16.5253 0 0 0.03861 0.0313623 -0.959325
9 6.87946 0 0 -0.0813327 -0.00295052 -0.584373
10 0 3.34512 -2.9819 1.5708 0.0862926 1.5708
11 4.01834 0 0 -0.0875435 -0.0705303 -0.178962
12 3.51856 0 0 -0.128692 0.0556996 0.197325
13 8.94264 0 0 -0.0835171 -0.0543878 0.036693
14 3.30728 0 0 -2.94024 -0.140076 0.413901
15 3.59371 0 0 0.179455 -0.103018 0.622926
16 2 -3 0 -1.5708 0 -1.32645
17 2.03335 1.00076 1.93766 -1.94211 -1.28812 -0.689658
18 6.02814 0 0 -1.92583 -0.971328 -0.803346
19 11.6926 0 0 0.530998 1.08562 -0.984364
20 11.4817 0 0 0.930768 -0.0142698 -0.151441
21 2.67608 -1.71243 0 1.5708 0 1.5708
22 3.8597 -0.142395 -1.19197 -0.479144 0.15219 -0.879874
23 1.31256 0 0 0 0.00966516 -0.43972
24 0.729355 0 0 -0.0289801 0.117257 -0.451392
25 3.85985 -0.137939 1.33247 0.716036 -0.20023 -1.35393
26 1.71943 0 0 0 0.00407372 -0.363009
27 1.09966 0 0 0.133915 -0.229714 -0.543028
28 3.88368 -0.0467682 0.431437 0.812672 -0.191549 -1.55027
29 1.71957 0 0 0.194939 -0.171309 -0.606848
30 1.20918 0 0 0.409192 -0.306122 -0.737509
31 3.94232 0.0467834 -0.431446 -0.155013 0.073328 -0.810648
32 1.53908 0 0 0.0414072 0.0896449 -0.69906
33 1.19633 0 0 0 0.00736123 -0.430802
34 0.80604 -0.348907 1.32125 -1.14854 -0.413343 -0.685815
35 1.78979 0 0 0.143113 0.00476403 0.680911
36 1.207 0 0 -0.238539 -0.328321 0.202549
37 2.03337 1.00077 -1.93761 -1.68882 1.14785 2.79016
38 6.02814 0 0 1.66587 0.0413209 -0.700365
39 11.6926 0 0 0.176746 -0.0462023 -1.5389
40 11.4817 0 0 -1.60511 -0.19217 -0.199007
41 2.33845 -1.53574 -6.39151 1.52024 -0.09438 -2.00195
42 0.806017 -0.359833 -1.31833 0.93401 0.297778 -0.930654
43 1.78979 0 0 0.00909528 -0.315148 0.639494
44 1.207 0 0 0.000382605 -0.0702454 0.716388
45 3.85983 -0.148941 -1.33128 -0.354419 0.0385672 -0.532001
46 1.71942 0 0 0.0896101 0.216064 -1.89942
47 1.09967 0 0 0 -0.00421044 -0.244313
48 3.88366 -0.0503235 -0.431042 -0.040059 -0.165984 -1.2578
49 1.71957 0 0 0.366782 -0.0968552 -2.8629
50 1.20918 0 0 0 -0.00446075 -0.216376
51 3.9423 0.0503311 0.431046 -0.174166 0.127578 -1.20779
52 1.53909 0 0 0 -0.0058536 -0.247771
53 1.19634 0 0 0.00494336 -0.275389 -1.12101
54 3.85968 -0.132568 1.1931 0.47914 -0.158544 -0.879041
55 1.31255 0 0 0 -0.0119319 -0.439671
56 0.729374 0 0 0 -0.006134 -0.244271
57 2.67609 -1.71244 0 -1.5708 0 -1.5708
58 3.89045 0 0 -1.57063 -0.743084 -1.56751
59 17.8482 0 0 0 0 1.41516
60 16.5252 0 0 -0.044765 -0.0209374 -1.21103
61 6.87945 0 0 -0.0052194 -0.00281236 -0.539669
time 5
0 0 0 0 0 0 0
1 0 0 0 0 0 0
2 0 0 0 0 0 0
3 0 -3.57016 35.8417 1.5708 0 0
4 3.97889 -6.83071 6.52153 0 0 0
5 -6.11136 -1.2304 1.99691 0 0 0
6 -3.89045 0 0 -1.57719 -0.48721 -1.62697
7 17.8482 0 0 -0.00454429 -0.00038651 1.29766
8 16.5253 0 0 0.03861 0.0344082 -0.997178
9 6.87946 0 0 -0.0813327 -0.00295063 -0.584373
10 0 3.34512 -2.98189 1.5708 0.0862926 1.5708
11 4.01834 0 0 -0.100106 -0.0680297 -0.1698
12 3.51856 0 0 -0.128763 0.0529519 0.196212
13 8.94264 0 0 -0.0927123 -0.0532504 0.0432719
14 3.30727 0 0 -2.94024 -0.138913 0.410809
15 3.59371 0 0 0.263007 -0.0938622 0.6219
16 2 -3 0 -1.5708 0 -1.32645
17 2.03335 1.00077 1.93766 -1.96744 -1.30322 -0.652618
18 6.02814 0 0 -1.91452 -0.933292 -0.797084
19 11.6926 0 0 0.511629 1.07554 -0.996104
20 11.4817 0 0 0.964235 -0.0142698 -0.151441
21 2.67608 -1.71244 0 1.5708 0 1.5708
22 3.8597 -0.142403 -1.19197 -0.479144 0.15219 -0.879874
23 1.31256 0 0 0 0.00966518 -0.43972
24 0.729362 0 0 -0.0289803 0.117256 -0.451392
25 3.85986 -0.137947 1.33247 0.716036 -0.20023 -1.35393
26 1.71943 0 0 0 0.00407379 -0.363009
27 1.09966 0 0 0.133915 -0.229714 -0.543029
28 3.88368 -0.0467682 0.431438 0.812672 -0.191549 -1.55027
29 1.71958 0 0 0.194939 -0.171309 -0.606848
30 1.20918 0 0 0.409192 -0.306122 -0.737509
31 3.94232 0.0467758 -0.431446 -0.155014 0.0733279 -0.810648
32 1.53909 0 0 0.0414073 0.089645 -0.69906
33 1.19633 0 0 0 0.00736144 -0.430802
34 0.80604 -0.348915 1.32125 -1.14854 -0.413343 -0.685815
35 1.78979 0 0 0.143113 0.00476403 0.680911
36 1.207 0 0 -0.238539 -0.328321 0.202549
37 2.03336 1.00077 -1.93761 -1.68882 1.14785 2.79016
38 6.02814 0 0 1.66587 0.0413208 -0.700364
39 11.6926 0 0 0.159129 -0.0706288 -1.47966
40 11.4817 0 0 -1.60511 -0.19217 -0.199007
41 2.33845 -1.53574 -6.39151 1.52024 -0.0943799 -2.00195
42 0.806017 -0.359833 -1.31833 0.93401 0.297778 -0.930655
43 1.78979 0 0 0.00909529 -0.315148 0.639494
44 1.207 0 0 0.000382624 -0.0702455 0.716388
45 3.85983 -0.148937 -1.33128 -0.354419 0.0385673 -0.532001
46 1.71942 0 0 0.0896102 0.216065 -1.89942
47 1.09967 0 0 0 -0.00421067 -0.244313
48 3.88366 -0.0503235 -0.431038 -0.040059 -0.165984 -1.2578
49 1.71957 0 0 0.366782 -0.0968552 -2.8629
50 1.20918 0 0 0 -0.00446072 -0.216376
51 3.9423 0.0503349 0.431046 -0.174166 0.127578 -1.20779
52 1.53909 0 0 0 -0.00585369 -0.247771
53 1.19634 0 0 0.0049434 -0.275389 -1.12101
54 3.85967 -0.132565 1.1931 0.47914 -0.158545 -0.879041
55 1.31255 0 0 0 -0.0119319 -0.439672
56 0.729374 0 0 0 -0.00613396 -0.244271
57 2.67609 -1.71244 0 -1.5708 0 -1.5708
58 3.89045 0 0 -1.57056 -0.627103 -1.5679
59 17.8482 0 0 0 0 1.07878
60 16.5252 0 0 -0.044293 -0.0214932 -1.22596
61 6.87945 0 0 -0.00521949 -0.00281249 -0.539669
time 6
0 0 0 0 0 0 0
1 0 0 0 0 0 0
2 0 0 0 0 0 0
3 0 -3.58721 35.6127 1.5708 0 0
4 3.97889 -8.424 2.90422 0 0 0
5 -6.04105 -1.32667 3.10634 0 0 0
6 -3.89045 0 0 -1.57804 -0.555632 -1.62545
7 17.8482 0 0 -0.00299967 0 1.42928
8 16.5253 0 0 0.03861 0.036709 -1.01846
9 6.87946 0 0 -0.0813326 -0.00295059 -0.584373
10 0 3.34512 -2.9819 1.5708 0.0862926 1.5708
11 4.01834 0 0 -0.134203 -0.0612428 -0.144932
12 3.51856 0 0 -0.128955 0.045495 0.193192
13 8.94264 0 0 -0.117669 -0.0501642 0.0611275
14 3.30728 0 0 -2.94025 -0.137641 0.407426
15 3.59371 0 0 0.354391 -0.0838478 0.620779
16 2 -3 0 -1.5708 0 -1.32645
17 2.03336 1.00077 1.93766 -2.03619 -1.34423 -0.552089
18 6.02814 0 0 -1.88535 -0.835205 -0.779373
19 11.6926 0 0 0.45906 1.04821 -1.02797
20 11.4817 0 0 0.998516 -0.0142698 -0.151441
21 2.67607 -1.71243 0 1.5708 0 1.5708
22 3.8597 -0.142395 -1.19197 -0.479144 0.15219 -0.879874
23 1.31256 0 0 0 0.00966511 -0.43972
24 0.729362 0 0 -0.0289801 0.117256 -0.451392
25 3.85985 -0.137939 1.33247 0.716036 -0.20023 -1.35393
26 1.71943 0 0 0 0.00407369 -0.363009
27 1.09967 0 0 0.133915 -0.229714 -0.543028
28 3.88368 -0.0467682 0.431439 0.812672 -0.191549 -1.55027
29 1.71958 0 0 0.194939 -0.171309 -0.606848
30 1.20918 0 0 0.409192 -0.306122 -0.737509
31 3.94232 0.0467758 -0.431444 -0.155013 0.073328 -0.810648
32 1.53909 0 0 0.0414072 0.0896451 -0.69906
33 1.19633 0 0 0 0.00736128 -0.430802
34 0.806038 -0.348915 1.32126 -1.14854 -0.413343 -0.685815
35 1.78979 0 0 0.143113 0.00476404 0.680911
36 1.207 0 0 -0.238539 -0.328321 0.202549
37 2.03337 1.00077 -1.93761 -1.68882 1.14785 2.79016
38 6.02814 0 0 1.66587 0.0413207 -0.700364
39 11.6926 0 0 0.139859 -0.0973445 -1.41487
40 11.4817 0 0 -1.60511 -0.19217 -0.199007
41 2.33845 -1.53574 -6.39151 1.52024 -0.0943799 -2.00195
42 0.806019 -0.359833 -1.31833 0.93401 0.297778 -0.930654
43 1.78979 0 0 0.00909531 -0.315148 0.639495
44 1.207 0 0 0.000382685 -0.0702455 0.716388
45 3.85983 -0.148941 -1.33129 -0.354419 0.0385673 -0.532001
46 1.71942 0 0 0.0896102 0.216065 -1.89942
47 1.09967 0 0 0 -0.0042105 -0.244313
48 3.88366 -0.0503235 -0.431044 -0.040059 -0.165985 -1.2578
49 1.71957 0 0 0.366782 -0.0968552 -2.8629
50 1.20918 0 0 0 -0.0044608 -0.216376
51 3.9423 0.0503311 0.431046 -0.174166 0.127578 -1.20779
52 1.53909 0 0 0 -0.00585364 -0.247771
53 1.19634 0 0 0.00494337 -0.275389 -1.12101
54 3.85967 -0.132568 1.1931 0.47914 -0.158545 -0.879041
55 1.31255 0 0 0 -0.0119319 -0.439671
56 0.729376 0 0 0 -0.00613406 -0.244271
57 2.67609 -1.71244 0 -1.5708 0 -1.5708
58 3.89045 0 0 -1.57044 -0.412953 -1.56819
59 17.8482 0 0 0 0 0.554175
60 16.5252 0 0 -0.0430125 -0.0230014 -1.26647
61 6.87945 0 0 -0.00521947 -0.00281233 -0.539669
time 7
0 0 0 0 0 0 0
1 0 0 0 0 0 0
2 0 0 0 0 0 0
3 0 -3.19673 34.4449 1.5708 0 0
4 3.97889 -8.424 2.90422 0 0 0
5 -5.99191 -0.621531 4.31447 0 0 0
6 -3.89045 0 0 -1.58098 -0.650421 -1.62445
7 17.8482 0 0 -0.000351274 0 1.63552
8 16.5253 0 0 0.03861 0.0403172 -1.04116
9 6.87946 0 0 -0.0813327 -0.00295055 -0.584373
10 0 3.34512 -2.98189 1.5708 0.0862926 1.5708
11 4.01834 0 0 -0.184447 -0.0512416 -0.108288
12 3.51856 0 0 -0.129239 0.0345063 0.18874
13 8.94264 0 0 -0.154445 -0.045616 0.0874395
14 3.30727 0 0 -2.94026 -0.136315 0.403898
15 3.59371 0 0 0.44969 -0.0734042 0.619609
16 2 -3 0 -1.5708 0 -1.32645
17 2.03335 1.00076 1.93766 -2.1375 -1.40466 -0.403949
18 6.02815 0 0 -1.84546 -0.701093 -0.751831
19 11.6926 0 0 0.381595 1.00792 -1.07493
20 11.4817 0 0 1.03198 -0.0142698 -0.151441
21 2.67608 -1.71244 0 1.5708 0 1.5708
22 3.8597 -0.142399 -1.19198 -0.479144 0.15219 -0.879874
23 1.31256 0 0 0 0.00966524 -0.43972
24 0.729359 0 0 -0.0289802 0.117256 -0.451392
25 3.85986 -0.137943 1.33247 0.716036 -0.20023 -1.35393
26 1.71943 0 0 0 0.00407387 -0.363009
27 1.09966 0 0 0.133915 -0.229714 -0.543028
28 3.88368 -0.046772 0.431438 0.812672 -0.191549 -1.55027
29 1.71957 0 0 0.194939 -0.171309 -0.606848
30 1.20918 0 0 0.409191 -0.306122 -0.737509
31 3.94232 0.0467758 -0.431446 -0.155013 0.073328 -0.810648
32 1.53909 0 0 0.0414072 0.0896451 -0.69906
33 1.19633 0 0 0 0.00736115 -0.430802
34 0.806038 -0.348919 1.32125 -1.14854 -0.413343 -0.685815
35 1.78979 0 0 0.143113 0.00476405 0.680911
36 1.207 0 0 -0.238539 -0.328321 0.202549
37 2.03336 1.00077 -1.93761 -1.68882 1.14785 2.79016
38 6.02814 0 0 1.66587 0.0413209 -0.700365
39 11.6926 0 0 0.119764 -0.125205 -1.34731
40 11.4817 0 0 -1.60511 -0.19217 -0.199007
41 2.33845 -1.53574 -6.39151 1.52024 -0.0943798 -2.00195
42 0.806019 -0.359831 -1.31833 0.93401 0.297779 -0.930655
43 1.78979 0 0 0.00909538 -0.315148 0.639494
44 1.207 0 0 0.000382544 -0.0702454 0.716388
45 3.85983 -0.148937 -1.33128 -0.354419 0.0385673 -0.532001
46 1.71942 0 0 0.08961 0.216064 -1.89942
47 1.09967 0 0 0 -0.00421049 -0.244313
48 3.88366 -0.0503235 -0.431042 -0.040059 -0.165984 -1.2578
49 1.71957 0 0 0.366782 -0.0968552 -2.8629
50 1.20918 0 0 0 -0.00446099 -0.216376
51 3.9423 0.0503311 0.431047 -0.174166 0.127578 -1.20779
52 1.53909 0 0 0 -0.00585365 -0.247771
53 1.19633 0 0 0.00494336 -0.275389 -1.12101
54 3.85968 -0.132565 1.1931 0.47914 -0.158545 -0.879041
55 1.31255 0 0 0 -0.0119319 -0.439672
56 0.729374 0 0 0 -0.00613408 -0.244271
57 2.67609 -1.71244 0 -1.5708 0 -1.5708
58 3.89045 0 0 -1.5703 -0.525413 -1.56817
59 17.8482 0 0 0 0 0.752772
60 16.5252 0 0 -0.0411252 -0.025224 -1.32618
61 6.87945 0 0 -0.0052195 -0.00281244 -0.539669
time 8
0 0 0 0 0 0 0
1 0 0 0 0 0 0
2 0 0 0 0 0 0
3 0 -2.31585 31.6786 1.5708 0 0
4 3.97889 -8.424 2.90422 0 0 0
5 -5.96157 1.27498 5.76619 0 0 0
6 -3.89045 0 0 -1.5899 -0.772656 -1.623
7 17.8482 0 0 0.00413718 -0.000985367 1.94647
8 16.5253 0 0 0.0386101 0.0458224 -1.05484
9 6.87946 0 0 -0.0813327 -0.00295076 -0.584373
10 0 3.34513 -2.9819 1.5708 0.0862926 1.5708
11 4.01834 0 0 -0.245456 -0.0390976 -0.0637933
12 3.51856 0 0 -0.129584 0.0211633 0.183334
13 8.94264 0 0 -0.1991 -0.0400935 0.119389
14 3.30728 0 0 -2.94026 -0.134988 0.40037
15 3.59371 0 0 0.544988 -0.0629609 0.618439
16 2 -3 0 -1.5708 0 -1.32645
17 2.03335 1.00077 1.93766 -2.26051 -1.47803 -0.224073
18 6.02814 0 0 -1.802 -0.554977 -0.716071
19 11.6926 0 0 0.287534 0.959004 -1.13195
20 11.4817 0 0 1.06301 -0.0142698 -0.151441
21 2.67608 -1.71243 0 1.5708 0 1.5708
22 3.8597 -0.142395 -1.19198 -0.479144 0.15219 -0.879874
23 1.31256 0 0 0 0.00966522 -0.43972
24 0.729359 0 0 -0.0289802 0.117257 -0.451392
25 3.85985 -0.137943 1.33247 0.716036 -0.20023 -1.35393
26 1.71943 0 0 0 0.00407382 -0.363009
27 1.09967 0 0 0.133915 -0.229714 -0.543028
28 3.88368 -0.0467682 0.431438 0.812672 -0.191549 -1.55027
29 1.71957 0 0 0.194939 -0.171309 -0.606848
30 1.20918 0 0 0.409192 -0.306122 -0.737509
31 3.94232 0.0467758 -0.43145 -0.155013 0.073328 -0.810648
32 1.53909 0 0 0.0414073 0.0896451 -0.69906
33 1.19633 0 0 0 0.00736139 -0.430802
34 0.806038 -0.348919 1.32125 -1.14854 -0.413343 -0.685815
35 1.78979 0 0 0.143113 0.00476408 0.680911
36 1.207 0 0 -0.238539 -0.328321 0.202549
37 2.03336 1.00077 -1.93761 -1.68882 1.14785 2.79016
38 6.02814 0 0 1.66587 0.0413209 -0.700365
39 11.6925 0 0 0.0996688 -0.153066 -1.27975
40 11.4817 0 0 -1.60511 -0.19217 -0.199007
41 2.33845 -1.53574 -6.39151 1.52024 -0.0943799 -2.00195
42 0.806018 -0.359829 -1.31833 0.93401 0.297778 -0.930654
43 1.78979 0 0 0.00909526 -0.315148 0.639494
44 1.207 0 0 0.000382611 -0.0702456 0.716388
45 3.85983 -0.148939 -1.33129 -0.354419 0.0385672 -0.532001
46 1.71942 0 0 0.08961 0.216064 -1.89942
47 1.09967 0 0 0 -0.0042105 -0.244313
48 3.88366 -0.0503235 -0.431042 -0.040059 -0.165985 -1.2578
49 1.71957 0 0 0.366782 -0.0968552 -2.8629
50 1.20918 0 0 0 -0.00446085 -0.216376
51 3.9423 0.0503349 0.431046 -0.174166 0.127578 -1.20779
52 1.53909 0 0 0 -0.00585367 -0.247771
53 1.19633 0 0 0.00494331 -0.275389 -1.12101
54 3.85968 -0.132565 1.1931 0.47914 -0.158545 -0.879041
55 1.31255 0 0 0 -0.0119319 -0.439671
56 0.729372 0 0 0 -0.00613406 -0.244271
57 2.67609 -1.71244 0 -1.5708 0 -1.5708
58 3.89045 0 0 -1.5703 -0.730094 -1.56797
59 17.8482 0 0 0 0 1.08842
60 16.5252 0 0 -0.0388337 -0.0279228 -1.39868
61 6.87945 0 0 -0.00521953 -0.00281235 -0.539669
time 9
0 0 0 0 0 0 0
1 0 0 0 0 0 0
2 0 0 0 0 0 0
3 0 -1.38027 28.4196 1.5708 0 0
4 3.97889 -8.424 2.90422 0 0 0
5 -5.92756 4.0346 7.25492 0 0 0
6 -3.89045 0 0 -1.60811 -0.833536 -1.61689
7 17.8482 0 0 0.00878519 -0.00333392 2.23366
8 16.5253 0 0 0.03861 0.0510214 -1.04968
9 6.87946 0 0 -0.0813327 -0.00295065 -0.584373
10 0 3.34513 -2.98189 1.5708 0.0862926 1.5708
11 4.01834 0 0 -0.311846 -0.0258825 -0.0153734
12 3.51856 0 0 -0.129959 0.00664347 0.177452
13 8.94264 0 0 -0.247694 -0.034084 0.154156
14 3.30728 0 0 -2.94027 -0.133716 0.396988
15 3.59371 0 0 0.636372 -0.0529463 0.617318
16 2 -3 0 -1.5708 0 -1.32645
17 2.03336 1.00076 1.93766 -2.39437 -1.55787 -0.0283319
18 6.02814 0 0 -1.76211 -0.420873 -0.67371
19 11.6926 0 0 0.185176 0.905773 -1.194
20 11.4817 0 0 1.08998 -0.0142698 -0.151441
21 2.67608 -1.71243 0 1.5708 0 1.5708
22 3.8597 -0.142395 -1.19197 -0.479144 0.15219 -0.879874
23 1.31256 0 0 0 0.00966512 -0.43972
24 0.729355 0 0 -0.0289802 0.117257 -0.451392
25 3.85985 -0.137943 1.33247 0.716036 -0.20023 -1.35393
26 1.71943 0 0 0 0.00407362 -0.363009
27 1.09966 0 0 0.133915 -0.229714 -0.543028
28 3.88368 -0.0467682 0.431438 0.812672 -0.191549 -1.55027
29 1.71958 0 0 0.194939 -0.171309 -0.606848
30 1.20918 0 0 0.409192 -0.306122 -0.737509
31 3.94232 0.0467758 -0.431448 -0.155013 0.0733281 -0.810648
32 1.53909 0 0 0.0414073 0.089645 -0.69906
33 1.19633 0 0 0 0.00736119 -0.430802
34 0.806038 -0.348915 1.32125 -1.14854 -0.413343 -0.685815
35 1.78979 0 0 0.143113 0.00476402 0.680911
36 1.207 0 0 -0.238539 -0.328321 0.202549
37 2.03337 1.00077 -1.93761 -1.68882 1.14785 2.79016
38 6.02814 0 0 1.66587 0.0413208 -0.700364
39 11.6926 0 0 0.0803995 -0.179781 -1.21496
40 11.4817 0 0 -1.60511 -0.19217 -0.199007
41 2.33845 -1.53574 -6.39151 1.52024 -0.0943799 -2.00195
42 0.806017 -0.359831 -1.31833 0.93401 0.297778 -0.930654
43 1.78979 0 0 0.00909534 -0.315148 0.639495
44 1.207 0 0 0.000382549 -0.0702455 0.716388
45 3.85983 -0.148939 -1.33128 -0.354419 0.0385673 -0.532001
46 1.71942 0 0 0.0896102 0.216064 -1.89942
47 1.09966 0 0 0 -0.00421043 -0.244313
48 3.88366 -0.0503254 -0.431046 -0.040059 -0.165984 -1.2578
49 1.71957 0 0 0.366782 -0.0968552 -2.8629
50 1.20918 0 0 0 -0.00446079 -0.216376
51 3.9423 0.0503311 0.431046 -0.174166 0.127578 -1.20779
52 1.53909 0 0 0 -0.00585368 -0.247771
53 1.19634 0 0 0.00494335 -0.275389 -1.12101
54 3.85967 -0.132566 1.1931 0.47914 -0.158545 -0.879041
55 1.31255 0 0 0 -0.0119319 -0.439672
56 0.729374 0 0 0 -0.00613401 -0.244271
57 2.67609 -1.71244 0 -1.5708 0 -1.5708
58 3.89045 0 0 -1.57021 -0.929898 -1.5677
59 17.8482 0 0 0 0 1.38493
60 16.5252 0 0 -0.0363401 -0.0308597 -1.47758
61 6.87945 0 0 -0.00521942 -0.00281229 -0.539669
time 10
0 0 0 0 0 0 0
1 0 0 0 0 0 0
2 0 0 0 0 0 0
3 0 -0.825603 25.773 1.5708 0 0
4 3.97889 -8.424 2.90422 0 0 0
5 -5.86741 7.32921 8.57406 0 0 0
6 -3.89045 0 0 -1.62908 -0.754596 -1.60599
7 17.8482 0 0 0.0118016 -0.00545452 2.40602
8 16.5253 0 0 0.03861 0.0542087 -1.03994
9 6.87946 0 0 -0.0813327 -0.0029506 -0.584373
10 0 3.34513 -2.9819 1.5708 0.0862926 1.5708
11 4.01834 0 0 -0.378237 -0.0126673 0.0330465
12 3.51856 0 0 -0.130334 -0.00787657 0.17157
13 8.94264 0 0 -0.296288 -0.0280744 0.188923
14 3.30728 0 0 -2.94028 -0.132554 0.393895
15 3.59371 0 0 0.719924 -0.0437899 0.616292
16 2 -3 0 -1.5708 0 -1.32645
17 2.03335 1.00076 1.93766 0.613353 -1.50387 -2.97418
18 6.02814 0 0 -1.73294 -0.322797 -0.626361
19 11.6926 0 0 0.0828174 0.852542 -1.25604
20 11.4817 0 0 1.11125 -0.0142698 -0.151441
21 2.67608 -1.71243 0 1.5708 0 1.5708
22 3.8597 -0.142395 -1.19198 -0.479144 0.15219 -0.879874
23 1.31256 0 0 0 0.00966509 -0.43972
24 0.729355 0 0 -0.0289803 0.117256 -0.451392
25 3.85985 -0.137943 1.33247 0.716036 -0.20023 -1.35393
26 1.71943 0 0 0 0.00407388 -0.363009
27 1.09967 0 0 0.133915 -0.229714 -0.543028
28 3.88368 -0.0467682 0.431437 0.812672 -0.191549 -1.55027
29 1.71958 0 0 0.194939 -0.171309 -0.606848
30 1.20918 0 0 0.409192 -0.306122 -0.737509
31 3.94232 0.0467796 -0.431446 -0.155013 0.0733279 -0.810648
32 1.53909 0 0 0.0414072 0.0896451 -0.69906
33 1.19633 0 0 0 0.00736124 -0.430802
34 0.806039 -0.348915 1.32125 -1.14854 -0.413343 -0.685815
35 1.78979 0 0 0.143113 0.00476413 0.680911
36 1.207 0 0 -0.238539 -0.328321 0.202549
37 2.03337 1.00077 -1.93761 -1.68882 1.14785 2.79016
38 6.02814 0 0 1.66587 0.0413209 -0.700364
39 11.6925 0 0 0.0627817 -0.204208 -1.15572
40 11.4817 0 0 -1.60511 -0.19217 -0.199007
41 2.33845 -1.53574 -6.39151 1.52024 -0.0943799 -2.00195
42 0.806017 -0.359831 -1.31833 0.93401 0.297778 -0.930654
43 1.78979 0 0 0.00909536 -0.315148 0.639494
44 1.207 0 0 0.000382598 -0.0702454 0.716388
45 3.85983 -0.148941 -1.33128 -0.354419 0.0385673 -0.532001
46 1.71942 0 0 0.0896101 0.216064 -1.89942
47 1.09967 0 0 0 -0.00421051 -0.244313
48 3.88366 -0.0503235 -0.431042 -0.0400591 -0.165984 -1.2578
49 1.71957 0 0 0.366782 -0.0968552 -2.8629
50 1.20918 0 0 0 -0.0044607 -0.216376
51 3.94229 0.0503311 0.431046 -0.174166 0.127578 -1.20779
52 1.53909 0 0 0 -0.00585362 -0.247771
53 1.19634 0 0 0.00494326 -0.275389 -1.12101
54 3.85967 -0.132565 1.1931 0.47914 -0.158544 -0.879041
55 1.31255 0 0 0 -0.0119319 -0.439672
56 0.729374 0 0 0 -0.00613406 -0.244271
57 2.67609 -1.71244 0 -1.5708 0 -1.5708
58 3.89045 0 0 -1.56956 -1.07625 -1.56783
59 17.8482 0 0 0 0 1.58931
60 16.5253 0 0 -0.0338463 -0.0337966 -1.55647
61 6.87945 0 0 -0.0052194 -0.00281238 -0.539668
time 11
0 0 0 0 0 0 0
1 0 0 0 0 0 0
2 0 0 0 0 0 0
3 0 -0.6568 23.7365 1.5708 0 0
4 3.97889 -8.424 2.90422 0 0 0
5 -5.75866 10.8307 9.51705 0 0 0
6 -3.89045 0 0 -1.63663 -0.549315 -1.59883
7 17.8482 0 0 0.0126182 -0.00608919 2.45132
8 16.5253 0 0 0.0386099 0.0550543 -1.03677
9 6.87946 0 0 -0.0813327 -0.00295053 -0.584373
10 0 3.34513 -2.98189 1.5708 0.0862926 1.5708
11 4.01834 0 0 -0.439246 -0.000523539 0.0775413
12 3.51856 0 0 -0.130678 -0.0212194 0.166165
13 8.94264 0 0 -0.340943 -0.0225521 0.220872
14 3.30728 0 0 -2.94028 -0.131554 0.391237
15 3.59371 0 0 0.791729 -0.0359213 0.615411
16 2 -3 0 -1.5708 0 -1.32645
17 2.03335 1.00077 1.93766 0.49034 -1.4305 -2.7943
18 6.02814 0 0 -1.72163 -0.284767 -0.575638
19 11.6926 0 0 -0.0112434 0.803626 -1.31306
20 11.4817 0 0 1.12521 -0.0142699 -0.151441
21 2.67608 -1.71243 0 1.5708 0 1.5708
22 3.8597 -0.142395 -1.19197 -0.479144 0.15219 -0.879874
23 1.31256 0 0 0 0.00966513 -0.43972
24 0.729359 0 0 -0.0289802 0.117256 -0.451392
25 3.85985 -0.137943 1.33247 0.716036 -0.20023 -1.35393
26 1.71943 0 0 0 0.0040738 -0.363009
27 1.09967 0 0 0.133915 -0.229714 -0.543028
28 3.88368 -0.0467701 0.431442 0.812672 -0.191549 -1.55027
29 1.71957 0 0 0.194939 -0.171309 -0.606848
30 1.20918 0 0 0.409191 -0.306122 -0.737509
31 3.94232 0.0467758 -0.431446 -0.155013 0.0733279 -0.810648
32 1.53909 0 0 0.0414073 0.0896451 -0.69906
33 1.19633 0 0 0 0.00736122 -0.430802
34 0.806036 -0.348919 1.32126 -1.14854 -0.413343 -0.685815
35 1.78979 0 0 0.143113 0.00476406 0.680911
36 1.207 0 0 -0.238539 -0.328321 0.202549
37 2.03336 1.00077 -1.93761 -1.68882 1.14785 2.79016
38 6.02814 0 0 1.66587 0.0413208 -0.700365
39 11.6925 0 0 0.0476405 -0.2252 -1.10482
40 11.4817 0 0 -1.60511 -0.19217 -0.199007
41 2.33845 -1.53574 -6.39151 1.52024 -0.0943799 -2.00195
42 0.806017 -0.359833 -1.31833 0.93401 0.297778 -0.930654
43 1.78979 0 0 0.00909531 -0.315148 0.639494
44 1.207 0 0 0.00038248 -0.0702455 0.716388
45 3.85983 -0.148939 -1.33128 -0.354419 0.0385672 -0.532001
46 1.71942 0 0 0.08961 0.216064 -1.89942
47 1.09966 0 0 0 -0.00421048 -0.244313
48 3.88366 -0.0503235 -0.431042 -0.040059 -0.165985 -1.2578
49 1.71957 0 0 0.366782 -0.0968552 -2.8629
50 1.20918 0 0 0 -0.00446075 -0.216376
51 3.9423 0.0503349 0.431044 -0.174166 0.127578 -1.20779
52 1.53909 0 0 0 -0.00585365 -0.247771
53 1.19634 0 0 0.00494335 -0.275389 -1.12101
54 3.85968 -0.132565 1.1931 0.47914 -0.158545 -0.879041
55 1.31255 0 0 0 -0.0119319 -0.439671
56 0.729374 0 0 0 -0.00613404 -0.244271
57 2.67609 -1.71244 0 -1.5708 0 -1.5708
58 3.89045 0 0 -1.56974 -1.17972 -1.56738
59 17.8482 0 0 0 0 1.73653
60 16.5252 0 0 -0.0315548 -0.0364953 -1.62897
61 6.87945 0 0 -0.00521945 -0.00281239 -0.539669
time 12
0 0 0 0 0 0 0
1 0 0 0 0 0 0
2 0 0 0 0 0 0
3 0 -0.570116 21.8195 1.5708 0 0
4 3.97889 -8.424 2.90422 0 0 0
5 -5.57885 14.2111 9.87729 0 0 0
6 -3.89045 0 0 -1.63005 -0.308781 -1.59613
7 17.8482 0 0 0.0118652 -0.00550345 2.40956
8 16.5253 0 0 0.0386098 0.0542747 -1.03969
9 6.87946 0 0 -0.0813327 -0.00295059 -0.584373
10 0 3.34513 -2.9819 1.5708 0.0862926 1.5708
11 4.01834 0 0 -0.48949 0.00947783 0.114186
12 3.51856 0 0 -0.130962 -0.032208 0.161713
13 8.94264 0 0 -0.37772 -0.0180042 0.247184
14 3.30728 0 0 -2.94029 -0.130773 0.389158
15 3.59371 0 0 0.847869 -0.0297691 0.614722
16 2 -3 0 -1.5708 0 -1.32645
17 2.03336 1.00077 1.93766 0.389031 -1.37008 -2.64616
18 6.02814 0 0 -1.75993 -0.329402 -0.458401
19 11.6926 0 0 -0.0887086 0.76334 -1.36002
20 11.4817 0 0 1.13022 -0.0142698 -0.151441
21 2.67608 -1.71243 0 1.5708 0 1.5708
22 3.8597 -0.142395 -1.19197 -0.479144 0.15219 -0.879874
23 1.31256 0 0 0 0.00966513 -0.43972
24 0.72936 0 0 -0.0289802 0.117256 -0.451392
25 3.85985 -0.137943 1.33247 0.716035 -0.20023 -1.35393
26 1.71943 0 0 0 0.0040739 -0.363009
27 1.09966 0 0 0.133915 -0.229714 -0.543028
28 3.88368 -0.0467682 0.431442 0.812672 -0.191549 -1.55027
29 1.71958 0 0 0.194939 -0.171309 -0.606848
30 1.20918 0 0 0.409191 -0.306122 -0.737509
31 3.94232 0.0467796 -0.431446 -0.155013 0.0733279 -0.810648
32 1.53909 0 0 0.0414072 0.0896451 -0.69906
33 1.19633 0 0 0 0.0073613 -0.430802
34 0.806039 -0.348915 1.32126 -1.14854 -0.413343 -0.685815
35 1.78979 0 0 0.143113 0.00476411 0.680911
36 1.207 0 0 -0.238539 -0.328321 0.202549
37 2.03337 1.00077 -1.93761 -1.68882 1.14785 2.79016
38 6.02814 0 0 1.66587 0.0413207 -0.700364
39 11.6925 0 0 0.0358023 -0.241612 -1.06501
40 11.4817 0 0 -1.60511 -0.19217 -0.199007
41 2.33845 -1.53574 -6.39151 1.52024 -0.0943799 -2.00195
42 0.806018 -0.359829 -1.31833 0.93401 0.297778 -0.930654
43 1.78979 0 0 0.00909535 -0.315148 0.639495
44 1.207 0 0 0.000382656 -0.0702455 0.716388
45 3.85983 -0.148941 -1.33128 -0.354419 0.0385672 -0.532001
46 1.71941 0 0 0.08961 0.216064 -1.89942
47 1.09967 0 0 0 -0.00421048 -0.244313
48 3.88366 -0.0503235 -0.431041 -0.040059 -0.165985 -1.2578
49 1.71957 0 0 0.366782 -0.0968552 -2.8629
50 1.20918 0 0 0 -0.0044608 -0.216376
51 3.9423 0.0503349 0.431046 -0.174166 0.127578 -1.20779
52 1.53909 0 0 0 -0.00585364 -0.247771
53 1.19634 0 0 0.00494336 -0.275389 -1.12101
54 3.85967 -0.132566 1.1931 0.47914 -0.158545 -0.879041
55 1.31255 0 0 0 -0.0119318 -0.439671
56 0.729374 0 0 0 -0.00613394 -0.244271
57 2.67609 -1.71244 0 -1.5708 0 -1.5708
58 3.89045 0 0 -1.57005 -1.27509 -1.56674
59 17.8482 0 0 0 0 1.86696
60 16.5252 0 0 -0.0296675 -0.038718 -1.68868
61 6.87945 0 0 -0.00521937 -0.00281225 -0.539669
time 13
0 0 0 0 0 0 0
1 0 0 0 0 0 0
2 0 0 0 0 0 0
3 0 -0.538178 20.3955 1.5708 0 0
4 3.97889 -8.424 2.90422 0 0 0
5 -4.86287 20.0866 6.49181 0 0 0
6 -3.89045 0 0 -1.59108 0.0121655 -1.58726
7 17.8482 0 0 0.00560241 -0.00159509 2.04021
8 16.5253 0 0 0.0386099 0.0475056 -1.05483
9 6.87946 0 0 -0.0813327 -0.00295058 -0.584373
10 0 3.34513 -2.98189 1.5708 0.0862926 1.5708
11 4.01834 0 0 -0.523587 0.0162647 0.139053
12 3.51856 0 0 -0.131155 -0.0396651 0.158692
13 8.94264 0 0 -0.402676 -0.0149178 0.26504
14 3.30728 0 0 -2.94029 -0.130264 0.387805
15 3.59371 0 0 0.884428 -0.0257627 0.614273
16 2 -3 0 -1.5708 0 -1.32645
17 2.03335 1.00077 1.93766 0.320281 -1.32907 -2.54563
18 6.02814 0 0 -1.76898 -0.388988 -0.336501
19 11.6926 0 0 -0.141277 0.736002 -1.39189
20 11.4817 0 0 1.0665 -0.0142699 -0.151441
21 2.67608 -1.71243 0 1.5708 0 1.5708
22 3.8597 -0.142395 -1.19197 -0.479144 0.15219 -0.879874
23 1.31256 0 0 0 0.00966516 -0.43972
24 0.729357 0 0 -0.0289803 0.117256 -0.451392
25 3.85985 -0.137939 1.33247 0.716036 -0.20023 -1.35393
26 1.71943 0 0 0 0.0040738 -0.363009
27 1.09966 0 0 0.133915 -0.229714 -0.543028
28 3.88368 -0.0467682 0.431438 0.812672 -0.191549 -1.55027
29 1.71958 0 0 0.194939 -0.171309 -0.606848
30 1.20918 0 0 0.409192 -0.306122 -0.737509
31 3.94232 0.0467796 -0.431446 -0.155013 0.073328 -0.810648
32 1.53909 0 0 0.0414072 0.0896451 -0.69906
33 1.19633 0 0 0 0.00736128 -0.430802
34 0.806038 -0.348917 1.32125 -1.14854 -0.413343 -0.685815
35 1.78979 0 0 0.143113 0.00476401 0.680911
36 1.207 0 0 -0.238539 -0.328321 0.202549
37 2.03337 1.00077 -1.93761 -1.68882 1.14785 2.79016
38 6.02814 0 0 1.66587 0.041321 -0.700364
39 11.6925 0 0 0.0280934 -0.2523 -1.0391
40 11.4817 0 0 -1.60511 -0.19217 -0.199007
41 2.33845 -1.53574 -6.39151 1.52024 -0.0943799 -2.00195
42 0.806017 -0.359829 -1.31833 0.93401 0.297779 -0.930654
43 1.78979 0 0 0.00909541 -0.315148 0.639495
44 1.207 0 0 0.000382598 -0.0702454 0.716388
45 3.85983 -0.148939 -1.33128 -0.354419 0.0385672 -0.532001
46 1.71942 0 0 0.0896101 0.216064 -1.89942
47 1.09966 0 0 0 -0.00421049 -0.244313
48 3.88366 -0.0503235 -0.431041 -0.040059 -0.165985 -1.2578
49 1.71957 0 0 0.366782 -0.0968552 -2.8629
50 1.20918 0 0 0 -0.0044608 -0.216376
51 3.9423 0.0503349 0.431045 -0.174166 0.127578 -1.20779
52 1.53909 0 0 0 -0.00585372 -0.247771
53 1.19634 0 0 0.00494332 -0.275389 -1.12101
54 3.85967 -0.132568 1.1931 0.47914 -0.158545 -0.879041
55 1.31255 0 0 0 -0.0119319 -0.439671
56 0.729376 0 0 0 -0.00613399 -0.244271
57 2.67609 -1.71243 0 -1.5708 0 -1.5708
58 3.89045 0 0 -1.57051 -1.34596 -1.56599
59 17.8482 0 0 0 0 1.95939
60 16.5252 0 0 -0.0283869 -0.0402263 -1.7292
61 6.87945 0 0 -0.00521939 -0.00281219 -0.539669
time 14
0 0 0 0 0 0 0
1 0 0 0 0 0 0
2 0 0 0 0 0 0
3 0 -0.533615 19.8377 1.5708 0 0
4 3.97889 -8.424 2.90422 0 0 0
5 -4.25832 24.3569 3.10634 0 0 0
6 -3.89045 0 0 -1.57099 0.229027 -1.57578
7 17.8482 0 0 0 0 1.66181
8 16.5253 0 0 0.0386099 0.0407784 -1.04342
9 6.87946 0 0 -0.0813327 -0.00295074 -0.584373
10 0 3.34513 -2.98189 1.5708 0.0862926 1.5708
11 4.01834 0 0 -0.536149 0.0187653 0.148215
12 3.51856 0 0 -0.131225 -0.0424127 0.157579
13 8.94264 0 0 -0.411872 -0.0137805 0.271619
14 3.30728 0 0 -2.94029 -0.130082 0.387322
15 3.59371 0 0 0.897485 -0.0243317 0.614113
16 2 -3 0 -1.5708 0 -1.32645
17 2.03336 1.00077 1.93766 0.294951 -1.31396 -2.50859
18 6.02814 0 0 -1.7145 -0.410216 -0.297505
19 11.6926 0 0 -0.160646 0.72593 -1.40363
20 11.4817 0 0 1.00277 -0.0142698 -0.151441
21 2.67608 -1.71243 0 1.5708 0 1.5708
22 3.8597 -0.142393 -1.19197 -0.479144 0.15219 -0.879874
23 1.31256 0 0 0 0.00966509 -0.43972
24 0.729355 0 0 -0.0289803 0.117257 -0.451392
25 3.85985 -0.137941 1.33247 0.716035 -0.20023 -1.35393
26 1.71943 0 0 0 0.00407383 -0.363009
27 1.09966 0 0 0.133915 -0.229714 -0.543028
28 3.88368 -0.0467682 0.431438 0.812672 -0.191549 -1.55027
29 1.71957 0 0 0.194939 -0.171309 -0.606848
30 1.20918 0 0 0.409192 -0.306122 -0.737509
31 3.94232 0.0467777 -0.431444 -0.155014 0.0733279 -0.810648
32 1.53909 0 0 0.0414072 0.0896451 -0.69906
33 1.19633 0 0 0 0.00736123 -0.430802
34 0.806039 -0.348915 1.32126 -1.14854 -0.413343 -0.685815
35 1.78979 0 0 0.143113 0.00476406 0.680911
36 1.207 0 0 -0.238539 -0.328321 0.202549
37 2.03336 1.00077 -1.93761 -1.68882 1.14785 2.79016
38 6.02814 0 0 1.66587 0.0413208 -0.700364
39 11.6925 0 0 0.0253402 -0.256118 -1.02984
40 11.4817 0 0 -1.60511 -0.19217 -0.199007
41 2.33845 -1.53574 -6.39151 1.52024 -0.0943799 -2.00195
42 0.806018 -0.359833 -1.31833 0.93401 0.297779 -0.930655
43 1.78979 0 0 0.00909546 -0.315148 0.639495
44 1.207 0 0 0.000382652 -0.0702454 0.716388
45 3.85983 -0.148941 -1.33128 -0.354419 0.0385673 -0.532001
46 1.71941 0 0 0.0896101 0.216064 -1.89942
47 1.09967 0 0 0 -0.00421049 -0.244313
48 3.88366 -0.0503254 -0.431042 -0.0400589 -0.165984 -1.2578
49 1.71957 0 0 0.366782 -0.0968551 -2.8629
50 1.20918 0 0 0 -0.00446081 -0.216376
51 3.9423 0.0503311 0.431046 -0.174166 0.127578 -1.20779
52 1.53909 0 0 0 -0.00585365 -0.247771
53 1.19634 0 0 0.00494327 -0.275389 -1.12101
54 3.85967 -0.132568 1.1931 0.47914 -0.158544 -0.879041
55 1.31255 0 0 0 -0.0119319 -0.439672
56 0.729374 0 0 0 -0.00613416 -0.244271
57 2.67609 -1.71244 0 -1.5708 0 -1.5708
58 3.89045 0 0 -1.5708 -1.37387 -1.56557
59 17.8482 0 0 0 0 1.99469
60 16.5252 0 0 -0.027915 -0.0407819 -1.74413
61 6.87945 0 0 -0.00521949 -0.00281249 -0.539669
time 15
0 0 0 0 0 0 0
1 0 0 0 0 0 0
2 0 0 0 0 0 0
3 0 -0.533615 19.8377 1.5708 0 0
4 3.97889 -8.424 2.90422 0 0 0
5 -4.25832 24.3569 3.10634 0 0 0
6 -3.89045 0 0 -1.57099 0.229027 -1.57578
7 17.8482 0 0 0 0 1.66181
8 16.5253 0 0 0.0386098 0.0407784 -1.04342
9 6.87946 0 0 -0.0813327 -0.00295063 -0.584373
10 0 3.34513 -2.98189 1.59682 0.0804393 1.5803
11 4.01834 0 0 -0.544157 0.00987816 0.137576
12 3.51856 0 0 -0.131226 -0.042413 0.157579
13 8.94264 0 0 -0.411871 -0.0137805 0.271619
14 3.30728 0 0 -2.94029 -0.130082 0.387322
15 3.59371 0 0 0.897485 -0.0243317 0.614113
16 2 -3 0 -1.5708 0 -1.32645
17 2.03335 1.00076 1.93766 0.294951 -1.31396 -2.50859
18 6.02814 0 0 -1.67044 -0.421573 -0.284452
19 11.6926 0 0 -0.160646 0.72593 -1.40363
20 11.4817 0 0 0.985066 -0.0142699 -0.151441
21 2.67608 -1.71243 0 1.5708 0 1.5708
22 3.8597 -0.142395 -1.19198 -0.479144 0.15219 -0.879874
23 1.31256 0 0 0 0.00966517 -0.43972
24 0.729356 0 0 -0.0289803 0.117256 -0.451392
25 3.85985 -0.137941 1.33247 0.716035 -0.20023 -1.35393
26 1.71943 0 0 0 0.00407367 -0.363009
27 1.09966 0 0 0.133915 -0.229714 -0.543028
28 3.88368 -0.0467701 0.431437 0.812672 -0.191549 -1.55027
29 1.71957 0 0 0.194939 -0.171309 -0.606848
30 1.20918 0 0 0.409192 -0.306122 -0.737509
31 3.94232 0.0467777 -0.431448 -0.155014 0.073328 -0.810648
32 1.53909 0 0 0.0414074 0.089645 -0.69906
33 1.19633 0 0 0 0.00736124 -0.430802
34 0.806037 -0.348917 1.32125 -1.14854 -0.413343 -0.685815
35 1.78979 0 0 0.143113 0.00476401 0.680911
36 1.207 0 0 -0.238539 -0.328321 0.202549
37 2.03336 1.00077 -1.93761 -1.68882 1.14785 2.79016
38 6.02814 0 0 1.66587 0.0413208 -0.700365
39 11.6925 0 0 0.0253402 -0.256118 -1.02984
40 11.4817 0 0 -1.60511 -0.19217 -0.199007
41 2.33845 -1.53573 -6.39151 1.52024 -0.0943799 -2.00195
42 0.806016 -0.359831 -1.31833 0.93401 0.297778 -0.930654
43 1.78979 0 0 0.00909535 -0.315148 0.639495
44 1.207 0 0 0.000382671 -0.0702454 0.716388
45 3.85983 -0.148939 -1.33128 -0.354419 0.0385672 -0.532001
46 1.71941 0 0 0.08961 0.216064 -1.89942
47 1.09967 0 0 0 -0.00421046 -0.244313
48 3.88366 -0.0503254 -0.43104 -0.040059 -0.165984 -1.2578
49 1.71957 0 0 0.366782 -0.0968551 -2.8629
50 1.20918 0 0 0 -0.0044608 -0.216376
51 3.9423 0.0503349 0.431046 -0.174166 0.127578 -1.20779
52 1.53909 0 0 0 -0.00585362 -0.247771
53 1.19634 0 0 0.00494324 -0.275389 -1.12101
54 3.85968 -0.132566 1.1931 0.47914 -0.158545 -0.879041
55 1.31255 0 0 0 -0.0119318 -0.439671
56 0.729374 0 0 0 -0.00613401 -0.244271
57 2.67609 -1.71243 0 -1.5708 0 -1.5708
58 3.89045 0 0 -1.5708 -1.37387 -1.56557
59 17.8482 0 0 0 0 1.99469
60 16.5252 0 0 -0.027915 -0.0407819 -1.74413
61 6.87945 0 0 -0.00521931 -0.00281226 -0.539669
time 16
0 0 0 0 0 0 0
1 0 0 0 0 0 0
2 0 0 0 0 0 0
3 0 -0.533615 19.8377 1.5708 0 0
4 3.97889 -8.424 2.90422 0 0 0
5 -4.25832 24.3569 3.10634 0 0 0
6 -3.89045 0 0 -1.57099 0.229027 -1.57578
7 17.8482 0 0 0 0 1.66181
8 16.5253 0 0 0.0386099 0.0407783 -1.04342
9 6.87946 0 0 -0.0813327 -0.00295077 -0.584373
10 0 3.34513 -2.98189 1.62284 0.0745857 1.58981
11 4.01834 0 0 -0.563251 -0.0113125 0.112209
12 3.51856 0 0 -0.131225 -0.0424127 0.157579
13 8.94264 0 0 -0.411871 -0.0137806 0.271619
14 3.30728 0 0 -2.94029 -0.130082 0.387322
15 3.59371 0 0 0.897485 -0.0243317 0.614113
16 2 -3 0 -1.5708 0 -1.32645
17 2.03335 1.00077 1.93766 0.294952 -1.31396 -2.50859
18 6.02814 0 0 -1.65231 -0.434272 -0.269654
19 11.6926 0 0 -0.160646 0.72593 -1.40363
20 11.4817 0 0 0.942845 -0.0142698 -0.151441
21 2.67608 -1.71243 0 1.5708 0 1.5708
22 3.8597 -0.142395 -1.19197 -0.479144 0.15219 -0.879874
23 1.31256 0 0 0 0.00966516 -0.43972
24 0.72936 0 0 -0.0289802 0.117256 -0.451392
25 3.85985 -0.137941 1.33247 0.716035 -0.20023 -1.35393
26 1.71943 0 0 0 0.00407381 -0.363009
27 1.09966 0 0 0.133915 -0.229714 -0.543029
28 3.88368 -0.0467682 0.431438 0.812672 -0.191549 -1.55027
29 1.71958 0 0 0.194939 -0.171309 -0.606848
30 1.20918 0 0 0.409192 -0.306122 -0.737509
31 3.94232 0.0467777 -0.431446 -0.155014 0.073328 -0.810648
32 1.53909 0 0 0.0414072 0.0896451 -0.69906
33 1.19633 0 0 0 0.0073612 -0.430802
34 0.806037 -0.348919 1.32125 -1.14854 -0.413343 -0.685815
35 1.78979 0 0 0.143113 0.00476417 0.680911
36 1.207 0 0 -0.238539 -0.328321 0.202549
37 2.03337 1.00077 -1.93761 -1.68882 1.14785 2.79016
38 6.02814 0 0 1.66587 0.0413209 -0.700364
39 11.6925 0 0 0.0253402 -0.256118 -1.02984
40 11.4817 0 0 -1.60511 -0.19217 -0.199007
41 2.33845 -1.53574 -6.39151 1.52024 -0.0943799 -2.00195
42 0.806016 -0.359833 -1.31833 0.93401 0.297779 -0.930654
43 1.78979 0 0 0.00909529 -0.315148 0.639494
44 1.207 0 0 0.000382573 -0.0702456 0.716388
45 3.85983 -0.148939 -1.33129 -0.354419 0.0385673 -0.532001
46 1.71942 0 0 0.08961 0.216064 -1.89942
47 1.09967 0 0 0 -0.00421049 -0.244313
48 3.88366 -0.0503235 -0.431044 -0.040059 -0.165984 -1.2578
49 1.71957 0 0 0.366782 -0.0968551 -2.8629
50 1.20918 0 0 0 -0.00446087 -0.216376
51 3.9423 0.0503311 0.431046 -0.174166 0.127578 -1.20779
52 1.53909 0 0 0 -0.00585369 -0.247771
53 1.19633 0 0 0.00494344 -0.275389 -1.12101
54 3.85967 -0.132568 1.1931 0.47914 -0.158544 -0.879041
55 1.31255 0 0 0 -0.0119318 -0.439671
56 0.729374 0 0 0 -0.00613395 -0.244271
57 2.67609 -1.71244 0 -1.5708 0 -1.5708
58 3.89045 0 0 -1.5708 -1.37387 -1.56557
59 17.8482 0 0 0 0 1.99469
60 16.5252 0 0 -0.027915 -0.0407819 -1.74413
61 6.87945 0 0 -0.00521931 -0.00281226 -0.539669
time 17
0 0 0 0 0 0 0
1 0 0 0 0 0 0
2 0 0 0 0 0 0
3 0 -0.533615 19.8377 1.5708 0 0
4 3.97889 -8.424 2.90422 0 0 0
5 -4.25832 24.3569 3.10634 0 0 0
6 -3.89045 0 0 -1.57099 0.229027 -1.57578
7 17.8482 0 0 0 0 1.66181
8 16.5253 0 0 0.0386098 0.0407784 -1.04342
9 6.87946 0 0 -0.0813326 -0.00295075 -0.584373
10 0 3.34513 -2.98189 1.60935 0.0776211 1.58488
11 4.01834 0 0 -0.586039 -0.0366039 0.0819342
12 3.51856 0 0 -0.131226 -0.0424125 0.157579
13 8.94264 0 0 -0.411871 -0.0137809 0.271619
14 3.30728 0 0 -2.94029 -0.130082 0.387322
15 3.59371 0 0 0.897485 -0.0243317 0.614113
16 2 -3 0 -1.5708 0 -1.32645
17 2.03336 1.00077 1.93766 0.294951 -1.31396 -2.50859
18 6.02814 0 0 -1.68143 -0.456743 -0.237185
19 11.6926 0 0 -0.160646 0.72593 -1.40363
20 11.4817 0 0 0.892455 -0.0142698 -0.151441
21 2.67608 -1.71243 0 1.5708 0 1.5708
22 3.8597 -0.142395 -1.19197 -0.479144 0.15219 -0.879874
23 1.31256 0 0 0 0.00966517 -0.43972
24 0.729355 0 0 -0.0289802 0.117256 -0.451392
25 3.85985 -0.137941 1.33247 0.716036 -0.20023 -1.35393
26 1.71943 0 0 0 0.0040738 -0.363009
27 1.09966 0 0 0.133915 -0.229714 -0.543028
28 3.88368 -0.0467682 0.431438 0.812672 -0.191549 -1.55027
29 1.71958 0 0 0.194939 -0.171309 -0.606848
30 1.20918 0 0 0.409192 -0.306122 -0.737509
31 3.94232 0.0467758 -0.431446 -0.155014 0.073328 -0.810648
32 1.53909 0 0 0.0414073 0.089645 -0.69906
33 1.19633 0 0 0 0.00736124 -0.430802
34 0.806039 -0.348917 1.32125 -1.14854 -0.413343 -0.685815
35 1.78979 0 0 0.143113 0.00476417 0.680911
36 1.207 0 0 -0.238539 -0.328321 0.202549
37 2.03337 1.00077 -1.93761 -1.68882 1.14785 2.79016
38 6.02814 0 0 1.66587 0.0413207 -0.700365
39 11.6925 0 0 0.0253403 -0.256118 -1.02984
40 11.4817 0 0 -1.60511 -0.19217 -0.199007
41 2.33845 -1.53574 -6.39151 1.52024 -0.0943799 -2.00195
42 0.806016 -0.359831 -1.31833 0.93401 0.297779 -0.930655
43 1.78979 0 0 0.00909549 -0.315148 0.639495
44 1.207 0 0 0.00038257 -0.0702453 0.716388
45 3.85983 -0.148939 -1.33128 -0.354419 0.0385673 -0.532001
46 1.71941 0 0 0.0896104 0.216064 -1.89942
47 1.09967 0 0 0 -0.00421047 -0.244313
48 3.88366 -0.0503216 -0.431042 -0.040059 -0.165985 -1.2578
49 1.71957 0 0 0.366782 -0.0968552 -2.8629
50 1.20918 0 0 0 -0.00446087 -0.216376
51 3.94229 0.050333 0.431045 -0.174166 0.127578 -1.20779
52 1.53909 0 0 0 -0.00585371 -0.247771
53 1.19634 0 0 0.00494339 -0.275389 -1.12101
54 3.85967 -0.132566 1.1931 0.47914 -0.158545 -0.879041
55 1.31255 0 0 0 -0.0119318 -0.439671
56 0.729374 0 0 0 -0.00613405 -0.244271
57 2.67609 -1.71243 0 -1.5708 0 -1.5708
58 3.89045 0 0 -1.5708 -1.37387 -1.56557
59 17.8482 0 0 0 0 1.99469
60 16.5252 0 0 -0.0279149 -0.0407818 -1.74413
61 6.87945 0 0 -0.0052195 -0.00281247 -0.539669
time 18
0 0 0 0 0 0 0
1 0 0 0 0 0 0
2 0 0 0 0 0 0
3 0 -0.533615 19.8377 1.5708 0 0
4 3.97889 -8.424 2.90422 0 0 0
5 -4.25832 24.3569 3.10634 0 0 0
6 -3.89045 0 0 -1.57099 0.229027 -1.57578
7 17.8482 0 0 0 0 1.66181
8 16.5253 0 0 0.0386099 0.0407784 -1.04342
9 6.87946 0 0 -0.0813327 -0.00295075 -0.584373
10 0 3.34513 -2.98189 1.58429 0.0832575 1.57573
11 4.01834 0 0 -0.605132 -0.0577945 0.0565675
12 3.51856 0 0 -0.131226 -0.0424129 0.157579
13 8.94264 0 0 -0.411872 -0.0137804 0.271619
14 3.30728 0 0 -2.94029 -0.130082 0.387322
15 3.59371 0 0 0.897485 -0.0243317 0.614113
16 2 -3 0 -1.5708 0 -1.32645
17 2.03336 1.00077 1.93766 0.294952 -1.31396 -2.50859
18 6.02814 0 0 -1.7355 -0.480557 -0.202969
19 11.6926 0 0 -0.160646 0.725929 -1.40363
20 11.4817 0 0 0.850234 -0.0142699 -0.151441
21 2.67608 -1.71243 0 1.5708 0 1.5708
22 3.8597 -0.142395 -1.19197 -0.479144 0.15219 -0.879874
23 1.31256 0 0 0 0.00966513 -0.43972
24 0.729357 0 0 -0.0289802 0.117257 -0.451392
25 3.85985 -0.137943 1.33247 0.716035 -0.20023 -1.35393
26 1.71943 0 0 0 0.00407379 -0.363009
27 1.09967 0 0 0.133915 -0.229714 -0.543028
28 3.88368 -0.0467682 0.431444 0.812672 -0.191549 -1.55027
29 1.71958 0 0 0.194939 -0.171309 -0.606848
30 1.20918 0 0 0.409191 -0.306122 -0.737509
31 3.94232 0.0467758 -0.431446 -0.155013 0.0733279 -0.810648
32 1.53909 0 0 0.0414072 0.0896451 -0.69906
33 1.19633 0 0 0 0.00736127 -0.430802
34 0.806037 -0.348919 1.32126 -1.14854 -0.413343 -0.685815
35 1.78979 0 0 0.143113 0.0047641 0.680911
36 1.207 0 0 -0.238539 -0.328321 0.202549
37 2.03337 1.00077 -1.93761 -1.68882 1.14785 2.79016
38 6.02814 0 0 1.66587 0.0413209 -0.700365
39 11.6925 0 0 0.0253404 -0.256118 -1.02984
40 11.4817 0 0 -1.60511 -0.19217 -0.199007
41 2.33845 -1.53574 -6.39151 1.52024 -0.0943798 -2.00195
42 0.806017 -0.359829 -1.31833 0.93401 0.297778 -0.930654
43 1.78979 0 0 0.0090953 -0.315148 0.639495
44 1.207 0 0 0.000382629 -0.0702455 0.716388
45 3.85983 -0.148939 -1.33129 -0.354419 0.0385673 -0.532001
46 1.71942 0 0 0.0896101 0.216064 -1.89942
47 1.09967 0 0 0 -0.00421048 -0.244313
48 3.88366 -0.0503235 -0.431042 -0.040059 -0.165985 -1.2578
49 1.71957 0 0 0.366782 -0.0968552 -2.8629
50 1.20918 0 0 0 -0.00446074 -0.216376
51 3.94229 0.050333 0.431045 -0.174166 0.127578 -1.20779
52 1.53909 0 0 0 -0.00585367 -0.247771
53 1.19633 0 0 0.00494333 -0.275389 -1.12101
54 3.85967 -0.132566 1.1931 0.47914 -0.158545 -0.879041
55 1.31255 0 0 0 -0.011932 -0.439672
56 0.729374 0 0 0 -0.00613407 -0.244271
57 2.67608 -1.71244 0 -1.5708 0 -1.5708
58 3.89045 0 0 -1.5708 -1.37387 -1.56557
59 17.8482 0 0 0 0 1.99469
60 16.5252 0 0 -0.027915 -0.0407819 -1.74413
61 6.87945 0 0 -0.0052193 -0.00281229 -0.539669
time 19
0 0 0 0 0 0 0
1 0 0 0 0 0 0
2 0 0 0 0 0 0
3 0 -0.533615 19.8377 1.5708 0 0
4 3.97889 -8.424 2.90422 0 0 0
5 -4.25832 24.3569 3.10634 0 0 0
6 -3.89045 0 0 -1.57099 0.229027 -1.57578
7 17.8482 0 0 0 0 1.66181
8 16.5253 0 0 0.0386099 0.0407784 -1.04342
9 6.87946 0 0 -0.0813327 -0.00295074 -0.584373
10 0 3.34513 -2.98189 1.5708 0.0862926 1.5708
11 4.01834 0 0 -0.61314 -0.0666819 0.0459288
12 3.51856 0 0 -0.131226 -0.0424127 0.157579
13 8.94264 0 0 -0.411872 -0.0137806 0.271619
14 3.30729 0 0 -2.94029 -0.130082 0.387322
15 3.59371 0 0 0.897485 -0.0243318 0.614113
16 2 -3 0 -1.5708 0 -1.32645
17 2.03335 1.00076 1.93766 0.294951 -1.31396 -2.50859
18 6.02814 0 0 -1.76462 -0.491626 -0.187098
19 11.6926 0 0 -0.160646 0.72593 -1.40363
20 11.4817 0 0 0.832527 -0.0142698 -0.151441
21 2.67608 -1.71243 0 1.5708 0 1.5708
22 3.8597 -0.142395 -1.19198 -0.479144 0.15219 -0.879874
23 1.31256 0 0 0 0.00966522 -0.43972
24 0.729357 0 0 -0.0289803 0.117256 -0.451392
25 3.85985 -0.137939 1.33247 0.716035 -0.20023 -1.35393
26 1.71943 0 0 0 0.0040738 -0.363009
27 1.09966 0 0 0.133915 -0.229714 -0.543028
28 3.88368 -0.0467701 0.431435 0.812672 -0.191549 -1.55027
29 1.71958 0 0 0.194939 -0.171309 -0.606848
30 1.20918 0 0 0.409192 -0.306122 -0.737509
31 3.94232 0.0467777 -0.431446 -0.155013 0.0733279 -0.810648
32 1.53909 0 0 0.0414073 0.089645 -0.69906
33 1.19633 0 0 0 0.00736127 -0.430802
34 0.806038 -0.348917 1.32126 -1.14854 -0.413343 -0.685815
35 1.78979 0 0 0.143113 0.00476399 0.680911
36 1.207 0 0 -0.238539 -0.328321 0.202549
37 2.03337 1.00077 -1.93761 -1.68882 1.14785 2.79016
38 6.02814 0 0 1.66587 0.0413208 -0.700364
39 11.6926 0 0 0.0253403 -0.256118 -1.02984
40 11.4817 0 0 -1.60511 -0.19217 -0.199007
41 2.33845 -1.53574 -6.39151 1.52024 -0.0943798 -2.00195
42 0.806017 -0.359829 -1.31833 0.93401 0.297778 -0.930655
43 1.78979 0 0 0.00909534 -0.315148 0.639494
44 1.207 0 0 0.000382557 -0.0702455 0.716388
45 3.85983 -0.148941 -1.33128 -0.354419 0.0385672 -0.532001
46 1.71941 0 0 0.08961 0.216064 -1.89942
47 1.09967 0 0 0 -0.00421048 -0.244313
48 3.88366 -0.0503235 -0.431043 -0.040059 -0.165985 -1.2578
49 1.71957 0 0 0.366782 -0.0968552 -2.8629
50 1.20918 0 0 0 -0.00446083 -0.216376
51 3.9423 0.0503311 0.431044 -0.174166 0.127578 -1.20779
52 1.53909 0 0 0 -0.00585368 -0.247771
53 1.19634 0 0 0.00494336 -0.275389 -1.12101
54 3.85967 -0.132568 1.1931 0.47914 -0.158545 -0.879041
55 1.31255 0 0 0 -0.0119319 -0.439672
56 0.729374 0 0 0 -0.00613409 -0.244271
57 2.67609 -1.71244 0 -1.5708 0 -1.5708
58 3.89045 0 0 -1.5708 -1.37387 -1.56557
59 17.8482 0 0 0 0 1.99469
60 16.5252 0 0 -0.027915 -0.0407819 -1.74413
61 6.87945 0 0 -0.00521949 -0.00281249 -0.539669
end
