"VertexLitGeneric"
{
	"$baseTexture" "Models/Gunship/GunshipSheet"
	"$bumpmap" "Models/Gunship/GunshipSheet_normal"
	"$normalmapalphaenvmapmask" 1
	//"$envmap" "env_cubemap"
	"$envmapcontrast" 1
	"$selfillum" 1
	"$nodecal" 1
}
