// Created by Crowbar 0.24.0.0
version 1
nodes
  0 "ValveBiped.Bip01_Pelvis" -1
  1 "ValveBiped.Bip01_Spine" 0
  2 "ValveBiped.Bip01_Spine1" 1
  3 "ValveBiped.Bip01_Spine2" 2
  4 "ValveBiped.Bip01_Spine4" 3
  5 "ValveBiped.Bip01_Neck1" 4
  6 "ValveBiped.Bip01_Head1" 5
  7 "ValveBiped.forward" 6
  8 "ValveBiped.Bip01_R_Clavicle" 4
  9 "ValveBiped.Bip01_R_UpperArm" 8
  10 "ValveBiped.Bip01_R_Forearm" 9
  11 "ValveBiped.Bip01_R_Hand" 10
  12 "ValveBiped.Anim_Attachment_RH" 11
  13 "ValveBiped.Bip01_L_Clavicle" 4
  14 "ValveBiped.Bip01_L_UpperArm" 13
  15 "ValveBiped.Bip01_L_Forearm" 14
  16 "ValveBiped.Bip01_L_Hand" 15
  17 "ValveBiped.Anim_Attachment_LH" 16
  18 "ValveBiped.Bip01_R_Thigh" 0
  19 "ValveBiped.Bip01_R_Calf" 18
  20 "ValveBiped.Bip01_R_Foot" 19
  21 "ValveBiped.Bip01_R_Toe0" 20
  22 "ValveBiped.Bip01_L_Thigh" 0
  23 "ValveBiped.Bip01_L_Calf" 22
  24 "ValveBiped.Bip01_L_Foot" 23
  25 "ValveBiped.Bip01_L_Toe0" 24
  26 "ValveBiped.Bip01_L_Finger4" 16
  27 "ValveBiped.Bip01_L_Finger41" 26
  28 "ValveBiped.Bip01_L_Finger42" 27
  29 "ValveBiped.Bip01_L_Finger3" 16
  30 "ValveBiped.Bip01_L_Finger31" 29
  31 "ValveBiped.Bip01_L_Finger32" 30
  32 "ValveBiped.Bip01_L_Finger2" 16
  33 "ValveBiped.Bip01_L_Finger21" 32
  34 "ValveBiped.Bip01_L_Finger22" 33
  35 "ValveBiped.Bip01_L_Finger1" 16
  36 "ValveBiped.Bip01_L_Finger11" 35
  37 "ValveBiped.Bip01_L_Finger12" 36
  38 "ValveBiped.Bip01_L_Finger0" 16
  39 "ValveBiped.Bip01_L_Finger01" 38
  40 "ValveBiped.Bip01_L_Finger02" 39
  41 "ValveBiped.Bip01_R_Finger4" 11
  42 "ValveBiped.Bip01_R_Finger41" 41
  43 "ValveBiped.Bip01_R_Finger42" 42
  44 "ValveBiped.Bip01_R_Finger3" 11
  45 "ValveBiped.Bip01_R_Finger31" 44
  46 "ValveBiped.Bip01_R_Finger32" 45
  47 "ValveBiped.Bip01_R_Finger2" 11
  48 "ValveBiped.Bip01_R_Finger21" 47
  49 "ValveBiped.Bip01_R_Finger22" 48
  50 "ValveBiped.Bip01_R_Finger1" 11
  51 "ValveBiped.Bip01_R_Finger11" 50
  52 "ValveBiped.Bip01_R_Finger12" 51
  53 "ValveBiped.Bip01_R_Finger0" 11
  54 "ValveBiped.Bip01_R_Finger01" 53
  55 "ValveBiped.Bip01_R_Finger02" 54
  56 "ValveBiped.baton_parent" 11
end
skeleton
  time 0
    0 0.557129 0.424805 -0.770508 0.317956 -0.218881 -1.639027
    1 0.000005 3.345128 -2.981901 1.570796 0.086293 1.570796
    2 0.000000 0.000000 0.000000 0.061160 -0.251644 0.035157
    3 3.518565 0.000000 0.000000 0.000000 0.000000 0.100336
    4 8.942642 0.000000 0.000000 0.000000 0.000000 0.194096
    5 3.307271 0.000000 0.000000 3.141590 0.000000 0.400478
    6 0.000000 0.000000 0.000000 -0.471781 -0.121104 0.022713
    7 1.999997 -3.000001 0.000000 -1.570796 0.000000 -1.326450
    8 2.033350 1.000771 -1.937610 -1.668474 1.286518 2.942953
    9 0.000000 0.000000 0.000000 -0.111781 0.111465 0.501468
    10 0.000000 0.000000 0.000000 0.000000 0.000000 -0.002621
    11 0.000000 0.000000 0.000000 0.352064 -0.001923 0.171684
    12 2.676087 -1.712440 0.000000 -1.570796 0.000000 -1.570796
    13 2.033342 1.000767 1.937660 1.596637 -1.286515 2.942961
    14 0.000000 0.000000 0.000000 0.928524 0.195796 -0.345673
    15 0.000000 0.000000 0.000000 0.000000 0.000000 1.208976
    16 0.000000 0.000000 0.000000 -0.536391 0.172000 -0.369329
    17 2.676088 -1.712441 0.000000 1.570797 0.000000 1.570797
    26 3.859704 -0.142404 -1.191975 -0.479144 0.152190 -0.879874
    27 1.312563 0.000001 0.000001 0.000000 0.009665 -0.439720
    28 0.729362 0.000002 0.000000 0.000000 0.004971 -0.244299
    29 3.942327 0.046774 -0.431443 -0.155014 0.073328 -0.810648
    30 1.539092 0.000002 0.000000 0.000000 0.004460 -0.247797
    31 1.196319 -0.000001 0.000000 0.000000 0.007361 -0.430802
    32 3.883689 -0.046767 0.431443 0.085902 0.021830 -0.587867
    33 1.719575 0.000002 0.000000 0.000000 0.005516 -0.366478
    34 1.209182 -0.000001 0.000000 0.000000 0.003084 -0.216400
    35 3.859859 -0.137950 1.332466 0.354449 -0.042750 -0.531718
    36 1.719429 0.000003 0.000000 0.000000 0.004074 -0.363009
    37 1.099668 0.000001 0.000000 0.000000 0.002596 -0.244331
    38 0.806048 -0.348923 1.321258 -1.206854 -0.679488 -0.789308
    39 1.789785 0.000000 0.000002 0.000000 0.007387 0.228523
    40 1.206998 0.000000 0.000000 0.000000 0.011267 0.362860
    41 3.859672 -0.132566 1.193108 0.479140 -0.158545 -0.879041
    42 1.312560 0.000000 -0.000001 0.000000 -0.011932 -0.439672
    43 0.729361 0.000002 0.000000 0.000000 -0.006134 -0.244271
    44 3.942293 0.050330 0.431043 0.154999 -0.079305 -0.810205
    45 1.539095 0.000003 0.000000 0.000000 -0.005854 -0.247771
    46 1.196323 0.000000 0.000000 0.000000 -0.009663 -0.430761
    47 3.883655 -0.050326 -0.431043 -0.085905 -0.026404 -0.587695
    48 1.719575 -0.000005 0.000000 0.000000 -0.007974 -0.366436
    49 1.209182 -0.000001 0.000000 0.000000 -0.004461 -0.216376
    50 3.859828 -0.148935 -1.331282 -0.354419 0.038567 -0.532001
    51 1.719425 0.000000 0.000000 0.000000 -0.006613 -0.362970
    52 1.099665 0.000000 0.000000 0.000000 -0.004211 -0.244312
    53 0.806014 -0.359835 -1.318334 1.204200 0.673618 -0.793956
    54 1.789783 0.000001 0.000000 0.000000 -0.006301 0.228555
    55 1.207003 0.000000 0.000004 0.000000 -0.009618 0.362905
    56 2.338454 -1.535743 -6.391511 1.520245 -0.094380 -2.001951
end
