// Created by Crowbar 0.24.0.0
version 1
nodes
  0 "ValveBiped.Bip01_Pelvis" -1
  1 "ValveBiped.Bip01_Spine" 0
  2 "ValveBiped.Bip01_Spine1" 1
  3 "ValveBiped.Bip01_Spine2" 2
  4 "ValveBiped.Bip01_Spine4" 3
  5 "ValveBiped.Bip01_Neck1" 4
  6 "ValveBiped.Bip01_Head1" 5
  7 "ValveBiped.forward" 6
  8 "ValveBiped.Bip01_R_Clavicle" 4
  9 "ValveBiped.Bip01_R_UpperArm" 8
  10 "ValveBiped.Bip01_R_Forearm" 9
  11 "ValveBiped.Bip01_R_Hand" 10
  12 "ValveBiped.Anim_Attachment_RH" 11
  13 "ValveBiped.Bip01_L_Clavicle" 4
  14 "ValveBiped.Bip01_L_UpperArm" 13
  15 "ValveBiped.Bip01_L_Forearm" 14
  16 "ValveBiped.Bip01_L_Hand" 15
  17 "ValveBiped.Anim_Attachment_LH" 16
  18 "ValveBiped.Bip01_R_Thigh" 0
  19 "ValveBiped.Bip01_R_Calf" 18
  20 "ValveBiped.Bip01_R_Foot" 19
  21 "ValveBiped.Bip01_R_Toe0" 20
  22 "ValveBiped.Bip01_L_Thigh" 0
  23 "ValveBiped.Bip01_L_Calf" 22
  24 "ValveBiped.Bip01_L_Foot" 23
  25 "ValveBiped.Bip01_L_Toe0" 24
  26 "ValveBiped.Bip01_L_Finger4" 16
  27 "ValveBiped.Bip01_L_Finger41" 26
  28 "ValveBiped.Bip01_L_Finger42" 27
  29 "ValveBiped.Bip01_L_Finger3" 16
  30 "ValveBiped.Bip01_L_Finger31" 29
  31 "ValveBiped.Bip01_L_Finger32" 30
  32 "ValveBiped.Bip01_L_Finger2" 16
  33 "ValveBiped.Bip01_L_Finger21" 32
  34 "ValveBiped.Bip01_L_Finger22" 33
  35 "ValveBiped.Bip01_L_Finger1" 16
  36 "ValveBiped.Bip01_L_Finger11" 35
  37 "ValveBiped.Bip01_L_Finger12" 36
  38 "ValveBiped.Bip01_L_Finger0" 16
  39 "ValveBiped.Bip01_L_Finger01" 38
  40 "ValveBiped.Bip01_L_Finger02" 39
  41 "ValveBiped.Bip01_R_Finger4" 11
  42 "ValveBiped.Bip01_R_Finger41" 41
  43 "ValveBiped.Bip01_R_Finger42" 42
  44 "ValveBiped.Bip01_R_Finger3" 11
  45 "ValveBiped.Bip01_R_Finger31" 44
  46 "ValveBiped.Bip01_R_Finger32" 45
  47 "ValveBiped.Bip01_R_Finger2" 11
  48 "ValveBiped.Bip01_R_Finger21" 47
  49 "ValveBiped.Bip01_R_Finger22" 48
  50 "ValveBiped.Bip01_R_Finger1" 11
  51 "ValveBiped.Bip01_R_Finger11" 50
  52 "ValveBiped.Bip01_R_Finger12" 51
  53 "ValveBiped.Bip01_R_Finger0" 11
  54 "ValveBiped.Bip01_R_Finger01" 53
  55 "ValveBiped.Bip01_R_Finger02" 54
  56 "ValveBiped.baton_parent" 11
end
skeleton
  time 0
    0 1.610982 -0.335943 37.086403 1.541799 -0.006674 -1.014760
    1 0.007450 3.343750 -2.980469 1.238765 0.085742 1.559561
    2 4.018331 0.000000 0.000000 0.212912 0.060163 0.039323
    3 3.518565 0.000000 0.000000 0.218752 -0.080548 0.344879
    4 8.942642 0.000000 0.000000 0.180859 0.074145 0.413963
    5 3.307271 0.000000 0.000000 3.050191 -0.053256 0.499160
    6 3.593712 -0.000001 0.000000 0.712970 0.026480 0.875437
    7 1.999997 -3.000001 0.000000 -1.570796 0.000000 -1.326450
    8 2.033350 1.000771 -1.937610 2.900480 1.238764 1.220481
    9 6.028143 0.000002 0.000000 1.158989 1.450523 -0.793691
    10 11.692549 0.000000 0.000002 0.000000 0.000000 -1.181076
    11 11.481698 0.000000 0.000000 -1.124377 0.136598 0.358730
    12 2.676087 -1.712440 0.000000 -1.570796 0.000000 -1.570796
    13 2.033342 1.000767 1.937660 1.726691 -0.938671 2.779811
    14 6.028142 0.000002 0.000000 -1.833082 -0.478231 -0.591638
    15 11.692555 0.000000 0.000005 0.000000 0.000000 -1.869175
    16 11.481671 0.000000 -0.000030 0.245147 -0.008783 0.618629
    17 2.676088 -1.712441 0.000000 1.570797 0.000000 1.570797
    18 -3.890452 0.000004 0.000007 -1.315372 -0.091249 -1.789797
    19 17.848171 0.000000 0.000000 0.000000 0.000000 0.498138
    20 16.525253 0.000000 0.000000 0.322464 0.144619 -1.250550
    21 6.879454 0.000000 0.000000 -0.081333 -0.002951 -0.584373
    22 3.890452 -0.000004 -0.000003 -1.743820 -0.105140 -1.305506
    23 17.848175 0.000000 0.000000 0.000000 0.000000 0.396113
    24 16.525249 0.000000 0.000000 -0.274848 0.043280 -1.196970
    25 6.879452 0.000000 0.000000 -0.007299 -0.002950 -0.584374
    26 3.859704 -0.142404 -1.191975 -0.511025 -0.162469 -1.254549
    27 1.312563 0.000001 0.000001 -0.416582 0.363238 -0.532793
    28 0.729362 0.000002 0.000000 -0.030467 0.149165 -0.264812
    29 3.942327 0.046774 -0.431443 -0.077697 0.066225 -0.838261
    30 1.539092 0.000002 0.000000 -0.194799 0.216732 -0.913778
    31 1.196319 -0.000001 0.000000 -0.005405 0.048648 -0.221714
    32 3.883689 -0.046767 0.431443 0.294009 -0.005054 -0.492816
    33 1.719575 0.000002 0.000000 -0.067381 0.068570 -1.121333
    34 1.209182 -0.000001 0.000000 -0.003165 0.020606 -0.304754
    35 3.859859 -0.137950 1.332466 0.611194 0.091422 -0.576227
    36 1.719429 0.000003 0.000000 0.000001 -0.148422 -0.395022
    37 1.099668 0.000001 0.000000 0.000000 0.000000 -1.060287
    38 0.806048 -0.348923 1.321258 -1.253304 -0.366663 -0.756723
    39 1.789785 0.000000 0.000002 0.000001 -0.092056 -0.052846
    40 1.206998 0.000000 0.000000 -0.000002 0.101885 -0.080511
    41 3.859672 -0.132566 1.193108 0.441933 -0.039758 -1.502610
    42 1.312560 0.000000 -0.000001 0.000001 -0.060063 -0.756557
    43 0.729361 0.000002 0.000000 0.000001 -0.263859 -0.928787
    44 3.942293 0.050330 0.431043 0.323975 -0.042353 -1.173383
    45 1.539095 0.000003 0.000000 0.000000 -0.056711 -1.177242
    46 1.196323 0.000000 0.000000 0.193939 -0.249771 -0.925754
    47 3.883655 -0.050326 -0.431043 0.254188 -0.050536 -1.089574
    48 1.719575 -0.000005 0.000000 0.018743 -0.055384 -1.084460
    49 1.209182 -0.000001 0.000000 0.091857 -0.091058 -1.127954
    50 3.859828 -0.148935 -1.331282 0.145131 0.071080 -0.602900
    51 1.719425 0.000000 0.000000 -0.000001 0.098232 -0.215107
    52 1.099665 0.000000 0.000000 0.000001 0.066953 -1.966432
    53 0.806014 -0.359835 -1.318334 0.902692 0.272163 -1.272851
    54 1.789783 0.000001 0.000000 0.016660 0.544390 0.649620
    55 1.207003 0.000000 0.000004 0.015883 0.090668 0.974907
    56 2.338454 -1.535743 -6.391511 1.520245 -0.094380 -2.001951
  time 1
    0 1.610982 -0.136718 37.039527 1.479020 -0.007275 -0.924276
    1 0.007450 3.343750 -2.980469 1.238765 0.085742 1.559561
    2 4.018331 0.000000 0.000000 0.212912 0.060163 0.039323
    3 3.518565 0.000000 0.000000 0.218752 -0.080548 0.280299
    4 8.942642 0.000000 0.000000 0.180859 0.074145 0.413963
    5 3.307271 0.000000 0.000000 3.050191 -0.053256 0.499160
    6 3.593712 -0.000001 0.000000 0.730202 0.029860 1.014877
    7 1.999997 -3.000001 0.000000 -1.570796 0.000000 -1.326450
    8 2.033350 1.000771 -1.937610 2.900480 1.238764 1.220481
    9 6.028143 0.000002 0.000000 1.289213 1.335317 -0.641546
    10 11.692549 0.000000 0.000002 0.000000 0.000000 -1.160909
    11 11.481698 0.000000 0.000000 -1.124377 0.136598 0.358730
    12 2.676087 -1.712440 0.000000 -1.570796 0.000000 -1.570796
    13 2.033342 1.000767 1.937660 1.726691 -0.938671 2.779811
    14 6.028142 0.000002 0.000000 -1.670257 -0.417223 -0.629966
    15 11.692555 0.000000 0.000005 0.000000 0.000000 -1.827847
    16 11.481671 0.000000 -0.000030 0.245147 -0.008783 0.618629
    17 2.676088 -1.712441 0.000000 1.570797 0.000000 1.570797
    18 -3.890452 0.000004 0.000007 -1.239127 -0.007299 -1.796652
    19 17.848171 0.000000 0.000000 0.000000 0.000000 0.507258
    20 16.525253 0.000000 0.000000 0.319786 0.144593 -1.264184
    21 6.879454 0.000000 0.000000 -0.081333 -0.002951 -0.584373
    22 3.890452 -0.000004 -0.000003 -1.631328 -0.084652 -1.318041
    23 17.848175 0.000000 0.000000 0.000000 0.000000 0.401157
    24 16.525249 0.000000 0.000000 -0.282298 0.037832 -1.185617
    25 6.879452 0.000000 0.000000 -0.007299 -0.002950 -0.584374
    26 3.859704 -0.142404 -1.191975 -0.511025 -0.162469 -1.254549
    27 1.312563 0.000001 0.000001 -0.416582 0.363238 -0.532793
    28 0.729362 0.000002 0.000000 -0.030467 0.149165 -0.264812
    29 3.942327 0.046774 -0.431443 -0.077697 0.066225 -0.838261
    30 1.539092 0.000002 0.000000 -0.194799 0.216732 -0.913778
    31 1.196319 -0.000001 0.000000 -0.005417 0.048648 -0.221714
    32 3.883689 -0.046767 0.431443 0.294009 -0.005054 -0.492816
    33 1.719575 0.000002 0.000000 -0.067381 0.068570 -1.121333
    34 1.209182 -0.000001 0.000000 -0.003165 0.020606 -0.304754
    35 3.859859 -0.137950 1.332466 0.611194 0.091422 -0.576227
    36 1.719429 0.000003 0.000000 0.000001 -0.148422 -0.395022
    37 1.099668 0.000001 0.000000 0.000000 0.000000 -1.060287
    38 0.806048 -0.348923 1.321258 -1.253304 -0.366663 -0.756723
    39 1.789785 0.000000 0.000002 0.000001 -0.092056 -0.052846
    40 1.206998 0.000000 0.000000 -0.000002 0.101885 -0.080511
    41 3.859672 -0.132566 1.193108 0.441933 -0.039758 -1.502610
    42 1.312560 0.000000 -0.000001 0.000001 -0.060063 -0.756557
    43 0.729361 0.000002 0.000000 0.000001 -0.263859 -0.928787
    44 3.942293 0.050330 0.431043 0.323975 -0.042353 -1.173383
    45 1.539095 0.000003 0.000000 0.000000 -0.056711 -1.177242
    46 1.196323 0.000000 0.000000 0.193939 -0.249771 -0.925754
    47 3.883655 -0.050326 -0.431043 0.254188 -0.050536 -1.089574
    48 1.719575 -0.000005 0.000000 0.018743 -0.055384 -1.084460
    49 1.209182 -0.000001 0.000000 0.091857 -0.091058 -1.127954
    50 3.859828 -0.148935 -1.331282 0.145131 0.071080 -0.602900
    51 1.719425 0.000000 0.000000 -0.000001 0.098232 -0.215107
    52 1.099665 0.000000 0.000000 0.000001 0.066953 -1.966432
    53 0.806014 -0.359835 -1.318334 0.902692 0.272163 -1.272851
    54 1.789783 0.000001 0.000000 0.016660 0.544390 0.649620
    55 1.207003 0.000000 0.000004 0.015883 0.090668 0.974907
    56 2.338454 -1.535743 -6.391511 1.520245 -0.094380 -2.001951
  time 2
    0 1.610982 0.339859 36.934055 1.419581 -0.008052 -0.800149
    1 0.007450 3.343750 -2.980469 1.238765 0.085742 1.559561
    2 4.018331 0.000000 0.000000 0.212912 0.060163 0.039323
    3 3.518565 0.000000 0.000000 0.218752 -0.080548 0.206654
    4 8.942642 0.000000 0.000000 0.180859 0.074145 0.413963
    5 3.307271 0.000000 0.000000 3.050191 -0.053256 0.499160
    6 3.593712 -0.000001 0.000000 0.767345 0.036931 1.157904
    7 1.999997 -3.000001 0.000000 -1.570796 0.000000 -1.326450
    8 2.033350 1.000771 -1.937610 2.900480 1.238764 1.220481
    9 6.028143 0.000002 0.000000 1.220750 1.166321 -0.698158
    10 11.692549 0.000000 0.000002 0.000000 0.000000 -1.104540
    11 11.481698 0.000000 0.000000 -1.124377 0.136598 0.358730
    12 2.676087 -1.712440 0.000000 -1.570796 0.000000 -1.570796
    13 2.033342 1.000767 1.937660 1.726691 -0.938671 2.779811
    14 6.028142 0.000002 0.000000 -1.462558 -0.357536 -0.701807
    15 11.692555 0.000000 0.000005 0.000000 0.000000 -1.745037
    16 11.481671 0.000000 -0.000030 0.245147 -0.008783 0.618629
    17 2.676088 -1.712441 0.000000 1.570797 0.000000 1.570797
    18 -3.890452 0.000004 0.000007 -1.126092 0.071300 -1.805312
    19 17.848171 0.000000 0.000000 0.000000 0.000000 0.536424
    20 16.525253 0.000000 0.000000 0.311011 0.144493 -1.290124
    21 6.879454 0.000000 0.000000 -0.081333 -0.002951 -0.584373
    22 3.890452 -0.000004 -0.000003 -1.463960 -0.081664 -1.340842
    23 17.848175 0.000000 0.000000 0.000000 0.000000 0.402121
    24 16.525249 0.000000 0.000000 -0.309834 0.017581 -1.163211
    25 6.879452 0.000000 0.000000 -0.007299 -0.002950 -0.584374
    26 3.859704 -0.142404 -1.191975 -0.511025 -0.162469 -1.254549
    27 1.312563 0.000001 0.000001 -0.416582 0.363238 -0.532793
    28 0.729362 0.000002 0.000000 -0.030467 0.149165 -0.264812
    29 3.942327 0.046774 -0.431443 -0.077697 0.066225 -0.838261
    30 1.539092 0.000002 0.000000 -0.194799 0.216732 -0.913778
    31 1.196319 -0.000001 0.000000 -0.005417 0.048648 -0.221714
    32 3.883689 -0.046767 0.431443 0.294009 -0.005054 -0.492816
    33 1.719575 0.000002 0.000000 -0.067381 0.068570 -1.121333
    34 1.209182 -0.000001 0.000000 -0.003165 0.020606 -0.304754
    35 3.859859 -0.137950 1.332466 0.611194 0.091422 -0.576227
    36 1.719429 0.000003 0.000000 0.000001 -0.148422 -0.395022
    37 1.099668 0.000001 0.000000 0.000000 0.000000 -1.060287
    38 0.806048 -0.348923 1.321258 -1.253304 -0.366663 -0.756723
    39 1.789785 0.000000 0.000002 0.000001 -0.092056 -0.052846
    40 1.206998 0.000000 0.000000 -0.000002 0.101885 -0.080511
    41 3.859672 -0.132566 1.193108 0.441933 -0.039758 -1.502610
    42 1.312560 0.000000 -0.000001 0.000001 -0.060063 -0.756557
    43 0.729361 0.000002 0.000000 0.000001 -0.263859 -0.928787
    44 3.942293 0.050330 0.431043 0.323975 -0.042353 -1.173383
    45 1.539095 0.000003 0.000000 0.000000 -0.056711 -1.177242
    46 1.196323 0.000000 0.000000 0.193939 -0.249771 -0.925754
    47 3.883655 -0.050326 -0.431043 0.254188 -0.050536 -1.089574
    48 1.719575 -0.000005 0.000000 0.018743 -0.055384 -1.084460
    49 1.209182 -0.000001 0.000000 0.091857 -0.091058 -1.127954
    50 3.859828 -0.148935 -1.331282 0.145131 0.071080 -0.602900
    51 1.719425 0.000000 0.000000 -0.000001 0.098232 -0.215107
    52 1.099665 0.000000 0.000000 0.000001 0.066953 -1.966432
    53 0.806014 -0.359835 -1.318334 0.902692 0.272163 -1.272851
    54 1.789783 0.000001 0.000000 0.016660 0.544390 0.649620
    55 1.207003 0.000000 0.000004 0.015883 0.090668 0.974907
    56 2.338454 -1.535743 -6.391511 1.520245 -0.094380 -2.001951
  time 3
    0 1.610982 0.929721 36.793426 1.427104 -0.008158 -0.785248
    1 0.007450 3.343750 -2.980469 1.238765 0.085742 1.559561
    2 4.018331 0.000000 0.000000 0.212912 0.060163 0.051377
    3 3.518565 0.000000 0.000000 0.218752 -0.080548 0.195019
    4 8.942642 0.000000 0.000000 0.180859 0.074145 0.413963
    5 3.307271 0.000000 0.000000 3.050191 -0.053256 0.499160
    6 3.593712 -0.000001 0.000000 0.801947 0.043297 0.812536
    7 1.999997 -3.000001 0.000000 -1.570796 0.000000 -1.326450
    8 2.033350 1.000771 -1.937610 2.900480 1.238764 1.220481
    9 6.028143 0.000002 0.000000 1.152861 1.123738 -0.764715
    10 11.692549 0.000000 0.000002 0.000000 0.000000 -1.055175
    11 11.481698 0.000000 0.000000 -1.124377 0.136598 0.358730
    12 2.676087 -1.712440 0.000000 -1.570796 0.000000 -1.570796
    13 2.033342 1.000767 1.937660 1.726691 -0.938671 2.779811
    14 6.028142 0.000002 0.000000 -1.429929 -0.374063 -0.739607
    15 11.692555 0.000000 0.000005 0.000000 0.000000 -1.699522
    16 11.481671 0.000000 -0.000030 0.245147 -0.008783 0.618629
    17 2.676088 -1.712441 0.000000 1.570797 0.000000 1.570797
    18 -3.890452 0.000004 0.000007 -1.096166 0.038372 -1.807476
    19 17.848171 0.000000 0.000000 0.000000 0.000000 0.585473
    20 16.525253 0.000000 0.000000 0.292431 0.144243 -1.315506
    21 6.879454 0.000000 0.000000 -0.081333 -0.002951 -0.584373
    22 3.890452 -0.000004 -0.000003 -1.405195 -0.106515 -1.340569
    23 17.848175 0.000000 0.000000 0.000000 0.000000 0.403605
    24 16.525249 0.000000 0.000000 -0.347513 -0.010141 -1.151408
    25 6.879452 0.000000 0.000000 -0.007299 -0.002950 -0.584374
    26 3.859704 -0.142404 -1.191975 -0.511025 -0.162469 -1.254549
    27 1.312563 0.000001 0.000001 -0.416582 0.363238 -0.532793
    28 0.729362 0.000002 0.000000 -0.030467 0.149165 -0.264812
    29 3.942327 0.046774 -0.431443 -0.077697 0.066225 -0.838261
    30 1.539092 0.000002 0.000000 -0.194799 0.216732 -0.913778
    31 1.196319 -0.000001 0.000000 -0.005417 0.048648 -0.221714
    32 3.883689 -0.046767 0.431443 0.294009 -0.005054 -0.492816
    33 1.719575 0.000002 0.000000 -0.067381 0.068570 -1.121333
    34 1.209182 -0.000001 0.000000 -0.003165 0.020606 -0.304754
    35 3.859859 -0.137950 1.332466 0.611194 0.091422 -0.576227
    36 1.719429 0.000003 0.000000 0.000001 -0.148422 -0.395022
    37 1.099668 0.000001 0.000000 0.000000 0.000000 -1.060287
    38 0.806048 -0.348923 1.321258 -1.253304 -0.366663 -0.756723
    39 1.789785 0.000000 0.000002 0.000001 -0.092056 -0.052846
    40 1.206998 0.000000 0.000000 -0.000002 0.101885 -0.080511
    41 3.859672 -0.132566 1.193108 0.441933 -0.039758 -1.502610
    42 1.312560 0.000000 -0.000001 0.000001 -0.060063 -0.756557
    43 0.729361 0.000002 0.000000 0.000001 -0.263859 -0.928787
    44 3.942293 0.050330 0.431043 0.323975 -0.042353 -1.173383
    45 1.539095 0.000003 0.000000 0.000000 -0.056711 -1.177242
    46 1.196323 0.000000 0.000000 0.193939 -0.249771 -0.925754
    47 3.883655 -0.050326 -0.431043 0.254188 -0.050536 -1.089574
    48 1.719575 -0.000005 0.000000 0.018743 -0.055384 -1.084460
    49 1.209182 -0.000001 0.000000 0.091857 -0.091058 -1.127954
    50 3.859828 -0.148935 -1.331282 0.145131 0.071080 -0.602900
    51 1.719425 0.000000 0.000000 -0.000001 0.098232 -0.215107
    52 1.099665 0.000000 0.000000 0.000001 0.066953 -1.966432
    53 0.806014 -0.359835 -1.318334 0.902692 0.272163 -1.272851
    54 1.789783 0.000001 0.000000 0.016660 0.544390 0.649620
    55 1.207003 0.000000 0.000004 0.015883 0.090668 0.974907
    56 2.338454 -1.535743 -6.391511 1.520245 -0.094380 -2.001951
  time 4
    0 1.610982 1.453174 36.652797 1.435574 -0.008122 -0.789473
    1 0.007450 3.343750 -2.980469 1.238765 0.085742 1.559561
    2 4.018331 0.000000 0.000000 0.212912 0.060163 0.082671
    3 3.518565 0.000000 0.000000 0.218752 -0.080548 0.191975
    4 8.942642 0.000000 0.000000 0.180859 0.074145 0.413963
    5 3.307271 0.000000 0.000000 3.050191 -0.053256 0.499160
    6 3.593712 -0.000001 0.000000 0.811694 0.045044 0.486544
    7 1.999997 -3.000001 0.000000 -1.570796 0.000000 -1.326450
    8 2.033350 1.000771 -1.937610 2.900480 1.238764 1.220481
    9 6.028143 0.000002 0.000000 1.181682 1.114821 -0.717666
    10 11.692549 0.000000 0.000002 0.000000 0.000000 -1.072474
    11 11.481698 0.000000 0.000000 -1.124377 0.136598 0.358730
    12 2.676087 -1.712440 0.000000 -1.570796 0.000000 -1.570796
    13 2.033342 1.000767 1.937660 1.726691 -0.938671 2.779811
    14 6.028142 0.000002 0.000000 -1.442942 -0.404749 -0.748645
    15 11.692555 0.000000 0.000005 0.000000 0.000000 -1.703787
    16 11.481671 0.000000 -0.000030 0.245147 -0.008783 0.618629
    17 2.676088 -1.712441 0.000000 1.570797 0.000000 1.570797
    18 -3.890452 0.000004 0.000007 -1.084824 0.001699 -1.808288
    19 17.848171 0.000000 0.000000 0.000000 0.000000 0.629099
    20 16.525253 0.000000 0.000000 0.274569 0.143942 -1.336686
    21 6.879454 0.000000 0.000000 -0.081333 -0.002951 -0.584373
    22 3.890452 -0.000004 -0.000003 -1.367904 -0.125011 -1.336481
    23 17.848175 0.000000 0.000000 0.000000 0.000000 0.407611
    24 16.525249 0.000000 0.000000 -0.382928 -0.036161 -1.144006
    25 6.879452 0.000000 0.000000 -0.007299 -0.002950 -0.584374
    26 3.859704 -0.142404 -1.191975 -0.511025 -0.162469 -1.254549
    27 1.312563 0.000001 0.000001 -0.416582 0.363238 -0.532793
    28 0.729362 0.000002 0.000000 -0.030467 0.149165 -0.264812
    29 3.942327 0.046774 -0.431443 -0.077697 0.066225 -0.838261
    30 1.539092 0.000002 0.000000 -0.194799 0.216732 -0.913778
    31 1.196319 -0.000001 0.000000 -0.005405 0.048648 -0.221714
    32 3.883689 -0.046767 0.431443 0.294009 -0.005054 -0.492816
    33 1.719575 0.000002 0.000000 -0.067381 0.068570 -1.121333
    34 1.209182 -0.000001 0.000000 -0.003165 0.020606 -0.304754
    35 3.859859 -0.137950 1.332466 0.611194 0.091422 -0.576227
    36 1.719429 0.000003 0.000000 0.000001 -0.148422 -0.395022
    37 1.099668 0.000001 0.000000 0.000000 0.000000 -1.060287
    38 0.806048 -0.348923 1.321258 -1.253304 -0.366663 -0.756723
    39 1.789785 0.000000 0.000002 0.000001 -0.092056 -0.052846
    40 1.206998 0.000000 0.000000 -0.000002 0.101885 -0.080511
    41 3.859672 -0.132566 1.193108 0.441933 -0.039758 -1.502610
    42 1.312560 0.000000 -0.000001 0.000001 -0.060063 -0.756557
    43 0.729361 0.000002 0.000000 0.000001 -0.263859 -0.928787
    44 3.942293 0.050330 0.431043 0.323975 -0.042353 -1.173383
    45 1.539095 0.000003 0.000000 0.000000 -0.056711 -1.177242
    46 1.196323 0.000000 0.000000 0.193939 -0.249771 -0.925754
    47 3.883655 -0.050326 -0.431043 0.254188 -0.050536 -1.089574
    48 1.719575 -0.000005 0.000000 0.018743 -0.055384 -1.084460
    49 1.209182 -0.000001 0.000000 0.091857 -0.091058 -1.127954
    50 3.859828 -0.148935 -1.331282 0.145131 0.071080 -0.602900
    51 1.719425 0.000000 0.000000 -0.000001 0.098232 -0.215107
    52 1.099665 0.000000 0.000000 0.000001 0.066953 -1.966432
    53 0.806014 -0.359835 -1.318334 0.902692 0.272163 -1.272851
    54 1.789783 0.000001 0.000000 0.016660 0.544390 0.649620
    55 1.207003 0.000000 0.000004 0.015883 0.090668 0.974907
    56 2.338454 -1.535743 -6.391511 1.520245 -0.094380 -2.001951
  time 5
    0 1.610982 1.734433 36.543418 1.444592 -0.008052 -0.800610
    1 0.007450 3.343750 -2.980469 1.238765 0.085742 1.559561
    2 4.018331 0.000000 0.000000 0.212912 0.060163 0.125490
    3 3.518565 0.000000 0.000000 0.218752 -0.080548 0.194545
    4 8.942642 0.000000 0.000000 0.180859 0.074145 0.413963
    5 3.307271 0.000000 0.000000 3.050191 -0.053256 0.499160
    6 3.593712 -0.000001 0.000000 0.775753 0.038508 0.358883
    7 1.999997 -3.000001 0.000000 -1.570796 0.000000 -1.326450
    8 2.033350 1.000771 -1.937610 2.900480 1.238764 1.220481
    9 6.028143 0.000002 0.000000 1.293618 1.112151 -0.580535
    10 11.692549 0.000000 0.000002 0.000000 0.000000 -1.136522
    11 11.481698 0.000000 0.000000 -1.124377 0.136598 0.358730
    12 2.676087 -1.712440 0.000000 -1.570796 0.000000 -1.570796
    13 2.033342 1.000767 1.937660 1.726691 -0.938671 2.779811
    14 6.028142 0.000002 0.000000 -1.468263 -0.448592 -0.758408
    15 11.692555 0.000000 0.000005 0.000000 0.000000 -1.713401
    16 11.481671 0.000000 -0.000030 0.245147 -0.008783 0.618629
    17 2.676088 -1.712441 0.000000 1.570797 0.000000 1.570797
    18 -3.890452 0.000004 0.000007 -1.085491 -0.027192 -1.808829
    19 17.848171 0.000000 0.000000 0.000000 0.000000 0.657444
    20 16.525253 0.000000 0.000000 0.264335 0.143741 -1.349891
    21 6.879454 0.000000 0.000000 -0.081333 -0.002951 -0.584373
    22 3.890452 -0.000004 -0.000003 -1.355975 -0.139997 -1.332666
    23 17.848175 0.000000 0.000000 0.000000 0.000000 0.418292
    24 16.525249 0.000000 0.000000 -0.403186 -0.050988 -1.145207
    25 6.879452 0.000000 0.000000 -0.007299 -0.002950 -0.584374
    26 3.859704 -0.142404 -1.191975 -0.511025 -0.162469 -1.254549
    27 1.312563 0.000001 0.000001 -0.416582 0.363238 -0.532793
    28 0.729362 0.000002 0.000000 -0.030467 0.149165 -0.264812
    29 3.942327 0.046774 -0.431443 -0.077697 0.066225 -0.838261
    30 1.539092 0.000002 0.000000 -0.194799 0.216732 -0.913778
    31 1.196319 -0.000001 0.000000 -0.005405 0.048648 -0.221714
    32 3.883689 -0.046767 0.431443 0.294009 -0.005054 -0.492816
    33 1.719575 0.000002 0.000000 -0.067381 0.068570 -1.121333
    34 1.209182 -0.000001 0.000000 -0.003165 0.020606 -0.304754
    35 3.859859 -0.137950 1.332466 0.611194 0.091422 -0.576227
    36 1.719429 0.000003 0.000000 0.000001 -0.148422 -0.395022
    37 1.099668 0.000001 0.000000 0.000000 0.000000 -1.060287
    38 0.806048 -0.348923 1.321258 -1.253304 -0.366663 -0.756723
    39 1.789785 0.000000 0.000002 0.000001 -0.092056 -0.052846
    40 1.206998 0.000000 0.000000 -0.000002 0.101885 -0.080511
    41 3.859672 -0.132566 1.193108 0.441933 -0.039758 -1.502610
    42 1.312560 0.000000 -0.000001 0.000001 -0.060063 -0.756557
    43 0.729361 0.000002 0.000000 0.000001 -0.263859 -0.928787
    44 3.942293 0.050330 0.431043 0.323975 -0.042353 -1.173383
    45 1.539095 0.000003 0.000000 0.000000 -0.056711 -1.177242
    46 1.196323 0.000000 0.000000 0.193939 -0.249771 -0.925754
    47 3.883655 -0.050326 -0.431043 0.254188 -0.050536 -1.089574
    48 1.719575 -0.000005 0.000000 0.018743 -0.055384 -1.084460
    49 1.209182 -0.000001 0.000000 0.091857 -0.091058 -1.127954
    50 3.859828 -0.148935 -1.331282 0.145131 0.071080 -0.602900
    51 1.719425 0.000000 0.000000 -0.000001 0.098232 -0.215107
    52 1.099665 0.000000 0.000000 0.000001 0.066953 -1.966432
    53 0.806014 -0.359835 -1.318334 0.902692 0.272163 -1.272851
    54 1.789783 0.000001 0.000000 0.016660 0.544390 0.649620
    55 1.207003 0.000000 0.000004 0.015883 0.090668 0.974907
    56 2.338454 -1.535743 -6.391511 1.520245 -0.094380 -2.001951
  time 6
    0 1.610982 1.609429 36.500448 1.453959 -0.007981 -0.815742
    1 0.007450 3.343750 -2.980469 1.238765 0.085742 1.559561
    2 4.018331 0.000000 0.000000 0.212912 0.060163 0.171814
    3 3.518565 0.000000 0.000000 0.218752 -0.080548 0.201175
    4 8.942642 0.000000 0.000000 0.180859 0.074145 0.413963
    5 3.307271 0.000000 0.000000 3.050191 -0.053256 0.499160
    6 3.593712 -0.000001 0.000000 0.660489 0.033522 0.308435
    7 1.999997 -3.000001 0.000000 -1.570796 0.000000 -1.326450
    8 2.033350 1.000771 -1.937610 2.900480 1.238764 1.220481
    9 6.028143 0.000002 0.000000 1.450941 1.111197 -0.398649
    10 11.692549 0.000000 0.000002 0.000000 0.000000 -1.217952
    11 11.481698 0.000000 0.000000 -1.124377 0.136598 0.358730
    12 2.676087 -1.712440 0.000000 -1.570796 0.000000 -1.570796
    13 2.033342 1.000767 1.937660 1.726691 -0.938671 2.779811
    14 6.028142 0.000002 0.000000 -1.501405 -0.497763 -0.766061
    15 11.692555 0.000000 0.000005 0.000000 0.000000 -1.727125
    16 11.481671 0.000000 -0.000030 0.245147 -0.008783 0.618629
    17 2.676088 -1.712441 0.000000 1.570797 0.000000 1.570797
    18 -3.890452 0.000004 0.000007 -1.100645 -0.041638 -1.809912
    19 17.848171 0.000000 0.000000 0.000000 0.000000 0.663195
    20 16.525253 0.000000 0.000000 0.267994 0.143817 -1.351821
    21 6.879454 0.000000 0.000000 -0.081333 -0.002951 -0.584373
    22 3.890452 -0.000004 -0.000003 -1.382485 -0.151427 -1.330395
    23 17.848175 0.000000 0.000000 0.000000 0.000000 0.439210
    24 16.525249 0.000000 0.000000 -0.395192 -0.045126 -1.160311
    25 6.879452 0.000000 0.000000 -0.007299 -0.002950 -0.584374
    26 3.859704 -0.142404 -1.191975 -0.511025 -0.162469 -1.254549
    27 1.312563 0.000001 0.000001 -0.416582 0.363238 -0.532793
    28 0.729362 0.000002 0.000000 -0.030467 0.149165 -0.264812
    29 3.942327 0.046774 -0.431443 -0.077697 0.066225 -0.838261
    30 1.539092 0.000002 0.000000 -0.194799 0.216732 -0.913778
    31 1.196319 -0.000001 0.000000 -0.005405 0.048648 -0.221714
    32 3.883689 -0.046767 0.431443 0.294009 -0.005054 -0.492816
    33 1.719575 0.000002 0.000000 -0.067381 0.068570 -1.121333
    34 1.209182 -0.000001 0.000000 -0.003165 0.020606 -0.304754
    35 3.859859 -0.137950 1.332466 0.611194 0.091422 -0.576227
    36 1.719429 0.000003 0.000000 0.000001 -0.148422 -0.395022
    37 1.099668 0.000001 0.000000 0.000000 0.000000 -1.060287
    38 0.806048 -0.348923 1.321258 -1.253304 -0.366663 -0.756723
    39 1.789785 0.000000 0.000002 0.000001 -0.092056 -0.052846
    40 1.206998 0.000000 0.000000 -0.000002 0.101885 -0.080511
    41 3.859672 -0.132566 1.193108 0.441933 -0.039758 -1.502610
    42 1.312560 0.000000 -0.000001 0.000001 -0.060063 -0.756557
    43 0.729361 0.000002 0.000000 0.000001 -0.263859 -0.928787
    44 3.942293 0.050330 0.431043 0.323975 -0.042353 -1.173383
    45 1.539095 0.000003 0.000000 0.000000 -0.056711 -1.177242
    46 1.196323 0.000000 0.000000 0.193939 -0.249771 -0.925754
    47 3.883655 -0.050326 -0.431043 0.254188 -0.050536 -1.089574
    48 1.719575 -0.000005 0.000000 0.018743 -0.055384 -1.084460
    49 1.209182 -0.000001 0.000000 0.091857 -0.091058 -1.127954
    50 3.859828 -0.148935 -1.331282 0.145131 0.071080 -0.602900
    51 1.719425 0.000000 0.000000 -0.000001 0.098232 -0.215107
    52 1.099665 0.000000 0.000000 0.000001 0.066953 -1.966432
    53 0.806014 -0.359835 -1.318334 0.902692 0.272163 -1.272851
    54 1.789783 0.000001 0.000000 0.016660 0.544390 0.649620
    55 1.207003 0.000000 0.000004 0.015883 0.090668 0.974907
    56 2.338454 -1.535743 -6.391511 1.520245 -0.094380 -2.001951
  time 7
    0 1.610982 0.839874 36.519980 1.463675 -0.007875 -0.833562
    1 0.007450 3.343750 -2.980469 1.238765 0.085742 1.559561
    2 4.018331 0.000000 0.000000 0.212912 0.060163 0.213800
    3 3.518565 0.000000 0.000000 0.218752 -0.080548 0.210893
    4 8.942642 0.000000 0.000000 0.180859 0.074145 0.413963
    5 3.307271 0.000000 0.000000 3.050191 -0.053256 0.499160
    6 3.593712 -0.000001 0.000000 0.475744 0.036311 0.316372
    7 1.999997 -3.000001 0.000000 -1.570796 0.000000 -1.326450
    8 2.033350 1.000771 -1.937610 2.900480 1.238764 1.220481
    9 6.028143 0.000002 0.000000 1.616690 1.112294 -0.213704
    10 11.692549 0.000000 0.000002 0.000000 0.000000 -1.291957
    11 11.481698 0.000000 0.000000 -1.124377 0.136598 0.358730
    12 2.676087 -1.712440 0.000000 -1.570796 0.000000 -1.570796
    13 2.033342 1.000767 1.937660 1.726691 -0.938671 2.779811
    14 6.028142 0.000002 0.000000 -1.539932 -0.544611 -0.768963
    15 11.692555 0.000000 0.000005 0.000000 0.000000 -1.743874
    16 11.481671 0.000000 -0.000030 0.245147 -0.008783 0.618629
    17 2.676088 -1.712441 0.000000 1.570797 0.000000 1.570797
    18 -3.890452 0.000004 0.000007 -1.135337 -0.034148 -1.815053
    19 17.848171 0.000000 0.000000 0.000000 0.000000 0.639205
    20 16.525253 0.000000 0.000000 0.293986 0.144268 -1.339687
    21 6.879454 0.000000 0.000000 -0.081333 -0.002951 -0.584373
    22 3.890452 -0.000004 -0.000003 -1.461751 -0.160296 -1.331122
    23 17.848175 0.000000 0.000000 0.000000 0.000000 0.481121
    24 16.525249 0.000000 0.000000 -0.346252 -0.009198 -1.198870
    25 6.879452 0.000000 0.000000 -0.007299 -0.002950 -0.584374
    26 3.859704 -0.142404 -1.191975 -0.511025 -0.162469 -1.254549
    27 1.312563 0.000001 0.000001 -0.416582 0.363238 -0.532793
    28 0.729362 0.000002 0.000000 -0.030467 0.149165 -0.264812
    29 3.942327 0.046774 -0.431443 -0.077697 0.066225 -0.838261
    30 1.539092 0.000002 0.000000 -0.194799 0.216732 -0.913778
    31 1.196319 -0.000001 0.000000 -0.005405 0.048648 -0.221714
    32 3.883689 -0.046767 0.431443 0.294009 -0.005054 -0.492816
    33 1.719575 0.000002 0.000000 -0.067381 0.068570 -1.121333
    34 1.209182 -0.000001 0.000000 -0.003165 0.020606 -0.304754
    35 3.859859 -0.137950 1.332466 0.611194 0.091422 -0.576227
    36 1.719429 0.000003 0.000000 0.000001 -0.148422 -0.395022
    37 1.099668 0.000001 0.000000 0.000000 0.000000 -1.060287
    38 0.806048 -0.348923 1.321258 -1.253304 -0.366663 -0.756723
    39 1.789785 0.000000 0.000002 0.000001 -0.092056 -0.052846
    40 1.206998 0.000000 0.000000 -0.000002 0.101885 -0.080511
    41 3.859672 -0.132566 1.193108 0.441933 -0.039758 -1.502610
    42 1.312560 0.000000 -0.000001 0.000001 -0.060063 -0.756557
    43 0.729361 0.000002 0.000000 0.000001 -0.263859 -0.928787
    44 3.942293 0.050330 0.431043 0.323975 -0.042353 -1.173383
    45 1.539095 0.000003 0.000000 0.000000 -0.056711 -1.177242
    46 1.196323 0.000000 0.000000 0.193939 -0.249771 -0.925754
    47 3.883655 -0.050326 -0.431043 0.254188 -0.050536 -1.089574
    48 1.719575 -0.000005 0.000000 0.018743 -0.055384 -1.084460
    49 1.209182 -0.000001 0.000000 0.091857 -0.091058 -1.127954
    50 3.859828 -0.148935 -1.331282 0.145131 0.071080 -0.602900
    51 1.719425 0.000000 0.000000 -0.000001 0.098232 -0.215107
    52 1.099665 0.000000 0.000000 0.000001 0.066953 -1.966432
    53 0.806014 -0.359835 -1.318334 0.902692 0.272163 -1.272851
    54 1.789783 0.000001 0.000000 0.016660 0.544390 0.649620
    55 1.207003 0.000000 0.000004 0.015883 0.090668 0.974907
    56 2.338454 -1.535743 -6.391511 1.520245 -0.094380 -2.001951
  time 8
    0 1.610982 -0.382819 36.574669 1.473540 -0.007734 -0.853456
    1 0.007450 3.343750 -2.980469 1.238765 0.085742 1.559561
    2 4.018331 0.000000 0.000000 0.212912 0.060163 0.243909
    3 3.518565 0.000000 0.000000 0.218752 -0.080548 0.223070
    4 8.942642 0.000000 0.000000 0.180859 0.074145 0.413963
    5 3.307271 0.000000 0.000000 3.050191 -0.053256 0.499160
    6 3.593712 -0.000001 0.000000 0.268455 0.044255 0.376698
    7 1.999997 -3.000001 0.000000 -1.570796 0.000000 -1.326450
    8 2.033350 1.000771 -1.937610 2.900480 1.238764 1.220481
    9 6.028143 0.000002 0.000000 1.755053 1.120639 -0.063184
    10 11.692549 0.000000 0.000002 0.000000 0.000000 -1.343600
    11 11.481698 0.000000 0.000000 -1.124377 0.136598 0.358730
    12 2.676087 -1.712440 0.000000 -1.570796 0.000000 -1.570796
    13 2.033342 1.000767 1.937660 1.726691 -0.938671 2.779811
    14 6.028142 0.000002 0.000000 -1.581985 -0.581944 -0.764346
    15 11.692555 0.000000 0.000005 0.000000 0.000000 -1.762715
    16 11.481671 0.000000 -0.000030 0.245147 -0.008783 0.618629
    17 2.676088 -1.712441 0.000000 1.570797 0.000000 1.570797
    18 -3.890452 0.000004 0.000007 -1.182895 -0.008126 -1.823532
    19 17.848171 0.000000 0.000000 0.000000 0.000000 0.587609
    20 16.525253 0.000000 0.000000 0.335042 0.144744 -1.314648
    21 6.879454 0.000000 0.000000 -0.081333 -0.002951 -0.584373
    22 3.890452 -0.000004 -0.000003 -1.568410 -0.161054 -1.332757
    23 17.848175 0.000000 0.000000 0.000000 0.000000 0.527630
    24 16.525249 0.000000 0.000000 -0.276625 0.041970 -1.247833
    25 6.879452 0.000000 0.000000 -0.007299 -0.002950 -0.584374
    26 3.859704 -0.142404 -1.191975 -0.511025 -0.162469 -1.254549
    27 1.312563 0.000001 0.000001 -0.416582 0.363238 -0.532793
    28 0.729362 0.000002 0.000000 -0.030467 0.149165 -0.264812
    29 3.942327 0.046774 -0.431443 -0.077697 0.066225 -0.838261
    30 1.539092 0.000002 0.000000 -0.194799 0.216732 -0.913778
    31 1.196319 -0.000001 0.000000 -0.005405 0.048648 -0.221714
    32 3.883689 -0.046767 0.431443 0.294009 -0.005054 -0.492816
    33 1.719575 0.000002 0.000000 -0.067381 0.068570 -1.121333
    34 1.209182 -0.000001 0.000000 -0.003165 0.020606 -0.304754
    35 3.859859 -0.137950 1.332466 0.611194 0.091422 -0.576227
    36 1.719429 0.000003 0.000000 0.000001 -0.148422 -0.395022
    37 1.099668 0.000001 0.000000 0.000000 0.000000 -1.060287
    38 0.806048 -0.348923 1.321258 -1.253304 -0.366663 -0.756723
    39 1.789785 0.000000 0.000002 0.000001 -0.092056 -0.052846
    40 1.206998 0.000000 0.000000 -0.000002 0.101885 -0.080511
    41 3.859672 -0.132566 1.193108 0.441933 -0.039758 -1.502610
    42 1.312560 0.000000 -0.000001 0.000001 -0.060063 -0.756557
    43 0.729361 0.000002 0.000000 0.000001 -0.263859 -0.928787
    44 3.942293 0.050330 0.431043 0.323975 -0.042353 -1.173383
    45 1.539095 0.000003 0.000000 0.000000 -0.056711 -1.177242
    46 1.196323 0.000000 0.000000 0.193939 -0.249771 -0.925754
    47 3.883655 -0.050326 -0.431043 0.254188 -0.050536 -1.089574
    48 1.719575 -0.000005 0.000000 0.018743 -0.055384 -1.084460
    49 1.209182 -0.000001 0.000000 0.091857 -0.091058 -1.127954
    50 3.859828 -0.148935 -1.331282 0.145131 0.071080 -0.602900
    51 1.719425 0.000000 0.000000 -0.000001 0.098232 -0.215107
    52 1.099665 0.000000 0.000000 0.000001 0.066953 -1.966432
    53 0.806014 -0.359835 -1.318334 0.902692 0.272163 -1.272851
    54 1.789783 0.000001 0.000000 0.016660 0.544390 0.649620
    55 1.207003 0.000000 0.000004 0.015883 0.090668 0.974907
    56 2.338454 -1.535743 -6.391511 1.520245 -0.094380 -2.001951
  time 9
    0 1.610982 -1.593794 36.652797 1.483554 -0.007628 -0.874810
    1 0.007450 3.343750 -2.980469 1.238765 0.085742 1.559561
    2 4.018331 0.000000 0.000000 0.212912 0.060163 0.255307
    3 3.518565 0.000000 0.000000 0.218752 -0.080548 0.237298
    4 8.942642 0.000000 0.000000 0.180859 0.074145 0.413963
    5 3.307271 0.000000 0.000000 3.050191 -0.053256 0.499160
    6 3.593712 -0.000001 0.000000 0.094336 0.061975 0.481098
    7 1.999997 -3.000001 0.000000 -1.570796 0.000000 -1.326450
    8 2.033350 1.000771 -1.937610 2.900480 1.238764 1.220481
    9 6.028143 0.000002 0.000000 1.830028 1.144815 0.016379
    10 11.692549 0.000000 0.000002 0.000000 0.000000 -1.365624
    11 11.481698 0.000000 0.000000 -1.124377 0.136598 0.358730
    12 2.676087 -1.712440 0.000000 -1.570796 0.000000 -1.570796
    13 2.033342 1.000767 1.937660 1.726691 -0.938671 2.779811
    14 6.028142 0.000002 0.000000 -1.625832 -0.603251 -0.750360
    15 11.692555 0.000000 0.000005 0.000000 0.000000 -1.782798
    16 11.481671 0.000000 -0.000030 0.245147 -0.008783 0.618629
    17 2.676088 -1.712441 0.000000 1.570797 0.000000 1.570797
    18 -3.890452 0.000004 0.000007 -1.229786 0.024851 -1.831199
    19 17.848171 0.000000 0.000000 0.000000 0.000000 0.518021
    20 16.525253 0.000000 0.000000 0.374209 0.144994 -1.280777
    21 6.879454 0.000000 0.000000 -0.081333 -0.002951 -0.584373
    22 3.890452 -0.000004 -0.000003 -1.664377 -0.150905 -1.334846
    23 17.848175 0.000000 0.000000 0.000000 0.000000 0.554705
    24 16.525249 0.000000 0.000000 -0.216568 0.085805 -1.286143
    25 6.879452 0.000000 0.000000 -0.007299 -0.002950 -0.584374
    26 3.859704 -0.142404 -1.191975 -0.511025 -0.162469 -1.254549
    27 1.312563 0.000001 0.000001 -0.416582 0.363238 -0.532793
    28 0.729362 0.000002 0.000000 -0.030467 0.149165 -0.264812
    29 3.942327 0.046774 -0.431443 -0.077697 0.066225 -0.838261
    30 1.539092 0.000002 0.000000 -0.194799 0.216732 -0.913778
    31 1.196319 -0.000001 0.000000 -0.005405 0.048648 -0.221714
    32 3.883689 -0.046767 0.431443 0.294009 -0.005054 -0.492816
    33 1.719575 0.000002 0.000000 -0.067381 0.068570 -1.121333
    34 1.209182 -0.000001 0.000000 -0.003165 0.020606 -0.304754
    35 3.859859 -0.137950 1.332466 0.611194 0.091422 -0.576227
    36 1.719429 0.000003 0.000000 0.000001 -0.148422 -0.395022
    37 1.099668 0.000001 0.000000 0.000000 0.000000 -1.060287
    38 0.806048 -0.348923 1.321258 -1.253304 -0.366663 -0.756723
    39 1.789785 0.000000 0.000002 0.000001 -0.092056 -0.052846
    40 1.206998 0.000000 0.000000 -0.000002 0.101885 -0.080511
    41 3.859672 -0.132566 1.193108 0.441933 -0.039758 -1.502610
    42 1.312560 0.000000 -0.000001 0.000001 -0.060063 -0.756557
    43 0.729361 0.000002 0.000000 0.000001 -0.263859 -0.928787
    44 3.942293 0.050330 0.431043 0.323975 -0.042353 -1.173383
    45 1.539095 0.000003 0.000000 0.000000 -0.056711 -1.177242
    46 1.196323 0.000000 0.000000 0.193939 -0.249771 -0.925754
    47 3.883655 -0.050326 -0.431043 0.254188 -0.050536 -1.089574
    48 1.719575 -0.000005 0.000000 0.018743 -0.055384 -1.084460
    49 1.209182 -0.000001 0.000000 0.091857 -0.091058 -1.127954
    50 3.859828 -0.148935 -1.331282 0.145131 0.071080 -0.602900
    51 1.719425 0.000000 0.000000 -0.000001 0.098232 -0.215107
    52 1.099665 0.000000 0.000000 0.000001 0.066953 -1.966432
    53 0.806014 -0.359835 -1.318334 0.902692 0.272163 -1.272851
    54 1.789783 0.000001 0.000000 0.016660 0.544390 0.649620
    55 1.207003 0.000000 0.000004 0.015883 0.090668 0.974907
    56 2.338454 -1.535743 -6.391511 1.520245 -0.094380 -2.001951
  time 10
    0 1.610982 -2.312566 36.742643 1.493718 -0.007451 -0.897392
    1 0.007450 3.343750 -2.980469 1.238765 0.085742 1.559561
    2 4.018331 0.000000 0.000000 0.212912 0.060163 0.247717
    3 3.518565 0.000000 0.000000 0.218752 -0.080548 0.253195
    4 8.942642 0.000000 0.000000 0.180859 0.074145 0.413963
    5 3.307271 0.000000 0.000000 3.050191 -0.053256 0.499160
    6 3.593712 -0.000001 0.000000 0.036866 0.087779 0.605720
    7 1.999997 -3.000001 0.000000 -1.570796 0.000000 -1.326450
    8 2.033350 1.000771 -1.937610 2.900480 1.238764 1.220481
    9 6.028143 0.000002 0.000000 1.849753 1.184775 0.032062
    10 11.692549 0.000000 0.000002 0.000000 0.000000 -1.363852
    11 11.481698 0.000000 0.000000 -1.124377 0.136598 0.358730
    12 2.676087 -1.712440 0.000000 -1.570796 0.000000 -1.570796
    13 2.033342 1.000767 1.937660 1.726691 -0.938671 2.779811
    14 6.028142 0.000002 0.000000 -1.669936 -0.607804 -0.727865
    15 11.692555 0.000000 0.000005 0.000000 0.000000 -1.803113
    16 11.481671 0.000000 -0.000030 0.245147 -0.008783 0.618629
    17 2.676088 -1.712441 0.000000 1.570797 0.000000 1.570797
    18 -3.890452 0.000004 0.000007 -1.264574 0.045279 -1.833905
    19 17.848171 0.000000 0.000000 0.000000 0.000000 0.457716
    20 16.525253 0.000000 0.000000 0.396207 0.145044 -1.249993
    21 6.879454 0.000000 0.000000 -0.081333 -0.002951 -0.584373
    22 3.890452 -0.000004 -0.000003 -1.727206 -0.137768 -1.336027
    23 17.848175 0.000000 0.000000 0.000000 0.000000 0.555669
    24 16.525249 0.000000 0.000000 -0.184333 0.109090 -1.302247
    25 6.879452 0.000000 0.000000 -0.007299 -0.002950 -0.584374
    26 3.859704 -0.142404 -1.191975 -0.511025 -0.162469 -1.254549
    27 1.312563 0.000001 0.000001 -0.416582 0.363238 -0.532793
    28 0.729362 0.000002 0.000000 -0.030467 0.149165 -0.264812
    29 3.942327 0.046774 -0.431443 -0.077697 0.066225 -0.838261
    30 1.539092 0.000002 0.000000 -0.194799 0.216732 -0.913778
    31 1.196319 -0.000001 0.000000 -0.005405 0.048648 -0.221714
    32 3.883689 -0.046767 0.431443 0.294009 -0.005054 -0.492816
    33 1.719575 0.000002 0.000000 -0.067381 0.068570 -1.121333
    34 1.209182 -0.000001 0.000000 -0.003165 0.020606 -0.304754
    35 3.859859 -0.137950 1.332466 0.611194 0.091422 -0.576227
    36 1.719429 0.000003 0.000000 0.000001 -0.148422 -0.395022
    37 1.099668 0.000001 0.000000 0.000000 0.000000 -1.060287
    38 0.806048 -0.348923 1.321258 -1.253304 -0.366663 -0.756723
    39 1.789785 0.000000 0.000002 0.000001 -0.092056 -0.052846
    40 1.206998 0.000000 0.000000 -0.000002 0.101885 -0.080511
    41 3.859672 -0.132566 1.193108 0.441933 -0.039758 -1.502610
    42 1.312560 0.000000 -0.000001 0.000001 -0.060063 -0.756557
    43 0.729361 0.000002 0.000000 0.000001 -0.263859 -0.928787
    44 3.942293 0.050330 0.431043 0.323975 -0.042353 -1.173383
    45 1.539095 0.000003 0.000000 0.000000 -0.056711 -1.177242
    46 1.196323 0.000000 0.000000 0.193939 -0.249771 -0.925754
    47 3.883655 -0.050326 -0.431043 0.254188 -0.050536 -1.089574
    48 1.719575 -0.000005 0.000000 0.018743 -0.055384 -1.084460
    49 1.209182 -0.000001 0.000000 0.091857 -0.091058 -1.127954
    50 3.859828 -0.148935 -1.331282 0.145131 0.071080 -0.602900
    51 1.719425 0.000000 0.000000 -0.000001 0.098232 -0.215107
    52 1.099665 0.000000 0.000000 0.000001 0.066953 -1.966432
    53 0.806014 -0.359835 -1.318334 0.902692 0.272163 -1.272851
    54 1.789783 0.000001 0.000000 0.016660 0.544390 0.649620
    55 1.207003 0.000000 0.000004 0.015883 0.090668 0.974907
    56 2.338454 -1.535743 -6.391511 1.520245 -0.094380 -2.001951
  time 11
    0 1.610982 -2.312566 36.840302 1.503932 -0.007310 -0.920973
    1 0.007450 3.343750 -2.980469 1.238765 0.085742 1.559561
    2 4.018331 0.000000 0.000000 0.212912 0.060163 0.226232
    3 3.518565 0.000000 0.000000 0.218752 -0.080548 0.270513
    4 8.942642 0.000000 0.000000 0.180859 0.074145 0.413963
    5 3.307271 0.000000 0.000000 3.050191 -0.053256 0.499160
    6 3.593712 -0.000001 0.000000 0.100064 0.096118 0.692347
    7 1.999997 -3.000001 0.000000 -1.570796 0.000000 -1.326450
    8 2.033350 1.000771 -1.937610 2.900480 1.238764 1.220481
    9 6.028143 0.000002 0.000000 1.847551 1.233604 0.017431
    10 11.692549 0.000000 0.000002 0.000000 0.000000 -1.348663
    11 11.481698 0.000000 0.000000 -1.124377 0.136598 0.358730
    12 2.676087 -1.712440 0.000000 -1.570796 0.000000 -1.570796
    13 2.033342 1.000767 1.937660 1.726691 -0.938671 2.779811
    14 6.028142 0.000002 0.000000 -1.713207 -0.599882 -0.700223
    15 11.692555 0.000000 0.000005 0.000000 0.000000 -1.822962
    16 11.481671 0.000000 -0.000030 0.245147 -0.008783 0.618629
    17 2.676088 -1.712441 0.000000 1.570797 0.000000 1.570797
    18 -3.890452 0.000004 0.000007 -1.283254 0.035843 -1.829576
    19 17.848171 0.000000 0.000000 0.000000 0.000000 0.437094
    20 16.525253 0.000000 0.000000 0.394390 0.145044 -1.236701
    21 6.879454 0.000000 0.000000 -0.081333 -0.002951 -0.584373
    22 3.890452 -0.000004 -0.000003 -1.752480 -0.129232 -1.333030
    23 17.848175 0.000000 0.000000 0.000000 0.000000 0.534158
    24 16.525249 0.000000 0.000000 -0.184161 0.109205 -1.293694
    25 6.879452 0.000000 0.000000 -0.007299 -0.002950 -0.584374
    26 3.859704 -0.142404 -1.191975 -0.511025 -0.162469 -1.254549
    27 1.312563 0.000001 0.000001 -0.416582 0.363238 -0.532793
    28 0.729362 0.000002 0.000000 -0.030467 0.149165 -0.264812
    29 3.942327 0.046774 -0.431443 -0.077697 0.066225 -0.838261
    30 1.539092 0.000002 0.000000 -0.194799 0.216732 -0.913778
    31 1.196319 -0.000001 0.000000 -0.005405 0.048648 -0.221714
    32 3.883689 -0.046767 0.431443 0.294009 -0.005054 -0.492816
    33 1.719575 0.000002 0.000000 -0.067381 0.068570 -1.121333
    34 1.209182 -0.000001 0.000000 -0.003165 0.020606 -0.304754
    35 3.859859 -0.137950 1.332466 0.611194 0.091422 -0.576227
    36 1.719429 0.000003 0.000000 0.000001 -0.148422 -0.395022
    37 1.099668 0.000001 0.000000 0.000000 0.000000 -1.060287
    38 0.806048 -0.348923 1.321258 -1.253304 -0.366663 -0.756723
    39 1.789785 0.000000 0.000002 0.000001 -0.092056 -0.052846
    40 1.206998 0.000000 0.000000 -0.000002 0.101885 -0.080511
    41 3.859672 -0.132566 1.193108 0.441933 -0.039758 -1.502610
    42 1.312560 0.000000 -0.000001 0.000001 -0.060063 -0.756557
    43 0.729361 0.000002 0.000000 0.000001 -0.263859 -0.928787
    44 3.942293 0.050330 0.431043 0.323975 -0.042353 -1.173383
    45 1.539095 0.000003 0.000000 0.000000 -0.056711 -1.177242
    46 1.196323 0.000000 0.000000 0.193939 -0.249771 -0.925754
    47 3.883655 -0.050326 -0.431043 0.254188 -0.050536 -1.089574
    48 1.719575 -0.000005 0.000000 0.018743 -0.055384 -1.084460
    49 1.209182 -0.000001 0.000000 0.091857 -0.091058 -1.127954
    50 3.859828 -0.148935 -1.331282 0.145131 0.071080 -0.602900
    51 1.719425 0.000000 0.000000 -0.000001 0.098232 -0.215107
    52 1.099665 0.000000 0.000000 0.000001 0.066953 -1.966432
    53 0.806014 -0.359835 -1.318334 0.902692 0.272163 -1.272851
    54 1.789783 0.000001 0.000000 0.016660 0.544390 0.649620
    55 1.207003 0.000000 0.000004 0.015883 0.090668 0.974907
    56 2.338454 -1.535743 -6.391511 1.520245 -0.094380 -2.001951
  time 12
    0 1.610982 -1.847708 36.934055 1.514096 -0.007133 -0.945169
    1 0.007450 3.343750 -2.980469 1.238765 0.085742 1.559561
    2 4.018331 0.000000 0.000000 0.212912 0.060163 0.192492
    3 3.518565 0.000000 0.000000 0.218752 -0.080548 0.288980
    4 8.942642 0.000000 0.000000 0.180859 0.074145 0.413963
    5 3.307271 0.000000 0.000000 3.050191 -0.053256 0.499160
    6 3.593712 -0.000001 0.000000 0.198743 0.096146 0.750816
    7 1.999997 -3.000001 0.000000 -1.570796 0.000000 -1.326450
    8 2.033350 1.000771 -1.937610 2.900480 1.238764 1.220481
    9 6.028143 0.000002 0.000000 1.814804 1.289587 -0.035739
    10 11.692549 0.000000 0.000002 0.000000 0.000000 -1.321407
    11 11.481698 0.000000 0.000000 -1.124377 0.136598 0.358730
    12 2.676087 -1.712440 0.000000 -1.570796 0.000000 -1.570796
    13 2.033342 1.000767 1.937660 1.726691 -0.938671 2.779811
    14 6.028142 0.000002 0.000000 -1.753977 -0.580760 -0.669614
    15 11.692555 0.000000 0.000005 0.000000 0.000000 -1.841261
    16 11.481671 0.000000 -0.000030 0.245147 -0.008783 0.618629
    17 2.676088 -1.712441 0.000000 1.570797 0.000000 1.570797
    18 -3.890452 0.000004 0.000007 -1.292117 0.005249 -1.820195
    19 17.848171 0.000000 0.000000 0.000000 0.000000 0.447200
    20 16.525253 0.000000 0.000000 0.377341 0.144994 -1.237301
    21 6.879454 0.000000 0.000000 -0.081333 -0.002951 -0.584373
    22 3.890452 -0.000004 -0.000003 -1.754689 -0.123588 -1.326398
    23 17.848175 0.000000 0.000000 0.000000 0.000000 0.498998
    24 16.525249 0.000000 0.000000 -0.203960 0.094953 -1.269688
    25 6.879452 0.000000 0.000000 -0.007299 -0.002950 -0.584374
    26 3.859704 -0.142404 -1.191975 -0.511025 -0.162469 -1.254549
    27 1.312563 0.000001 0.000001 -0.416582 0.363238 -0.532793
    28 0.729362 0.000002 0.000000 -0.030467 0.149165 -0.264812
    29 3.942327 0.046774 -0.431443 -0.077697 0.066225 -0.838261
    30 1.539092 0.000002 0.000000 -0.194799 0.216732 -0.913778
    31 1.196319 -0.000001 0.000000 -0.005405 0.048648 -0.221714
    32 3.883689 -0.046767 0.431443 0.294009 -0.005054 -0.492816
    33 1.719575 0.000002 0.000000 -0.067381 0.068570 -1.121333
    34 1.209182 -0.000001 0.000000 -0.003165 0.020606 -0.304754
    35 3.859859 -0.137950 1.332466 0.611194 0.091422 -0.576227
    36 1.719429 0.000003 0.000000 0.000001 -0.148422 -0.395022
    37 1.099668 0.000001 0.000000 0.000000 0.000000 -1.060287
    38 0.806048 -0.348923 1.321258 -1.253304 -0.366663 -0.756723
    39 1.789785 0.000000 0.000002 0.000001 -0.092056 -0.052846
    40 1.206998 0.000000 0.000000 -0.000002 0.101885 -0.080511
    41 3.859672 -0.132566 1.193108 0.441933 -0.039758 -1.502610
    42 1.312560 0.000000 -0.000001 0.000001 -0.060063 -0.756557
    43 0.729361 0.000002 0.000000 0.000001 -0.263859 -0.928787
    44 3.942293 0.050330 0.431043 0.323975 -0.042353 -1.173383
    45 1.539095 0.000003 0.000000 0.000000 -0.056711 -1.177242
    46 1.196323 0.000000 0.000000 0.193939 -0.249771 -0.925754
    47 3.883655 -0.050326 -0.431043 0.254188 -0.050536 -1.089574
    48 1.719575 -0.000005 0.000000 0.018743 -0.055384 -1.084460
    49 1.209182 -0.000001 0.000000 0.091857 -0.091058 -1.127954
    50 3.859828 -0.148935 -1.331282 0.145131 0.071080 -0.602900
    51 1.719425 0.000000 0.000000 -0.000001 0.098232 -0.215107
    52 1.099665 0.000000 0.000000 0.000001 0.066953 -1.966432
    53 0.806014 -0.359835 -1.318334 0.902692 0.272163 -1.272851
    54 1.789783 0.000001 0.000000 0.016660 0.544390 0.649620
    55 1.207003 0.000000 0.000004 0.015883 0.090668 0.974907
    56 2.338454 -1.535743 -6.391511 1.520245 -0.094380 -2.001951
  time 13
    0 1.610982 -1.183625 37.012182 1.524161 -0.006992 -0.969749
    1 0.007450 3.343750 -2.980469 1.238765 0.085742 1.559561
    2 4.018331 0.000000 0.000000 0.212912 0.060163 0.147883
    3 3.518565 0.000000 0.000000 0.218752 -0.080548 0.308350
    4 8.942642 0.000000 0.000000 0.180859 0.074145 0.413963
    5 3.307271 0.000000 0.000000 3.050191 -0.053256 0.499160
    6 3.593712 -0.000001 0.000000 0.336181 0.086202 0.796282
    7 1.999997 -3.000001 0.000000 -1.570796 0.000000 -1.326450
    8 2.033350 1.000771 -1.937610 2.900480 1.238764 1.220481
    9 6.028143 0.000002 0.000000 1.728721 1.350337 -0.150206
    10 11.692549 0.000000 0.000002 0.000000 0.000000 -1.282759
    11 11.481698 0.000000 0.000000 -1.124377 0.136598 0.358730
    12 2.676087 -1.712440 0.000000 -1.570796 0.000000 -1.570796
    13 2.033342 1.000767 1.937660 1.726691 -0.938671 2.779811
    14 6.028142 0.000002 0.000000 -1.790004 -0.551759 -0.638608
    15 11.692555 0.000000 0.000005 0.000000 0.000000 -1.856846
    16 11.481671 0.000000 -0.000030 0.245147 -0.008783 0.618629
    17 2.676088 -1.712441 0.000000 1.570797 0.000000 1.570797
    18 -3.890452 0.000004 0.000007 -1.297073 -0.033370 -1.807927
    19 17.848171 0.000000 0.000000 0.000000 0.000000 0.469383
    20 16.525253 0.000000 0.000000 0.353645 0.144894 -1.243475
    21 6.879454 0.000000 0.000000 -0.081333 -0.002951 -0.584373
    22 3.890452 -0.000004 -0.000003 -1.745410 -0.117281 -1.318132
    23 17.848175 0.000000 0.000000 0.000000 0.000000 0.455974
    24 16.525249 0.000000 0.000000 -0.233588 0.073438 -1.238180
    25 6.879452 0.000000 0.000000 -0.007299 -0.002950 -0.584374
    26 3.859704 -0.142404 -1.191975 -0.511025 -0.162469 -1.254549
    27 1.312563 0.000001 0.000001 -0.416582 0.363238 -0.532793
    28 0.729362 0.000002 0.000000 -0.030467 0.149165 -0.264812
    29 3.942327 0.046774 -0.431443 -0.077697 0.066225 -0.838261
    30 1.539092 0.000002 0.000000 -0.194799 0.216732 -0.913778
    31 1.196319 -0.000001 0.000000 -0.005405 0.048648 -0.221714
    32 3.883689 -0.046767 0.431443 0.294009 -0.005054 -0.492816
    33 1.719575 0.000002 0.000000 -0.067381 0.068570 -1.121333
    34 1.209182 -0.000001 0.000000 -0.003165 0.020606 -0.304754
    35 3.859859 -0.137950 1.332466 0.611194 0.091422 -0.576227
    36 1.719429 0.000003 0.000000 0.000001 -0.148422 -0.395022
    37 1.099668 0.000001 0.000000 0.000000 0.000000 -1.060287
    38 0.806048 -0.348923 1.321258 -1.253304 -0.366663 -0.756723
    39 1.789785 0.000000 0.000002 0.000001 -0.092056 -0.052846
    40 1.206998 0.000000 0.000000 -0.000002 0.101885 -0.080511
    41 3.859672 -0.132566 1.193108 0.441933 -0.039758 -1.502610
    42 1.312560 0.000000 -0.000001 0.000001 -0.060063 -0.756557
    43 0.729361 0.000002 0.000000 0.000001 -0.263859 -0.928787
    44 3.942293 0.050330 0.431043 0.323975 -0.042353 -1.173383
    45 1.539095 0.000003 0.000000 0.000000 -0.056711 -1.177242
    46 1.196323 0.000000 0.000000 0.193939 -0.249771 -0.925754
    47 3.883655 -0.050326 -0.431043 0.254188 -0.050536 -1.089574
    48 1.719575 -0.000005 0.000000 0.018743 -0.055384 -1.084460
    49 1.209182 -0.000001 0.000000 0.091857 -0.091058 -1.127954
    50 3.859828 -0.148935 -1.331282 0.145131 0.071080 -0.602900
    51 1.719425 0.000000 0.000000 -0.000001 0.098232 -0.215107
    52 1.099665 0.000000 0.000000 0.000001 0.066953 -1.966432
    53 0.806014 -0.359835 -1.318334 0.902692 0.272163 -1.272851
    54 1.789783 0.000001 0.000000 0.016660 0.544390 0.649620
    55 1.207003 0.000000 0.000004 0.015883 0.090668 0.974907
    56 2.338454 -1.535743 -6.391511 1.520245 -0.094380 -2.001951
  time 14
    0 1.610982 -0.589857 37.062965 1.533926 -0.006816 -0.994175
    1 0.007450 3.343750 -2.980469 1.238765 0.085742 1.559561
    2 4.018331 0.000000 0.000000 0.212912 0.060163 0.093893
    3 3.518565 0.000000 0.000000 0.218752 -0.080548 0.328080
    4 8.942642 0.000000 0.000000 0.180859 0.074145 0.413963
    5 3.307271 0.000000 0.000000 3.050191 -0.053256 0.499160
    6 3.593712 -0.000001 0.000000 0.515382 0.063186 0.837401
    7 1.999997 -3.000001 0.000000 -1.570796 0.000000 -1.326450
    8 2.033350 1.000771 -1.937610 2.900480 1.238764 1.220481
    9 6.028143 0.000002 0.000000 1.531278 1.410039 -0.383635
    10 11.692549 0.000000 0.000002 0.000000 0.000000 -1.233394
    11 11.481698 0.000000 0.000000 -1.124377 0.136598 0.358730
    12 2.676087 -1.712440 0.000000 -1.570796 0.000000 -1.570796
    13 2.033342 1.000767 1.937660 1.726691 -0.938671 2.779811
    14 6.028142 0.000002 0.000000 -1.818530 -0.514745 -0.610175
    15 11.692555 0.000000 0.000005 0.000000 0.000000 -1.867547
    16 11.481671 0.000000 -0.000030 0.245147 -0.008783 0.618629
    17 2.676088 -1.712441 0.000000 1.570797 0.000000 1.570797
    18 -3.890452 0.000004 0.000007 -1.303745 -0.068924 -1.796111
    19 17.848171 0.000000 0.000000 0.000000 0.000000 0.489019
    20 16.525253 0.000000 0.000000 0.332196 0.144719 -1.248921
    21 6.879454 0.000000 0.000000 -0.081333 -0.002951 -0.584373
    22 3.890452 -0.000004 -0.000003 -1.737722 -0.109740 -1.310229
    23 17.848175 0.000000 0.000000 0.000000 0.000000 0.415325
    24 16.525249 0.000000 0.000000 -0.261754 0.052888 -1.209273
    25 6.879452 0.000000 0.000000 -0.007299 -0.002950 -0.584374
    26 3.859704 -0.142404 -1.191975 -0.511025 -0.162469 -1.254549
    27 1.312563 0.000001 0.000001 -0.416582 0.363238 -0.532793
    28 0.729362 0.000002 0.000000 -0.030467 0.149165 -0.264812
    29 3.942327 0.046774 -0.431443 -0.077697 0.066225 -0.838261
    30 1.539092 0.000002 0.000000 -0.194799 0.216732 -0.913778
    31 1.196319 -0.000001 0.000000 -0.005405 0.048648 -0.221714
    32 3.883689 -0.046767 0.431443 0.294009 -0.005054 -0.492816
    33 1.719575 0.000002 0.000000 -0.067381 0.068570 -1.121333
    34 1.209182 -0.000001 0.000000 -0.003165 0.020606 -0.304754
    35 3.859859 -0.137950 1.332466 0.611194 0.091422 -0.576227
    36 1.719429 0.000003 0.000000 0.000001 -0.148422 -0.395022
    37 1.099668 0.000001 0.000000 0.000000 0.000000 -1.060287
    38 0.806048 -0.348923 1.321258 -1.253304 -0.366663 -0.756723
    39 1.789785 0.000000 0.000002 0.000001 -0.092056 -0.052846
    40 1.206998 0.000000 0.000000 -0.000002 0.101885 -0.080511
    41 3.859672 -0.132566 1.193108 0.441933 -0.039758 -1.502610
    42 1.312560 0.000000 -0.000001 0.000001 -0.060063 -0.756557
    43 0.729361 0.000002 0.000000 0.000001 -0.263859 -0.928787
    44 3.942293 0.050330 0.431043 0.323975 -0.042353 -1.173383
    45 1.539095 0.000003 0.000000 0.000000 -0.056711 -1.177242
    46 1.196323 0.000000 0.000000 0.193939 -0.249771 -0.925754
    47 3.883655 -0.050326 -0.431043 0.254188 -0.050536 -1.089574
    48 1.719575 -0.000005 0.000000 0.018743 -0.055384 -1.084460
    49 1.209182 -0.000001 0.000000 0.091857 -0.091058 -1.127954
    50 3.859828 -0.148935 -1.331282 0.145131 0.071080 -0.602900
    51 1.719425 0.000000 0.000000 -0.000001 0.098232 -0.215107
    52 1.099665 0.000000 0.000000 0.000001 0.066953 -1.966432
    53 0.806014 -0.359835 -1.318334 0.902692 0.272163 -1.272851
    54 1.789783 0.000001 0.000000 0.016660 0.544390 0.649620
    55 1.207003 0.000000 0.000004 0.015883 0.090668 0.974907
    56 2.338454 -1.535743 -6.391511 1.520245 -0.094380 -2.001951
  time 15
    0 1.610982 -0.335943 37.086403 1.541799 -0.006674 -1.014760
    1 0.007450 3.343750 -2.980469 1.238765 0.085742 1.559561
    2 4.018331 0.000000 0.000000 0.212912 0.060163 0.039323
    3 3.518565 0.000000 0.000000 0.218752 -0.080548 0.344879
    4 8.942642 0.000000 0.000000 0.180859 0.074145 0.413963
    5 3.307271 0.000000 0.000000 3.050191 -0.053256 0.499160
    6 3.593712 -0.000001 0.000000 0.712970 0.026480 0.875437
    7 1.999997 -3.000001 0.000000 -1.570796 0.000000 -1.326450
    8 2.033350 1.000771 -1.937610 2.900480 1.238764 1.220481
    9 6.028143 0.000002 0.000000 1.158989 1.450523 -0.793691
    10 11.692549 0.000000 0.000002 0.000000 0.000000 -1.181076
    11 11.481698 0.000000 0.000000 -1.124377 0.136598 0.358730
    12 2.676087 -1.712440 0.000000 -1.570796 0.000000 -1.570796
    13 2.033342 1.000767 1.937660 1.726691 -0.938671 2.779811
    14 6.028142 0.000002 0.000000 -1.833082 -0.478231 -0.591638
    15 11.692555 0.000000 0.000005 0.000000 0.000000 -1.869175
    16 11.481671 0.000000 -0.000030 0.245147 -0.008783 0.618629
    17 2.676088 -1.712441 0.000000 1.570797 0.000000 1.570797
    18 -3.890452 0.000004 0.000007 -1.315372 -0.091249 -1.789797
    19 17.848171 0.000000 0.000000 0.000000 0.000000 0.498138
    20 16.525253 0.000000 0.000000 0.322464 0.144619 -1.250550
    21 6.879454 0.000000 0.000000 -0.081333 -0.002951 -0.584373
    22 3.890452 -0.000004 -0.000003 -1.743820 -0.105140 -1.305506
    23 17.848175 0.000000 0.000000 0.000000 0.000000 0.396113
    24 16.525249 0.000000 0.000000 -0.274848 0.043280 -1.196970
    25 6.879452 0.000000 0.000000 -0.007299 -0.002950 -0.584374
    26 3.859704 -0.142404 -1.191975 -0.511025 -0.162469 -1.254549
    27 1.312563 0.000001 0.000001 -0.416582 0.363238 -0.532793
    28 0.729362 0.000002 0.000000 -0.030467 0.149165 -0.264812
    29 3.942327 0.046774 -0.431443 -0.077697 0.066225 -0.838261
    30 1.539092 0.000002 0.000000 -0.194799 0.216732 -0.913778
    31 1.196319 -0.000001 0.000000 -0.005405 0.048648 -0.221714
    32 3.883689 -0.046767 0.431443 0.294009 -0.005054 -0.492816
    33 1.719575 0.000002 0.000000 -0.067381 0.068570 -1.121333
    34 1.209182 -0.000001 0.000000 -0.003165 0.020606 -0.304754
    35 3.859859 -0.137950 1.332466 0.611194 0.091422 -0.576227
    36 1.719429 0.000003 0.000000 0.000001 -0.148422 -0.395022
    37 1.099668 0.000001 0.000000 0.000000 0.000000 -1.060287
    38 0.806048 -0.348923 1.321258 -1.253304 -0.366663 -0.756723
    39 1.789785 0.000000 0.000002 0.000001 -0.092056 -0.052846
    40 1.206998 0.000000 0.000000 -0.000002 0.101885 -0.080511
    41 3.859672 -0.132566 1.193108 0.441933 -0.039758 -1.502610
    42 1.312560 0.000000 -0.000001 0.000001 -0.060063 -0.756557
    43 0.729361 0.000002 0.000000 0.000001 -0.263859 -0.928787
    44 3.942293 0.050330 0.431043 0.323975 -0.042353 -1.173383
    45 1.539095 0.000003 0.000000 0.000000 -0.056711 -1.177242
    46 1.196323 0.000000 0.000000 0.193939 -0.249771 -0.925754
    47 3.883655 -0.050326 -0.431043 0.254188 -0.050536 -1.089574
    48 1.719575 -0.000005 0.000000 0.018743 -0.055384 -1.084460
    49 1.209182 -0.000001 0.000000 0.091857 -0.091058 -1.127954
    50 3.859828 -0.148935 -1.331282 0.145131 0.071080 -0.602900
    51 1.719425 0.000000 0.000000 -0.000001 0.098232 -0.215107
    52 1.099665 0.000000 0.000000 0.000001 0.066953 -1.966432
    53 0.806014 -0.359835 -1.318334 0.902692 0.272163 -1.272851
    54 1.789783 0.000001 0.000000 0.016660 0.544390 0.649620
    55 1.207003 0.000000 0.000004 0.015883 0.090668 0.974907
    56 2.338454 -1.535743 -6.391511 1.520245 -0.094380 -2.001951
end
