// Created by Crowbar 0.24.0.0
version 1
nodes
  0 "ValveBiped.Bip01_Pelvis" -1
  1 "ValveBiped.Bip01_Spine" 0
  2 "ValveBiped.Bip01_Spine1" 1
  3 "ValveBiped.Bip01_Spine2" 2
  4 "ValveBiped.Bip01_Spine4" 3
  5 "ValveBiped.Bip01_Neck1" 4
  6 "ValveBiped.Bip01_Head1" 5
  7 "ValveBiped.forward" 6
  8 "ValveBiped.Bip01_R_Clavicle" 4
  9 "ValveBiped.Bip01_R_UpperArm" 8
  10 "ValveBiped.Bip01_R_Forearm" 9
  11 "ValveBiped.Bip01_R_Hand" 10
  12 "ValveBiped.Anim_Attachment_RH" 11
  13 "ValveBiped.Bip01_L_Clavicle" 4
  14 "ValveBiped.Bip01_L_UpperArm" 13
  15 "ValveBiped.Bip01_L_Forearm" 14
  16 "ValveBiped.Bip01_L_Hand" 15
  17 "ValveBiped.Anim_Attachment_LH" 16
  18 "ValveBiped.Bip01_R_Thigh" 0
  19 "ValveBiped.Bip01_R_Calf" 18
  20 "ValveBiped.Bip01_R_Foot" 19
  21 "ValveBiped.Bip01_R_Toe0" 20
  22 "ValveBiped.Bip01_L_Thigh" 0
  23 "ValveBiped.Bip01_L_Calf" 22
  24 "ValveBiped.Bip01_L_Foot" 23
  25 "ValveBiped.Bip01_L_Toe0" 24
  26 "ValveBiped.Bip01_L_Finger4" 16
  27 "ValveBiped.Bip01_L_Finger41" 26
  28 "ValveBiped.Bip01_L_Finger42" 27
  29 "ValveBiped.Bip01_L_Finger3" 16
  30 "ValveBiped.Bip01_L_Finger31" 29
  31 "ValveBiped.Bip01_L_Finger32" 30
  32 "ValveBiped.Bip01_L_Finger2" 16
  33 "ValveBiped.Bip01_L_Finger21" 32
  34 "ValveBiped.Bip01_L_Finger22" 33
  35 "ValveBiped.Bip01_L_Finger1" 16
  36 "ValveBiped.Bip01_L_Finger11" 35
  37 "ValveBiped.Bip01_L_Finger12" 36
  38 "ValveBiped.Bip01_L_Finger0" 16
  39 "ValveBiped.Bip01_L_Finger01" 38
  40 "ValveBiped.Bip01_L_Finger02" 39
  41 "ValveBiped.Bip01_R_Finger4" 11
  42 "ValveBiped.Bip01_R_Finger41" 41
  43 "ValveBiped.Bip01_R_Finger42" 42
  44 "ValveBiped.Bip01_R_Finger3" 11
  45 "ValveBiped.Bip01_R_Finger31" 44
  46 "ValveBiped.Bip01_R_Finger32" 45
  47 "ValveBiped.Bip01_R_Finger2" 11
  48 "ValveBiped.Bip01_R_Finger21" 47
  49 "ValveBiped.Bip01_R_Finger22" 48
  50 "ValveBiped.Bip01_R_Finger1" 11
  51 "ValveBiped.Bip01_R_Finger11" 50
  52 "ValveBiped.Bip01_R_Finger12" 51
  53 "ValveBiped.Bip01_R_Finger0" 11
  54 "ValveBiped.Bip01_R_Finger01" 53
  55 "ValveBiped.Bip01_R_Finger02" 54
  56 "ValveBiped.baton_parent" 11
end
skeleton
  time 0
    0 1.610982 -0.335943 37.086403 1.541799 -0.006674 -1.014760
    1 0.003911 3.345128 -2.981901 1.238775 0.085742 1.559611
    2 4.018331 0.000000 0.000000 0.212913 0.060173 0.039336
    3 3.518565 0.000000 0.000000 0.218752 -0.080548 0.344879
    4 8.942642 0.000000 0.000000 0.180859 0.074145 0.413963
    5 3.307271 0.000000 0.000000 3.050191 -0.053256 0.499160
    6 3.593712 -0.000001 0.000000 0.712970 0.026480 0.875437
    7 1.999997 -3.000001 0.000000 -1.570796 0.000000 -1.326450
    8 2.033350 1.000771 -1.937610 2.900480 1.238764 1.220481
    9 6.028143 0.000002 0.000000 1.158989 1.450523 -0.793691
    10 11.692549 0.000000 0.000002 0.000000 0.000000 -1.181076
    11 11.481698 0.000000 0.000000 -1.124377 0.136598 0.358730
    12 2.676087 -1.712440 0.000000 -1.570796 0.000000 -1.570796
    13 2.033342 1.000767 1.937660 1.726691 -0.938671 2.779811
    14 6.028142 0.000002 0.000000 -1.833082 -0.478231 -0.591638
    15 11.692555 0.000000 0.000005 0.000000 0.000000 -1.869175
    16 11.481671 0.000000 -0.000030 0.245147 -0.008783 0.618629
    17 2.676088 -1.712441 0.000000 1.570797 0.000000 1.570797
    18 -3.890452 0.000004 0.000007 -1.315372 -0.091249 -1.789797
    19 17.848171 0.000000 0.000000 0.000000 0.000000 0.498138
    20 16.525253 0.000000 0.000000 0.322464 0.144619 -1.250550
    21 6.879454 0.000000 0.000000 -0.081333 -0.002951 -0.584373
    22 3.890452 -0.000004 -0.000003 -1.743820 -0.105140 -1.305506
    23 17.848175 0.000000 0.000000 0.000000 0.000000 0.396113
    24 16.525249 0.000000 0.000000 -0.274848 0.043280 -1.196970
    25 6.879452 0.000000 0.000000 -0.007299 -0.002950 -0.584374
    26 3.859704 -0.142404 -1.191975 -0.511025 -0.162469 -1.254549
    27 1.312563 0.000001 0.000001 -0.416582 0.363238 -0.532793
    28 0.729362 0.000002 0.000000 -0.030467 0.149165 -0.264812
    29 3.942327 0.046774 -0.431443 -0.077697 0.066225 -0.838261
    30 1.539092 0.000002 0.000000 -0.194799 0.216732 -0.913778
    31 1.196319 -0.000001 0.000000 -0.005405 0.048648 -0.221714
    32 3.883689 -0.046767 0.431443 0.294009 -0.005054 -0.492816
    33 1.719575 0.000002 0.000000 -0.067381 0.068570 -1.121333
    34 1.209182 -0.000001 0.000000 -0.003165 0.020606 -0.304754
    35 3.859859 -0.137950 1.332466 0.611194 0.091422 -0.576227
    36 1.719429 0.000003 0.000000 0.000001 -0.148422 -0.395022
    37 1.099668 0.000001 0.000000 0.000000 0.000000 -1.060287
    38 0.806048 -0.348923 1.321258 -1.253304 -0.366663 -0.756723
    39 1.789785 0.000000 0.000002 0.000001 -0.092056 -0.052846
    40 1.206998 0.000000 0.000000 -0.000002 0.101885 -0.080511
    41 3.859672 -0.132566 1.193108 0.441933 -0.039758 -1.502610
    42 1.312560 0.000000 -0.000001 0.000001 -0.060063 -0.756557
    43 0.729361 0.000002 0.000000 0.000001 -0.263859 -0.928787
    44 3.942293 0.050330 0.431043 0.323975 -0.042353 -1.173383
    45 1.539095 0.000003 0.000000 0.000000 -0.056711 -1.177242
    46 1.196323 0.000000 0.000000 0.193939 -0.249771 -0.925754
    47 3.883655 -0.050326 -0.431043 0.254188 -0.050536 -1.089574
    48 1.719575 -0.000005 0.000000 0.018743 -0.055384 -1.084460
    49 1.209182 -0.000001 0.000000 0.091857 -0.091058 -1.127954
    50 3.859828 -0.148935 -1.331282 0.145131 0.071080 -0.602900
    51 1.719425 0.000000 0.000000 -0.000001 0.098232 -0.215107
    52 1.099665 0.000000 0.000000 0.000001 0.066953 -1.966432
    53 0.806014 -0.359835 -1.318334 0.902692 0.272163 -1.272851
    54 1.789783 0.000001 0.000000 0.016660 0.544390 0.649620
    55 1.207003 0.000000 0.000004 0.015883 0.090668 0.974907
    56 2.338454 -1.535743 -6.391511 1.520245 -0.094380 -2.001951
  time 1
    0 2.216469 -0.109373 36.859834 1.565515 -0.006922 -0.981117
    1 0.003911 3.345128 -2.981901 1.335754 0.060382 1.559897
    2 4.018331 0.000000 0.000000 0.212913 0.060173 0.039336
    3 3.518565 0.000000 0.000000 0.096766 -0.072351 0.346187
    4 8.942642 0.000000 0.000000 0.180859 0.074145 0.413963
    5 3.307271 0.000000 0.000000 3.050191 -0.053256 0.499160
    6 3.593712 -0.000001 0.000000 0.665201 0.016873 0.828747
    7 1.999997 -3.000001 0.000000 -1.570796 0.000000 -1.326450
    8 2.033350 1.000771 -1.937610 2.900480 1.238764 1.220481
    9 6.028143 0.000002 0.000000 1.401149 1.456007 -0.577092
    10 11.692549 0.000000 0.000002 0.000000 0.000000 -1.229344
    11 11.481698 0.000000 0.000000 -1.124377 0.136598 0.358730
    12 2.676087 -1.712440 0.000000 -1.570796 0.000000 -1.570796
    13 2.033342 1.000767 1.937660 1.726691 -0.938671 2.779811
    14 6.028142 0.000002 0.000000 -1.859237 -0.524169 -0.581545
    15 11.692555 0.000000 0.000005 0.000000 0.000000 -1.862662
    16 11.481671 0.000000 -0.000030 0.245147 -0.008783 0.618629
    17 2.676088 -1.712441 0.000000 1.570797 0.000000 1.570797
    18 -3.890452 0.000004 0.000007 -1.287733 -0.148254 -1.804770
    19 17.848171 0.000000 0.000000 0.000000 0.000000 0.554663
    20 16.525253 0.000000 0.000000 0.330188 0.153965 -1.263670
    21 6.879454 0.000000 0.000000 -0.081333 -0.002951 -0.584373
    22 3.890452 -0.000004 -0.000003 -1.740903 -0.194347 -1.302054
    23 17.848175 0.000000 0.000000 0.000000 0.000000 0.471552
    24 16.525249 0.000000 0.000000 -0.257628 0.057554 -1.213774
    25 6.879452 0.000000 0.000000 -0.007299 -0.002950 -0.584374
    26 3.859704 -0.142404 -1.191975 -0.511025 -0.162469 -1.254549
    27 1.312563 0.000001 0.000001 -0.416582 0.363238 -0.532793
    28 0.729362 0.000002 0.000000 -0.030467 0.149165 -0.264812
    29 3.942327 0.046774 -0.431443 -0.077697 0.066225 -0.838261
    30 1.539092 0.000002 0.000000 -0.194799 0.216732 -0.913778
    31 1.196319 -0.000001 0.000000 -0.005405 0.048648 -0.221714
    32 3.883689 -0.046767 0.431443 0.294009 -0.005054 -0.492816
    33 1.719575 0.000002 0.000000 -0.067381 0.068570 -1.121333
    34 1.209182 -0.000001 0.000000 -0.003165 0.020606 -0.304754
    35 3.859859 -0.137950 1.332466 0.611194 0.091422 -0.576227
    36 1.719429 0.000003 0.000000 0.000001 -0.148422 -0.395022
    37 1.099668 0.000001 0.000000 0.000000 0.000000 -1.060287
    38 0.806048 -0.348923 1.321258 -1.253304 -0.366663 -0.756723
    39 1.789785 0.000000 0.000002 0.000001 -0.092056 -0.052846
    40 1.206998 0.000000 0.000000 -0.000002 0.101885 -0.080511
    41 3.859672 -0.132566 1.193108 0.441933 -0.039758 -1.502610
    42 1.312560 0.000000 -0.000001 0.000001 -0.060063 -0.756557
    43 0.729361 0.000002 0.000000 0.000001 -0.263859 -0.928787
    44 3.942293 0.050330 0.431043 0.323975 -0.042353 -1.173383
    45 1.539095 0.000003 0.000000 0.000000 -0.056711 -1.177242
    46 1.196323 0.000000 0.000000 0.193939 -0.249771 -0.925754
    47 3.883655 -0.050326 -0.431043 0.254188 -0.050536 -1.089574
    48 1.719575 -0.000005 0.000000 0.018743 -0.055384 -1.084460
    49 1.209182 -0.000001 0.000000 0.091857 -0.091058 -1.127954
    50 3.859828 -0.148935 -1.331282 0.145131 0.071080 -0.602900
    51 1.719425 0.000000 0.000000 -0.000001 0.098232 -0.215107
    52 1.099665 0.000000 0.000000 0.000001 0.066953 -1.966432
    53 0.806014 -0.359835 -1.318334 0.902692 0.272163 -1.272851
    54 1.789783 0.000001 0.000000 0.016660 0.544390 0.649620
    55 1.207003 0.000000 0.000004 0.015883 0.090668 0.974907
    56 2.338454 -1.535743 -6.391511 1.520245 -0.094380 -2.001951
  time 2
    0 3.341503 0.496114 36.344193 1.609410 -0.007345 -0.918592
    1 0.003911 3.345128 -2.981901 1.515811 0.013187 1.560468
    2 4.018331 0.000000 0.000000 0.212913 0.060173 0.039336
    3 3.518565 0.000000 0.000000 -0.129582 -0.056975 0.345939
    4 8.942642 0.000000 0.000000 0.180859 0.074145 0.413963
    5 3.307271 0.000000 0.000000 3.050191 -0.053256 0.499160
    6 3.593712 -0.000001 0.000000 0.573961 -0.002508 0.742879
    7 1.999997 -3.000001 0.000000 -1.570796 0.000000 -1.326450
    8 2.033350 1.000771 -1.937610 2.900480 1.238764 1.220481
    9 6.028143 0.000002 0.000000 1.618318 1.435646 -0.438431
    10 11.692549 0.000000 0.000002 0.000000 0.000000 -1.340815
    11 11.481698 0.000000 0.000000 -1.124377 0.136598 0.358730
    12 2.676087 -1.712440 0.000000 -1.570796 0.000000 -1.570796
    13 2.033342 1.000767 1.937660 1.726691 -0.938671 2.779811
    14 6.028142 0.000002 0.000000 -1.896161 -0.599427 -0.570858
    15 11.692555 0.000000 0.000005 0.000000 0.000000 -1.844673
    16 11.481671 0.000000 -0.000030 0.245147 -0.008783 0.618629
    17 2.676088 -1.712441 0.000000 1.570797 0.000000 1.570797
    18 -3.890452 0.000004 0.000007 -1.231978 -0.258955 -1.837152
    19 17.848171 0.000000 0.000000 0.000000 0.000000 0.667303
    20 16.525253 0.000000 0.000000 0.341737 0.173686 -1.289823
    21 6.879454 0.000000 0.000000 -0.081333 -0.002951 -0.584373
    22 3.890452 -0.000004 -0.000003 -1.716426 -0.354408 -1.300873
    23 17.848175 0.000000 0.000000 0.000000 0.000000 0.589123
    24 16.525249 0.000000 0.000000 -0.239146 0.069875 -1.228678
    25 6.879452 0.000000 0.000000 -0.007299 -0.002950 -0.584374
    26 3.859704 -0.142404 -1.191975 -0.511025 -0.162469 -1.254549
    27 1.312563 0.000001 0.000001 -0.416582 0.363238 -0.532793
    28 0.729362 0.000002 0.000000 -0.030467 0.149165 -0.264812
    29 3.942327 0.046774 -0.431443 -0.077697 0.066225 -0.838261
    30 1.539092 0.000002 0.000000 -0.194799 0.216732 -0.913778
    31 1.196319 -0.000001 0.000000 -0.005417 0.048648 -0.221714
    32 3.883689 -0.046767 0.431443 0.294009 -0.005054 -0.492816
    33 1.719575 0.000002 0.000000 -0.067381 0.068570 -1.121333
    34 1.209182 -0.000001 0.000000 -0.003165 0.020606 -0.304754
    35 3.859859 -0.137950 1.332466 0.611194 0.091422 -0.576227
    36 1.719429 0.000003 0.000000 0.000001 -0.148422 -0.395022
    37 1.099668 0.000001 0.000000 0.000000 0.000000 -1.060287
    38 0.806048 -0.348923 1.321258 -1.253304 -0.366663 -0.756723
    39 1.789785 0.000000 0.000002 0.000001 -0.092056 -0.052846
    40 1.206998 0.000000 0.000000 -0.000002 0.101885 -0.080511
    41 3.859672 -0.132566 1.193108 0.441933 -0.039758 -1.502610
    42 1.312560 0.000000 -0.000001 0.000001 -0.060063 -0.756557
    43 0.729361 0.000002 0.000000 0.000001 -0.263859 -0.928787
    44 3.942293 0.050330 0.431043 0.323975 -0.042353 -1.173383
    45 1.539095 0.000003 0.000000 0.000000 -0.056711 -1.177242
    46 1.196323 0.000000 0.000000 0.193939 -0.249771 -0.925754
    47 3.883655 -0.050326 -0.431043 0.254188 -0.050536 -1.089574
    48 1.719575 -0.000005 0.000000 0.018743 -0.055384 -1.084460
    49 1.209182 -0.000001 0.000000 0.091857 -0.091058 -1.127954
    50 3.859828 -0.148935 -1.331282 0.145131 0.071080 -0.602900
    51 1.719425 0.000000 0.000000 -0.000001 0.098232 -0.215107
    52 1.099665 0.000000 0.000000 0.000001 0.066953 -1.966432
    53 0.806014 -0.359835 -1.318334 0.902692 0.272163 -1.272851
    54 1.789783 0.000001 0.000000 0.016660 0.544390 0.649620
    55 1.207003 0.000000 0.000004 0.015883 0.090668 0.974907
    56 2.338454 -1.535743 -6.391511 1.520245 -0.094380 -2.001951
  time 3
    0 3.946990 1.234418 35.914493 1.633076 -0.007557 -0.884872
    1 0.003911 3.345128 -2.981901 1.612694 -0.012256 1.560753
    2 4.018331 0.000000 0.000000 0.212913 0.060173 0.039336
    3 3.518565 0.000000 0.000000 -0.251392 -0.048825 0.344361
    4 8.942642 0.000000 0.000000 0.180859 0.074145 0.413963
    5 3.307271 0.000000 0.000000 3.050191 -0.053256 0.499160
    6 3.593712 -0.000001 0.000000 0.516814 -0.015326 0.696315
    7 1.999997 -3.000001 0.000000 -1.570796 0.000000 -1.326450
    8 2.033350 1.000771 -1.937610 2.900480 1.238764 1.220481
    9 6.028143 0.000002 0.000000 1.389850 1.359207 -0.761272
    10 11.692549 0.000000 0.000002 0.000000 0.000000 -1.469501
    11 11.481698 0.000000 0.000000 -1.124377 0.136598 0.358730
    12 2.676087 -1.712440 0.000000 -1.570796 0.000000 -1.570796
    13 2.033342 1.000767 1.937660 1.726691 -0.938671 2.779811
    14 6.028142 0.000002 0.000000 -1.893533 -0.631615 -0.616640
    15 11.692555 0.000000 0.000005 0.000000 0.000000 -1.817302
    16 11.481671 0.000000 -0.000030 0.245147 -0.008783 0.618629
    17 2.676088 -1.712441 0.000000 1.570797 0.000000 1.570797
    18 -3.890452 0.000004 0.000007 -1.203100 -0.337214 -1.853298
    19 17.848171 0.000000 0.000000 0.000000 0.000000 0.753241
    20 16.525253 0.000000 0.000000 0.343363 0.195411 -1.313233
    21 6.879454 0.000000 0.000000 -0.081333 -0.002951 -0.584373
    22 3.890452 -0.000004 -0.000003 -1.684260 -0.447552 -1.298330
    23 17.848175 0.000000 0.000000 0.000000 0.000000 0.647872
    24 16.525249 0.000000 0.000000 -0.248029 0.067485 -1.226027
    25 6.879452 0.000000 0.000000 -0.007299 -0.002950 -0.584374
    26 3.859704 -0.142404 -1.191975 -0.511025 -0.162469 -1.254549
    27 1.312563 0.000001 0.000001 -0.416582 0.363238 -0.532793
    28 0.729362 0.000002 0.000000 -0.030467 0.149165 -0.264812
    29 3.942327 0.046774 -0.431443 -0.077697 0.066225 -0.838261
    30 1.539092 0.000002 0.000000 -0.194799 0.216732 -0.913778
    31 1.196319 -0.000001 0.000000 -0.005417 0.048648 -0.221714
    32 3.883689 -0.046767 0.431443 0.294009 -0.005054 -0.492816
    33 1.719575 0.000002 0.000000 -0.067381 0.068570 -1.121333
    34 1.209182 -0.000001 0.000000 -0.003165 0.020606 -0.304754
    35 3.859859 -0.137950 1.332466 0.611194 0.091422 -0.576227
    36 1.719429 0.000003 0.000000 0.000001 -0.148422 -0.395022
    37 1.099668 0.000001 0.000000 0.000000 0.000000 -1.060287
    38 0.806048 -0.348923 1.321258 -1.253304 -0.366663 -0.756723
    39 1.789785 0.000000 0.000002 0.000001 -0.092056 -0.052846
    40 1.206998 0.000000 0.000000 -0.000002 0.101885 -0.080511
    41 3.859672 -0.132566 1.193108 0.441933 -0.039758 -1.502610
    42 1.312560 0.000000 -0.000001 0.000001 -0.060063 -0.756557
    43 0.729361 0.000002 0.000000 0.000001 -0.263859 -0.928787
    44 3.942293 0.050330 0.431043 0.323975 -0.042353 -1.173383
    45 1.539095 0.000003 0.000000 0.000000 -0.056711 -1.177242
    46 1.196323 0.000000 0.000000 0.193939 -0.249771 -0.925754
    47 3.883655 -0.050326 -0.431043 0.254188 -0.050536 -1.089574
    48 1.719575 -0.000005 0.000000 0.018743 -0.055384 -1.084460
    49 1.209182 -0.000001 0.000000 0.091857 -0.091058 -1.127954
    50 3.859828 -0.148935 -1.331282 0.145131 0.071080 -0.602900
    51 1.719425 0.000000 0.000000 -0.000001 0.098232 -0.215107
    52 1.099665 0.000000 0.000000 0.000001 0.066953 -1.966432
    53 0.806014 -0.359835 -1.318334 0.902692 0.272163 -1.272851
    54 1.789783 0.000001 0.000000 0.016660 0.544390 0.649620
    55 1.207003 0.000000 0.000004 0.015883 0.090668 0.974907
    56 2.338454 -1.535743 -6.391511 1.520245 -0.094380 -2.001951
  time 4
    0 3.919646 1.820373 35.703549 1.631930 -0.007557 -0.886562
    1 0.003911 3.345128 -2.981901 1.607900 -0.007726 1.560753
    2 4.018331 0.000000 0.000000 0.212913 0.060173 0.039336
    3 3.518565 0.000000 0.000000 -0.245399 -0.049221 0.344473
    4 8.942642 0.000000 0.000000 0.180859 0.074145 0.413963
    5 3.307271 0.000000 0.000000 3.050191 -0.053256 0.499160
    6 3.593712 -0.000001 0.000000 0.507344 -0.017467 0.708431
    7 1.999997 -3.000001 0.000000 -1.570796 0.000000 -1.326450
    8 2.033350 1.000771 -1.937610 2.900480 1.238764 1.220481
    9 6.028143 0.000002 0.000000 1.212419 1.223638 -1.005699
    10 11.692549 0.000000 0.000002 0.000000 0.000000 -1.582576
    11 11.481698 0.000000 0.000000 -1.124377 0.136598 0.358730
    12 2.676087 -1.712440 0.000000 -1.570796 0.000000 -1.570796
    13 2.033342 1.000767 1.937660 1.726691 -0.938671 2.779811
    14 6.028142 0.000002 0.000000 -1.864173 -0.618002 -0.704577
    15 11.692555 0.000000 0.000005 0.000000 0.000000 -1.785667
    16 11.481671 0.000000 -0.000030 0.245147 -0.008783 0.618629
    17 2.676088 -1.712441 0.000000 1.570797 0.000000 1.570797
    18 -3.890452 0.000004 0.000007 -1.214347 -0.369169 -1.843106
    19 17.848171 0.000000 0.000000 0.000000 0.000000 0.798840
    20 16.525253 0.000000 0.000000 0.337911 0.215532 -1.332613
    21 6.879454 0.000000 0.000000 -0.081333 -0.002951 -0.584373
    22 3.890452 -0.000004 -0.000003 -1.672419 -0.461875 -1.285340
    23 17.848175 0.000000 0.000000 0.000000 0.000000 0.658628
    24 16.525249 0.000000 0.000000 -0.268860 0.065347 -1.221076
    25 6.879452 0.000000 0.000000 -0.007299 -0.002950 -0.584374
    26 3.859704 -0.142404 -1.191975 -0.511025 -0.162469 -1.254549
    27 1.312563 0.000001 0.000001 -0.416582 0.363238 -0.532793
    28 0.729362 0.000002 0.000000 -0.030467 0.149165 -0.264812
    29 3.942327 0.046774 -0.431443 -0.077697 0.066225 -0.838261
    30 1.539092 0.000002 0.000000 -0.194799 0.216732 -0.913778
    31 1.196319 -0.000001 0.000000 -0.005405 0.048648 -0.221714
    32 3.883689 -0.046767 0.431443 0.294009 -0.005054 -0.492816
    33 1.719575 0.000002 0.000000 -0.067381 0.068570 -1.121333
    34 1.209182 -0.000001 0.000000 -0.003165 0.020606 -0.304754
    35 3.859859 -0.137950 1.332466 0.611194 0.091422 -0.576227
    36 1.719429 0.000003 0.000000 0.000001 -0.148422 -0.395022
    37 1.099668 0.000001 0.000000 0.000000 0.000000 -1.060287
    38 0.806048 -0.348923 1.321258 -1.253304 -0.366663 -0.756723
    39 1.789785 0.000000 0.000002 0.000001 -0.092056 -0.052846
    40 1.206998 0.000000 0.000000 -0.000002 0.101885 -0.080511
    41 3.859672 -0.132566 1.193108 0.441933 -0.039758 -1.502610
    42 1.312560 0.000000 -0.000001 0.000001 -0.060063 -0.756557
    43 0.729361 0.000002 0.000000 0.000001 -0.263859 -0.928787
    44 3.942293 0.050330 0.431043 0.323975 -0.042353 -1.173383
    45 1.539095 0.000003 0.000000 0.000000 -0.056711 -1.177242
    46 1.196323 0.000000 0.000000 0.193939 -0.249771 -0.925754
    47 3.883655 -0.050326 -0.431043 0.254188 -0.050536 -1.089574
    48 1.719575 -0.000005 0.000000 0.018743 -0.055384 -1.084460
    49 1.209182 -0.000001 0.000000 0.091857 -0.091058 -1.127954
    50 3.859828 -0.148935 -1.331282 0.145131 0.071080 -0.602900
    51 1.719425 0.000000 0.000000 -0.000001 0.098232 -0.215107
    52 1.099665 0.000000 0.000000 0.000001 0.066953 -1.966432
    53 0.806014 -0.359835 -1.318334 0.902692 0.272163 -1.272851
    54 1.789783 0.000001 0.000000 0.016660 0.544390 0.649620
    55 1.207003 0.000000 0.000004 0.015883 0.090668 0.974907
    56 2.338454 -1.535743 -6.391511 1.520245 -0.094380 -2.001951
  time 5
    0 3.833706 2.152414 35.637141 1.628642 -0.007522 -0.891171
    1 0.003911 3.345128 -2.981901 1.594430 0.004258 1.560706
    2 4.018331 0.000000 0.000000 0.212913 0.060173 0.039336
    3 3.518565 0.000000 0.000000 -0.228558 -0.050335 0.344744
    4 8.942642 0.000000 0.000000 0.180859 0.074145 0.413963
    5 3.307271 0.000000 0.000000 3.050191 -0.053256 0.499160
    6 3.593712 -0.000001 0.000000 0.506281 -0.017720 0.742035
    7 1.999997 -3.000001 0.000000 -1.570796 0.000000 -1.326450
    8 2.033350 1.000771 -1.937610 2.900480 1.238764 1.220481
    9 6.028143 0.000002 0.000000 1.175171 1.113009 -1.065276
    10 11.692549 0.000000 0.000002 0.000000 0.000000 -1.660124
    11 11.481698 0.000000 0.000000 -1.124377 0.136598 0.358730
    12 2.676087 -1.712440 0.000000 -1.570796 0.000000 -1.570796
    13 2.033342 1.000767 1.937660 1.726691 -0.938671 2.779811
    14 6.028142 0.000002 0.000000 -1.841031 -0.593645 -0.756429
    15 11.692555 0.000000 0.000005 0.000000 0.000000 -1.758373
    16 11.481671 0.000000 -0.000030 0.245147 -0.008783 0.618629
    17 2.676088 -1.712441 0.000000 1.570797 0.000000 1.570797
    18 -3.890452 0.000004 0.000007 -1.229691 -0.381183 -1.830929
    19 17.848171 0.000000 0.000000 0.000000 0.000000 0.815764
    20 16.525253 0.000000 0.000000 0.335903 0.230366 -1.340116
    21 6.879454 0.000000 0.000000 -0.081333 -0.002951 -0.584373
    22 3.890452 -0.000004 -0.000003 -1.672419 -0.458745 -1.275348
    23 17.848175 0.000000 0.000000 0.000000 0.000000 0.653436
    24 16.525249 0.000000 0.000000 -0.279375 0.067531 -1.214524
    25 6.879452 0.000000 0.000000 -0.007299 -0.002950 -0.584374
    26 3.859704 -0.142404 -1.191975 -0.511025 -0.162469 -1.254549
    27 1.312563 0.000001 0.000001 -0.416582 0.363238 -0.532793
    28 0.729362 0.000002 0.000000 -0.030467 0.149165 -0.264812
    29 3.942327 0.046774 -0.431443 -0.077697 0.066225 -0.838261
    30 1.539092 0.000002 0.000000 -0.194799 0.216732 -0.913778
    31 1.196319 -0.000001 0.000000 -0.005405 0.048648 -0.221714
    32 3.883689 -0.046767 0.431443 0.294009 -0.005054 -0.492816
    33 1.719575 0.000002 0.000000 -0.067381 0.068570 -1.121333
    34 1.209182 -0.000001 0.000000 -0.003165 0.020606 -0.304754
    35 3.859859 -0.137950 1.332466 0.611194 0.091422 -0.576227
    36 1.719429 0.000003 0.000000 0.000001 -0.148422 -0.395022
    37 1.099668 0.000001 0.000000 0.000000 0.000000 -1.060287
    38 0.806048 -0.348923 1.321258 -1.253304 -0.366663 -0.756723
    39 1.789785 0.000000 0.000002 0.000001 -0.092056 -0.052846
    40 1.206998 0.000000 0.000000 -0.000002 0.101885 -0.080511
    41 3.859672 -0.132566 1.193108 0.441933 -0.039758 -1.502610
    42 1.312560 0.000000 -0.000001 0.000001 -0.060063 -0.756557
    43 0.729361 0.000002 0.000000 0.000001 -0.263859 -0.928787
    44 3.942293 0.050330 0.431043 0.323975 -0.042353 -1.173383
    45 1.539095 0.000003 0.000000 0.000000 -0.056711 -1.177242
    46 1.196323 0.000000 0.000000 0.193939 -0.249771 -0.925754
    47 3.883655 -0.050326 -0.431043 0.254188 -0.050536 -1.089574
    48 1.719575 -0.000005 0.000000 0.018743 -0.055384 -1.084460
    49 1.209182 -0.000001 0.000000 0.091857 -0.091058 -1.127954
    50 3.859828 -0.148935 -1.331282 0.145131 0.071080 -0.602900
    51 1.719425 0.000000 0.000000 -0.000001 0.098232 -0.215107
    52 1.099665 0.000000 0.000000 0.000001 0.066953 -1.966432
    53 0.806014 -0.359835 -1.318334 0.902692 0.272163 -1.272851
    54 1.789783 0.000001 0.000000 0.016660 0.544390 0.649620
    55 1.207003 0.000000 0.000004 0.015883 0.090668 0.974907
    56 2.338454 -1.535743 -6.391511 1.520245 -0.094380 -2.001951
  time 6
    0 3.704796 2.246167 35.644953 1.623609 -0.007451 -0.898391
    1 0.003911 3.345128 -2.981901 1.573624 0.021265 1.560658
    2 4.018331 0.000000 0.000000 0.212913 0.060173 0.039336
    3 3.518565 0.000000 0.000000 -0.202536 -0.052073 0.345127
    4 8.942642 0.000000 0.000000 0.180859 0.074145 0.413963
    5 3.307271 0.000000 0.000000 3.050191 -0.053256 0.499160
    6 3.593712 -0.000001 0.000000 0.512148 -0.016368 0.789908
    7 1.999997 -3.000001 0.000000 -1.570796 0.000000 -1.326450
    8 2.033350 1.000771 -1.937610 2.900480 1.238764 1.220481
    9 6.028143 0.000002 0.000000 1.165787 1.061128 -1.062215
    10 11.692549 0.000000 0.000002 0.000000 0.000000 -1.688984
    11 11.481698 0.000000 0.000000 -1.124377 0.136598 0.358730
    12 2.676087 -1.712440 0.000000 -1.570796 0.000000 -1.570796
    13 2.033342 1.000767 1.937660 1.726691 -0.938671 2.779811
    14 6.028142 0.000002 0.000000 -1.825967 -0.567056 -0.772658
    15 11.692555 0.000000 0.000005 0.000000 0.000000 -1.746820
    16 11.481671 0.000000 -0.000030 0.245147 -0.008783 0.618629
    17 2.676088 -1.712441 0.000000 1.570797 0.000000 1.570797
    18 -3.890452 0.000004 0.000007 -1.246465 -0.379189 -1.820465
    19 17.848171 0.000000 0.000000 0.000000 0.000000 0.817161
    20 16.525253 0.000000 0.000000 0.336835 0.238986 -1.342517
    21 6.879454 0.000000 0.000000 -0.081333 -0.002951 -0.584373
    22 3.890452 -0.000004 -0.000003 -1.677809 -0.445655 -1.269171
    23 17.848175 0.000000 0.000000 0.000000 0.000000 0.645573
    24 16.525249 0.000000 0.000000 -0.283530 0.069829 -1.212624
    25 6.879452 0.000000 0.000000 -0.007299 -0.002950 -0.584374
    26 3.859704 -0.142404 -1.191975 -0.511025 -0.162469 -1.254549
    27 1.312563 0.000001 0.000001 -0.416582 0.363238 -0.532793
    28 0.729362 0.000002 0.000000 -0.030467 0.149165 -0.264812
    29 3.942327 0.046774 -0.431443 -0.077697 0.066225 -0.838261
    30 1.539092 0.000002 0.000000 -0.194799 0.216732 -0.913778
    31 1.196319 -0.000001 0.000000 -0.005405 0.048648 -0.221714
    32 3.883689 -0.046767 0.431443 0.294009 -0.005054 -0.492816
    33 1.719575 0.000002 0.000000 -0.067381 0.068570 -1.121333
    34 1.209182 -0.000001 0.000000 -0.003165 0.020606 -0.304754
    35 3.859859 -0.137950 1.332466 0.611194 0.091422 -0.576227
    36 1.719429 0.000003 0.000000 0.000001 -0.148422 -0.395022
    37 1.099668 0.000001 0.000000 0.000000 0.000000 -1.060287
    38 0.806048 -0.348923 1.321258 -1.253304 -0.366663 -0.756723
    39 1.789785 0.000000 0.000002 0.000001 -0.092056 -0.052846
    40 1.206998 0.000000 0.000000 -0.000002 0.101885 -0.080511
    41 3.859672 -0.132566 1.193108 0.441933 -0.039758 -1.502610
    42 1.312560 0.000000 -0.000001 0.000001 -0.060063 -0.756557
    43 0.729361 0.000002 0.000000 0.000001 -0.263859 -0.928787
    44 3.942293 0.050330 0.431043 0.323975 -0.042353 -1.173383
    45 1.539095 0.000003 0.000000 0.000000 -0.056711 -1.177242
    46 1.196323 0.000000 0.000000 0.193939 -0.249771 -0.925754
    47 3.883655 -0.050326 -0.431043 0.254188 -0.050536 -1.089574
    48 1.719575 -0.000005 0.000000 0.018743 -0.055384 -1.084460
    49 1.209182 -0.000001 0.000000 0.091857 -0.091058 -1.127954
    50 3.859828 -0.148935 -1.331282 0.145131 0.071080 -0.602900
    51 1.719425 0.000000 0.000000 -0.000001 0.098232 -0.215107
    52 1.099665 0.000000 0.000000 0.000001 0.066953 -1.966432
    53 0.806014 -0.359835 -1.318334 0.902692 0.272163 -1.272851
    54 1.789783 0.000001 0.000000 0.016660 0.544390 0.649620
    55 1.207003 0.000000 0.000004 0.015883 0.090668 0.974907
    56 2.338454 -1.535743 -6.391511 1.520245 -0.094380 -2.001951
  time 7
    0 3.536822 2.136789 35.711362 1.617082 -0.007416 -0.907685
    1 0.003911 3.345128 -2.981901 1.546875 0.040883 1.560563
    2 4.018331 0.000000 0.000000 0.212913 0.060173 0.039336
    3 3.518565 0.000000 0.000000 -0.168983 -0.054314 0.345556
    4 8.942642 0.000000 0.000000 0.180859 0.074145 0.413963
    5 3.307271 0.000000 0.000000 3.050191 -0.053256 0.499160
    6 3.593712 -0.000001 0.000000 0.523651 -0.013748 0.846266
    7 1.999997 -3.000001 0.000000 -1.570796 0.000000 -1.326450
    8 2.033350 1.000771 -1.937610 2.900480 1.238764 1.220481
    9 6.028143 0.000002 0.000000 1.151233 1.052401 -1.061642
    10 11.692549 0.000000 0.000002 0.000000 0.000000 -1.681389
    11 11.481698 0.000000 0.000000 -1.124377 0.136598 0.358730
    12 2.676087 -1.712440 0.000000 -1.570796 0.000000 -1.570796
    13 2.033342 1.000767 1.937660 1.726691 -0.938671 2.779811
    14 6.028142 0.000002 0.000000 -1.817697 -0.542836 -0.774703
    15 11.692555 0.000000 0.000005 0.000000 0.000000 -1.749922
    16 11.481671 0.000000 -0.000030 0.245147 -0.008783 0.618629
    17 2.676088 -1.712441 0.000000 1.570797 0.000000 1.570797
    18 -3.890452 0.000004 0.000007 -1.262667 -0.365765 -1.812708
    19 17.848171 0.000000 0.000000 0.000000 0.000000 0.806809
    20 16.525253 0.000000 0.000000 0.339465 0.241242 -1.341574
    21 6.879454 0.000000 0.000000 -0.081333 -0.002951 -0.584373
    22 3.890452 -0.000004 -0.000003 -1.685674 -0.425120 -1.266900
    23 17.848175 0.000000 0.000000 0.000000 0.000000 0.636820
    24 16.525249 0.000000 0.000000 -0.283616 0.070749 -1.215375
    25 6.879452 0.000000 0.000000 -0.007299 -0.002950 -0.584374
    26 3.859704 -0.142404 -1.191975 -0.511025 -0.162469 -1.254549
    27 1.312563 0.000001 0.000001 -0.416582 0.363238 -0.532793
    28 0.729362 0.000002 0.000000 -0.030467 0.149165 -0.264812
    29 3.942327 0.046774 -0.431443 -0.077697 0.066225 -0.838261
    30 1.539092 0.000002 0.000000 -0.194799 0.216732 -0.913778
    31 1.196319 -0.000001 0.000000 -0.005405 0.048648 -0.221714
    32 3.883689 -0.046767 0.431443 0.294009 -0.005054 -0.492816
    33 1.719575 0.000002 0.000000 -0.067381 0.068570 -1.121333
    34 1.209182 -0.000001 0.000000 -0.003165 0.020606 -0.304754
    35 3.859859 -0.137950 1.332466 0.611194 0.091422 -0.576227
    36 1.719429 0.000003 0.000000 0.000001 -0.148422 -0.395022
    37 1.099668 0.000001 0.000000 0.000000 0.000000 -1.060287
    38 0.806048 -0.348923 1.321258 -1.253304 -0.366663 -0.756723
    39 1.789785 0.000000 0.000002 0.000001 -0.092056 -0.052846
    40 1.206998 0.000000 0.000000 -0.000002 0.101885 -0.080511
    41 3.859672 -0.132566 1.193108 0.441933 -0.039758 -1.502610
    42 1.312560 0.000000 -0.000001 0.000001 -0.060063 -0.756557
    43 0.729361 0.000002 0.000000 0.000001 -0.263859 -0.928787
    44 3.942293 0.050330 0.431043 0.323975 -0.042353 -1.173383
    45 1.539095 0.000003 0.000000 0.000000 -0.056711 -1.177242
    46 1.196323 0.000000 0.000000 0.193939 -0.249771 -0.925754
    47 3.883655 -0.050326 -0.431043 0.254188 -0.050536 -1.089574
    48 1.719575 -0.000005 0.000000 0.018743 -0.055384 -1.084460
    49 1.209182 -0.000001 0.000000 0.091857 -0.091058 -1.127954
    50 3.859828 -0.148935 -1.331282 0.145131 0.071080 -0.602900
    51 1.719425 0.000000 0.000000 -0.000001 0.098232 -0.215107
    52 1.099665 0.000000 0.000000 0.000001 0.066953 -1.966432
    53 0.806014 -0.359835 -1.318334 0.902692 0.272163 -1.272851
    54 1.789783 0.000001 0.000000 0.016660 0.544390 0.649620
    55 1.207003 0.000000 0.000004 0.015883 0.090668 0.974907
    56 2.338454 -1.535743 -6.391511 1.520245 -0.094380 -2.001951
  time 8
    0 3.341503 1.898500 35.812927 1.609410 -0.007345 -0.918592
    1 0.003911 3.345128 -2.981901 1.515427 0.060682 1.560468
    2 4.018331 0.000000 0.000000 0.212913 0.060173 0.039336
    3 3.518565 0.000000 0.000000 -0.129582 -0.056975 0.345939
    4 8.942642 0.000000 0.000000 0.180859 0.074145 0.413963
    5 3.307271 0.000000 0.000000 3.050191 -0.053256 0.499160
    6 3.593712 -0.000001 0.000000 0.539590 -0.010142 0.905917
    7 1.999997 -3.000001 0.000000 -1.570796 0.000000 -1.326450
    8 2.033350 1.000771 -1.937610 2.900480 1.238764 1.220481
    9 6.028143 0.000002 0.000000 1.137157 1.060889 -1.055043
    10 11.692549 0.000000 0.000002 0.000000 0.000000 -1.660124
    11 11.481698 0.000000 0.000000 -1.124377 0.136598 0.358730
    12 2.676087 -1.712440 0.000000 -1.570796 0.000000 -1.570796
    13 2.033342 1.000767 1.937660 1.726691 -0.938671 2.779811
    14 6.028142 0.000002 0.000000 -1.810774 -0.519161 -0.769953
    15 11.692555 0.000000 0.000005 0.000000 0.000000 -1.758373
    16 11.481671 0.000000 -0.000030 0.245147 -0.008783 0.618629
    17 2.676088 -1.712441 0.000000 1.570797 0.000000 1.570797
    18 -3.890452 0.000004 0.000007 -1.277821 -0.344218 -1.807025
    19 17.848171 0.000000 0.000000 0.000000 0.000000 0.787748
    20 16.525253 0.000000 0.000000 0.342669 0.238911 -1.338015
    21 6.879454 0.000000 0.000000 -0.081333 -0.002951 -0.584373
    22 3.890452 -0.000004 -0.000003 -1.694510 -0.398656 -1.267445
    23 17.848175 0.000000 0.000000 0.000000 0.000000 0.625990
    24 16.525249 0.000000 0.000000 -0.281496 0.070381 -1.220476
    25 6.879452 0.000000 0.000000 -0.007299 -0.002950 -0.584374
    26 3.859704 -0.142404 -1.191975 -0.511025 -0.162469 -1.254549
    27 1.312563 0.000001 0.000001 -0.416582 0.363238 -0.532793
    28 0.729362 0.000002 0.000000 -0.030467 0.149165 -0.264812
    29 3.942327 0.046774 -0.431443 -0.077697 0.066225 -0.838261
    30 1.539092 0.000002 0.000000 -0.194799 0.216732 -0.913778
    31 1.196319 -0.000001 0.000000 -0.005417 0.048648 -0.221714
    32 3.883689 -0.046767 0.431443 0.294009 -0.005054 -0.492816
    33 1.719575 0.000002 0.000000 -0.067381 0.068570 -1.121333
    34 1.209182 -0.000001 0.000000 -0.003165 0.020606 -0.304754
    35 3.859859 -0.137950 1.332466 0.611194 0.091422 -0.576227
    36 1.719429 0.000003 0.000000 0.000001 -0.148422 -0.395022
    37 1.099668 0.000001 0.000000 0.000000 0.000000 -1.060287
    38 0.806048 -0.348923 1.321258 -1.253304 -0.366663 -0.756723
    39 1.789785 0.000000 0.000002 0.000001 -0.092056 -0.052846
    40 1.206998 0.000000 0.000000 -0.000002 0.101885 -0.080511
    41 3.859672 -0.132566 1.193108 0.441933 -0.039758 -1.502610
    42 1.312560 0.000000 -0.000001 0.000001 -0.060063 -0.756557
    43 0.729361 0.000002 0.000000 0.000001 -0.263859 -0.928787
    44 3.942293 0.050330 0.431043 0.323975 -0.042353 -1.173383
    45 1.539095 0.000003 0.000000 0.000000 -0.056711 -1.177242
    46 1.196323 0.000000 0.000000 0.193939 -0.249771 -0.925754
    47 3.883655 -0.050326 -0.431043 0.254188 -0.050536 -1.089574
    48 1.719575 -0.000005 0.000000 0.018743 -0.055384 -1.084460
    49 1.209182 -0.000001 0.000000 0.091857 -0.091058 -1.127954
    50 3.859828 -0.148935 -1.331282 0.145131 0.071080 -0.602900
    51 1.719425 0.000000 0.000000 -0.000001 0.098232 -0.215107
    52 1.099665 0.000000 0.000000 0.000001 0.066953 -1.966432
    53 0.806014 -0.359835 -1.318334 0.902692 0.272163 -1.272851
    54 1.789783 0.000001 0.000000 0.016660 0.544390 0.649620
    55 1.207003 0.000000 0.000004 0.015883 0.090668 0.974907
    56 2.338454 -1.535743 -6.391511 1.520245 -0.094380 -2.001951
  time 9
    0 3.126653 1.585991 35.949650 1.600939 -0.007239 -0.930575
    1 0.003911 3.345128 -2.981901 1.480672 0.078239 1.560325
    2 4.018331 0.000000 0.000000 0.212913 0.060173 0.039336
    3 3.518565 0.000000 0.000000 -0.085998 -0.059923 0.346255
    4 8.942642 0.000000 0.000000 0.180859 0.074145 0.413963
    5 3.307271 0.000000 0.000000 3.050191 -0.053256 0.499160
    6 3.593712 -0.000001 0.000000 0.558808 -0.005861 0.963078
    7 1.999997 -3.000001 0.000000 -1.570796 0.000000 -1.326450
    8 2.033350 1.000771 -1.937610 2.900480 1.238764 1.220481
    9 6.028143 0.000002 0.000000 1.124709 1.084637 -1.042420
    10 11.692549 0.000000 0.000002 0.000000 0.000000 -1.626708
    11 11.481698 0.000000 0.000000 -1.124377 0.136598 0.358730
    12 2.676087 -1.712440 0.000000 -1.570796 0.000000 -1.570796
    13 2.033342 1.000767 1.937660 1.726691 -0.938671 2.779811
    14 6.028142 0.000002 0.000000 -1.805389 -0.498446 -0.759266
    15 11.692555 0.000000 0.000005 0.000000 0.000000 -1.770779
    16 11.481671 0.000000 -0.000030 0.245147 -0.008783 0.618629
    17 2.676088 -1.712441 0.000000 1.570797 0.000000 1.570797
    18 -3.890452 0.000004 0.000007 -1.292785 -0.317224 -1.802335
    19 17.848171 0.000000 0.000000 0.000000 0.000000 0.762032
    20 16.525253 0.000000 0.000000 0.346113 0.234175 -1.332141
    21 6.879454 0.000000 0.000000 -0.081333 -0.002951 -0.584373
    22 3.890452 -0.000004 -0.000003 -1.704231 -0.367498 -1.269716
    23 17.848175 0.000000 0.000000 0.000000 0.000000 0.611525
    24 16.525249 0.000000 0.000000 -0.278229 0.069461 -1.225727
    25 6.879452 0.000000 0.000000 -0.007299 -0.002950 -0.584374
    26 3.859704 -0.142404 -1.191975 -0.511025 -0.162469 -1.254549
    27 1.312563 0.000001 0.000001 -0.416582 0.363238 -0.532793
    28 0.729362 0.000002 0.000000 -0.030467 0.149165 -0.264812
    29 3.942327 0.046774 -0.431443 -0.077697 0.066225 -0.838261
    30 1.539092 0.000002 0.000000 -0.194799 0.216732 -0.913778
    31 1.196319 -0.000001 0.000000 -0.005417 0.048648 -0.221714
    32 3.883689 -0.046767 0.431443 0.294009 -0.005054 -0.492816
    33 1.719575 0.000002 0.000000 -0.067381 0.068570 -1.121333
    34 1.209182 -0.000001 0.000000 -0.003165 0.020606 -0.304754
    35 3.859859 -0.137950 1.332466 0.611194 0.091422 -0.576227
    36 1.719429 0.000003 0.000000 0.000001 -0.148422 -0.395022
    37 1.099668 0.000001 0.000000 0.000000 0.000000 -1.060287
    38 0.806048 -0.348923 1.321258 -1.253304 -0.366663 -0.756723
    39 1.789785 0.000000 0.000002 0.000001 -0.092056 -0.052846
    40 1.206998 0.000000 0.000000 -0.000002 0.101885 -0.080511
    41 3.859672 -0.132566 1.193108 0.441933 -0.039758 -1.502610
    42 1.312560 0.000000 -0.000001 0.000001 -0.060063 -0.756557
    43 0.729361 0.000002 0.000000 0.000001 -0.263859 -0.928787
    44 3.942293 0.050330 0.431043 0.323975 -0.042353 -1.173383
    45 1.539095 0.000003 0.000000 0.000000 -0.056711 -1.177242
    46 1.196323 0.000000 0.000000 0.193939 -0.249771 -0.925754
    47 3.883655 -0.050326 -0.431043 0.254188 -0.050536 -1.089574
    48 1.719575 -0.000005 0.000000 0.018743 -0.055384 -1.084460
    49 1.209182 -0.000001 0.000000 0.091857 -0.091058 -1.127954
    50 3.859828 -0.148935 -1.331282 0.145131 0.071080 -0.602900
    51 1.719425 0.000000 0.000000 -0.000001 0.098232 -0.215107
    52 1.099665 0.000000 0.000000 0.000001 0.066953 -1.966432
    53 0.806014 -0.359835 -1.318334 0.902692 0.272163 -1.272851
    54 1.789783 0.000001 0.000000 0.016660 0.544390 0.649620
    55 1.207003 0.000000 0.000004 0.015883 0.090668 0.974907
    56 2.338454 -1.535743 -6.391511 1.520245 -0.094380 -2.001951
  time 10
    0 2.896177 1.246137 36.101998 1.592021 -0.007169 -0.943325
    1 0.003911 3.345128 -2.981901 1.443951 0.091123 1.560182
    2 4.018331 0.000000 0.000000 0.212913 0.060173 0.039336
    3 3.518565 0.000000 0.000000 -0.039898 -0.063063 0.346458
    4 8.942642 0.000000 0.000000 0.180859 0.074145 0.413963
    5 3.307271 0.000000 0.000000 3.050191 -0.053256 0.499160
    6 3.593712 -0.000001 0.000000 0.580290 -0.001128 1.009980
    7 1.999997 -3.000001 0.000000 -1.570796 0.000000 -1.326450
    8 2.033350 1.000771 -1.937610 2.900480 1.238764 1.220481
    9 6.028143 0.000002 0.000000 1.115900 1.121640 -1.022721
    10 11.692549 0.000000 0.000002 0.000000 0.000000 -1.582576
    11 11.481698 0.000000 0.000000 -1.124377 0.136598 0.358730
    12 2.676087 -1.712440 0.000000 -1.570796 0.000000 -1.570796
    13 2.033342 1.000767 1.937660 1.726691 -0.938671 2.779811
    14 6.028142 0.000002 0.000000 -1.802184 -0.482966 -0.743565
    15 11.692555 0.000000 0.000005 0.000000 0.000000 -1.785667
    16 11.481671 0.000000 -0.000030 0.245147 -0.008783 0.618629
    17 2.676088 -1.712441 0.000000 1.570797 0.000000 1.570797
    18 -3.890452 0.000004 0.000007 -1.306414 -0.286630 -1.798546
    19 17.848171 0.000000 0.000000 0.000000 0.000000 0.731141
    20 16.525253 0.000000 0.000000 0.348910 0.227560 -1.324209
    21 6.879454 0.000000 0.000000 -0.081333 -0.002951 -0.584373
    22 3.890452 -0.000004 -0.000003 -1.714216 -0.332925 -1.273077
    23 17.848175 0.000000 0.000000 0.000000 0.000000 0.593055
    24 16.525249 0.000000 0.000000 -0.274676 0.068151 -1.229778
    25 6.879452 0.000000 0.000000 -0.007299 -0.002950 -0.584374
    26 3.859704 -0.142404 -1.191975 -0.511025 -0.162469 -1.254549
    27 1.312563 0.000001 0.000001 -0.416582 0.363238 -0.532793
    28 0.729362 0.000002 0.000000 -0.030467 0.149165 -0.264812
    29 3.942327 0.046774 -0.431443 -0.077697 0.066225 -0.838261
    30 1.539092 0.000002 0.000000 -0.194799 0.216732 -0.913778
    31 1.196319 -0.000001 0.000000 -0.005405 0.048648 -0.221714
    32 3.883689 -0.046767 0.431443 0.294009 -0.005054 -0.492816
    33 1.719575 0.000002 0.000000 -0.067381 0.068570 -1.121333
    34 1.209182 -0.000001 0.000000 -0.003165 0.020606 -0.304754
    35 3.859859 -0.137950 1.332466 0.611194 0.091422 -0.576227
    36 1.719429 0.000003 0.000000 0.000001 -0.148422 -0.395022
    37 1.099668 0.000001 0.000000 0.000000 0.000000 -1.060287
    38 0.806048 -0.348923 1.321258 -1.253304 -0.366663 -0.756723
    39 1.789785 0.000000 0.000002 0.000001 -0.092056 -0.052846
    40 1.206998 0.000000 0.000000 -0.000002 0.101885 -0.080511
    41 3.859672 -0.132566 1.193108 0.441933 -0.039758 -1.502610
    42 1.312560 0.000000 -0.000001 0.000001 -0.060063 -0.756557
    43 0.729361 0.000002 0.000000 0.000001 -0.263859 -0.928787
    44 3.942293 0.050330 0.431043 0.323975 -0.042353 -1.173383
    45 1.539095 0.000003 0.000000 0.000000 -0.056711 -1.177242
    46 1.196323 0.000000 0.000000 0.193939 -0.249771 -0.925754
    47 3.883655 -0.050326 -0.431043 0.254188 -0.050536 -1.089574
    48 1.719575 -0.000005 0.000000 0.018743 -0.055384 -1.084460
    49 1.209182 -0.000001 0.000000 0.091857 -0.091058 -1.127954
    50 3.859828 -0.148935 -1.331282 0.145131 0.071080 -0.602900
    51 1.719425 0.000000 0.000000 -0.000001 0.098232 -0.215107
    52 1.099665 0.000000 0.000000 0.000001 0.066953 -1.966432
    53 0.806014 -0.359835 -1.318334 0.902692 0.272163 -1.272851
    54 1.789783 0.000001 0.000000 0.016660 0.544390 0.649620
    55 1.207003 0.000000 0.000004 0.015883 0.090668 0.974907
    56 2.338454 -1.535743 -6.391511 1.520245 -0.094380 -2.001951
  time 11
    0 2.661795 0.906283 36.266066 1.582853 -0.007063 -0.956307
    1 0.003911 3.345128 -2.981901 1.406655 0.098373 1.560087
    2 4.018331 0.000000 0.000000 0.212913 0.060173 0.039336
    3 3.518565 0.000000 0.000000 0.007018 -0.066251 0.346525
    4 8.942642 0.000000 0.000000 0.180859 0.074145 0.413963
    5 3.307271 0.000000 0.000000 3.050191 -0.053256 0.499160
    6 3.593712 -0.000001 0.000000 0.603019 0.003802 1.033072
    7 1.999997 -3.000001 0.000000 -1.570796 0.000000 -1.326450
    8 2.033350 1.000771 -1.937610 2.900480 1.238764 1.220481
    9 6.028143 0.000002 0.000000 1.111974 1.168848 -0.995658
    10 11.692549 0.000000 0.000002 0.000000 0.000000 -1.529498
    11 11.481698 0.000000 0.000000 -1.124377 0.136598 0.358730
    12 2.676087 -1.712440 0.000000 -1.570796 0.000000 -1.570796
    13 2.033342 1.000767 1.937660 1.726691 -0.938671 2.779811
    14 6.028142 0.000002 0.000000 -1.801607 -0.473633 -0.723774
    15 11.692555 0.000000 0.000005 0.000000 0.000000 -1.801562
    16 11.481671 0.000000 -0.000030 0.245147 -0.008783 0.618629
    17 2.676088 -1.712441 0.000000 1.570797 0.000000 1.570797
    18 -3.890452 0.000004 0.000007 -1.317946 -0.254091 -1.795480
    19 17.848171 0.000000 0.000000 0.000000 0.000000 0.696470
    20 16.525253 0.000000 0.000000 0.350441 0.219316 -1.314605
    21 6.879454 0.000000 0.000000 -0.081333 -0.002951 -0.584373
    22 3.890452 -0.000004 -0.000003 -1.723848 -0.296122 -1.277346
    23 17.848175 0.000000 0.000000 0.000000 0.000000 0.570208
    24 16.525249 0.000000 0.000000 -0.271438 0.066565 -1.231729
    25 6.879452 0.000000 0.000000 -0.007299 -0.002950 -0.584374
    26 3.859704 -0.142404 -1.191975 -0.511025 -0.162469 -1.254549
    27 1.312563 0.000001 0.000001 -0.416582 0.363238 -0.532793
    28 0.729362 0.000002 0.000000 -0.030467 0.149165 -0.264812
    29 3.942327 0.046774 -0.431443 -0.077697 0.066225 -0.838261
    30 1.539092 0.000002 0.000000 -0.194799 0.216732 -0.913778
    31 1.196319 -0.000001 0.000000 -0.005417 0.048648 -0.221714
    32 3.883689 -0.046767 0.431443 0.294009 -0.005054 -0.492816
    33 1.719575 0.000002 0.000000 -0.067381 0.068570 -1.121333
    34 1.209182 -0.000001 0.000000 -0.003165 0.020606 -0.304754
    35 3.859859 -0.137950 1.332466 0.611194 0.091422 -0.576227
    36 1.719429 0.000003 0.000000 0.000001 -0.148422 -0.395022
    37 1.099668 0.000001 0.000000 0.000000 0.000000 -1.060287
    38 0.806048 -0.348923 1.321258 -1.253304 -0.366663 -0.756723
    39 1.789785 0.000000 0.000002 0.000001 -0.092056 -0.052846
    40 1.206998 0.000000 0.000000 -0.000002 0.101885 -0.080511
    41 3.859672 -0.132566 1.193108 0.441933 -0.039758 -1.502610
    42 1.312560 0.000000 -0.000001 0.000001 -0.060063 -0.756557
    43 0.729361 0.000002 0.000000 0.000001 -0.263859 -0.928787
    44 3.942293 0.050330 0.431043 0.323975 -0.042353 -1.173383
    45 1.539095 0.000003 0.000000 0.000000 -0.056711 -1.177242
    46 1.196323 0.000000 0.000000 0.193939 -0.249771 -0.925754
    47 3.883655 -0.050326 -0.431043 0.254188 -0.050536 -1.089574
    48 1.719575 -0.000005 0.000000 0.018743 -0.055384 -1.084460
    49 1.209182 -0.000001 0.000000 0.091857 -0.091058 -1.127954
    50 3.859828 -0.148935 -1.331282 0.145131 0.071080 -0.602900
    51 1.719425 0.000000 0.000000 -0.000001 0.098232 -0.215107
    52 1.099665 0.000000 0.000000 0.000001 0.066953 -1.966432
    53 0.806014 -0.359835 -1.318334 0.902692 0.272163 -1.272851
    54 1.789783 0.000001 0.000000 0.016660 0.544390 0.649620
    55 1.207003 0.000000 0.000004 0.015883 0.090668 0.974907
    56 2.338454 -1.535743 -6.391511 1.520245 -0.094380 -2.001951
  time 12
    0 2.435226 0.593773 36.434040 1.573935 -0.006992 -0.969057
    1 0.003911 3.345128 -2.981901 1.370030 0.101262 1.559992
    2 4.018331 0.000000 0.000000 0.212913 0.060173 0.039336
    3 3.518565 0.000000 0.000000 0.053134 -0.069391 0.346413
    4 8.942642 0.000000 0.000000 0.180859 0.074145 0.413963
    5 3.307271 0.000000 0.000000 3.050191 -0.053256 0.499160
    6 3.593712 -0.000001 0.000000 0.625979 0.008704 1.018887
    7 1.999997 -3.000001 0.000000 -1.570796 0.000000 -1.326450
    8 2.033350 1.000771 -1.937610 2.900480 1.238764 1.220481
    9 6.028143 0.000002 0.000000 1.112261 1.221779 -0.963622
    10 11.692549 0.000000 0.000002 0.000000 0.000000 -1.469501
    11 11.481698 0.000000 0.000000 -1.124377 0.136598 0.358730
    12 2.676087 -1.712440 0.000000 -1.570796 0.000000 -1.570796
    13 2.033342 1.000767 1.937660 1.726691 -0.938671 2.779811
    14 6.028142 0.000002 0.000000 -1.803530 -0.469080 -0.701081
    15 11.692555 0.000000 0.000005 0.000000 0.000000 -1.817302
    16 11.481671 0.000000 -0.000030 0.245147 -0.008783 0.618629
    17 2.676088 -1.712441 0.000000 1.570797 0.000000 1.570797
    18 -3.890452 0.000004 0.000007 -1.326523 -0.221163 -1.793044
    19 17.848171 0.000000 0.000000 0.000000 0.000000 0.659663
    20 16.525253 0.000000 0.000000 0.350010 0.209594 -1.303758
    21 6.879454 0.000000 0.000000 -0.081333 -0.002951 -0.584373
    22 3.890452 -0.000004 -0.000003 -1.732420 -0.258466 -1.281888
    23 17.848175 0.000000 0.000000 0.000000 0.000000 0.543282
    24 16.525249 0.000000 0.000000 -0.269089 0.064634 -1.230728
    25 6.879452 0.000000 0.000000 -0.007299 -0.002950 -0.584374
    26 3.859704 -0.142404 -1.191975 -0.511025 -0.162469 -1.254549
    27 1.312563 0.000001 0.000001 -0.416582 0.363238 -0.532793
    28 0.729362 0.000002 0.000000 -0.030467 0.149165 -0.264812
    29 3.942327 0.046774 -0.431443 -0.077697 0.066225 -0.838261
    30 1.539092 0.000002 0.000000 -0.194799 0.216732 -0.913778
    31 1.196319 -0.000001 0.000000 -0.005405 0.048648 -0.221714
    32 3.883689 -0.046767 0.431443 0.294009 -0.005054 -0.492816
    33 1.719575 0.000002 0.000000 -0.067381 0.068570 -1.121333
    34 1.209182 -0.000001 0.000000 -0.003165 0.020606 -0.304754
    35 3.859859 -0.137950 1.332466 0.611194 0.091422 -0.576227
    36 1.719429 0.000003 0.000000 0.000001 -0.148422 -0.395022
    37 1.099668 0.000001 0.000000 0.000000 0.000000 -1.060287
    38 0.806048 -0.348923 1.321258 -1.253304 -0.366663 -0.756723
    39 1.789785 0.000000 0.000002 0.000001 -0.092056 -0.052846
    40 1.206998 0.000000 0.000000 -0.000002 0.101885 -0.080511
    41 3.859672 -0.132566 1.193108 0.441933 -0.039758 -1.502610
    42 1.312560 0.000000 -0.000001 0.000001 -0.060063 -0.756557
    43 0.729361 0.000002 0.000000 0.000001 -0.263859 -0.928787
    44 3.942293 0.050330 0.431043 0.323975 -0.042353 -1.173383
    45 1.539095 0.000003 0.000000 0.000000 -0.056711 -1.177242
    46 1.196323 0.000000 0.000000 0.193939 -0.249771 -0.925754
    47 3.883655 -0.050326 -0.431043 0.254188 -0.050536 -1.089574
    48 1.719575 -0.000005 0.000000 0.018743 -0.055384 -1.084460
    49 1.209182 -0.000001 0.000000 0.091857 -0.091058 -1.127954
    50 3.859828 -0.148935 -1.331282 0.145131 0.071080 -0.602900
    51 1.719425 0.000000 0.000000 -0.000001 0.098232 -0.215107
    52 1.099665 0.000000 0.000000 0.000001 0.066953 -1.966432
    53 0.806014 -0.359835 -1.318334 0.902692 0.272163 -1.272851
    54 1.789783 0.000001 0.000000 0.016660 0.544390 0.649620
    55 1.207003 0.000000 0.000004 0.015883 0.090668 0.974907
    56 2.338454 -1.535743 -6.391511 1.520245 -0.094380 -2.001951
  time 13
    0 2.216469 0.339859 36.598107 1.565515 -0.006922 -0.981117
    1 0.003911 3.345128 -2.981901 1.335419 0.100854 1.559849
    2 4.018331 0.000000 0.000000 0.212913 0.060173 0.039336
    3 3.518565 0.000000 0.000000 0.096766 -0.072351 0.346187
    4 8.942642 0.000000 0.000000 0.180859 0.074145 0.413963
    5 3.307271 0.000000 0.000000 3.050191 -0.053256 0.499160
    6 3.593712 -0.000001 0.000000 0.648154 0.013352 0.991025
    7 1.999997 -3.000001 0.000000 -1.570796 0.000000 -1.326450
    8 2.033350 1.000771 -1.937610 2.900480 1.238764 1.220481
    9 6.028143 0.000002 0.000000 1.116283 1.276473 -0.928527
    10 11.692549 0.000000 0.000002 0.000000 0.000000 -1.405453
    11 11.481698 0.000000 0.000000 -1.124377 0.136598 0.358730
    12 2.676087 -1.712440 0.000000 -1.570796 0.000000 -1.570796
    13 2.033342 1.000767 1.937660 1.726691 -0.938671 2.779811
    14 6.028142 0.000002 0.000000 -1.807633 -0.468033 -0.676606
    15 11.692555 0.000000 0.000005 0.000000 0.000000 -1.831957
    16 11.481671 0.000000 -0.000030 0.245147 -0.008783 0.618629
    17 2.676088 -1.712441 0.000000 1.570797 0.000000 1.570797
    18 -3.890452 0.000004 0.000007 -1.331003 -0.189791 -1.790879
    19 17.848171 0.000000 0.000000 0.000000 0.000000 0.622938
    20 16.525253 0.000000 0.000000 0.346830 0.198493 -1.292482
    21 6.879454 0.000000 0.000000 -0.081333 -0.002951 -0.584373
    22 3.890452 -0.000004 -0.000003 -1.738959 -0.221190 -1.286430
    23 17.848175 0.000000 0.000000 0.000000 0.000000 0.512201
    24 16.525249 0.000000 0.000000 -0.268516 0.062014 -1.226027
    25 6.879452 0.000000 0.000000 -0.007299 -0.002950 -0.584374
    26 3.859704 -0.142404 -1.191975 -0.511025 -0.162469 -1.254549
    27 1.312563 0.000001 0.000001 -0.416582 0.363238 -0.532793
    28 0.729362 0.000002 0.000000 -0.030467 0.149165 -0.264812
    29 3.942327 0.046774 -0.431443 -0.077697 0.066225 -0.838261
    30 1.539092 0.000002 0.000000 -0.194799 0.216732 -0.913778
    31 1.196319 -0.000001 0.000000 -0.005405 0.048648 -0.221714
    32 3.883689 -0.046767 0.431443 0.294009 -0.005054 -0.492816
    33 1.719575 0.000002 0.000000 -0.067381 0.068570 -1.121333
    34 1.209182 -0.000001 0.000000 -0.003165 0.020606 -0.304754
    35 3.859859 -0.137950 1.332466 0.611194 0.091422 -0.576227
    36 1.719429 0.000003 0.000000 0.000001 -0.148422 -0.395022
    37 1.099668 0.000001 0.000000 0.000000 0.000000 -1.060287
    38 0.806048 -0.348923 1.321258 -1.253304 -0.366663 -0.756723
    39 1.789785 0.000000 0.000002 0.000001 -0.092056 -0.052846
    40 1.206998 0.000000 0.000000 -0.000002 0.101885 -0.080511
    41 3.859672 -0.132566 1.193108 0.441933 -0.039758 -1.502610
    42 1.312560 0.000000 -0.000001 0.000001 -0.060063 -0.756557
    43 0.729361 0.000002 0.000000 0.000001 -0.263859 -0.928787
    44 3.942293 0.050330 0.431043 0.323975 -0.042353 -1.173383
    45 1.539095 0.000003 0.000000 0.000000 -0.056711 -1.177242
    46 1.196323 0.000000 0.000000 0.193939 -0.249771 -0.925754
    47 3.883655 -0.050326 -0.431043 0.254188 -0.050536 -1.089574
    48 1.719575 -0.000005 0.000000 0.018743 -0.055384 -1.084460
    49 1.209182 -0.000001 0.000000 0.091857 -0.091058 -1.127954
    50 3.859828 -0.148935 -1.331282 0.145131 0.071080 -0.602900
    51 1.719425 0.000000 0.000000 -0.000001 0.098232 -0.215107
    52 1.099665 0.000000 0.000000 0.000001 0.066953 -1.966432
    53 0.806014 -0.359835 -1.318334 0.902692 0.272163 -1.272851
    54 1.789783 0.000001 0.000000 0.016660 0.544390 0.649620
    55 1.207003 0.000000 0.000004 0.015883 0.090668 0.974907
    56 2.338454 -1.535743 -6.391511 1.520245 -0.094380 -2.001951
  time 14
    0 2.021150 0.136728 36.750456 1.557842 -0.006816 -0.992024
    1 0.003911 3.345128 -2.981901 1.304115 0.098194 1.559754
    2 4.018331 0.000000 0.000000 0.212913 0.060173 0.039336
    3 3.518565 0.000000 0.000000 0.136199 -0.075024 0.345894
    4 8.942642 0.000000 0.000000 0.180859 0.074145 0.413963
    5 3.307271 0.000000 0.000000 3.050191 -0.053256 0.499160
    6 3.593712 -0.000001 0.000000 0.668620 0.017578 0.960080
    7 1.999997 -3.000001 0.000000 -1.570796 0.000000 -1.326450
    8 2.033350 1.000771 -1.937610 2.900480 1.238764 1.220481
    9 6.028143 0.000002 0.000000 1.123369 1.329261 -0.892570
    10 11.692549 0.000000 0.000002 0.000000 0.000000 -1.340815
    11 11.481698 0.000000 0.000000 -1.124377 0.136598 0.358730
    12 2.676087 -1.712440 0.000000 -1.570796 0.000000 -1.570796
    13 2.033342 1.000767 1.937660 1.726691 -0.938671 2.779811
    14 6.028142 0.000002 0.000000 -1.813402 -0.469399 -0.652000
    15 11.692555 0.000000 0.000005 0.000000 0.000000 -1.844673
    16 11.481671 0.000000 -0.000030 0.245147 -0.008783 0.618629
    17 2.676088 -1.712441 0.000000 1.570797 0.000000 1.570797
    18 -3.890452 0.000004 0.000007 -1.331384 -0.160559 -1.789346
    19 17.848171 0.000000 0.000000 0.000000 0.000000 0.587527
    20 16.525253 0.000000 0.000000 0.341474 0.185914 -1.281163
    21 6.879454 0.000000 0.000000 -0.081333 -0.002951 -0.584373
    22 3.890452 -0.000004 -0.000003 -1.743113 -0.185858 -1.291062
    23 17.848175 0.000000 0.000000 0.000000 0.000000 0.479340
    24 16.525249 0.000000 0.000000 -0.269404 0.058474 -1.218825
    25 6.879452 0.000000 0.000000 -0.007299 -0.002950 -0.584374
    26 3.859704 -0.142404 -1.191975 -0.511025 -0.162469 -1.254549
    27 1.312563 0.000001 0.000001 -0.416582 0.363238 -0.532793
    28 0.729362 0.000002 0.000000 -0.030467 0.149165 -0.264812
    29 3.942327 0.046774 -0.431443 -0.077697 0.066225 -0.838261
    30 1.539092 0.000002 0.000000 -0.194799 0.216732 -0.913778
    31 1.196319 -0.000001 0.000000 -0.005405 0.048648 -0.221714
    32 3.883689 -0.046767 0.431443 0.294009 -0.005054 -0.492816
    33 1.719575 0.000002 0.000000 -0.067381 0.068570 -1.121333
    34 1.209182 -0.000001 0.000000 -0.003165 0.020606 -0.304754
    35 3.859859 -0.137950 1.332466 0.611194 0.091422 -0.576227
    36 1.719429 0.000003 0.000000 0.000001 -0.148422 -0.395022
    37 1.099668 0.000001 0.000000 0.000000 0.000000 -1.060287
    38 0.806048 -0.348923 1.321258 -1.253304 -0.366663 -0.756723
    39 1.789785 0.000000 0.000002 0.000001 -0.092056 -0.052846
    40 1.206998 0.000000 0.000000 -0.000002 0.101885 -0.080511
    41 3.859672 -0.132566 1.193108 0.441933 -0.039758 -1.502610
    42 1.312560 0.000000 -0.000001 0.000001 -0.060063 -0.756557
    43 0.729361 0.000002 0.000000 0.000001 -0.263859 -0.928787
    44 3.942293 0.050330 0.431043 0.323975 -0.042353 -1.173383
    45 1.539095 0.000003 0.000000 0.000000 -0.056711 -1.177242
    46 1.196323 0.000000 0.000000 0.193939 -0.249771 -0.925754
    47 3.883655 -0.050326 -0.431043 0.254188 -0.050536 -1.089574
    48 1.719575 -0.000005 0.000000 0.018743 -0.055384 -1.084460
    49 1.209182 -0.000001 0.000000 0.091857 -0.091058 -1.127954
    50 3.859828 -0.148935 -1.331282 0.145131 0.071080 -0.602900
    51 1.719425 0.000000 0.000000 -0.000001 0.098232 -0.215107
    52 1.099665 0.000000 0.000000 0.000001 0.066953 -1.966432
    53 0.806014 -0.359835 -1.318334 0.902692 0.272163 -1.272851
    54 1.789783 0.000001 0.000000 0.016660 0.544390 0.649620
    55 1.207003 0.000000 0.000004 0.015883 0.090668 0.974907
    56 2.338454 -1.535743 -6.391511 1.520245 -0.094380 -2.001951
  time 15
    0 1.853177 -0.046871 36.883272 1.551315 -0.006745 -1.001241
    1 0.003911 3.345128 -2.981901 1.277509 0.094299 1.559706
    2 4.018331 0.000000 0.000000 0.212913 0.060173 0.039336
    3 3.518565 0.000000 0.000000 0.169800 -0.077277 0.345533
    4 8.942642 0.000000 0.000000 0.180859 0.074145 0.413963
    5 3.307271 0.000000 0.000000 3.050191 -0.053256 0.499160
    6 3.593712 -0.000001 0.000000 0.686406 0.021183 0.929980
    7 1.999997 -3.000001 0.000000 -1.570796 0.000000 -1.326450
    8 2.033350 1.000771 -1.937610 2.900480 1.238764 1.220481
    9 6.028143 0.000002 0.000000 1.132944 1.376659 -0.857953
    10 11.692549 0.000000 0.000002 0.000000 0.000000 -1.280312
    11 11.481698 0.000000 0.000000 -1.124377 0.136598 0.358730
    12 2.676087 -1.712440 0.000000 -1.570796 0.000000 -1.570796
    13 2.033342 1.000767 1.937660 1.726691 -0.938671 2.779811
    14 6.028142 0.000002 0.000000 -1.820069 -0.471994 -0.628977
    15 11.692555 0.000000 0.000005 0.000000 0.000000 -1.854985
    16 11.481671 0.000000 -0.000030 0.245147 -0.008783 0.618629
    17 2.676088 -1.712441 0.000000 1.570797 0.000000 1.570797
    18 -3.890452 0.000004 0.000007 -1.328334 -0.134002 -1.788895
    19 17.848171 0.000000 0.000000 0.000000 0.000000 0.554171
    20 16.525253 0.000000 0.000000 0.335424 0.172232 -1.270101
    21 6.879454 0.000000 0.000000 -0.081333 -0.002951 -0.584373
    22 3.890452 -0.000004 -0.000003 -1.745410 -0.154367 -1.295968
    23 17.848175 0.000000 0.000000 0.000000 0.000000 0.448483
    24 16.525249 0.000000 0.000000 -0.270636 0.054198 -1.211374
    25 6.879452 0.000000 0.000000 -0.007299 -0.002950 -0.584374
    26 3.859704 -0.142404 -1.191975 -0.511025 -0.162469 -1.254549
    27 1.312563 0.000001 0.000001 -0.416582 0.363238 -0.532793
    28 0.729362 0.000002 0.000000 -0.030467 0.149165 -0.264812
    29 3.942327 0.046774 -0.431443 -0.077697 0.066225 -0.838261
    30 1.539092 0.000002 0.000000 -0.194799 0.216732 -0.913778
    31 1.196319 -0.000001 0.000000 -0.005405 0.048648 -0.221714
    32 3.883689 -0.046767 0.431443 0.294009 -0.005054 -0.492816
    33 1.719575 0.000002 0.000000 -0.067381 0.068570 -1.121333
    34 1.209182 -0.000001 0.000000 -0.003165 0.020606 -0.304754
    35 3.859859 -0.137950 1.332466 0.611194 0.091422 -0.576227
    36 1.719429 0.000003 0.000000 0.000001 -0.148422 -0.395022
    37 1.099668 0.000001 0.000000 0.000000 0.000000 -1.060287
    38 0.806048 -0.348923 1.321258 -1.253304 -0.366663 -0.756723
    39 1.789785 0.000000 0.000002 0.000001 -0.092056 -0.052846
    40 1.206998 0.000000 0.000000 -0.000002 0.101885 -0.080511
    41 3.859672 -0.132566 1.193108 0.441933 -0.039758 -1.502610
    42 1.312560 0.000000 -0.000001 0.000001 -0.060063 -0.756557
    43 0.729361 0.000002 0.000000 0.000001 -0.263859 -0.928787
    44 3.942293 0.050330 0.431043 0.323975 -0.042353 -1.173383
    45 1.539095 0.000003 0.000000 0.000000 -0.056711 -1.177242
    46 1.196323 0.000000 0.000000 0.193939 -0.249771 -0.925754
    47 3.883655 -0.050326 -0.431043 0.254188 -0.050536 -1.089574
    48 1.719575 -0.000005 0.000000 0.018743 -0.055384 -1.084460
    49 1.209182 -0.000001 0.000000 0.091857 -0.091058 -1.127954
    50 3.859828 -0.148935 -1.331282 0.145131 0.071080 -0.602900
    51 1.719425 0.000000 0.000000 -0.000001 0.098232 -0.215107
    52 1.099665 0.000000 0.000000 0.000001 0.066953 -1.966432
    53 0.806014 -0.359835 -1.318334 0.902692 0.272163 -1.272851
    54 1.789783 0.000001 0.000000 0.016660 0.544390 0.649620
    55 1.207003 0.000000 0.000004 0.015883 0.090668 0.974907
    56 2.338454 -1.535743 -6.391511 1.520245 -0.094380 -2.001951
  time 16
    0 1.724266 -0.195313 36.988744 1.546233 -0.006710 -1.008461
    1 0.003911 3.345128 -2.981901 1.256896 0.090236 1.559659
    2 4.018331 0.000000 0.000000 0.212913 0.060173 0.039336
    3 3.518565 0.000000 0.000000 0.195887 -0.079026 0.345217
    4 8.942642 0.000000 0.000000 0.180859 0.074145 0.413963
    5 3.307271 0.000000 0.000000 3.050191 -0.053256 0.499160
    6 3.593712 -0.000001 0.000000 0.700404 0.024000 0.903511
    7 1.999997 -3.000001 0.000000 -1.570796 0.000000 -1.326450
    8 2.033350 1.000771 -1.937610 2.900480 1.238764 1.220481
    9 6.028143 0.000002 0.000000 1.143860 1.415141 -0.826969
    10 11.692549 0.000000 0.000002 0.000000 0.000000 -1.229344
    11 11.481698 0.000000 0.000000 -1.124377 0.136598 0.358730
    12 2.676087 -1.712440 0.000000 -1.570796 0.000000 -1.570796
    13 2.033342 1.000767 1.937660 1.726691 -0.938671 2.779811
    14 6.028142 0.000002 0.000000 -1.826415 -0.474908 -0.609714
    15 11.692555 0.000000 0.000005 0.000000 0.000000 -1.862662
    16 11.481671 0.000000 -0.000030 0.245147 -0.008783 0.618629
    17 2.676088 -1.712441 0.000000 1.570797 0.000000 1.570797
    18 -3.890452 0.000004 0.000007 -1.323092 -0.111969 -1.789166
    19 17.848171 0.000000 0.000000 0.000000 0.000000 0.525661
    20 16.525253 0.000000 0.000000 0.329327 0.159002 -1.260325
    21 6.879454 0.000000 0.000000 -0.081333 -0.002951 -0.584373
    22 3.890452 -0.000004 -0.000003 -1.745764 -0.128805 -1.300600
    23 17.848175 0.000000 0.000000 0.000000 0.000000 0.422001
    24 16.525249 0.000000 0.000000 -0.272298 0.049440 -1.204372
    25 6.879452 0.000000 0.000000 -0.007299 -0.002950 -0.584374
    26 3.859704 -0.142404 -1.191975 -0.511025 -0.162469 -1.254549
    27 1.312563 0.000001 0.000001 -0.416582 0.363238 -0.532793
    28 0.729362 0.000002 0.000000 -0.030467 0.149165 -0.264812
    29 3.942327 0.046774 -0.431443 -0.077697 0.066225 -0.838261
    30 1.539092 0.000002 0.000000 -0.194799 0.216732 -0.913778
    31 1.196319 -0.000001 0.000000 -0.005405 0.048648 -0.221714
    32 3.883689 -0.046767 0.431443 0.294009 -0.005054 -0.492816
    33 1.719575 0.000002 0.000000 -0.067381 0.068570 -1.121333
    34 1.209182 -0.000001 0.000000 -0.003165 0.020606 -0.304754
    35 3.859859 -0.137950 1.332466 0.611194 0.091422 -0.576227
    36 1.719429 0.000003 0.000000 0.000001 -0.148422 -0.395022
    37 1.099668 0.000001 0.000000 0.000000 0.000000 -1.060287
    38 0.806048 -0.348923 1.321258 -1.253304 -0.366663 -0.756723
    39 1.789785 0.000000 0.000002 0.000001 -0.092056 -0.052846
    40 1.206998 0.000000 0.000000 -0.000002 0.101885 -0.080511
    41 3.859672 -0.132566 1.193108 0.441933 -0.039758 -1.502610
    42 1.312560 0.000000 -0.000001 0.000001 -0.060063 -0.756557
    43 0.729361 0.000002 0.000000 0.000001 -0.263859 -0.928787
    44 3.942293 0.050330 0.431043 0.323975 -0.042353 -1.173383
    45 1.539095 0.000003 0.000000 0.000000 -0.056711 -1.177242
    46 1.196323 0.000000 0.000000 0.193939 -0.249771 -0.925754
    47 3.883655 -0.050326 -0.431043 0.254188 -0.050536 -1.089574
    48 1.719575 -0.000005 0.000000 0.018743 -0.055384 -1.084460
    49 1.209182 -0.000001 0.000000 0.091857 -0.091058 -1.127954
    50 3.859828 -0.148935 -1.331282 0.145131 0.071080 -0.602900
    51 1.719425 0.000000 0.000000 -0.000001 0.098232 -0.215107
    52 1.099665 0.000000 0.000000 0.000001 0.066953 -1.966432
    53 0.806014 -0.359835 -1.318334 0.902692 0.272163 -1.272851
    54 1.789783 0.000001 0.000000 0.016660 0.544390 0.649620
    55 1.207003 0.000000 0.000004 0.015883 0.090668 0.974907
    56 2.338454 -1.535743 -6.391511 1.520245 -0.094380 -2.001951
  time 17
    0 1.642233 -0.296879 37.059059 1.542994 -0.006674 -1.013147
    1 0.003911 3.345128 -2.981901 1.243521 0.087036 1.559611
    2 4.018331 0.000000 0.000000 0.212913 0.060173 0.039336
    3 3.518565 0.000000 0.000000 0.212759 -0.080153 0.344969
    4 8.942642 0.000000 0.000000 0.180859 0.074145 0.413963
    5 3.307271 0.000000 0.000000 3.050191 -0.053256 0.499160
    6 3.593712 -0.000001 0.000000 0.709644 0.025832 0.883712
    7 1.999997 -3.000001 0.000000 -1.570796 0.000000 -1.326450
    8 2.033350 1.000771 -1.937610 2.900480 1.238764 1.220481
    9 6.028143 0.000002 0.000000 1.154105 1.441034 -0.803445
    10 11.692549 0.000000 0.000002 0.000000 0.000000 -1.194071
    11 11.481698 0.000000 0.000000 -1.124377 0.136598 0.358730
    12 2.676087 -1.712440 0.000000 -1.570796 0.000000 -1.570796
    13 2.033342 1.000767 1.937660 1.726691 -0.938671 2.779811
    14 6.028142 0.000002 0.000000 -1.831159 -0.477275 -0.596520
    15 11.692555 0.000000 0.000005 0.000000 0.000000 -1.867469
    16 11.481671 0.000000 -0.000030 0.245147 -0.008783 0.618629
    17 2.676088 -1.712441 0.000000 1.570797 0.000000 1.570797
    18 -3.890452 0.000004 0.000007 -1.317755 -0.096843 -1.789617
    19 17.848171 0.000000 0.000000 0.000000 0.000000 0.505697
    20 16.525253 0.000000 0.000000 0.324449 0.148703 -1.253294
    21 6.879454 0.000000 0.000000 -0.081333 -0.002951 -0.584373
    22 3.890452 -0.000004 -0.000003 -1.744615 -0.111495 -1.304143
    23 17.848175 0.000000 0.000000 0.000000 0.000000 0.403234
    24 16.525249 0.000000 0.000000 -0.274046 0.045165 -1.199070
    25 6.879452 0.000000 0.000000 -0.007299 -0.002950 -0.584374
    26 3.859704 -0.142404 -1.191975 -0.511025 -0.162469 -1.254549
    27 1.312563 0.000001 0.000001 -0.416582 0.363238 -0.532793
    28 0.729362 0.000002 0.000000 -0.030467 0.149165 -0.264812
    29 3.942327 0.046774 -0.431443 -0.077697 0.066225 -0.838261
    30 1.539092 0.000002 0.000000 -0.194799 0.216732 -0.913778
    31 1.196319 -0.000001 0.000000 -0.005417 0.048648 -0.221714
    32 3.883689 -0.046767 0.431443 0.294009 -0.005054 -0.492816
    33 1.719575 0.000002 0.000000 -0.067381 0.068570 -1.121333
    34 1.209182 -0.000001 0.000000 -0.003165 0.020606 -0.304754
    35 3.859859 -0.137950 1.332466 0.611194 0.091422 -0.576227
    36 1.719429 0.000003 0.000000 0.000001 -0.148422 -0.395022
    37 1.099668 0.000001 0.000000 0.000000 0.000000 -1.060287
    38 0.806048 -0.348923 1.321258 -1.253304 -0.366663 -0.756723
    39 1.789785 0.000000 0.000002 0.000001 -0.092056 -0.052846
    40 1.206998 0.000000 0.000000 -0.000002 0.101885 -0.080511
    41 3.859672 -0.132566 1.193108 0.441933 -0.039758 -1.502610
    42 1.312560 0.000000 -0.000001 0.000001 -0.060063 -0.756557
    43 0.729361 0.000002 0.000000 0.000001 -0.263859 -0.928787
    44 3.942293 0.050330 0.431043 0.323975 -0.042353 -1.173383
    45 1.539095 0.000003 0.000000 0.000000 -0.056711 -1.177242
    46 1.196323 0.000000 0.000000 0.193939 -0.249771 -0.925754
    47 3.883655 -0.050326 -0.431043 0.254188 -0.050536 -1.089574
    48 1.719575 -0.000005 0.000000 0.018743 -0.055384 -1.084460
    49 1.209182 -0.000001 0.000000 0.091857 -0.091058 -1.127954
    50 3.859828 -0.148935 -1.331282 0.145131 0.071080 -0.602900
    51 1.719425 0.000000 0.000000 -0.000001 0.098232 -0.215107
    52 1.099665 0.000000 0.000000 0.000001 0.066953 -1.966432
    53 0.806014 -0.359835 -1.318334 0.902692 0.272163 -1.272851
    54 1.789783 0.000001 0.000000 0.016660 0.544390 0.649620
    55 1.207003 0.000000 0.000004 0.015883 0.090668 0.974907
    56 2.338454 -1.535743 -6.391511 1.520245 -0.094380 -2.001951
  time 18
    0 1.610982 -0.335943 37.086403 1.541799 -0.006674 -1.014760
    1 0.003911 3.345128 -2.981901 1.238775 0.085742 1.559611
    2 4.018331 0.000000 0.000000 0.212913 0.060173 0.039336
    3 3.518565 0.000000 0.000000 0.218752 -0.080548 0.344879
    4 8.942642 0.000000 0.000000 0.180859 0.074145 0.413963
    5 3.307271 0.000000 0.000000 3.050191 -0.053256 0.499160
    6 3.593712 -0.000001 0.000000 0.712970 0.026480 0.875437
    7 1.999997 -3.000001 0.000000 -1.570796 0.000000 -1.326450
    8 2.033350 1.000771 -1.937610 2.900480 1.238764 1.220481
    9 6.028143 0.000002 0.000000 1.158989 1.450523 -0.793691
    10 11.692549 0.000000 0.000002 0.000000 0.000000 -1.181076
    11 11.481698 0.000000 0.000000 -1.124377 0.136598 0.358730
    12 2.676087 -1.712440 0.000000 -1.570796 0.000000 -1.570796
    13 2.033342 1.000767 1.937660 1.726691 -0.938671 2.779811
    14 6.028142 0.000002 0.000000 -1.833082 -0.478231 -0.591638
    15 11.692555 0.000000 0.000005 0.000000 0.000000 -1.869175
    16 11.481671 0.000000 -0.000030 0.245147 -0.008783 0.618629
    17 2.676088 -1.712441 0.000000 1.570797 0.000000 1.570797
    18 -3.890452 0.000004 0.000007 -1.315372 -0.091249 -1.789797
    19 17.848171 0.000000 0.000000 0.000000 0.000000 0.498138
    20 16.525253 0.000000 0.000000 0.322464 0.144619 -1.250550
    21 6.879454 0.000000 0.000000 -0.081333 -0.002951 -0.584373
    22 3.890452 -0.000004 -0.000003 -1.743820 -0.105140 -1.305506
    23 17.848175 0.000000 0.000000 0.000000 0.000000 0.396113
    24 16.525249 0.000000 0.000000 -0.274848 0.043280 -1.196970
    25 6.879452 0.000000 0.000000 -0.007299 -0.002950 -0.584374
    26 3.859704 -0.142404 -1.191975 -0.511025 -0.162469 -1.254549
    27 1.312563 0.000001 0.000001 -0.416582 0.363238 -0.532793
    28 0.729362 0.000002 0.000000 -0.030467 0.149165 -0.264812
    29 3.942327 0.046774 -0.431443 -0.077697 0.066225 -0.838261
    30 1.539092 0.000002 0.000000 -0.194799 0.216732 -0.913778
    31 1.196319 -0.000001 0.000000 -0.005405 0.048648 -0.221714
    32 3.883689 -0.046767 0.431443 0.294009 -0.005054 -0.492816
    33 1.719575 0.000002 0.000000 -0.067381 0.068570 -1.121333
    34 1.209182 -0.000001 0.000000 -0.003165 0.020606 -0.304754
    35 3.859859 -0.137950 1.332466 0.611194 0.091422 -0.576227
    36 1.719429 0.000003 0.000000 0.000001 -0.148422 -0.395022
    37 1.099668 0.000001 0.000000 0.000000 0.000000 -1.060287
    38 0.806048 -0.348923 1.321258 -1.253304 -0.366663 -0.756723
    39 1.789785 0.000000 0.000002 0.000001 -0.092056 -0.052846
    40 1.206998 0.000000 0.000000 -0.000002 0.101885 -0.080511
    41 3.859672 -0.132566 1.193108 0.441933 -0.039758 -1.502610
    42 1.312560 0.000000 -0.000001 0.000001 -0.060063 -0.756557
    43 0.729361 0.000002 0.000000 0.000001 -0.263859 -0.928787
    44 3.942293 0.050330 0.431043 0.323975 -0.042353 -1.173383
    45 1.539095 0.000003 0.000000 0.000000 -0.056711 -1.177242
    46 1.196323 0.000000 0.000000 0.193939 -0.249771 -0.925754
    47 3.883655 -0.050326 -0.431043 0.254188 -0.050536 -1.089574
    48 1.719575 -0.000005 0.000000 0.018743 -0.055384 -1.084460
    49 1.209182 -0.000001 0.000000 0.091857 -0.091058 -1.127954
    50 3.859828 -0.148935 -1.331282 0.145131 0.071080 -0.602900
    51 1.719425 0.000000 0.000000 -0.000001 0.098232 -0.215107
    52 1.099665 0.000000 0.000000 0.000001 0.066953 -1.966432
    53 0.806014 -0.359835 -1.318334 0.902692 0.272163 -1.272851
    54 1.789783 0.000001 0.000000 0.016660 0.544390 0.649620
    55 1.207003 0.000000 0.000004 0.015883 0.090668 0.974907
    56 2.338454 -1.535743 -6.391511 1.520245 -0.094380 -2.001951
end
