// Created by Crowbar 0.24.0.0
version 1
nodes
  0 "ValveBiped.Bip01_Pelvis" -1
  1 "ValveBiped.Bip01_Spine" 0
  2 "ValveBiped.Bip01_Spine1" 1
  3 "ValveBiped.Bip01_Spine2" 2
  4 "ValveBiped.Bip01_Spine4" 3
  5 "ValveBiped.Bip01_Neck1" 4
  6 "ValveBiped.Bip01_Head1" 5
  7 "ValveBiped.forward" 6
  8 "ValveBiped.Bip01_R_Clavicle" 4
  9 "ValveBiped.Bip01_R_UpperArm" 8
  10 "ValveBiped.Bip01_R_Forearm" 9
  11 "ValveBiped.Bip01_R_Hand" 10
  12 "ValveBiped.Anim_Attachment_RH" 11
  13 "ValveBiped.Bip01_L_Clavicle" 4
  14 "ValveBiped.Bip01_L_UpperArm" 13
  15 "ValveBiped.Bip01_L_Forearm" 14
  16 "ValveBiped.Bip01_L_Hand" 15
  17 "ValveBiped.Anim_Attachment_LH" 16
  18 "ValveBiped.Bip01_R_Thigh" 0
  19 "ValveBiped.Bip01_R_Calf" 18
  20 "ValveBiped.Bip01_R_Foot" 19
  21 "ValveBiped.Bip01_R_Toe0" 20
  22 "ValveBiped.Bip01_L_Thigh" 0
  23 "ValveBiped.Bip01_L_Calf" 22
  24 "ValveBiped.Bip01_L_Foot" 23
  25 "ValveBiped.Bip01_L_Toe0" 24
  26 "ValveBiped.Bip01_L_Finger4" 16
  27 "ValveBiped.Bip01_L_Finger41" 26
  28 "ValveBiped.Bip01_L_Finger42" 27
  29 "ValveBiped.Bip01_L_Finger3" 16
  30 "ValveBiped.Bip01_L_Finger31" 29
  31 "ValveBiped.Bip01_L_Finger32" 30
  32 "ValveBiped.Bip01_L_Finger2" 16
  33 "ValveBiped.Bip01_L_Finger21" 32
  34 "ValveBiped.Bip01_L_Finger22" 33
  35 "ValveBiped.Bip01_L_Finger1" 16
  36 "ValveBiped.Bip01_L_Finger11" 35
  37 "ValveBiped.Bip01_L_Finger12" 36
  38 "ValveBiped.Bip01_L_Finger0" 16
  39 "ValveBiped.Bip01_L_Finger01" 38
  40 "ValveBiped.Bip01_L_Finger02" 39
  41 "ValveBiped.Bip01_R_Finger4" 11
  42 "ValveBiped.Bip01_R_Finger41" 41
  43 "ValveBiped.Bip01_R_Finger42" 42
  44 "ValveBiped.Bip01_R_Finger3" 11
  45 "ValveBiped.Bip01_R_Finger31" 44
  46 "ValveBiped.Bip01_R_Finger32" 45
  47 "ValveBiped.Bip01_R_Finger2" 11
  48 "ValveBiped.Bip01_R_Finger21" 47
  49 "ValveBiped.Bip01_R_Finger22" 48
  50 "ValveBiped.Bip01_R_Finger1" 11
  51 "ValveBiped.Bip01_R_Finger11" 50
  52 "ValveBiped.Bip01_R_Finger12" 51
  53 "ValveBiped.Bip01_R_Finger0" 11
  54 "ValveBiped.Bip01_R_Finger01" 53
  55 "ValveBiped.Bip01_R_Finger02" 54
  56 "ValveBiped.baton_parent" 11
end
skeleton
  time 0
    0 1.610982 -0.335943 37.086403 1.541799 -0.006674 -1.014760
    1 0.007450 3.343750 -2.980469 1.238765 0.085742 1.559561
    2 4.018331 0.000000 0.000000 0.212912 0.060163 0.039323
    3 3.518565 0.000000 0.000000 0.218752 -0.080548 0.344879
    4 8.942642 0.000000 0.000000 0.180859 0.074145 0.413963
    5 3.307271 0.000000 0.000000 3.050323 -0.053260 0.499146
    6 3.593712 -0.000001 0.000000 0.712970 0.026480 0.875437
    7 1.999997 -3.000001 0.000000 -1.570796 0.000000 -1.326450
    8 2.033350 1.000771 -1.937610 2.900480 1.238764 1.220481
    9 6.028143 0.000002 0.000000 1.158989 1.450523 -0.793691
    10 11.692549 0.000000 0.000002 0.000000 0.000000 -1.181076
    11 11.481698 0.000000 0.000000 -1.124377 0.136598 0.358730
    12 2.676087 -1.712440 0.000000 -1.570796 0.000000 -1.570796
    13 2.033342 1.000767 1.937660 1.726643 -0.938666 2.779844
    14 6.028142 0.000002 0.000000 -1.833082 -0.478231 -0.591638
    15 11.692555 0.000000 0.000005 0.000000 0.000000 -1.869175
    16 11.481671 0.000000 -0.000030 0.245175 -0.008813 0.618583
    17 2.676088 -1.712441 0.000000 1.570797 0.000000 1.570797
    18 -3.890452 0.000004 0.000007 -1.315372 -0.091249 -1.789797
    19 17.848171 0.000000 0.000000 0.000000 0.000000 0.498138
    20 16.525253 0.000000 0.000000 0.322464 0.144619 -1.250550
    21 6.879454 0.000000 0.000000 -0.081333 -0.002951 -0.584373
    22 3.890452 -0.000004 -0.000003 -1.743820 -0.105140 -1.305506
    23 17.848175 0.000000 0.000000 0.000000 0.000000 0.396113
    24 16.525249 0.000000 0.000000 -0.274848 0.043280 -1.196970
    25 6.879452 0.000000 0.000000 -0.007299 -0.002950 -0.584374
    26 3.859704 -0.142404 -1.191975 -0.511025 -0.162469 -1.254549
    27 1.312563 0.000001 0.000001 -0.416582 0.363238 -0.532793
    28 0.729362 0.000002 0.000000 -0.030467 0.149165 -0.264812
    29 3.942327 0.046774 -0.431443 -0.077697 0.066225 -0.838261
    30 1.539092 0.000002 0.000000 -0.194799 0.216732 -0.913778
    31 1.196319 -0.000001 0.000000 -0.005405 0.048648 -0.221714
    32 3.883689 -0.046767 0.431443 0.294009 -0.005054 -0.492816
    33 1.719575 0.000002 0.000000 -0.067381 0.068570 -1.121333
    34 1.209182 -0.000001 0.000000 -0.003165 0.020606 -0.304754
    35 3.859859 -0.137950 1.332466 0.611194 0.091422 -0.576227
    36 1.719429 0.000003 0.000000 0.000001 -0.148422 -0.395022
    37 1.099668 0.000001 0.000000 0.000000 0.000000 -1.060287
    38 0.806048 -0.348923 1.321258 -1.253304 -0.366663 -0.756723
    39 1.789785 0.000000 0.000002 0.000001 -0.092056 -0.052846
    40 1.206998 0.000000 0.000000 -0.000002 0.101885 -0.080511
    41 3.859672 -0.132566 1.193108 0.441933 -0.039758 -1.502610
    42 1.312560 0.000000 -0.000001 0.000001 -0.060063 -0.756557
    43 0.729361 0.000002 0.000000 0.000001 -0.263859 -0.928787
    44 3.942293 0.050330 0.431043 0.323975 -0.042353 -1.173383
    45 1.539095 0.000003 0.000000 0.000000 -0.056711 -1.177242
    46 1.196323 0.000000 0.000000 0.193939 -0.249771 -0.925754
    47 3.883655 -0.050326 -0.431043 0.254188 -0.050536 -1.089574
    48 1.719575 -0.000005 0.000000 0.018743 -0.055384 -1.084460
    49 1.209182 -0.000001 0.000000 0.091857 -0.091058 -1.127954
    50 3.859828 -0.148935 -1.331282 0.145131 0.071080 -0.602900
    51 1.719425 0.000000 0.000000 -0.000001 0.098232 -0.215107
    52 1.099665 0.000000 0.000000 0.000001 0.066953 -1.966432
    53 0.806014 -0.359835 -1.318334 0.902692 0.272163 -1.272851
    54 1.789783 0.000001 0.000000 0.016660 0.544390 0.649620
    55 1.207003 0.000000 0.000004 0.015883 0.090668 0.974907
    56 2.338454 -1.535743 -6.391511 1.520245 -0.094380 -2.001951
  time 1
    0 1.610982 -0.496104 36.902804 1.527300 -0.004379 -0.917286
    1 0.007450 3.343750 -2.980469 1.238765 0.085742 1.559561
    2 4.018331 0.000000 0.000000 0.311087 0.063231 0.040155
    3 3.518565 0.000000 0.000000 0.233381 -0.081519 0.283411
    4 8.942642 0.000000 0.000000 0.180859 0.074145 0.413963
    5 3.307271 0.000000 0.000000 3.050323 -0.053260 0.636594
    6 3.593712 -0.000001 0.000000 0.598353 0.002788 0.881179
    7 1.999997 -3.000001 0.000000 -1.570796 0.000000 -1.326450
    8 2.033350 1.000771 -1.937610 2.900480 1.238764 1.220481
    9 6.028143 0.000002 0.000000 1.577814 1.293401 -0.524114
    10 11.692549 0.000000 0.000002 0.000000 0.000000 -1.212889
    11 11.481698 0.000000 0.000000 -1.124377 0.136598 0.358730
    12 2.676087 -1.712440 0.000000 -1.570796 0.000000 -1.570796
    13 2.033342 1.000767 1.937660 1.701693 -0.941339 2.810746
    14 6.028142 0.000002 0.000000 -1.649743 -0.548982 -0.798518
    15 11.692555 0.000000 0.000005 0.000000 0.000000 -1.833197
    16 11.481671 0.000000 -0.000030 0.338557 -0.009006 0.538549
    17 2.676088 -1.712441 0.000000 1.570797 0.000000 1.570797
    18 -3.890452 0.000004 0.000007 -1.230740 -0.051317 -1.803868
    19 17.848171 0.000000 0.000000 0.000000 0.000000 0.519253
    20 16.525253 0.000000 0.000000 0.333320 0.144744 -1.272545
    21 6.879454 0.000000 0.000000 -0.081333 -0.002951 -0.584373
    22 3.890452 -0.000004 -0.000003 -1.655982 -0.154604 -1.316225
    23 17.848175 0.000000 0.000000 0.000000 0.000000 0.458942
    24 16.525249 0.000000 0.000000 -0.266367 0.049486 -1.221426
    25 6.879452 0.000000 0.000000 -0.007299 -0.002950 -0.584374
    26 3.859704 -0.142404 -1.191975 -0.511025 -0.162469 -1.254549
    27 1.312563 0.000001 0.000001 -0.416582 0.363238 -0.532793
    28 0.729362 0.000002 0.000000 -0.030467 0.149165 -0.264812
    29 3.942327 0.046774 -0.431443 -0.077697 0.066225 -0.838261
    30 1.539092 0.000002 0.000000 -0.194799 0.216732 -0.913778
    31 1.196319 -0.000001 0.000000 -0.005405 0.048648 -0.221714
    32 3.883689 -0.046767 0.431443 0.294009 -0.005054 -0.492816
    33 1.719575 0.000002 0.000000 -0.067381 0.068570 -1.121333
    34 1.209182 -0.000001 0.000000 -0.003165 0.020606 -0.304754
    35 3.859859 -0.137950 1.332466 0.611194 0.091422 -0.576227
    36 1.719429 0.000003 0.000000 0.000001 -0.148422 -0.395022
    37 1.099668 0.000001 0.000000 0.000000 0.000000 -1.060287
    38 0.806048 -0.348923 1.321258 -1.253304 -0.366663 -0.756723
    39 1.789785 0.000000 0.000002 0.000001 -0.092056 -0.052846
    40 1.206998 0.000000 0.000000 -0.000002 0.101885 -0.080511
    41 3.859672 -0.132566 1.193108 0.441933 -0.039758 -1.502610
    42 1.312560 0.000000 -0.000001 0.000001 -0.060063 -0.756557
    43 0.729361 0.000002 0.000000 0.000001 -0.263859 -0.928787
    44 3.942293 0.050330 0.431043 0.323975 -0.042353 -1.173383
    45 1.539095 0.000003 0.000000 0.000000 -0.056711 -1.177242
    46 1.196323 0.000000 0.000000 0.193939 -0.249771 -0.925754
    47 3.883655 -0.050326 -0.431043 0.254188 -0.050536 -1.089574
    48 1.719575 -0.000005 0.000000 0.018743 -0.055384 -1.084460
    49 1.209182 -0.000001 0.000000 0.091857 -0.091058 -1.127954
    50 3.859828 -0.148935 -1.331282 0.145131 0.071080 -0.602900
    51 1.719425 0.000000 0.000000 -0.000001 0.098232 -0.215107
    52 1.099665 0.000000 0.000000 0.000001 0.066953 -1.966432
    53 0.806014 -0.359835 -1.318334 0.902692 0.272163 -1.272851
    54 1.789783 0.000001 0.000000 0.016660 0.544390 0.649620
    55 1.207003 0.000000 0.000004 0.015883 0.090668 0.974907
    56 2.338454 -1.535743 -6.391511 1.520245 -0.094380 -2.001951
  time 2
    0 1.610982 -0.707048 36.523886 1.499598 0.002401 -0.730405
    1 0.007450 3.343750 -2.980469 1.238765 0.085742 1.559561
    2 4.018331 0.000000 0.000000 0.409284 0.066203 0.041265
    3 3.518565 0.000000 0.000000 0.257977 -0.083137 0.223498
    4 8.942642 0.000000 0.000000 0.180859 0.074145 0.413963
    5 3.307271 0.000000 0.000000 3.050323 -0.053260 0.774042
    6 3.593712 -0.000001 0.000000 0.384180 -0.046652 0.903975
    7 1.999997 -3.000001 0.000000 -1.570796 0.000000 -1.326450
    8 2.033350 1.000771 -1.937610 2.900480 1.238764 1.220481
    9 6.028143 0.000002 0.000000 1.785599 1.049922 -0.530712
    10 11.692549 0.000000 0.000002 0.000000 0.000000 -1.276683
    11 11.481698 0.000000 0.000000 -1.124377 0.136598 0.358730
    12 2.676087 -1.712440 0.000000 -1.570796 0.000000 -1.570796
    13 2.033342 1.000767 1.937660 1.678077 -0.943413 2.840021
    14 6.028142 0.000002 0.000000 -1.348132 -0.570972 -0.995766
    15 11.692555 0.000000 0.000005 0.000000 0.000000 -1.747906
    16 11.481671 0.000000 -0.000030 0.564537 -0.009237 0.344969
    17 2.676088 -1.712441 0.000000 1.570797 0.000000 1.570797
    18 -3.890452 0.000004 0.000007 -1.070528 0.029082 -1.821006
    19 17.848171 0.000000 0.000000 0.000000 0.000000 0.558525
    20 16.525253 0.000000 0.000000 0.353812 0.144894 -1.312333
    21 6.879454 0.000000 0.000000 -0.081333 -0.002951 -0.584373
    22 3.890452 -0.000004 -0.000003 -1.468820 -0.236414 -1.358555
    23 17.848175 0.000000 0.000000 0.000000 0.000000 0.557375
    24 16.525249 0.000000 0.000000 -0.262327 0.052451 -1.254835
    25 6.879452 0.000000 0.000000 -0.007299 -0.002950 -0.584374
    26 3.859704 -0.142404 -1.191975 -0.511025 -0.162469 -1.254549
    27 1.312563 0.000001 0.000001 -0.416582 0.363238 -0.532793
    28 0.729362 0.000002 0.000000 -0.030467 0.149165 -0.264812
    29 3.942327 0.046774 -0.431443 -0.077697 0.066225 -0.838261
    30 1.539092 0.000002 0.000000 -0.194799 0.216732 -0.913778
    31 1.196319 -0.000001 0.000000 -0.005405 0.048648 -0.221714
    32 3.883689 -0.046767 0.431443 0.294009 -0.005054 -0.492816
    33 1.719575 0.000002 0.000000 -0.067381 0.068570 -1.121333
    34 1.209182 -0.000001 0.000000 -0.003165 0.020606 -0.304754
    35 3.859859 -0.137950 1.332466 0.611194 0.091422 -0.576227
    36 1.719429 0.000003 0.000000 0.000001 -0.148422 -0.395022
    37 1.099668 0.000001 0.000000 0.000000 0.000000 -1.060287
    38 0.806048 -0.348923 1.321258 -1.253304 -0.366663 -0.756723
    39 1.789785 0.000000 0.000002 0.000001 -0.092056 -0.052846
    40 1.206998 0.000000 0.000000 -0.000002 0.101885 -0.080511
    41 3.859672 -0.132566 1.193108 0.441933 -0.039758 -1.502610
    42 1.312560 0.000000 -0.000001 0.000001 -0.060063 -0.756557
    43 0.729361 0.000002 0.000000 0.000001 -0.263859 -0.928787
    44 3.942293 0.050330 0.431043 0.323975 -0.042353 -1.173383
    45 1.539095 0.000003 0.000000 0.000000 -0.056711 -1.177242
    46 1.196323 0.000000 0.000000 0.193939 -0.249771 -0.925754
    47 3.883655 -0.050326 -0.431043 0.254188 -0.050536 -1.089574
    48 1.719575 -0.000005 0.000000 0.018743 -0.055384 -1.084460
    49 1.209182 -0.000001 0.000000 0.091857 -0.091058 -1.127954
    50 3.859828 -0.148935 -1.331282 0.145131 0.071080 -0.602900
    51 1.719425 0.000000 0.000000 -0.000001 0.098232 -0.215107
    52 1.099665 0.000000 0.000000 0.000001 0.066953 -1.966432
    53 0.806014 -0.359835 -1.318334 0.902692 0.272163 -1.272851
    54 1.789783 0.000001 0.000000 0.016660 0.544390 0.649620
    55 1.207003 0.000000 0.000004 0.015883 0.090668 0.974907
    56 2.338454 -1.535743 -6.391511 1.520245 -0.094380 -2.001951
  time 3
    0 1.610982 -0.539074 36.203564 1.476529 0.010276 -0.596753
    1 0.007450 3.343750 -2.980469 1.238765 0.085742 1.559561
    2 4.018331 0.000000 0.000000 0.398301 0.065879 0.053193
    3 3.518565 0.000000 0.000000 0.274914 -0.084252 0.194884
    4 8.942642 0.000000 0.000000 0.180859 0.074145 0.413963
    5 3.307271 0.000000 0.000000 3.050323 -0.053260 0.770204
    6 3.593712 -0.000001 0.000000 0.262311 -0.077020 0.933062
    7 1.999997 -3.000001 0.000000 -1.570796 0.000000 -1.326450
    8 2.033350 1.000771 -1.937610 2.900480 1.238764 1.220481
    9 6.028143 0.000002 0.000000 1.792972 0.937195 -0.635999
    10 11.692549 0.000000 0.000002 0.000000 0.000000 -1.334065
    11 11.481698 0.000000 0.000000 -1.124377 0.136598 0.358730
    12 2.676087 -1.712440 0.000000 -1.570796 0.000000 -1.570796
    13 2.033342 1.000767 1.937660 1.678547 -0.943373 2.839351
    14 6.028142 0.000002 0.000000 -1.224987 -0.599655 -1.003682
    15 11.692555 0.000000 0.000005 0.000000 0.000000 -1.638112
    16 11.481671 0.000000 -0.000030 0.828080 -0.009083 0.119124
    17 2.676088 -1.712441 0.000000 1.570797 0.000000 1.570797
    18 -3.890452 0.000004 0.000007 -0.952156 0.081077 -1.825697
    19 17.848171 0.000000 0.000000 0.000000 0.000000 0.601576
    20 16.525253 0.000000 0.000000 0.360579 0.144944 -1.346076
    21 6.879454 0.000000 0.000000 -0.081333 -0.002951 -0.584373
    22 3.890452 -0.000004 -0.000003 -1.298801 -0.283175 -1.405609
    23 17.848175 0.000000 0.000000 0.000000 0.000000 0.612489
    24 16.525249 0.000000 0.000000 -0.284418 0.036246 -1.265287
    25 6.879452 0.000000 0.000000 -0.007299 -0.002950 -0.584374
    26 3.859704 -0.142404 -1.191975 -0.511025 -0.162469 -1.254549
    27 1.312563 0.000001 0.000001 -0.416582 0.363238 -0.532793
    28 0.729362 0.000002 0.000000 -0.030467 0.149165 -0.264812
    29 3.942327 0.046774 -0.431443 -0.077697 0.066225 -0.838261
    30 1.539092 0.000002 0.000000 -0.194799 0.216732 -0.913778
    31 1.196319 -0.000001 0.000000 -0.005417 0.048648 -0.221714
    32 3.883689 -0.046767 0.431443 0.294009 -0.005054 -0.492816
    33 1.719575 0.000002 0.000000 -0.067381 0.068570 -1.121333
    34 1.209182 -0.000001 0.000000 -0.003165 0.020606 -0.304754
    35 3.859859 -0.137950 1.332466 0.611194 0.091422 -0.576227
    36 1.719429 0.000003 0.000000 0.000001 -0.148422 -0.395022
    37 1.099668 0.000001 0.000000 0.000000 0.000000 -1.060287
    38 0.806048 -0.348923 1.321258 -1.253304 -0.366663 -0.756723
    39 1.789785 0.000000 0.000002 0.000001 -0.092056 -0.052846
    40 1.206998 0.000000 0.000000 -0.000002 0.101885 -0.080511
    41 3.859672 -0.132566 1.193108 0.441933 -0.039758 -1.502610
    42 1.312560 0.000000 -0.000001 0.000001 -0.060063 -0.756557
    43 0.729361 0.000002 0.000000 0.000001 -0.263859 -0.928787
    44 3.942293 0.050330 0.431043 0.323975 -0.042353 -1.173383
    45 1.539095 0.000003 0.000000 0.000000 -0.056711 -1.177242
    46 1.196323 0.000000 0.000000 0.193939 -0.249771 -0.925754
    47 3.883655 -0.050326 -0.431043 0.254188 -0.050536 -1.089574
    48 1.719575 -0.000005 0.000000 0.018743 -0.055384 -1.084460
    49 1.209182 -0.000001 0.000000 0.091857 -0.091058 -1.127954
    50 3.859828 -0.148935 -1.331282 0.145131 0.071080 -0.602900
    51 1.719425 0.000000 0.000000 -0.000001 0.098232 -0.215107
    52 1.099665 0.000000 0.000000 0.000001 0.066953 -1.966432
    53 0.806014 -0.359835 -1.318334 0.902692 0.272163 -1.272851
    54 1.789783 0.000001 0.000000 0.016660 0.544390 0.649620
    55 1.207003 0.000000 0.000004 0.015883 0.090668 0.974907
    56 2.338454 -1.535743 -6.391511 1.520245 -0.094380 -2.001951
  time 4
    0 1.610982 -0.117186 36.059028 1.468557 0.012113 -0.618952
    1 0.007450 3.343750 -2.980469 1.238765 0.085742 1.559561
    2 4.018331 0.000000 0.000000 0.369845 0.065028 0.084134
    3 3.518565 0.000000 0.000000 0.286547 -0.085007 0.183474
    4 8.942642 0.000000 0.000000 0.180859 0.074145 0.413963
    5 3.307271 0.000000 0.000000 3.050323 -0.053260 0.761217
    6 3.593712 -0.000001 0.000000 0.265452 -0.068287 0.950962
    7 1.999997 -3.000001 0.000000 -1.570796 0.000000 -1.326450
    8 2.033350 1.000771 -1.937610 2.900480 1.238764 1.220481
    9 6.028143 0.000002 0.000000 1.683621 0.949926 -0.735740
    10 11.692549 0.000000 0.000002 0.000000 0.000000 -1.363261
    11 11.481698 0.000000 0.000000 -1.124377 0.136598 0.358730
    12 2.676087 -1.712440 0.000000 -1.570796 0.000000 -1.570796
    13 2.033342 1.000767 1.937660 1.679803 -0.943254 2.837820
    14 6.028142 0.000002 0.000000 -1.312361 -0.646458 -0.956052
    15 11.692555 0.000000 0.000005 0.000000 0.000000 -1.524364
    16 11.481671 0.000000 -0.000030 1.035729 -0.008659 -0.058800
    17 2.676088 -1.712441 0.000000 1.570797 0.000000 1.570797
    18 -3.890452 0.000004 0.000007 -0.964641 0.054666 -1.830929
    19 17.848171 0.000000 0.000000 0.000000 0.000000 0.648242
    20 16.525253 0.000000 0.000000 0.345443 0.144844 -1.367384
    21 6.879454 0.000000 0.000000 -0.081333 -0.002951 -0.584373
    22 3.890452 -0.000004 -0.000003 -1.286429 -0.283555 -1.398705
    23 17.848175 0.000000 0.000000 0.000000 0.000000 0.625100
    24 16.525249 0.000000 0.000000 -0.310751 0.016914 -1.266638
    25 6.879452 0.000000 0.000000 -0.007299 -0.002950 -0.584374
    26 3.859704 -0.142404 -1.191975 -0.511025 -0.162469 -1.254549
    27 1.312563 0.000001 0.000001 -0.416582 0.363238 -0.532793
    28 0.729362 0.000002 0.000000 -0.030467 0.149165 -0.264812
    29 3.942327 0.046774 -0.431443 -0.077697 0.066225 -0.838261
    30 1.539092 0.000002 0.000000 -0.194799 0.216732 -0.913778
    31 1.196319 -0.000001 0.000000 -0.005405 0.048648 -0.221714
    32 3.883689 -0.046767 0.431443 0.294009 -0.005054 -0.492816
    33 1.719575 0.000002 0.000000 -0.067381 0.068570 -1.121333
    34 1.209182 -0.000001 0.000000 -0.003165 0.020606 -0.304754
    35 3.859859 -0.137950 1.332466 0.611194 0.091422 -0.576227
    36 1.719429 0.000003 0.000000 0.000001 -0.148422 -0.395022
    37 1.099668 0.000001 0.000000 0.000000 0.000000 -1.060287
    38 0.806048 -0.348923 1.321258 -1.253304 -0.366663 -0.756723
    39 1.789785 0.000000 0.000002 0.000001 -0.092056 -0.052846
    40 1.206998 0.000000 0.000000 -0.000002 0.101885 -0.080511
    41 3.859672 -0.132566 1.193108 0.441933 -0.039758 -1.502610
    42 1.312560 0.000000 -0.000001 0.000001 -0.060063 -0.756557
    43 0.729361 0.000002 0.000000 0.000001 -0.263859 -0.928787
    44 3.942293 0.050330 0.431043 0.323975 -0.042353 -1.173383
    45 1.539095 0.000003 0.000000 0.000000 -0.056711 -1.177242
    46 1.196323 0.000000 0.000000 0.193939 -0.249771 -0.925754
    47 3.883655 -0.050326 -0.431043 0.254188 -0.050536 -1.089574
    48 1.719575 -0.000005 0.000000 0.018743 -0.055384 -1.084460
    49 1.209182 -0.000001 0.000000 0.091857 -0.091058 -1.127954
    50 3.859828 -0.148935 -1.331282 0.145131 0.071080 -0.602900
    51 1.719425 0.000000 0.000000 -0.000001 0.098232 -0.215107
    52 1.099665 0.000000 0.000000 0.000001 0.066953 -1.966432
    53 0.806014 -0.359835 -1.318334 0.902692 0.272163 -1.272851
    54 1.789783 0.000001 0.000000 0.016660 0.544390 0.649620
    55 1.207003 0.000000 0.000004 0.015883 0.090668 0.974907
    56 2.338454 -1.535743 -6.391511 1.520245 -0.094380 -2.001951
  time 5
    0 1.610982 0.156260 36.004339 1.467910 0.011406 -0.651520
    1 0.007450 3.343750 -2.980469 1.238765 0.085742 1.559561
    2 4.018331 0.000000 0.000000 0.330940 0.063842 0.126499
    3 3.518565 0.000000 0.000000 0.293501 -0.085462 0.182301
    4 8.942642 0.000000 0.000000 0.180859 0.074145 0.413963
    5 3.307271 0.000000 0.000000 3.050323 -0.053260 0.749057
    6 3.593712 -0.000001 0.000000 0.295527 -0.048145 0.962529
    7 1.999997 -3.000001 0.000000 -1.570796 0.000000 -1.326450
    8 2.033350 1.000771 -1.937610 2.900480 1.238764 1.220481
    9 6.028143 0.000002 0.000000 1.637085 0.990506 -0.739852
    10 11.692549 0.000000 0.000002 0.000000 0.000000 -1.344950
    11 11.481698 0.000000 0.000000 -1.124377 0.136598 0.358730
    12 2.676087 -1.712440 0.000000 -1.570796 0.000000 -1.570796
    13 2.033342 1.000767 1.937660 1.681607 -0.943094 2.835524
    14 6.028142 0.000002 0.000000 -1.434224 -0.667628 -0.894569
    15 11.692555 0.000000 0.000005 0.000000 0.000000 -1.444190
    16 11.481671 0.000000 -0.000030 1.115814 -0.008389 -0.127479
    17 2.676088 -1.712441 0.000000 1.570797 0.000000 1.570797
    18 -3.890452 0.000004 0.000007 -0.987325 0.028012 -1.833093
    19 17.848171 0.000000 0.000000 0.000000 0.000000 0.673547
    20 16.525253 0.000000 0.000000 0.333679 0.144744 -1.377074
    21 6.879454 0.000000 0.000000 -0.081333 -0.002951 -0.584373
    22 3.890452 -0.000004 -0.000003 -1.300215 -0.279381 -1.387260
    23 17.848175 0.000000 0.000000 0.000000 0.000000 0.625619
    24 16.525249 0.000000 0.000000 -0.326338 0.005444 -1.265387
    25 6.879452 0.000000 0.000000 -0.007299 -0.002950 -0.584374
    26 3.859704 -0.142404 -1.191975 -0.511025 -0.162469 -1.254549
    27 1.312563 0.000001 0.000001 -0.416582 0.363238 -0.532793
    28 0.729362 0.000002 0.000000 -0.030467 0.149165 -0.264812
    29 3.942327 0.046774 -0.431443 -0.077697 0.066225 -0.838261
    30 1.539092 0.000002 0.000000 -0.194799 0.216732 -0.913778
    31 1.196319 -0.000001 0.000000 -0.005405 0.048648 -0.221714
    32 3.883689 -0.046767 0.431443 0.294009 -0.005054 -0.492816
    33 1.719575 0.000002 0.000000 -0.067381 0.068570 -1.121333
    34 1.209182 -0.000001 0.000000 -0.003165 0.020606 -0.304754
    35 3.859859 -0.137950 1.332466 0.611194 0.091422 -0.576227
    36 1.719429 0.000003 0.000000 0.000001 -0.148422 -0.395022
    37 1.099668 0.000001 0.000000 0.000000 0.000000 -1.060287
    38 0.806048 -0.348923 1.321258 -1.253304 -0.366663 -0.756723
    39 1.789785 0.000000 0.000002 0.000001 -0.092056 -0.052846
    40 1.206998 0.000000 0.000000 -0.000002 0.101885 -0.080511
    41 3.859672 -0.132566 1.193108 0.441933 -0.039758 -1.502610
    42 1.312560 0.000000 -0.000001 0.000001 -0.060063 -0.756557
    43 0.729361 0.000002 0.000000 0.000001 -0.263859 -0.928787
    44 3.942293 0.050330 0.431043 0.323975 -0.042353 -1.173383
    45 1.539095 0.000003 0.000000 0.000000 -0.056711 -1.177242
    46 1.196323 0.000000 0.000000 0.193939 -0.249771 -0.925754
    47 3.883655 -0.050326 -0.431043 0.254188 -0.050536 -1.089574
    48 1.719575 -0.000005 0.000000 0.018743 -0.055384 -1.084460
    49 1.209182 -0.000001 0.000000 0.091857 -0.091058 -1.127954
    50 3.859828 -0.148935 -1.331282 0.145131 0.071080 -0.602900
    51 1.719425 0.000000 0.000000 -0.000001 0.098232 -0.215107
    52 1.099665 0.000000 0.000000 0.000001 0.066953 -1.966432
    53 0.806014 -0.359835 -1.318334 0.902692 0.272163 -1.272851
    54 1.789783 0.000001 0.000000 0.016660 0.544390 0.649620
    55 1.207003 0.000000 0.000004 0.015883 0.090668 0.974907
    56 2.338454 -1.535743 -6.391511 1.520245 -0.094380 -2.001951
  time 6
    0 1.610982 0.257825 36.008246 1.472892 0.008723 -0.687314
    1 0.007450 3.343750 -2.980469 1.238765 0.085742 1.559561
    2 4.018331 0.000000 0.000000 0.288811 0.062548 0.172419
    3 3.518565 0.000000 0.000000 0.296321 -0.085642 0.187848
    4 8.942642 0.000000 0.000000 0.180859 0.074145 0.413963
    5 3.307271 0.000000 0.000000 3.050323 -0.053260 0.734712
    6 3.593712 -0.000001 0.000000 0.344543 -0.022228 0.971943
    7 1.999997 -3.000001 0.000000 -1.570796 0.000000 -1.326450
    8 2.033350 1.000771 -1.937610 2.900480 1.238764 1.220481
    9 6.028143 0.000002 0.000000 1.632106 1.054690 -0.688786
    10 11.692549 0.000000 0.000002 0.000000 0.000000 -1.299973
    11 11.481698 0.000000 0.000000 -1.124377 0.136598 0.358730
    12 2.676087 -1.712440 0.000000 -1.570796 0.000000 -1.570796
    13 2.033342 1.000767 1.937660 1.683883 -0.942934 2.832750
    14 6.028142 0.000002 0.000000 -1.547561 -0.651511 -0.850567
    15 11.692555 0.000000 0.000005 0.000000 0.000000 -1.427364
    16 11.481671 0.000000 -0.000030 1.104695 -0.008427 -0.117975
    17 2.676088 -1.712441 0.000000 1.570797 0.000000 1.570797
    18 -3.890452 0.000004 0.000007 -1.015822 0.003839 -1.834176
    19 17.848171 0.000000 0.000000 0.000000 0.000000 0.683078
    20 16.525253 0.000000 0.000000 0.327294 0.144669 -1.378618
    21 6.879454 0.000000 0.000000 -0.081333 -0.002951 -0.584373
    22 3.890452 -0.000004 -0.000003 -1.333794 -0.273643 -1.374906
    23 17.848175 0.000000 0.000000 0.000000 0.000000 0.621020
    24 16.525249 0.000000 0.000000 -0.329948 0.002801 -1.265237
    25 6.879452 0.000000 0.000000 -0.007299 -0.002950 -0.584374
    26 3.859704 -0.142404 -1.191975 -0.511025 -0.162469 -1.254549
    27 1.312563 0.000001 0.000001 -0.416582 0.363238 -0.532793
    28 0.729362 0.000002 0.000000 -0.030467 0.149165 -0.264812
    29 3.942327 0.046774 -0.431443 -0.077697 0.066225 -0.838261
    30 1.539092 0.000002 0.000000 -0.194799 0.216732 -0.913778
    31 1.196319 -0.000001 0.000000 -0.005405 0.048648 -0.221714
    32 3.883689 -0.046767 0.431443 0.294009 -0.005054 -0.492816
    33 1.719575 0.000002 0.000000 -0.067381 0.068570 -1.121333
    34 1.209182 -0.000001 0.000000 -0.003165 0.020606 -0.304754
    35 3.859859 -0.137950 1.332466 0.611194 0.091422 -0.576227
    36 1.719429 0.000003 0.000000 0.000001 -0.148422 -0.395022
    37 1.099668 0.000001 0.000000 0.000000 0.000000 -1.060287
    38 0.806048 -0.348923 1.321258 -1.253304 -0.366663 -0.756723
    39 1.789785 0.000000 0.000002 0.000001 -0.092056 -0.052846
    40 1.206998 0.000000 0.000000 -0.000002 0.101885 -0.080511
    41 3.859672 -0.132566 1.193108 0.441933 -0.039758 -1.502610
    42 1.312560 0.000000 -0.000001 0.000001 -0.060063 -0.756557
    43 0.729361 0.000002 0.000000 0.000001 -0.263859 -0.928787
    44 3.942293 0.050330 0.431043 0.323975 -0.042353 -1.173383
    45 1.539095 0.000003 0.000000 0.000000 -0.056711 -1.177242
    46 1.196323 0.000000 0.000000 0.193939 -0.249771 -0.925754
    47 3.883655 -0.050326 -0.431043 0.254188 -0.050536 -1.089574
    48 1.719575 -0.000005 0.000000 0.018743 -0.055384 -1.084460
    49 1.209182 -0.000001 0.000000 0.091857 -0.091058 -1.127954
    50 3.859828 -0.148935 -1.331282 0.145131 0.071080 -0.602900
    51 1.719425 0.000000 0.000000 -0.000001 0.098232 -0.215107
    52 1.099665 0.000000 0.000000 0.000001 0.066953 -1.966432
    53 0.806014 -0.359835 -1.318334 0.902692 0.272163 -1.272851
    54 1.789783 0.000001 0.000000 0.016660 0.544390 0.649620
    55 1.207003 0.000000 0.000004 0.015883 0.090668 0.974907
    56 2.338454 -1.535743 -6.391511 1.520245 -0.094380 -2.001951
  time 7
    0 1.610982 0.132822 36.051216 1.482408 0.004450 -0.724337
    1 0.007450 3.343750 -2.980469 1.238765 0.085742 1.559561
    2 4.018331 0.000000 0.000000 0.250639 0.061361 0.214077
    3 3.518565 0.000000 0.000000 0.295584 -0.085594 0.197973
    4 8.942642 0.000000 0.000000 0.180859 0.074145 0.413963
    5 3.307271 0.000000 0.000000 3.050323 -0.053260 0.718714
    6 3.593712 -0.000001 0.000000 0.403630 0.006056 0.980977
    7 1.999997 -3.000001 0.000000 -1.570796 0.000000 -1.326450
    8 2.033350 1.000771 -1.937610 2.900480 1.238764 1.220481
    9 6.028143 0.000002 0.000000 1.623776 1.120973 -0.640016
    10 11.692549 0.000000 0.000002 0.000000 0.000000 -1.265460
    11 11.481698 0.000000 0.000000 -1.124377 0.136598 0.358730
    12 2.676087 -1.712440 0.000000 -1.570796 0.000000 -1.570796
    13 2.033342 1.000767 1.937660 1.686393 -0.942695 2.829593
    14 6.028142 0.000002 0.000000 -1.636025 -0.640266 -0.830711
    15 11.692555 0.000000 0.000005 0.000000 0.000000 -1.434730
    16 11.481671 0.000000 -0.000030 1.075997 -0.008543 -0.093364
    17 2.676088 -1.712441 0.000000 1.570797 0.000000 1.570797
    18 -3.890452 0.000004 0.000007 -1.050323 -0.015179 -1.835709
    19 17.848171 0.000000 0.000000 0.000000 0.000000 0.678230
    20 16.525253 0.000000 0.000000 0.328729 0.144694 -1.373216
    21 6.879454 0.000000 0.000000 -0.081333 -0.002951 -0.584373
    22 3.890452 -0.000004 -0.000003 -1.387875 -0.267098 -1.363279
    23 17.848175 0.000000 0.000000 0.000000 0.000000 0.616792
    24 16.525249 0.000000 0.000000 -0.318888 0.010938 -1.269738
    25 6.879452 0.000000 0.000000 -0.007299 -0.002950 -0.584374
    26 3.859704 -0.142404 -1.191975 -0.511025 -0.162469 -1.254549
    27 1.312563 0.000001 0.000001 -0.416582 0.363238 -0.532793
    28 0.729362 0.000002 0.000000 -0.030467 0.149165 -0.264812
    29 3.942327 0.046774 -0.431443 -0.077697 0.066225 -0.838261
    30 1.539092 0.000002 0.000000 -0.194799 0.216732 -0.913778
    31 1.196319 -0.000001 0.000000 -0.005405 0.048648 -0.221714
    32 3.883689 -0.046767 0.431443 0.294009 -0.005054 -0.492816
    33 1.719575 0.000002 0.000000 -0.067381 0.068570 -1.121333
    34 1.209182 -0.000001 0.000000 -0.003165 0.020606 -0.304754
    35 3.859859 -0.137950 1.332466 0.611194 0.091422 -0.576227
    36 1.719429 0.000003 0.000000 0.000001 -0.148422 -0.395022
    37 1.099668 0.000001 0.000000 0.000000 0.000000 -1.060287
    38 0.806048 -0.348923 1.321258 -1.253304 -0.366663 -0.756723
    39 1.789785 0.000000 0.000002 0.000001 -0.092056 -0.052846
    40 1.206998 0.000000 0.000000 -0.000002 0.101885 -0.080511
    41 3.859672 -0.132566 1.193108 0.441933 -0.039758 -1.502610
    42 1.312560 0.000000 -0.000001 0.000001 -0.060063 -0.756557
    43 0.729361 0.000002 0.000000 0.000001 -0.263859 -0.928787
    44 3.942293 0.050330 0.431043 0.323975 -0.042353 -1.173383
    45 1.539095 0.000003 0.000000 0.000000 -0.056711 -1.177242
    46 1.196323 0.000000 0.000000 0.193939 -0.249771 -0.925754
    47 3.883655 -0.050326 -0.431043 0.254188 -0.050536 -1.089574
    48 1.719575 -0.000005 0.000000 0.018743 -0.055384 -1.084460
    49 1.209182 -0.000001 0.000000 0.091857 -0.091058 -1.127954
    50 3.859828 -0.148935 -1.331282 0.145131 0.071080 -0.602900
    51 1.719425 0.000000 0.000000 -0.000001 0.098232 -0.215107
    52 1.099665 0.000000 0.000000 0.000001 0.066953 -1.966432
    53 0.806014 -0.359835 -1.318334 0.902692 0.272163 -1.272851
    54 1.789783 0.000001 0.000000 0.016660 0.544390 0.649620
    55 1.207003 0.000000 0.000004 0.015883 0.090668 0.974907
    56 2.338454 -1.535743 -6.391511 1.520245 -0.094380 -2.001951
  time 8
    0 1.610982 -0.152343 36.129343 1.495512 -0.001165 -0.761513
    1 0.007450 3.343750 -2.980469 1.238765 0.085742 1.559561
    2 4.018331 0.000000 0.000000 0.223272 0.060498 0.243960
    3 3.518565 0.000000 0.000000 0.291883 -0.085354 0.211277
    4 8.942642 0.000000 0.000000 0.180859 0.074145 0.413963
    5 3.307271 0.000000 0.000000 3.050323 -0.053260 0.701461
    6 3.593712 -0.000001 0.000000 0.464195 0.033860 0.990349
    7 1.999997 -3.000001 0.000000 -1.570796 0.000000 -1.326450
    8 2.033350 1.000771 -1.937610 2.900480 1.238764 1.220481
    9 6.028143 0.000002 0.000000 1.614966 1.181199 -0.600138
    10 11.692549 0.000000 0.000002 0.000000 0.000000 -1.238204
    11 11.481698 0.000000 0.000000 -1.124377 0.136598 0.358730
    12 2.676087 -1.712440 0.000000 -1.570796 0.000000 -1.570796
    13 2.033342 1.000767 1.937660 1.689296 -0.942456 2.826148
    14 6.028142 0.000002 0.000000 -1.696219 -0.633892 -0.825235
    15 11.692555 0.000000 0.000005 0.000000 0.000000 -1.458147
    16 11.481671 0.000000 -0.000030 1.034377 -0.008659 -0.057650
    17 2.676088 -1.712441 0.000000 1.570797 0.000000 1.570797
    18 -3.890452 0.000004 0.000007 -1.088255 -0.030451 -1.838505
    19 17.848171 0.000000 0.000000 0.000000 0.000000 0.662785
    20 16.525253 0.000000 0.000000 0.335639 0.144744 -1.362668
    21 6.879454 0.000000 0.000000 -0.081333 -0.002951 -0.584373
    22 3.890452 -0.000004 -0.000003 -1.453797 -0.259320 -1.353922
    23 17.848175 0.000000 0.000000 0.000000 0.000000 0.611154
    24 16.525249 0.000000 0.000000 -0.298860 0.025649 -1.276490
    25 6.879452 0.000000 0.000000 -0.007299 -0.002950 -0.584374
    26 3.859704 -0.142404 -1.191975 -0.511025 -0.162469 -1.254549
    27 1.312563 0.000001 0.000001 -0.416582 0.363238 -0.532793
    28 0.729362 0.000002 0.000000 -0.030467 0.149165 -0.264812
    29 3.942327 0.046774 -0.431443 -0.077697 0.066225 -0.838261
    30 1.539092 0.000002 0.000000 -0.194799 0.216732 -0.913778
    31 1.196319 -0.000001 0.000000 -0.005417 0.048648 -0.221714
    32 3.883689 -0.046767 0.431443 0.294009 -0.005054 -0.492816
    33 1.719575 0.000002 0.000000 -0.067381 0.068570 -1.121333
    34 1.209182 -0.000001 0.000000 -0.003165 0.020606 -0.304754
    35 3.859859 -0.137950 1.332466 0.611194 0.091422 -0.576227
    36 1.719429 0.000003 0.000000 0.000001 -0.148422 -0.395022
    37 1.099668 0.000001 0.000000 0.000000 0.000000 -1.060287
    38 0.806048 -0.348923 1.321258 -1.253304 -0.366663 -0.756723
    39 1.789785 0.000000 0.000002 0.000001 -0.092056 -0.052846
    40 1.206998 0.000000 0.000000 -0.000002 0.101885 -0.080511
    41 3.859672 -0.132566 1.193108 0.441933 -0.039758 -1.502610
    42 1.312560 0.000000 -0.000001 0.000001 -0.060063 -0.756557
    43 0.729361 0.000002 0.000000 0.000001 -0.263859 -0.928787
    44 3.942293 0.050330 0.431043 0.323975 -0.042353 -1.173383
    45 1.539095 0.000003 0.000000 0.000000 -0.056711 -1.177242
    46 1.196323 0.000000 0.000000 0.193939 -0.249771 -0.925754
    47 3.883655 -0.050326 -0.431043 0.254188 -0.050536 -1.089574
    48 1.719575 -0.000005 0.000000 0.018743 -0.055384 -1.084460
    49 1.209182 -0.000001 0.000000 0.091857 -0.091058 -1.127954
    50 3.859828 -0.148935 -1.331282 0.145131 0.071080 -0.602900
    51 1.719425 0.000000 0.000000 -0.000001 0.098232 -0.215107
    52 1.099665 0.000000 0.000000 0.000001 0.066953 -1.966432
    53 0.806014 -0.359835 -1.318334 0.902692 0.272163 -1.272851
    54 1.789783 0.000001 0.000000 0.016660 0.544390 0.649620
    55 1.207003 0.000000 0.000004 0.015883 0.090668 0.974907
    56 2.338454 -1.535743 -6.391511 1.520245 -0.094380 -2.001951
  time 9
    0 1.610982 -0.445321 36.230909 1.511107 -0.008087 -0.798152
    1 0.007450 3.343750 -2.980469 1.238765 0.085742 1.559561
    2 4.018331 0.000000 0.000000 0.212912 0.060163 0.255307
    3 3.518565 0.000000 0.000000 0.285794 -0.084959 0.226700
    4 8.942642 0.000000 0.000000 0.180859 0.074145 0.413963
    5 3.307271 0.000000 0.000000 3.050323 -0.053260 0.683164
    6 3.593712 -0.000001 0.000000 0.518477 0.058341 1.000101
    7 1.999997 -3.000001 0.000000 -1.570796 0.000000 -1.326450
    8 2.033350 1.000771 -1.937610 2.900480 1.238764 1.220481
    9 6.028143 0.000002 0.000000 1.605774 1.228311 -0.577474
    10 11.692549 0.000000 0.000002 0.000000 0.000000 -1.216686
    11 11.481698 0.000000 0.000000 -1.124377 0.136598 0.358730
    12 2.676087 -1.712440 0.000000 -1.570796 0.000000 -1.570796
    13 2.033342 1.000767 1.937660 1.692278 -0.942216 2.822322
    14 6.028142 0.000002 0.000000 -1.723976 -0.629521 -0.826818
    15 11.692555 0.000000 0.000005 0.000000 0.000000 -1.492341
    16 11.481671 0.000000 -0.000030 0.982615 -0.008774 -0.013281
    17 2.676088 -1.712441 0.000000 1.570797 0.000000 1.570797
    18 -3.890452 0.000004 0.000007 -1.125330 -0.046016 -1.842294
    19 17.848171 0.000000 0.000000 0.000000 0.000000 0.642902
    20 16.525253 0.000000 0.000000 0.342837 0.144819 -1.349720
    21 6.879454 0.000000 0.000000 -0.081333 -0.002951 -0.584373
    22 3.890452 -0.000004 -0.000003 -1.518748 -0.250072 -1.347654
    23 17.848175 0.000000 0.000000 0.000000 0.000000 0.598767
    24 16.525249 0.000000 0.000000 -0.279547 0.039832 -1.279691
    25 6.879452 0.000000 0.000000 -0.007299 -0.002950 -0.584374
    26 3.859704 -0.142404 -1.191975 -0.511025 -0.162469 -1.254549
    27 1.312563 0.000001 0.000001 -0.416582 0.363238 -0.532793
    28 0.729362 0.000002 0.000000 -0.030467 0.149165 -0.264812
    29 3.942327 0.046774 -0.431443 -0.077697 0.066225 -0.838261
    30 1.539092 0.000002 0.000000 -0.194799 0.216732 -0.913778
    31 1.196319 -0.000001 0.000000 -0.005417 0.048648 -0.221714
    32 3.883689 -0.046767 0.431443 0.294009 -0.005054 -0.492816
    33 1.719575 0.000002 0.000000 -0.067381 0.068570 -1.121333
    34 1.209182 -0.000001 0.000000 -0.003165 0.020606 -0.304754
    35 3.859859 -0.137950 1.332466 0.611194 0.091422 -0.576227
    36 1.719429 0.000003 0.000000 0.000001 -0.148422 -0.395022
    37 1.099668 0.000001 0.000000 0.000000 0.000000 -1.060287
    38 0.806048 -0.348923 1.321258 -1.253304 -0.366663 -0.756723
    39 1.789785 0.000000 0.000002 0.000001 -0.092056 -0.052846
    40 1.206998 0.000000 0.000000 -0.000002 0.101885 -0.080511
    41 3.859672 -0.132566 1.193108 0.441933 -0.039758 -1.502610
    42 1.312560 0.000000 -0.000001 0.000001 -0.060063 -0.756557
    43 0.729361 0.000002 0.000000 0.000001 -0.263859 -0.928787
    44 3.942293 0.050330 0.431043 0.323975 -0.042353 -1.173383
    45 1.539095 0.000003 0.000000 0.000000 -0.056711 -1.177242
    46 1.196323 0.000000 0.000000 0.193939 -0.249771 -0.925754
    47 3.883655 -0.050326 -0.431043 0.254188 -0.050536 -1.089574
    48 1.719575 -0.000005 0.000000 0.018743 -0.055384 -1.084460
    49 1.209182 -0.000001 0.000000 0.091857 -0.091058 -1.127954
    50 3.859828 -0.148935 -1.331282 0.145131 0.071080 -0.602900
    51 1.719425 0.000000 0.000000 -0.000001 0.098232 -0.215107
    52 1.099665 0.000000 0.000000 0.000001 0.066953 -1.966432
    53 0.806014 -0.359835 -1.318334 0.902692 0.272163 -1.272851
    54 1.789783 0.000001 0.000000 0.016660 0.544390 0.649620
    55 1.207003 0.000000 0.000004 0.015883 0.090668 0.974907
    56 2.338454 -1.535743 -6.391511 1.520245 -0.094380 -2.001951
  time 10
    0 1.610982 -0.730486 36.352006 1.524958 -0.013596 -0.833793
    1 0.007450 3.343750 -2.980469 1.238765 0.085742 1.559561
    2 4.018331 0.000000 0.000000 0.212912 0.060163 0.247893
    3 3.518565 0.000000 0.000000 0.277878 -0.084443 0.243409
    4 8.942642 0.000000 0.000000 0.180859 0.074145 0.413963
    5 3.307271 0.000000 0.000000 3.050323 -0.053260 0.664031
    6 3.593712 -0.000001 0.000000 0.560194 0.074849 1.010233
    7 1.999997 -3.000001 0.000000 -1.570796 0.000000 -1.326450
    8 2.033350 1.000771 -1.937610 2.900480 1.238764 1.220481
    9 6.028143 0.000002 0.000000 1.578293 1.265553 -0.586750
    10 11.692549 0.000000 0.000002 0.000000 0.000000 -1.199978
    11 11.481698 0.000000 0.000000 -1.124377 0.136598 0.358730
    12 2.676087 -1.712440 0.000000 -1.570796 0.000000 -1.570796
    13 2.033342 1.000767 1.937660 1.695573 -0.941897 2.818399
    14 6.028142 0.000002 0.000000 -1.730451 -0.623102 -0.825433
    15 11.692555 0.000000 0.000005 0.000000 0.000000 -1.532195
    16 11.481671 0.000000 -0.000030 0.922589 -0.008929 0.038190
    17 2.676088 -1.712441 0.000000 1.570797 0.000000 1.570797
    18 -3.890452 0.000004 0.000007 -1.161451 -0.057348 -1.844008
    19 17.848171 0.000000 0.000000 0.000000 0.000000 0.617844
    20 16.525253 0.000000 0.000000 0.349699 0.144869 -1.334028
    21 6.879454 0.000000 0.000000 -0.081333 -0.002951 -0.584373
    22 3.890452 -0.000004 -0.000003 -1.579103 -0.236935 -1.342658
    23 17.848175 0.000000 0.000000 0.000000 0.000000 0.581780
    24 16.525249 0.000000 0.000000 -0.262098 0.052635 -1.280141
    25 6.879452 0.000000 0.000000 -0.007299 -0.002950 -0.584374
    26 3.859704 -0.142404 -1.191975 -0.511025 -0.162469 -1.254549
    27 1.312563 0.000001 0.000001 -0.416582 0.363238 -0.532793
    28 0.729362 0.000002 0.000000 -0.030467 0.149165 -0.264812
    29 3.942327 0.046774 -0.431443 -0.077697 0.066225 -0.838261
    30 1.539092 0.000002 0.000000 -0.194799 0.216732 -0.913778
    31 1.196319 -0.000001 0.000000 -0.005405 0.048648 -0.221714
    32 3.883689 -0.046767 0.431443 0.294009 -0.005054 -0.492816
    33 1.719575 0.000002 0.000000 -0.067381 0.068570 -1.121333
    34 1.209182 -0.000001 0.000000 -0.003165 0.020606 -0.304754
    35 3.859859 -0.137950 1.332466 0.611194 0.091422 -0.576227
    36 1.719429 0.000003 0.000000 0.000001 -0.148422 -0.395022
    37 1.099668 0.000001 0.000000 0.000000 0.000000 -1.060287
    38 0.806048 -0.348923 1.321258 -1.253304 -0.366663 -0.756723
    39 1.789785 0.000000 0.000002 0.000001 -0.092056 -0.052846
    40 1.206998 0.000000 0.000000 -0.000002 0.101885 -0.080511
    41 3.859672 -0.132566 1.193108 0.441933 -0.039758 -1.502610
    42 1.312560 0.000000 -0.000001 0.000001 -0.060063 -0.756557
    43 0.729361 0.000002 0.000000 0.000001 -0.263859 -0.928787
    44 3.942293 0.050330 0.431043 0.323975 -0.042353 -1.173383
    45 1.539095 0.000003 0.000000 0.000000 -0.056711 -1.177242
    46 1.196323 0.000000 0.000000 0.193939 -0.249771 -0.925754
    47 3.883655 -0.050326 -0.431043 0.254188 -0.050536 -1.089574
    48 1.719575 -0.000005 0.000000 0.018743 -0.055384 -1.084460
    49 1.209182 -0.000001 0.000000 0.091857 -0.091058 -1.127954
    50 3.859828 -0.148935 -1.331282 0.145131 0.071080 -0.602900
    51 1.719425 0.000000 0.000000 -0.000001 0.098232 -0.215107
    52 1.099665 0.000000 0.000000 0.000001 0.066953 -1.966432
    53 0.806014 -0.359835 -1.318334 0.902692 0.272163 -1.272851
    54 1.789783 0.000001 0.000000 0.016660 0.544390 0.649620
    55 1.207003 0.000000 0.000004 0.015883 0.090668 0.974907
    56 2.338454 -1.535743 -6.391511 1.520245 -0.094380 -2.001951
  time 11
    0 1.610982 -0.988306 36.484823 1.534425 -0.015821 -0.867820
    1 0.007450 3.343750 -2.980469 1.238765 0.085742 1.559561
    2 4.018331 0.000000 0.000000 0.212912 0.060163 0.228048
    3 3.518565 0.000000 0.000000 0.268745 -0.083844 0.260727
    4 8.942642 0.000000 0.000000 0.180859 0.074145 0.413963
    5 3.307271 0.000000 0.000000 3.050323 -0.053260 0.644194
    6 3.593712 -0.000001 0.000000 0.592532 0.079441 1.016270
    7 1.999997 -3.000001 0.000000 -1.570796 0.000000 -1.326450
    8 2.033350 1.000771 -1.937610 2.900480 1.238764 1.220481
    9 6.028143 0.000002 0.000000 1.518160 1.299648 -0.630548
    10 11.692549 0.000000 0.000002 0.000000 0.000000 -1.187236
    11 11.481698 0.000000 0.000000 -1.124377 0.136598 0.358730
    12 2.676087 -1.712440 0.000000 -1.570796 0.000000 -1.570796
    13 2.033342 1.000767 1.937660 1.698947 -0.941578 2.814094
    14 6.028142 0.000002 0.000000 -1.731220 -0.615453 -0.815868
    15 11.692555 0.000000 0.000005 0.000000 0.000000 -1.573290
    16 11.481671 0.000000 -0.000030 0.855576 -0.009044 0.095514
    17 2.676088 -1.712441 0.000000 1.570797 0.000000 1.570797
    18 -3.890452 0.000004 0.000007 -1.196619 -0.061774 -1.841662
    19 17.848171 0.000000 0.000000 0.000000 0.000000 0.587363
    20 16.525253 0.000000 0.000000 0.355701 0.144894 -1.315549
    21 6.879454 0.000000 0.000000 -0.081333 -0.002951 -0.584373
    22 3.890452 -0.000004 -0.000003 -1.633272 -0.219103 -1.337390
    23 17.848175 0.000000 0.000000 0.000000 0.000000 0.562345
    24 16.525249 0.000000 0.000000 -0.247198 0.063508 -1.278591
    25 6.879452 0.000000 0.000000 -0.007299 -0.002950 -0.584374
    26 3.859704 -0.142404 -1.191975 -0.511025 -0.162469 -1.254549
    27 1.312563 0.000001 0.000001 -0.416582 0.363238 -0.532793
    28 0.729362 0.000002 0.000000 -0.030467 0.149165 -0.264812
    29 3.942327 0.046774 -0.431443 -0.077697 0.066225 -0.838261
    30 1.539092 0.000002 0.000000 -0.194799 0.216732 -0.913778
    31 1.196319 -0.000001 0.000000 -0.005405 0.048648 -0.221714
    32 3.883689 -0.046767 0.431443 0.294009 -0.005054 -0.492816
    33 1.719575 0.000002 0.000000 -0.067381 0.068570 -1.121333
    34 1.209182 -0.000001 0.000000 -0.003165 0.020606 -0.304754
    35 3.859859 -0.137950 1.332466 0.611194 0.091422 -0.576227
    36 1.719429 0.000003 0.000000 0.000001 -0.148422 -0.395022
    37 1.099668 0.000001 0.000000 0.000000 0.000000 -1.060287
    38 0.806048 -0.348923 1.321258 -1.253304 -0.366663 -0.756723
    39 1.789785 0.000000 0.000002 0.000001 -0.092056 -0.052846
    40 1.206998 0.000000 0.000000 -0.000002 0.101885 -0.080511
    41 3.859672 -0.132566 1.193108 0.441933 -0.039758 -1.502610
    42 1.312560 0.000000 -0.000001 0.000001 -0.060063 -0.756557
    43 0.729361 0.000002 0.000000 0.000001 -0.263859 -0.928787
    44 3.942293 0.050330 0.431043 0.323975 -0.042353 -1.173383
    45 1.539095 0.000003 0.000000 0.000000 -0.056711 -1.177242
    46 1.196323 0.000000 0.000000 0.193939 -0.249771 -0.925754
    47 3.883655 -0.050326 -0.431043 0.254188 -0.050536 -1.089574
    48 1.719575 -0.000005 0.000000 0.018743 -0.055384 -1.084460
    49 1.209182 -0.000001 0.000000 0.091857 -0.091058 -1.127954
    50 3.859828 -0.148935 -1.331282 0.145131 0.071080 -0.602900
    51 1.719425 0.000000 0.000000 -0.000001 0.098232 -0.215107
    52 1.099665 0.000000 0.000000 0.000001 0.066953 -1.966432
    53 0.806014 -0.359835 -1.318334 0.902692 0.272163 -1.272851
    54 1.789783 0.000001 0.000000 0.016660 0.544390 0.649620
    55 1.207003 0.000000 0.000004 0.015883 0.090668 0.974907
    56 2.338454 -1.535743 -6.391511 1.520245 -0.094380 -2.001951
  time 12
    0 1.610982 -1.195344 36.621546 1.540354 -0.015891 -0.899927
    1 0.007450 3.343750 -2.980469 1.238765 0.085742 1.559561
    2 4.018331 0.000000 0.000000 0.212912 0.060163 0.199325
    3 3.518565 0.000000 0.000000 0.258939 -0.083197 0.277999
    4 8.942642 0.000000 0.000000 0.180859 0.074145 0.413963
    5 3.307271 0.000000 0.000000 3.050323 -0.053260 0.623769
    6 3.593712 -0.000001 0.000000 0.620805 0.079412 1.014201
    7 1.999997 -3.000001 0.000000 -1.570796 0.000000 -1.326450
    8 2.033350 1.000771 -1.937610 2.900480 1.238764 1.220481
    9 6.028143 0.000002 0.000000 1.432652 1.329928 -0.697393
    10 11.692549 0.000000 0.000002 0.000000 0.000000 -1.178039
    11 11.481698 0.000000 0.000000 -1.124377 0.136598 0.358730
    12 2.676087 -1.712440 0.000000 -1.570796 0.000000 -1.570796
    13 2.033342 1.000767 1.937660 1.702556 -0.941259 2.809693
    14 6.028142 0.000002 0.000000 -1.729233 -0.608305 -0.798650
    15 11.692555 0.000000 0.000005 0.000000 0.000000 -1.612369
    16 11.481671 0.000000 -0.000030 0.782629 -0.009160 0.158040
    17 2.676088 -1.712441 0.000000 1.570797 0.000000 1.570797
    18 -3.890452 0.000004 0.000007 -1.229501 -0.061774 -1.836792
    19 17.848171 0.000000 0.000000 0.000000 0.000000 0.554663
    20 16.525253 0.000000 0.000000 0.360053 0.144919 -1.295783
    21 6.879454 0.000000 0.000000 -0.081333 -0.002951 -0.584373
    22 3.890452 -0.000004 -0.000003 -1.679753 -0.198378 -1.332485
    23 17.848175 0.000000 0.000000 0.000000 0.000000 0.540315
    24 16.525249 0.000000 0.000000 -0.235880 0.071760 -1.274490
    25 6.879452 0.000000 0.000000 -0.007299 -0.002950 -0.584374
    26 3.859704 -0.142404 -1.191975 -0.511025 -0.162469 -1.254549
    27 1.312563 0.000001 0.000001 -0.416582 0.363238 -0.532793
    28 0.729362 0.000002 0.000000 -0.030467 0.149165 -0.264812
    29 3.942327 0.046774 -0.431443 -0.077697 0.066225 -0.838261
    30 1.539092 0.000002 0.000000 -0.194799 0.216732 -0.913778
    31 1.196319 -0.000001 0.000000 -0.005405 0.048648 -0.221714
    32 3.883689 -0.046767 0.431443 0.294009 -0.005054 -0.492816
    33 1.719575 0.000002 0.000000 -0.067381 0.068570 -1.121333
    34 1.209182 -0.000001 0.000000 -0.003165 0.020606 -0.304754
    35 3.859859 -0.137950 1.332466 0.611194 0.091422 -0.576227
    36 1.719429 0.000003 0.000000 0.000001 -0.148422 -0.395022
    37 1.099668 0.000001 0.000000 0.000000 0.000000 -1.060287
    38 0.806048 -0.348923 1.321258 -1.253304 -0.366663 -0.756723
    39 1.789785 0.000000 0.000002 0.000001 -0.092056 -0.052846
    40 1.206998 0.000000 0.000000 -0.000002 0.101885 -0.080511
    41 3.859672 -0.132566 1.193108 0.441933 -0.039758 -1.502610
    42 1.312560 0.000000 -0.000001 0.000001 -0.060063 -0.756557
    43 0.729361 0.000002 0.000000 0.000001 -0.263859 -0.928787
    44 3.942293 0.050330 0.431043 0.323975 -0.042353 -1.173383
    45 1.539095 0.000003 0.000000 0.000000 -0.056711 -1.177242
    46 1.196323 0.000000 0.000000 0.193939 -0.249771 -0.925754
    47 3.883655 -0.050326 -0.431043 0.254188 -0.050536 -1.089574
    48 1.719575 -0.000005 0.000000 0.018743 -0.055384 -1.084460
    49 1.209182 -0.000001 0.000000 0.091857 -0.091058 -1.127954
    50 3.859828 -0.148935 -1.331282 0.145131 0.071080 -0.602900
    51 1.719425 0.000000 0.000000 -0.000001 0.098232 -0.215107
    52 1.099665 0.000000 0.000000 0.000001 0.066953 -1.966432
    53 0.806014 -0.359835 -1.318334 0.902692 0.272163 -1.272851
    54 1.789783 0.000001 0.000000 0.016660 0.544390 0.649620
    55 1.207003 0.000000 0.000004 0.015883 0.090668 0.974907
    56 2.338454 -1.535743 -6.391511 1.520245 -0.094380 -2.001951
  time 13
    0 1.610982 -1.257846 36.742643 1.543542 -0.014655 -0.929576
    1 0.007450 3.343750 -2.980469 1.238765 0.085742 1.559561
    2 4.018331 0.000000 0.000000 0.212912 0.060163 0.165232
    3 3.518565 0.000000 0.000000 0.249068 -0.082550 0.294663
    4 8.942642 0.000000 0.000000 0.180859 0.074145 0.413963
    5 3.307271 0.000000 0.000000 3.050323 -0.053260 0.602850
    6 3.593712 -0.000001 0.000000 0.645151 0.075919 1.004956
    7 1.999997 -3.000001 0.000000 -1.570796 0.000000 -1.326450
    8 2.033350 1.000771 -1.937610 2.900480 1.238764 1.220481
    9 6.028143 0.000002 0.000000 1.335654 1.356775 -0.768827
    10 11.692549 0.000000 0.000002 0.000000 0.000000 -1.172047
    11 11.481698 0.000000 0.000000 -1.124377 0.136598 0.358730
    12 2.676087 -1.712440 0.000000 -1.570796 0.000000 -1.570796
    13 2.033342 1.000767 1.937660 1.706243 -0.940900 2.805101
    14 6.028142 0.000002 0.000000 -1.727566 -0.600793 -0.772988
    15 11.692555 0.000000 0.000005 0.000000 0.000000 -1.648502
    16 11.481671 0.000000 -0.000030 0.704422 -0.009237 0.225068
    17 2.676088 -1.712441 0.000000 1.570797 0.000000 1.570797
    18 -3.890452 0.000004 0.000007 -1.257521 -0.063136 -1.829846
    19 17.848171 0.000000 0.000000 0.000000 0.000000 0.528619
    20 16.525253 0.000000 0.000000 0.359981 0.144919 -1.279233
    21 6.879454 0.000000 0.000000 -0.081333 -0.002951 -0.584373
    22 3.890452 -0.000004 -0.000003 -1.713863 -0.177843 -1.327488
    23 17.848175 0.000000 0.000000 0.000000 0.000000 0.516355
    24 16.525249 0.000000 0.000000 -0.232040 0.074564 -1.266538
    25 6.879452 0.000000 0.000000 -0.007299 -0.002950 -0.584374
    26 3.859704 -0.142404 -1.191975 -0.511025 -0.162469 -1.254549
    27 1.312563 0.000001 0.000001 -0.416582 0.363238 -0.532793
    28 0.729362 0.000002 0.000000 -0.030467 0.149165 -0.264812
    29 3.942327 0.046774 -0.431443 -0.077697 0.066225 -0.838261
    30 1.539092 0.000002 0.000000 -0.194799 0.216732 -0.913778
    31 1.196319 -0.000001 0.000000 -0.005417 0.048648 -0.221714
    32 3.883689 -0.046767 0.431443 0.294009 -0.005054 -0.492816
    33 1.719575 0.000002 0.000000 -0.067381 0.068570 -1.121333
    34 1.209182 -0.000001 0.000000 -0.003165 0.020606 -0.304754
    35 3.859859 -0.137950 1.332466 0.611194 0.091422 -0.576227
    36 1.719429 0.000003 0.000000 0.000001 -0.148422 -0.395022
    37 1.099668 0.000001 0.000000 0.000000 0.000000 -1.060287
    38 0.806048 -0.348923 1.321258 -1.253304 -0.366663 -0.756723
    39 1.789785 0.000000 0.000002 0.000001 -0.092056 -0.052846
    40 1.206998 0.000000 0.000000 -0.000002 0.101885 -0.080511
    41 3.859672 -0.132566 1.193108 0.441933 -0.039758 -1.502610
    42 1.312560 0.000000 -0.000001 0.000001 -0.060063 -0.756557
    43 0.729361 0.000002 0.000000 0.000001 -0.263859 -0.928787
    44 3.942293 0.050330 0.431043 0.323975 -0.042353 -1.173383
    45 1.539095 0.000003 0.000000 0.000000 -0.056711 -1.177242
    46 1.196323 0.000000 0.000000 0.193939 -0.249771 -0.925754
    47 3.883655 -0.050326 -0.431043 0.254188 -0.050536 -1.089574
    48 1.719575 -0.000005 0.000000 0.018743 -0.055384 -1.084460
    49 1.209182 -0.000001 0.000000 0.091857 -0.091058 -1.127954
    50 3.859828 -0.148935 -1.331282 0.145131 0.071080 -0.602900
    51 1.719425 0.000000 0.000000 -0.000001 0.098232 -0.215107
    52 1.099665 0.000000 0.000000 0.000001 0.066953 -1.966432
    53 0.806014 -0.359835 -1.318334 0.902692 0.272163 -1.272851
    54 1.789783 0.000001 0.000000 0.016660 0.544390 0.649620
    55 1.207003 0.000000 0.000004 0.015883 0.090668 0.974907
    56 2.338454 -1.535743 -6.391511 1.520245 -0.094380 -2.001951
  time 14
    0 1.610982 -1.089872 36.840302 1.544688 -0.012713 -0.956230
    1 0.007450 3.343750 -2.980469 1.238765 0.085742 1.559561
    2 4.018331 0.000000 0.000000 0.212912 0.060163 0.129398
    3 3.518565 0.000000 0.000000 0.239695 -0.081939 0.310109
    4 8.942642 0.000000 0.000000 0.180859 0.074145 0.413963
    5 3.307271 0.000000 0.000000 3.050323 -0.053260 0.581570
    6 3.593712 -0.000001 0.000000 0.665894 0.069693 0.989294
    7 1.999997 -3.000001 0.000000 -1.570796 0.000000 -1.326450
    8 2.033350 1.000771 -1.937610 2.900480 1.238764 1.220481
    9 6.028143 0.000002 0.000000 1.246412 1.381666 -0.823431
    10 11.692549 0.000000 0.000002 0.000000 0.000000 -1.168925
    11 11.481698 0.000000 0.000000 -1.124377 0.136598 0.358730
    12 2.676087 -1.712440 0.000000 -1.570796 0.000000 -1.570796
    13 2.033342 1.000767 1.937660 1.710088 -0.940501 2.800413
    14 6.028142 0.000002 0.000000 -1.729489 -0.588318 -0.736243
    15 11.692555 0.000000 0.000005 0.000000 0.000000 -1.683472
    16 11.481671 0.000000 -0.000030 0.621408 -0.009237 0.296198
    17 2.676088 -1.712441 0.000000 1.570797 0.000000 1.570797
    18 -3.890452 0.000004 0.000007 -1.278012 -0.071356 -1.820375
    19 17.848171 0.000000 0.000000 0.000000 0.000000 0.517199
    20 16.525253 0.000000 0.000000 0.352425 0.144894 -1.269715
    21 6.879454 0.000000 0.000000 -0.081333 -0.002951 -0.584373
    22 3.890452 -0.000004 -0.000003 -1.730918 -0.159442 -1.321130
    23 17.848175 0.000000 0.000000 0.000000 0.000000 0.488835
    24 16.525249 0.000000 0.000000 -0.239547 0.069094 -1.252234
    25 6.879452 0.000000 0.000000 -0.007299 -0.002950 -0.584374
    26 3.859704 -0.142404 -1.191975 -0.511025 -0.162469 -1.254549
    27 1.312563 0.000001 0.000001 -0.416582 0.363238 -0.532793
    28 0.729362 0.000002 0.000000 -0.030467 0.149165 -0.264812
    29 3.942327 0.046774 -0.431443 -0.077697 0.066225 -0.838261
    30 1.539092 0.000002 0.000000 -0.194799 0.216732 -0.913778
    31 1.196319 -0.000001 0.000000 -0.005417 0.048648 -0.221714
    32 3.883689 -0.046767 0.431443 0.294009 -0.005054 -0.492816
    33 1.719575 0.000002 0.000000 -0.067381 0.068570 -1.121333
    34 1.209182 -0.000001 0.000000 -0.003165 0.020606 -0.304754
    35 3.859859 -0.137950 1.332466 0.611194 0.091422 -0.576227
    36 1.719429 0.000003 0.000000 0.000001 -0.148422 -0.395022
    37 1.099668 0.000001 0.000000 0.000000 0.000000 -1.060287
    38 0.806048 -0.348923 1.321258 -1.253304 -0.366663 -0.756723
    39 1.789785 0.000000 0.000002 0.000001 -0.092056 -0.052846
    40 1.206998 0.000000 0.000000 -0.000002 0.101885 -0.080511
    41 3.859672 -0.132566 1.193108 0.441933 -0.039758 -1.502610
    42 1.312560 0.000000 -0.000001 0.000001 -0.060063 -0.756557
    43 0.729361 0.000002 0.000000 0.000001 -0.263859 -0.928787
    44 3.942293 0.050330 0.431043 0.323975 -0.042353 -1.173383
    45 1.539095 0.000003 0.000000 0.000000 -0.056711 -1.177242
    46 1.196323 0.000000 0.000000 0.193939 -0.249771 -0.925754
    47 3.883655 -0.050326 -0.431043 0.254188 -0.050536 -1.089574
    48 1.719575 -0.000005 0.000000 0.018743 -0.055384 -1.084460
    49 1.209182 -0.000001 0.000000 0.091857 -0.091058 -1.127954
    50 3.859828 -0.148935 -1.331282 0.145131 0.071080 -0.602900
    51 1.719425 0.000000 0.000000 -0.000001 0.098232 -0.215107
    52 1.099665 0.000000 0.000000 0.000001 0.066953 -1.966432
    53 0.806014 -0.359835 -1.318334 0.902692 0.272163 -1.272851
    54 1.789783 0.000001 0.000000 0.016660 0.544390 0.649620
    55 1.207003 0.000000 0.000004 0.015883 0.090668 0.974907
    56 2.338454 -1.535743 -6.391511 1.520245 -0.094380 -2.001951
  time 15
    0 1.610982 -0.851583 36.934055 1.544439 -0.010594 -0.979196
    1 0.007450 3.343750 -2.980469 1.238765 0.085742 1.559561
    2 4.018331 0.000000 0.000000 0.212912 0.060163 0.095330
    3 3.518565 0.000000 0.000000 0.231394 -0.081387 0.323683
    4 8.942642 0.000000 0.000000 0.180859 0.074145 0.413963
    5 3.307271 0.000000 0.000000 3.050323 -0.053260 0.560023
    6 3.593712 -0.000001 0.000000 0.683126 0.061242 0.967679
    7 1.999997 -3.000001 0.000000 -1.570796 0.000000 -1.326450
    8 2.033350 1.000771 -1.937610 2.900480 1.238764 1.220481
    9 6.028143 0.000002 0.000000 1.181587 1.405700 -0.846860
    10 11.692549 0.000000 0.000002 0.000000 0.000000 -1.168503
    11 11.481698 0.000000 0.000000 -1.124377 0.136598 0.358730
    12 2.676087 -1.712440 0.000000 -1.570796 0.000000 -1.570796
    13 2.033342 1.000767 1.937660 1.714011 -0.940062 2.795438
    14 6.028142 0.000002 0.000000 -1.737951 -0.561639 -0.683533
    15 11.692555 0.000000 0.000005 0.000000 0.000000 -1.722163
    16 11.481671 0.000000 -0.000030 0.533961 -0.009237 0.371129
    17 2.676088 -1.712441 0.000000 1.570797 0.000000 1.570797
    18 -3.890452 0.000004 0.000007 -1.293738 -0.079041 -1.809912
    19 17.848171 0.000000 0.000000 0.000000 0.000000 0.508819
    20 16.525253 0.000000 0.000000 0.342693 0.144819 -1.261912
    21 6.879454 0.000000 0.000000 -0.081333 -0.002951 -0.584373
    22 3.890452 -0.000004 -0.000003 -1.739843 -0.140756 -1.315316
    23 17.848175 0.000000 0.000000 0.000000 0.000000 0.458126
    24 16.525249 0.000000 0.000000 -0.250436 0.061140 -1.234579
    25 6.879452 0.000000 0.000000 -0.007299 -0.002950 -0.584374
    26 3.859704 -0.142404 -1.191975 -0.511025 -0.162469 -1.254549
    27 1.312563 0.000001 0.000001 -0.416582 0.363238 -0.532793
    28 0.729362 0.000002 0.000000 -0.030467 0.149165 -0.264812
    29 3.942327 0.046774 -0.431443 -0.077697 0.066225 -0.838261
    30 1.539092 0.000002 0.000000 -0.194799 0.216732 -0.913778
    31 1.196319 -0.000001 0.000000 -0.005405 0.048648 -0.221714
    32 3.883689 -0.046767 0.431443 0.294009 -0.005054 -0.492816
    33 1.719575 0.000002 0.000000 -0.067381 0.068570 -1.121333
    34 1.209182 -0.000001 0.000000 -0.003165 0.020606 -0.304754
    35 3.859859 -0.137950 1.332466 0.611194 0.091422 -0.576227
    36 1.719429 0.000003 0.000000 0.000001 -0.148422 -0.395022
    37 1.099668 0.000001 0.000000 0.000000 0.000000 -1.060287
    38 0.806048 -0.348923 1.321258 -1.253304 -0.366663 -0.756723
    39 1.789785 0.000000 0.000002 0.000001 -0.092056 -0.052846
    40 1.206998 0.000000 0.000000 -0.000002 0.101885 -0.080511
    41 3.859672 -0.132566 1.193108 0.441933 -0.039758 -1.502610
    42 1.312560 0.000000 -0.000001 0.000001 -0.060063 -0.756557
    43 0.729361 0.000002 0.000000 0.000001 -0.263859 -0.928787
    44 3.942293 0.050330 0.431043 0.323975 -0.042353 -1.173383
    45 1.539095 0.000003 0.000000 0.000000 -0.056711 -1.177242
    46 1.196323 0.000000 0.000000 0.193939 -0.249771 -0.925754
    47 3.883655 -0.050326 -0.431043 0.254188 -0.050536 -1.089574
    48 1.719575 -0.000005 0.000000 0.018743 -0.055384 -1.084460
    49 1.209182 -0.000001 0.000000 0.091857 -0.091058 -1.127954
    50 3.859828 -0.148935 -1.331282 0.145131 0.071080 -0.602900
    51 1.719425 0.000000 0.000000 -0.000001 0.098232 -0.215107
    52 1.099665 0.000000 0.000000 0.000001 0.066953 -1.966432
    53 0.806014 -0.359835 -1.318334 0.902692 0.272163 -1.272851
    54 1.789783 0.000001 0.000000 0.016660 0.544390 0.649620
    55 1.207003 0.000000 0.000004 0.015883 0.090668 0.974907
    56 2.338454 -1.535743 -6.391511 1.520245 -0.094380 -2.001951
  time 16
    0 1.610982 -0.605482 37.012182 1.543443 -0.008652 -0.997554
    1 0.007450 3.343750 -2.980469 1.238765 0.085742 1.559561
    2 4.018331 0.000000 0.000000 0.212912 0.060163 0.066583
    3 3.518565 0.000000 0.000000 0.224761 -0.080944 0.334642
    4 8.942642 0.000000 0.000000 0.180859 0.074145 0.413963
    5 3.307271 0.000000 0.000000 3.050323 -0.053260 0.538382
    6 3.593712 -0.000001 0.000000 0.696893 0.050875 0.940619
    7 1.999997 -3.000001 0.000000 -1.570796 0.000000 -1.326450
    8 2.033350 1.000771 -1.937610 2.900480 1.238764 1.220481
    9 6.028143 0.000002 0.000000 1.147594 1.427587 -0.841218
    10 11.692549 0.000000 0.000002 0.000000 0.000000 -1.170528
    11 11.481698 0.000000 0.000000 -1.124377 0.136598 0.358730
    12 2.676087 -1.712440 0.000000 -1.570796 0.000000 -1.570796
    13 2.033342 1.000767 1.937660 1.718091 -0.939663 2.790464
    14 6.028142 0.000002 0.000000 -1.772055 -0.526810 -0.655496
    15 11.692555 0.000000 0.000005 0.000000 0.000000 -1.780161
    16 11.481671 0.000000 -0.000030 0.442232 -0.009160 0.449712
    17 2.676088 -1.712441 0.000000 1.570797 0.000000 1.570797
    18 -3.890452 0.000004 0.000007 -1.305270 -0.085315 -1.800080
    19 17.848171 0.000000 0.000000 0.000000 0.000000 0.502903
    20 16.525253 0.000000 0.000000 0.332985 0.144719 -1.255909
    21 6.879454 0.000000 0.000000 -0.081333 -0.002951 -0.584373
    22 3.890452 -0.000004 -0.000003 -1.743289 -0.123541 -1.310320
    23 17.848175 0.000000 0.000000 0.000000 0.000000 0.428455
    24 16.525249 0.000000 0.000000 -0.261926 0.052750 -1.216775
    25 6.879452 0.000000 0.000000 -0.007299 -0.002950 -0.584374
    26 3.859704 -0.142404 -1.191975 -0.511025 -0.162469 -1.254549
    27 1.312563 0.000001 0.000001 -0.416582 0.363238 -0.532793
    28 0.729362 0.000002 0.000000 -0.030467 0.149165 -0.264812
    29 3.942327 0.046774 -0.431443 -0.077697 0.066225 -0.838261
    30 1.539092 0.000002 0.000000 -0.194799 0.216732 -0.913778
    31 1.196319 -0.000001 0.000000 -0.005405 0.048648 -0.221714
    32 3.883689 -0.046767 0.431443 0.294009 -0.005054 -0.492816
    33 1.719575 0.000002 0.000000 -0.067381 0.068570 -1.121333
    34 1.209182 -0.000001 0.000000 -0.003165 0.020606 -0.304754
    35 3.859859 -0.137950 1.332466 0.611194 0.091422 -0.576227
    36 1.719429 0.000003 0.000000 0.000001 -0.148422 -0.395022
    37 1.099668 0.000001 0.000000 0.000000 0.000000 -1.060287
    38 0.806048 -0.348923 1.321258 -1.253304 -0.366663 -0.756723
    39 1.789785 0.000000 0.000002 0.000001 -0.092056 -0.052846
    40 1.206998 0.000000 0.000000 -0.000002 0.101885 -0.080511
    41 3.859672 -0.132566 1.193108 0.441933 -0.039758 -1.502610
    42 1.312560 0.000000 -0.000001 0.000001 -0.060063 -0.756557
    43 0.729361 0.000002 0.000000 0.000001 -0.263859 -0.928787
    44 3.942293 0.050330 0.431043 0.323975 -0.042353 -1.173383
    45 1.539095 0.000003 0.000000 0.000000 -0.056711 -1.177242
    46 1.196323 0.000000 0.000000 0.193939 -0.249771 -0.925754
    47 3.883655 -0.050326 -0.431043 0.254188 -0.050536 -1.089574
    48 1.719575 -0.000005 0.000000 0.018743 -0.055384 -1.084460
    49 1.209182 -0.000001 0.000000 0.091857 -0.091058 -1.127954
    50 3.859828 -0.148935 -1.331282 0.145131 0.071080 -0.602900
    51 1.719425 0.000000 0.000000 -0.000001 0.098232 -0.215107
    52 1.099665 0.000000 0.000000 0.000001 0.066953 -1.966432
    53 0.806014 -0.359835 -1.318334 0.902692 0.272163 -1.272851
    54 1.789783 0.000001 0.000000 0.016660 0.544390 0.649620
    55 1.207003 0.000000 0.000004 0.015883 0.090668 0.974907
    56 2.338454 -1.535743 -6.391511 1.520245 -0.094380 -2.001951
  time 17
    0 1.610982 -0.414070 37.062965 1.542347 -0.007239 -1.009998
    1 0.007450 3.343750 -2.980469 1.238765 0.085742 1.559561
    2 4.018331 0.000000 0.000000 0.212912 0.060163 0.046737
    3 3.518565 0.000000 0.000000 0.220354 -0.080656 0.342083
    4 8.942642 0.000000 0.000000 0.180859 0.074145 0.413963
    5 3.307271 0.000000 0.000000 3.050323 -0.053260 0.517102
    6 3.593712 -0.000001 0.000000 0.707149 0.038903 0.908619
    7 1.999997 -3.000001 0.000000 -1.570796 0.000000 -1.326450
    8 2.033350 1.000771 -1.937610 2.900480 1.238764 1.220481
    9 6.028143 0.000002 0.000000 1.140508 1.443705 -0.821040
    10 11.692549 0.000000 0.000002 0.000000 0.000000 -1.174916
    11 11.481698 0.000000 0.000000 -1.124377 0.136598 0.358730
    12 2.676087 -1.712440 0.000000 -1.570796 0.000000 -1.570796
    13 2.033342 1.000767 1.937660 1.722327 -0.939184 2.785202
    14 6.028142 0.000002 0.000000 -1.812184 -0.494303 -0.614134
    15 11.692555 0.000000 0.000005 0.000000 0.000000 -1.841416
    16 11.481671 0.000000 -0.000030 0.346295 -0.009006 0.531947
    17 2.676088 -1.712441 0.000000 1.570797 0.000000 1.570797
    18 -3.890452 0.000004 0.000007 -1.312608 -0.089596 -1.792774
    19 17.848171 0.000000 0.000000 0.000000 0.000000 0.499288
    20 16.525253 0.000000 0.000000 0.325477 0.144644 -1.251965
    21 6.879454 0.000000 0.000000 -0.081333 -0.002951 -0.584373
    22 3.890452 -0.000004 -0.000003 -1.743908 -0.110404 -1.306868
    23 17.848175 0.000000 0.000000 0.000000 0.000000 0.405385
    24 16.525249 0.000000 0.000000 -0.271095 0.046038 -1.202671
    25 6.879452 0.000000 0.000000 -0.007299 -0.002950 -0.584374
    26 3.859704 -0.142404 -1.191975 -0.511025 -0.162469 -1.254549
    27 1.312563 0.000001 0.000001 -0.416582 0.363238 -0.532793
    28 0.729362 0.000002 0.000000 -0.030467 0.149165 -0.264812
    29 3.942327 0.046774 -0.431443 -0.077697 0.066225 -0.838261
    30 1.539092 0.000002 0.000000 -0.194799 0.216732 -0.913778
    31 1.196319 -0.000001 0.000000 -0.005405 0.048648 -0.221714
    32 3.883689 -0.046767 0.431443 0.294009 -0.005054 -0.492816
    33 1.719575 0.000002 0.000000 -0.067381 0.068570 -1.121333
    34 1.209182 -0.000001 0.000000 -0.003165 0.020606 -0.304754
    35 3.859859 -0.137950 1.332466 0.611194 0.091422 -0.576227
    36 1.719429 0.000003 0.000000 0.000001 -0.148422 -0.395022
    37 1.099668 0.000001 0.000000 0.000000 0.000000 -1.060287
    38 0.806048 -0.348923 1.321258 -1.253304 -0.366663 -0.756723
    39 1.789785 0.000000 0.000002 0.000001 -0.092056 -0.052846
    40 1.206998 0.000000 0.000000 -0.000002 0.101885 -0.080511
    41 3.859672 -0.132566 1.193108 0.441933 -0.039758 -1.502610
    42 1.312560 0.000000 -0.000001 0.000001 -0.060063 -0.756557
    43 0.729361 0.000002 0.000000 0.000001 -0.263859 -0.928787
    44 3.942293 0.050330 0.431043 0.323975 -0.042353 -1.173383
    45 1.539095 0.000003 0.000000 0.000000 -0.056711 -1.177242
    46 1.196323 0.000000 0.000000 0.193939 -0.249771 -0.925754
    47 3.883655 -0.050326 -0.431043 0.254188 -0.050536 -1.089574
    48 1.719575 -0.000005 0.000000 0.018743 -0.055384 -1.084460
    49 1.209182 -0.000001 0.000000 0.091857 -0.091058 -1.127954
    50 3.859828 -0.148935 -1.331282 0.145131 0.071080 -0.602900
    51 1.719425 0.000000 0.000000 -0.000001 0.098232 -0.215107
    52 1.099665 0.000000 0.000000 0.000001 0.066953 -1.966432
    53 0.806014 -0.359835 -1.318334 0.902692 0.272163 -1.272851
    54 1.789783 0.000001 0.000000 0.016660 0.544390 0.649620
    55 1.207003 0.000000 0.000004 0.015883 0.090668 0.974907
    56 2.338454 -1.535743 -6.391511 1.520245 -0.094380 -2.001951
  time 18
    0 1.610982 -0.335943 37.086403 1.541799 -0.006674 -1.014760
    1 0.007450 3.343750 -2.980469 1.238765 0.085742 1.559561
    2 4.018331 0.000000 0.000000 0.212912 0.060163 0.039323
    3 3.518565 0.000000 0.000000 0.218752 -0.080548 0.344879
    4 8.942642 0.000000 0.000000 0.180859 0.074145 0.413963
    5 3.307271 0.000000 0.000000 3.050323 -0.053260 0.499146
    6 3.593712 -0.000001 0.000000 0.712970 0.026480 0.875437
    7 1.999997 -3.000001 0.000000 -1.570796 0.000000 -1.326450
    8 2.033350 1.000771 -1.937610 2.900480 1.238764 1.220481
    9 6.028143 0.000002 0.000000 1.158989 1.450523 -0.793691
    10 11.692549 0.000000 0.000002 0.000000 0.000000 -1.181076
    11 11.481698 0.000000 0.000000 -1.124377 0.136598 0.358730
    12 2.676087 -1.712440 0.000000 -1.570796 0.000000 -1.570796
    13 2.033342 1.000767 1.937660 1.726643 -0.938666 2.779844
    14 6.028142 0.000002 0.000000 -1.833082 -0.478231 -0.591638
    15 11.692555 0.000000 0.000005 0.000000 0.000000 -1.869175
    16 11.481671 0.000000 -0.000030 0.245175 -0.008813 0.618583
    17 2.676088 -1.712441 0.000000 1.570797 0.000000 1.570797
    18 -3.890452 0.000004 0.000007 -1.315372 -0.091249 -1.789797
    19 17.848171 0.000000 0.000000 0.000000 0.000000 0.498138
    20 16.525253 0.000000 0.000000 0.322464 0.144619 -1.250550
    21 6.879454 0.000000 0.000000 -0.081333 -0.002951 -0.584373
    22 3.890452 -0.000004 -0.000003 -1.743820 -0.105140 -1.305506
    23 17.848175 0.000000 0.000000 0.000000 0.000000 0.396113
    24 16.525249 0.000000 0.000000 -0.274848 0.043280 -1.196970
    25 6.879452 0.000000 0.000000 -0.007299 -0.002950 -0.584374
    26 3.859704 -0.142404 -1.191975 -0.511025 -0.162469 -1.254549
    27 1.312563 0.000001 0.000001 -0.416582 0.363238 -0.532793
    28 0.729362 0.000002 0.000000 -0.030467 0.149165 -0.264812
    29 3.942327 0.046774 -0.431443 -0.077697 0.066225 -0.838261
    30 1.539092 0.000002 0.000000 -0.194799 0.216732 -0.913778
    31 1.196319 -0.000001 0.000000 -0.005405 0.048648 -0.221714
    32 3.883689 -0.046767 0.431443 0.294009 -0.005054 -0.492816
    33 1.719575 0.000002 0.000000 -0.067381 0.068570 -1.121333
    34 1.209182 -0.000001 0.000000 -0.003165 0.020606 -0.304754
    35 3.859859 -0.137950 1.332466 0.611194 0.091422 -0.576227
    36 1.719429 0.000003 0.000000 0.000001 -0.148422 -0.395022
    37 1.099668 0.000001 0.000000 0.000000 0.000000 -1.060287
    38 0.806048 -0.348923 1.321258 -1.253304 -0.366663 -0.756723
    39 1.789785 0.000000 0.000002 0.000001 -0.092056 -0.052846
    40 1.206998 0.000000 0.000000 -0.000002 0.101885 -0.080511
    41 3.859672 -0.132566 1.193108 0.441933 -0.039758 -1.502610
    42 1.312560 0.000000 -0.000001 0.000001 -0.060063 -0.756557
    43 0.729361 0.000002 0.000000 0.000001 -0.263859 -0.928787
    44 3.942293 0.050330 0.431043 0.323975 -0.042353 -1.173383
    45 1.539095 0.000003 0.000000 0.000000 -0.056711 -1.177242
    46 1.196323 0.000000 0.000000 0.193939 -0.249771 -0.925754
    47 3.883655 -0.050326 -0.431043 0.254188 -0.050536 -1.089574
    48 1.719575 -0.000005 0.000000 0.018743 -0.055384 -1.084460
    49 1.209182 -0.000001 0.000000 0.091857 -0.091058 -1.127954
    50 3.859828 -0.148935 -1.331282 0.145131 0.071080 -0.602900
    51 1.719425 0.000000 0.000000 -0.000001 0.098232 -0.215107
    52 1.099665 0.000000 0.000000 0.000001 0.066953 -1.966432
    53 0.806014 -0.359835 -1.318334 0.902692 0.272163 -1.272851
    54 1.789783 0.000001 0.000000 0.016660 0.544390 0.649620
    55 1.207003 0.000000 0.000004 0.015883 0.090668 0.974907
    56 2.338454 -1.535743 -6.391511 1.520245 -0.094380 -2.001951
end
