// Created by Crowbar 0.24.0.0
version 1
nodes
  0 "ValveBiped.Bip01_Pelvis" -1
  1 "ValveBiped.Bip01_Spine" 0
  2 "ValveBiped.Bip01_Spine1" 1
  3 "ValveBiped.Bip01_Spine2" 2
  4 "ValveBiped.Bip01_Spine4" 3
  5 "ValveBiped.Bip01_Neck1" 4
  6 "ValveBiped.Bip01_Head1" 5
  7 "ValveBiped.forward" 6
  8 "ValveBiped.Bip01_R_Clavicle" 4
  9 "ValveBiped.Bip01_R_UpperArm" 8
  10 "ValveBiped.Bip01_R_Forearm" 9
  11 "ValveBiped.Bip01_R_Hand" 10
  12 "ValveBiped.Anim_Attachment_RH" 11
  13 "ValveBiped.Bip01_L_Clavicle" 4
  14 "ValveBiped.Bip01_L_UpperArm" 13
  15 "ValveBiped.Bip01_L_Forearm" 14
  16 "ValveBiped.Bip01_L_Hand" 15
  17 "ValveBiped.Anim_Attachment_LH" 16
  18 "ValveBiped.Bip01_R_Thigh" 0
  19 "ValveBiped.Bip01_R_Calf" 18
  20 "ValveBiped.Bip01_R_Foot" 19
  21 "ValveBiped.Bip01_R_Toe0" 20
  22 "ValveBiped.Bip01_L_Thigh" 0
  23 "ValveBiped.Bip01_L_Calf" 22
  24 "ValveBiped.Bip01_L_Foot" 23
  25 "ValveBiped.Bip01_L_Toe0" 24
  26 "ValveBiped.Bip01_L_Finger4" 16
  27 "ValveBiped.Bip01_L_Finger41" 26
  28 "ValveBiped.Bip01_L_Finger42" 27
  29 "ValveBiped.Bip01_L_Finger3" 16
  30 "ValveBiped.Bip01_L_Finger31" 29
  31 "ValveBiped.Bip01_L_Finger32" 30
  32 "ValveBiped.Bip01_L_Finger2" 16
  33 "ValveBiped.Bip01_L_Finger21" 32
  34 "ValveBiped.Bip01_L_Finger22" 33
  35 "ValveBiped.Bip01_L_Finger1" 16
  36 "ValveBiped.Bip01_L_Finger11" 35
  37 "ValveBiped.Bip01_L_Finger12" 36
  38 "ValveBiped.Bip01_L_Finger0" 16
  39 "ValveBiped.Bip01_L_Finger01" 38
  40 "ValveBiped.Bip01_L_Finger02" 39
  41 "ValveBiped.Bip01_R_Finger4" 11
  42 "ValveBiped.Bip01_R_Finger41" 41
  43 "ValveBiped.Bip01_R_Finger42" 42
  44 "ValveBiped.Bip01_R_Finger3" 11
  45 "ValveBiped.Bip01_R_Finger31" 44
  46 "ValveBiped.Bip01_R_Finger32" 45
  47 "ValveBiped.Bip01_R_Finger2" 11
  48 "ValveBiped.Bip01_R_Finger21" 47
  49 "ValveBiped.Bip01_R_Finger22" 48
  50 "ValveBiped.Bip01_R_Finger1" 11
  51 "ValveBiped.Bip01_R_Finger11" 50
  52 "ValveBiped.Bip01_R_Finger12" 51
  53 "ValveBiped.Bip01_R_Finger0" 11
  54 "ValveBiped.Bip01_R_Finger01" 53
  55 "ValveBiped.Bip01_R_Finger02" 54
  56 "ValveBiped.baton_parent" 11
end
skeleton
  time 0
    1 -0.128905 3.345128 -2.981901 1.533452 0.125219 1.574699
    2 4.018331 0.000000 0.000000 -0.028301 0.078523 0.035238
    3 3.518565 0.000000 0.000000 -0.341812 0.008473 0.136933
    4 8.942642 0.000000 0.000000 -0.020452 -0.071596 0.261307
    5 3.307271 0.000000 0.000000 3.141590 0.000000 0.400478
    6 3.593712 -0.000001 0.000000 0.400581 -0.001964 0.518301
    7 1.999997 -3.000001 0.000000 -1.570796 0.000000 -1.326450
    8 2.033350 1.000771 -1.937610 -1.568124 1.223179 2.997670
    9 6.028143 0.000002 0.000000 1.440695 -0.089082 -0.715753
    10 11.692549 0.000000 0.000002 0.000000 0.000000 -1.964835
    11 11.481698 0.000000 0.000000 -1.103608 0.607818 -0.155986
    12 2.676087 -1.712440 0.000000 -1.570796 0.000000 -1.570796
    13 2.033342 1.000767 1.937660 1.198067 -1.319827 3.352333
    14 6.028142 0.000002 0.000000 -1.458263 0.139995 -1.032313
    15 11.692555 0.000000 0.000005 0.000000 0.000000 -0.787057
    16 11.481671 0.000000 -0.000030 1.991802 0.050394 0.021289
    17 2.676088 -1.712441 0.000000 1.570797 0.000000 1.570797
    26 3.859704 -0.142404 -1.191975 -0.454212 0.125458 -0.727589
    27 1.312563 0.000001 0.000001 -0.168576 0.310526 -0.695411
    28 0.729362 0.000002 0.000000 -0.168576 0.310527 -0.538331
    29 3.942327 0.046774 -0.431443 -0.180317 0.236514 -0.665166
    30 1.539092 0.000002 0.000000 -0.102744 0.185415 -0.715746
    31 1.196319 -0.000001 0.000000 -0.102744 0.185422 -0.539055
    32 3.883689 -0.046767 0.431443 -0.010807 0.275225 -1.114480
    33 1.719575 0.000002 0.000000 -0.032707 0.058462 -1.569746
    34 1.209182 -0.000001 0.000000 -0.032707 0.058461 -1.294854
    35 3.859859 -0.137950 1.332466 0.410601 0.234617 -1.384077
    36 1.719429 0.000003 0.000000 0.068759 -0.123350 -1.683904
    37 1.099668 0.000001 0.000000 0.068756 -0.123350 -1.350097
    38 0.806048 -0.348923 1.321258 -1.395461 -0.432881 -0.747837
    39 1.789785 0.000000 0.000002 0.030442 0.074687 0.714918
    40 1.206998 0.000000 0.000000 0.004890 0.032012 0.873190
    41 3.859672 -0.132566 1.193108 0.154239 -0.057260 -1.683869
    42 1.312560 0.000000 -0.000001 0.000000 0.000000 -0.627087
    43 0.729361 0.000002 0.000000 0.000000 0.000000 -1.021396
    44 3.942293 0.050330 0.431043 0.020416 -0.074382 -1.517445
    45 1.539095 0.000003 0.000000 0.000000 0.000000 -0.806824
    46 1.196323 0.000000 0.000000 0.000000 0.000000 -1.303471
    47 3.883655 -0.050326 -0.431043 -0.127900 -0.099350 -0.936274
    48 1.719575 -0.000005 0.000000 0.000000 0.000000 -1.100728
    49 1.209182 -0.000001 0.000000 0.000000 0.000000 -1.091484
    50 3.859828 -0.148935 -1.331282 -0.352000 -0.088876 -0.797490
    51 1.719425 0.000000 0.000000 0.000000 0.000000 -0.997181
    52 1.099665 0.000000 0.000000 0.000000 0.000000 -1.420909
    53 0.806014 -0.359835 -1.318334 1.372105 0.323498 -0.797776
    54 1.789783 0.000001 0.000000 0.000000 0.000000 0.612643
    55 1.207003 0.000000 0.000004 0.000000 0.000000 0.666344
    56 5.671875 -2.031250 -5.726563 1.991481 0.082330 -2.001947
  time 1
    1 -0.128905 3.345128 -2.981901 1.533356 0.125219 1.575889
    2 4.018331 0.000000 0.000000 -0.022632 0.077612 0.035969
    3 3.518565 0.000000 0.000000 -0.335899 0.006148 0.137497
    4 8.942642 0.000000 0.000000 -0.020311 -0.072519 0.260397
    5 3.307271 0.000000 0.000000 3.141590 0.000000 0.400478
    6 3.593712 -0.000001 0.000000 0.400581 -0.001964 0.518301
    7 1.999997 -3.000001 0.000000 -1.570796 0.000000 -1.326450
    8 2.033350 1.000771 -1.937610 -1.568124 1.223179 2.997670
    9 6.028143 0.000002 0.000000 1.456878 -0.066765 -0.713171
    10 11.692549 0.000000 0.000002 0.000000 0.000000 -1.952684
    11 11.481698 0.000000 0.000000 -1.103608 0.607818 -0.155986
    12 2.676087 -1.712440 0.000000 -1.570796 0.000000 -1.570796
    13 2.033342 1.000767 1.937660 1.152247 -1.318710 3.399212
    14 6.028142 0.000002 0.000000 -1.486149 0.155748 -1.048739
    15 11.692555 0.000000 0.000005 0.000000 0.000000 -0.780078
    16 11.481671 0.000000 -0.000030 1.991802 0.050394 0.021289
    17 2.676088 -1.712441 0.000000 1.570797 0.000000 1.570797
    26 3.859704 -0.142404 -1.191975 -0.454212 0.125458 -0.727589
    27 1.312563 0.000001 0.000001 -0.168576 0.310526 -0.695411
    28 0.729362 0.000002 0.000000 -0.168576 0.310527 -0.538331
    29 3.942327 0.046774 -0.431443 -0.180317 0.236514 -0.665166
    30 1.539092 0.000002 0.000000 -0.102744 0.185415 -0.715746
    31 1.196319 -0.000001 0.000000 -0.102744 0.185422 -0.539055
    32 3.883689 -0.046767 0.431443 -0.010807 0.275225 -1.114480
    33 1.719575 0.000002 0.000000 -0.032707 0.058462 -1.569746
    34 1.209182 -0.000001 0.000000 -0.032707 0.058461 -1.294854
    35 3.859859 -0.137950 1.332466 0.410601 0.234617 -1.384077
    36 1.719429 0.000003 0.000000 0.068759 -0.123350 -1.683904
    37 1.099668 0.000001 0.000000 0.068756 -0.123350 -1.350097
    38 0.806048 -0.348923 1.321258 -1.395461 -0.432881 -0.747837
    39 1.789785 0.000000 0.000002 0.030442 0.074687 0.714918
    40 1.206998 0.000000 0.000000 0.004890 0.032012 0.873215
    41 3.859672 -0.132566 1.193108 0.154239 -0.057260 -1.683869
    42 1.312560 0.000000 -0.000001 0.000000 0.000000 -0.627087
    43 0.729361 0.000002 0.000000 0.000000 0.000000 -1.021396
    44 3.942293 0.050330 0.431043 0.020416 -0.074382 -1.517445
    45 1.539095 0.000003 0.000000 0.000000 0.000000 -0.806824
    46 1.196323 0.000000 0.000000 0.000000 0.000000 -1.303471
    47 3.883655 -0.050326 -0.431043 -0.127900 -0.099350 -0.936274
    48 1.719575 -0.000005 0.000000 0.000000 0.000000 -1.100728
    49 1.209182 -0.000001 0.000000 0.000000 0.000000 -1.091484
    50 3.859828 -0.148935 -1.331282 -0.352000 -0.088876 -0.797490
    51 1.719425 0.000000 0.000000 0.000000 0.000000 -0.997181
    52 1.099665 0.000000 0.000000 0.000000 0.000000 -1.420909
    53 0.806014 -0.359835 -1.318334 1.372105 0.323498 -0.797776
    54 1.789783 0.000001 0.000000 0.000000 0.000000 0.612643
    55 1.207003 0.000000 0.000004 0.000000 0.000000 0.666344
    56 5.671875 -2.031250 -5.726563 1.991481 0.082330 -2.001947
  time 2
    1 -0.128905 3.345128 -2.981901 1.533356 0.125231 1.579030
    2 4.018331 0.000000 0.000000 -0.016629 0.075731 0.035818
    3 3.518565 0.000000 0.000000 -0.329778 0.002984 0.137587
    4 8.942642 0.000000 0.000000 -0.020100 -0.072866 0.258527
    5 3.307271 0.000000 0.000000 3.141590 0.000000 0.400478
    6 3.593712 -0.000001 0.000000 0.400581 -0.001964 0.518301
    7 1.999997 -3.000001 0.000000 -1.570796 0.000000 -1.326450
    8 2.033350 1.000771 -1.937610 -1.568124 1.223179 2.997670
    9 6.028143 0.000002 0.000000 1.470570 -0.045164 -0.707912
    10 11.692549 0.000000 0.000002 0.000000 0.000000 -1.941461
    11 11.481698 0.000000 0.000000 -1.103608 0.607818 -0.155986
    12 2.676087 -1.712440 0.000000 -1.570796 0.000000 -1.570796
    13 2.033342 1.000767 1.937660 1.107682 -1.317115 3.444846
    14 6.028142 0.000002 0.000000 -1.506085 0.168587 -1.061867
    15 11.692555 0.000000 0.000005 0.000000 0.000000 -0.772790
    16 11.481671 0.000000 -0.000030 1.991802 0.050394 0.021289
    17 2.676088 -1.712441 0.000000 1.570797 0.000000 1.570797
    26 3.859704 -0.142404 -1.191975 -0.454212 0.125458 -0.727589
    27 1.312563 0.000001 0.000001 -0.168576 0.310526 -0.695411
    28 0.729362 0.000002 0.000000 -0.168576 0.310527 -0.538331
    29 3.942327 0.046774 -0.431443 -0.180317 0.236514 -0.665166
    30 1.539092 0.000002 0.000000 -0.102744 0.185415 -0.715746
    31 1.196319 -0.000001 0.000000 -0.102744 0.185422 -0.539055
    32 3.883689 -0.046767 0.431443 -0.010807 0.275225 -1.114480
    33 1.719575 0.000002 0.000000 -0.032707 0.058462 -1.569746
    34 1.209182 -0.000001 0.000000 -0.032707 0.058461 -1.294854
    35 3.859859 -0.137950 1.332466 0.410601 0.234617 -1.384077
    36 1.719429 0.000003 0.000000 0.068759 -0.123350 -1.683904
    37 1.099668 0.000001 0.000000 0.068756 -0.123350 -1.350097
    38 0.806048 -0.348923 1.321258 -1.395461 -0.432881 -0.747837
    39 1.789785 0.000000 0.000002 0.030442 0.074687 0.714918
    40 1.206998 0.000000 0.000000 0.004890 0.032012 0.873190
    41 3.859672 -0.132566 1.193108 0.154239 -0.057260 -1.683869
    42 1.312560 0.000000 -0.000001 0.000000 0.000000 -0.627087
    43 0.729361 0.000002 0.000000 0.000000 0.000000 -1.021396
    44 3.942293 0.050330 0.431043 0.020416 -0.074382 -1.517445
    45 1.539095 0.000003 0.000000 0.000000 0.000000 -0.806824
    46 1.196323 0.000000 0.000000 0.000000 0.000000 -1.303471
    47 3.883655 -0.050326 -0.431043 -0.127900 -0.099350 -0.936274
    48 1.719575 -0.000005 0.000000 0.000000 0.000000 -1.100728
    49 1.209182 -0.000001 0.000000 0.000000 0.000000 -1.091484
    50 3.859828 -0.148935 -1.331282 -0.352000 -0.088876 -0.797490
    51 1.719425 0.000000 0.000000 0.000000 0.000000 -0.997181
    52 1.099665 0.000000 0.000000 0.000000 0.000000 -1.420909
    53 0.806014 -0.359835 -1.318334 1.372105 0.323498 -0.797776
    54 1.789783 0.000001 0.000000 0.000000 0.000000 0.612643
    55 1.207003 0.000000 0.000004 0.000000 0.000000 0.666344
    56 5.671875 -2.031250 -5.726563 1.991481 0.082330 -2.001947
  time 3
    1 -0.128905 3.345128 -2.981901 1.533308 0.125243 1.583409
    2 4.018331 0.000000 0.000000 -0.010404 0.072746 0.035061
    3 3.518565 0.000000 0.000000 -0.323609 -0.000887 0.137339
    4 8.942642 0.000000 0.000000 -0.019783 -0.072699 0.255761
    5 3.307271 0.000000 0.000000 3.141590 0.000000 0.400478
    6 3.593712 -0.000001 0.000000 0.400581 -0.001964 0.518301
    7 1.999997 -3.000001 0.000000 -1.570796 0.000000 -1.326450
    8 2.033350 1.000771 -1.937610 -1.568124 1.223179 2.997670
    9 6.028143 0.000002 0.000000 1.483210 -0.026042 -0.701696
    10 11.692549 0.000000 0.000002 0.000000 0.000000 -1.931757
    11 11.481698 0.000000 0.000000 -1.103608 0.607818 -0.155986
    12 2.676087 -1.712440 0.000000 -1.570796 0.000000 -1.570796
    13 2.033342 1.000767 1.937660 1.066099 -1.315160 3.487324
    14 6.028142 0.000002 0.000000 -1.518265 0.179377 -1.070839
    15 11.692555 0.000000 0.000005 0.000000 0.000000 -0.765966
    16 11.481671 0.000000 -0.000030 1.991802 0.050394 0.021289
    17 2.676088 -1.712441 0.000000 1.570797 0.000000 1.570797
    26 3.859704 -0.142404 -1.191975 -0.454212 0.125458 -0.727589
    27 1.312563 0.000001 0.000001 -0.168576 0.310526 -0.695411
    28 0.729362 0.000002 0.000000 -0.168576 0.310527 -0.538331
    29 3.942327 0.046774 -0.431443 -0.180317 0.236514 -0.665166
    30 1.539092 0.000002 0.000000 -0.102744 0.185415 -0.715746
    31 1.196319 -0.000001 0.000000 -0.102744 0.185422 -0.539055
    32 3.883689 -0.046767 0.431443 -0.010807 0.275225 -1.114480
    33 1.719575 0.000002 0.000000 -0.032707 0.058462 -1.569746
    34 1.209182 -0.000001 0.000000 -0.032707 0.058461 -1.294854
    35 3.859859 -0.137950 1.332466 0.410601 0.234617 -1.384077
    36 1.719429 0.000003 0.000000 0.068759 -0.123350 -1.683904
    37 1.099668 0.000001 0.000000 0.068756 -0.123350 -1.350097
    38 0.806048 -0.348923 1.321258 -1.395461 -0.432881 -0.747837
    39 1.789785 0.000000 0.000002 0.030442 0.074687 0.714918
    40 1.206998 0.000000 0.000000 0.004890 0.032012 0.873190
    41 3.859672 -0.132566 1.193108 0.154239 -0.057260 -1.683869
    42 1.312560 0.000000 -0.000001 0.000000 0.000000 -0.627087
    43 0.729361 0.000002 0.000000 0.000000 0.000000 -1.021396
    44 3.942293 0.050330 0.431043 0.020416 -0.074382 -1.517445
    45 1.539095 0.000003 0.000000 0.000000 0.000000 -0.806824
    46 1.196323 0.000000 0.000000 0.000000 0.000000 -1.303471
    47 3.883655 -0.050326 -0.431043 -0.127900 -0.099350 -0.936274
    48 1.719575 -0.000005 0.000000 0.000000 0.000000 -1.100728
    49 1.209182 -0.000001 0.000000 0.000000 0.000000 -1.091484
    50 3.859828 -0.148935 -1.331282 -0.352000 -0.088876 -0.797490
    51 1.719425 0.000000 0.000000 0.000000 0.000000 -0.997181
    52 1.099665 0.000000 0.000000 0.000000 0.000000 -1.420909
    53 0.806014 -0.359835 -1.318334 1.372105 0.323498 -0.797776
    54 1.789783 0.000001 0.000000 0.000000 0.000000 0.612643
    55 1.207003 0.000000 0.000004 0.000000 0.000000 0.666344
    56 5.671875 -2.031250 -5.726563 1.991481 0.082330 -2.001947
  time 4
    1 -0.128905 3.345128 -2.981901 1.533260 0.125255 1.588359
    2 4.018331 0.000000 0.000000 -0.004180 0.068504 0.033952
    3 3.518565 0.000000 0.000000 -0.317552 -0.005189 0.136707
    4 8.942642 0.000000 0.000000 -0.019432 -0.072087 0.252211
    5 3.307271 0.000000 0.000000 3.141590 0.000000 0.400478
    6 3.593712 -0.000001 0.000000 0.400581 -0.001964 0.518301
    7 1.999997 -3.000001 0.000000 -1.570796 0.000000 -1.326450
    8 2.033350 1.000771 -1.937610 -1.568124 1.223179 2.997670
    9 6.028143 0.000002 0.000000 1.493455 -0.009591 -0.695289
    10 11.692549 0.000000 0.000002 0.000000 0.000000 -1.924753
    11 11.481698 0.000000 0.000000 -1.103608 0.607818 -0.155986
    12 2.676087 -1.712440 0.000000 -1.570796 0.000000 -1.570796
    13 2.033342 1.000767 1.937660 1.029145 -1.312965 3.525113
    14 6.028142 0.000002 0.000000 -1.525701 0.189439 -1.076248
    15 11.692555 0.000000 0.000005 0.000000 0.000000 -0.760229
    16 11.481671 0.000000 -0.000030 1.991802 0.050394 0.021289
    17 2.676088 -1.712441 0.000000 1.570797 0.000000 1.570797
    26 3.859704 -0.142404 -1.191975 -0.454212 0.125458 -0.727589
    27 1.312563 0.000001 0.000001 -0.168576 0.310526 -0.695411
    28 0.729362 0.000002 0.000000 -0.168576 0.310527 -0.538331
    29 3.942327 0.046774 -0.431443 -0.180317 0.236514 -0.665166
    30 1.539092 0.000002 0.000000 -0.102744 0.185415 -0.715746
    31 1.196319 -0.000001 0.000000 -0.102744 0.185422 -0.539055
    32 3.883689 -0.046767 0.431443 -0.010807 0.275225 -1.114480
    33 1.719575 0.000002 0.000000 -0.032707 0.058462 -1.569746
    34 1.209182 -0.000001 0.000000 -0.032707 0.058461 -1.294854
    35 3.859859 -0.137950 1.332466 0.410601 0.234617 -1.384077
    36 1.719429 0.000003 0.000000 0.068759 -0.123350 -1.683904
    37 1.099668 0.000001 0.000000 0.068756 -0.123350 -1.350097
    38 0.806048 -0.348923 1.321258 -1.395461 -0.432881 -0.747837
    39 1.789785 0.000000 0.000002 0.030442 0.074687 0.714918
    40 1.206998 0.000000 0.000000 0.004890 0.032012 0.873190
    41 3.859672 -0.132566 1.193108 0.154239 -0.057260 -1.683869
    42 1.312560 0.000000 -0.000001 0.000000 0.000000 -0.627087
    43 0.729361 0.000002 0.000000 0.000000 0.000000 -1.021396
    44 3.942293 0.050330 0.431043 0.020416 -0.074382 -1.517445
    45 1.539095 0.000003 0.000000 0.000000 0.000000 -0.806824
    46 1.196323 0.000000 0.000000 0.000000 0.000000 -1.303471
    47 3.883655 -0.050326 -0.431043 -0.127900 -0.099350 -0.936274
    48 1.719575 -0.000005 0.000000 0.000000 0.000000 -1.100728
    49 1.209182 -0.000001 0.000000 0.000000 0.000000 -1.091484
    50 3.859828 -0.148935 -1.331282 -0.352000 -0.088876 -0.797490
    51 1.719425 0.000000 0.000000 0.000000 0.000000 -0.997181
    52 1.099665 0.000000 0.000000 0.000000 0.000000 -1.420909
    53 0.806014 -0.359835 -1.318334 1.372105 0.323498 -0.797776
    54 1.789783 0.000001 0.000000 0.000000 0.000000 0.612643
    55 1.207003 0.000000 0.000004 0.000000 0.000000 0.666344
    56 5.671875 -2.031250 -5.726563 1.991481 0.082330 -2.001947
  time 5
    1 -0.128905 3.345128 -2.981901 1.533164 0.125267 1.593214
    2 4.018331 0.000000 0.000000 0.001867 0.062907 0.032641
    3 3.518565 0.000000 0.000000 -0.311752 -0.009408 0.135715
    4 8.942642 0.000000 0.000000 -0.019010 -0.071153 0.248016
    5 3.307271 0.000000 0.000000 3.141590 0.000000 0.400478
    6 3.593712 -0.000001 0.000000 0.400581 -0.001964 0.518301
    7 1.999997 -3.000001 0.000000 -1.570796 0.000000 -1.326450
    8 2.033350 1.000771 -1.937610 -1.568124 1.223179 2.997670
    9 6.028143 0.000002 0.000000 1.501499 0.003475 -0.689455
    10 11.692549 0.000000 0.000002 0.000000 0.000000 -1.920956
    11 11.481698 0.000000 0.000000 -1.103608 0.607818 -0.155986
    12 2.676087 -1.712440 0.000000 -1.570796 0.000000 -1.570796
    13 2.033342 1.000767 1.937660 0.998233 -1.310851 3.556780
    14 6.028142 0.000002 0.000000 -1.529676 0.199182 -1.078227
    15 11.692555 0.000000 0.000005 0.000000 0.000000 -0.755809
    16 11.481671 0.000000 -0.000030 1.991802 0.050394 0.021289
    17 2.676088 -1.712441 0.000000 1.570797 0.000000 1.570797
    26 3.859704 -0.142404 -1.191975 -0.454212 0.125458 -0.727589
    27 1.312563 0.000001 0.000001 -0.168576 0.310526 -0.695411
    28 0.729362 0.000002 0.000000 -0.168576 0.310527 -0.538331
    29 3.942327 0.046774 -0.431443 -0.180317 0.236514 -0.665166
    30 1.539092 0.000002 0.000000 -0.102744 0.185415 -0.715746
    31 1.196319 -0.000001 0.000000 -0.102744 0.185422 -0.539055
    32 3.883689 -0.046767 0.431443 -0.010807 0.275225 -1.114480
    33 1.719575 0.000002 0.000000 -0.032707 0.058462 -1.569746
    34 1.209182 -0.000001 0.000000 -0.032707 0.058461 -1.294854
    35 3.859859 -0.137950 1.332466 0.410601 0.234617 -1.384077
    36 1.719429 0.000003 0.000000 0.068759 -0.123350 -1.683904
    37 1.099668 0.000001 0.000000 0.068756 -0.123350 -1.350097
    38 0.806048 -0.348923 1.321258 -1.395461 -0.432881 -0.747837
    39 1.789785 0.000000 0.000002 0.030442 0.074687 0.714918
    40 1.206998 0.000000 0.000000 0.004890 0.032012 0.873190
    41 3.859672 -0.132566 1.193108 0.154239 -0.057260 -1.683869
    42 1.312560 0.000000 -0.000001 0.000000 0.000000 -0.627087
    43 0.729361 0.000002 0.000000 0.000000 0.000000 -1.021396
    44 3.942293 0.050330 0.431043 0.020416 -0.074382 -1.517445
    45 1.539095 0.000003 0.000000 0.000000 0.000000 -0.806824
    46 1.196323 0.000000 0.000000 0.000000 0.000000 -1.303471
    47 3.883655 -0.050326 -0.431043 -0.127900 -0.099350 -0.936274
    48 1.719575 -0.000005 0.000000 0.000000 0.000000 -1.100728
    49 1.209182 -0.000001 0.000000 0.000000 0.000000 -1.091484
    50 3.859828 -0.148935 -1.331282 -0.352000 -0.088876 -0.797490
    51 1.719425 0.000000 0.000000 0.000000 0.000000 -0.997181
    52 1.099665 0.000000 0.000000 0.000000 0.000000 -1.420909
    53 0.806014 -0.359835 -1.318334 1.372105 0.323498 -0.797776
    54 1.789783 0.000001 0.000000 0.000000 0.000000 0.612643
    55 1.207003 0.000000 0.000004 0.000000 0.000000 0.666344
    56 5.671875 -2.031250 -5.726563 1.991481 0.082330 -2.001947
  time 6
    1 -0.128905 3.345128 -2.981901 1.533069 0.125279 1.597450
    2 4.018331 0.000000 0.000000 0.007648 0.056100 0.031430
    3 3.518565 0.000000 0.000000 -0.306336 -0.012979 0.134633
    4 8.942642 0.000000 0.000000 -0.018588 -0.069990 0.243430
    5 3.307271 0.000000 0.000000 3.141590 0.000000 0.400478
    6 3.593712 -0.000001 0.000000 0.400581 -0.001964 0.518301
    7 1.999997 -3.000001 0.000000 -1.570796 0.000000 -1.326450
    8 2.033350 1.000771 -1.937610 -1.568124 1.223179 2.997670
    9 6.028143 0.000002 0.000000 1.506191 0.013584 -0.684770
    10 11.692549 0.000000 0.000002 0.000000 0.000000 -1.921040
    11 11.481698 0.000000 0.000000 -1.103608 0.607818 -0.155986
    12 2.676087 -1.712440 0.000000 -1.570796 0.000000 -1.570796
    13 2.033342 1.000767 1.937660 0.974538 -1.309016 3.580985
    14 6.028142 0.000002 0.000000 -1.532945 0.208743 -1.077634
    15 11.692555 0.000000 0.000005 0.000000 0.000000 -0.752707
    16 11.481671 0.000000 -0.000030 1.991802 0.050394 0.021289
    17 2.676088 -1.712441 0.000000 1.570797 0.000000 1.570797
    26 3.859704 -0.142404 -1.191975 -0.454212 0.125458 -0.727589
    27 1.312563 0.000001 0.000001 -0.168576 0.310526 -0.695411
    28 0.729362 0.000002 0.000000 -0.168576 0.310527 -0.538331
    29 3.942327 0.046774 -0.431443 -0.180317 0.236514 -0.665166
    30 1.539092 0.000002 0.000000 -0.102744 0.185415 -0.715746
    31 1.196319 -0.000001 0.000000 -0.102744 0.185422 -0.539055
    32 3.883689 -0.046767 0.431443 -0.010807 0.275225 -1.114480
    33 1.719575 0.000002 0.000000 -0.032707 0.058462 -1.569746
    34 1.209182 -0.000001 0.000000 -0.032707 0.058461 -1.294854
    35 3.859859 -0.137950 1.332466 0.410601 0.234617 -1.384077
    36 1.719429 0.000003 0.000000 0.068759 -0.123350 -1.683904
    37 1.099668 0.000001 0.000000 0.068756 -0.123338 -1.350097
    38 0.806048 -0.348923 1.321258 -1.395461 -0.432881 -0.747837
    39 1.789785 0.000000 0.000002 0.030442 0.074687 0.714918
    40 1.206998 0.000000 0.000000 0.004890 0.032012 0.873215
    41 3.859672 -0.132566 1.193108 0.154239 -0.057260 -1.683869
    42 1.312560 0.000000 -0.000001 0.000000 0.000000 -0.627087
    43 0.729361 0.000002 0.000000 0.000000 0.000000 -1.021396
    44 3.942293 0.050330 0.431043 0.020416 -0.074382 -1.517445
    45 1.539095 0.000003 0.000000 0.000000 0.000000 -0.806824
    46 1.196323 0.000000 0.000000 0.000000 0.000000 -1.303471
    47 3.883655 -0.050326 -0.431043 -0.127900 -0.099350 -0.936274
    48 1.719575 -0.000005 0.000000 0.000000 0.000000 -1.100728
    49 1.209182 -0.000001 0.000000 0.000000 0.000000 -1.091484
    50 3.859828 -0.148935 -1.331282 -0.352000 -0.088876 -0.797490
    51 1.719425 0.000000 0.000000 0.000000 0.000000 -0.997181
    52 1.099665 0.000000 0.000000 0.000000 0.000000 -1.420909
    53 0.806014 -0.359835 -1.318334 1.372105 0.323498 -0.797776
    54 1.789783 0.000001 0.000000 0.000000 0.000000 0.612643
    55 1.207003 0.000000 0.000004 0.000000 0.000000 0.666344
    56 5.671875 -2.031250 -5.726563 1.991481 0.082330 -2.001947
  time 7
    1 -0.128905 3.345128 -2.981901 1.533069 0.125279 1.600448
    2 4.018331 0.000000 0.000000 0.012961 0.049077 0.030548
    3 3.518565 0.000000 0.000000 -0.301417 -0.015376 0.133821
    4 8.942642 0.000000 0.000000 -0.018183 -0.068720 0.238920
    5 3.307271 0.000000 0.000000 3.141590 0.000000 0.400478
    6 3.593712 -0.000001 0.000000 0.400581 -0.001964 0.518301
    7 1.999997 -3.000001 0.000000 -1.570796 0.000000 -1.326450
    8 2.033350 1.000771 -1.937610 -1.568124 1.223179 2.997670
    9 6.028143 0.000002 0.000000 1.510212 0.018829 -0.682092
    10 11.692549 0.000000 0.000002 0.000000 0.000000 -1.924415
    11 11.481698 0.000000 0.000000 -1.103608 0.607818 -0.155986
    12 2.676087 -1.712440 0.000000 -1.570796 0.000000 -1.570796
    13 2.033342 1.000767 1.937660 0.959474 -1.307739 3.596387
    14 6.028142 0.000002 0.000000 -1.533330 0.216574 -1.074467
    15 11.692555 0.000000 0.000005 0.000000 0.000000 -0.751002
    16 11.481671 0.000000 -0.000030 1.991802 0.050394 0.021289
    17 2.676088 -1.712441 0.000000 1.570797 0.000000 1.570797
    26 3.859704 -0.142404 -1.191975 -0.454212 0.125458 -0.727589
    27 1.312563 0.000001 0.000001 -0.168576 0.310526 -0.695411
    28 0.729362 0.000002 0.000000 -0.168576 0.310527 -0.538331
    29 3.942327 0.046774 -0.431443 -0.180317 0.236514 -0.665166
    30 1.539092 0.000002 0.000000 -0.102744 0.185415 -0.715746
    31 1.196319 -0.000001 0.000000 -0.102744 0.185422 -0.539055
    32 3.883689 -0.046767 0.431443 -0.010807 0.275225 -1.114480
    33 1.719575 0.000002 0.000000 -0.032707 0.058462 -1.569746
    34 1.209182 -0.000001 0.000000 -0.032707 0.058461 -1.294854
    35 3.859859 -0.137950 1.332466 0.410601 0.234617 -1.384077
    36 1.719429 0.000003 0.000000 0.068759 -0.123350 -1.683904
    37 1.099668 0.000001 0.000000 0.068756 -0.123350 -1.350097
    38 0.806048 -0.348923 1.321258 -1.395461 -0.432881 -0.747837
    39 1.789785 0.000000 0.000002 0.030442 0.074687 0.714918
    40 1.206998 0.000000 0.000000 0.004890 0.032012 0.873190
    41 3.859672 -0.132566 1.193108 0.154239 -0.057260 -1.683869
    42 1.312560 0.000000 -0.000001 0.000000 0.000000 -0.627087
    43 0.729361 0.000002 0.000000 0.000000 0.000000 -1.021396
    44 3.942293 0.050330 0.431043 0.020416 -0.074382 -1.517445
    45 1.539095 0.000003 0.000000 0.000000 0.000000 -0.806824
    46 1.196323 0.000000 0.000000 0.000000 0.000000 -1.303471
    47 3.883655 -0.050326 -0.431043 -0.127900 -0.099350 -0.936274
    48 1.719575 -0.000005 0.000000 0.000000 0.000000 -1.100728
    49 1.209182 -0.000001 0.000000 0.000000 0.000000 -1.091484
    50 3.859828 -0.148935 -1.331282 -0.352000 -0.088876 -0.797490
    51 1.719425 0.000000 0.000000 0.000000 0.000000 -0.997181
    52 1.099665 0.000000 0.000000 0.000000 0.000000 -1.420909
    53 0.806014 -0.359835 -1.318334 1.372105 0.323498 -0.797776
    54 1.789783 0.000001 0.000000 0.000000 0.000000 0.612643
    55 1.207003 0.000000 0.000004 0.000000 0.000000 0.666344
    56 5.671875 -2.031250 -5.726563 1.991481 0.082330 -2.001947
  time 8
    1 -0.128905 3.345128 -2.981901 1.533069 0.125279 1.601590
    2 4.018331 0.000000 0.000000 0.017630 0.045050 0.030195
    3 3.518565 0.000000 0.000000 -0.297123 -0.016371 0.133596
    4 8.942642 0.000000 0.000000 -0.017796 -0.067413 0.235938
    5 3.307271 0.000000 0.000000 3.141590 0.000000 0.400478
    6 3.593712 -0.000001 0.000000 0.400581 -0.001964 0.518301
    7 1.999997 -3.000001 0.000000 -1.570796 0.000000 -1.326450
    8 2.033350 1.000771 -1.937610 -1.568124 1.223179 2.997670
    9 6.028143 0.000002 0.000000 1.515191 0.017065 -0.681518
    10 11.692549 0.000000 0.000002 0.000000 0.000000 -1.927453
    11 11.481698 0.000000 0.000000 -1.103608 0.607818 -0.155986
    12 2.676087 -1.712440 0.000000 -1.570796 0.000000 -1.570796
    13 2.033342 1.000767 1.937660 0.954139 -1.307260 3.601841
    14 6.028142 0.000002 0.000000 -1.528393 0.219988 -1.070443
    15 11.692555 0.000000 0.000005 0.000000 0.000000 -0.750381
    16 11.481671 0.000000 -0.000030 1.991802 0.050394 0.021289
    17 2.676088 -1.712441 0.000000 1.570797 0.000000 1.570797
    26 3.859704 -0.142404 -1.191975 -0.454212 0.125458 -0.727589
    27 1.312563 0.000001 0.000001 -0.168576 0.310526 -0.695411
    28 0.729362 0.000002 0.000000 -0.168576 0.310527 -0.538331
    29 3.942327 0.046774 -0.431443 -0.180317 0.236514 -0.665166
    30 1.539092 0.000002 0.000000 -0.102744 0.185415 -0.715746
    31 1.196319 -0.000001 0.000000 -0.102744 0.185422 -0.539055
    32 3.883689 -0.046767 0.431443 -0.010807 0.275225 -1.114480
    33 1.719575 0.000002 0.000000 -0.032707 0.058462 -1.569746
    34 1.209182 -0.000001 0.000000 -0.032707 0.058461 -1.294854
    35 3.859859 -0.137950 1.332466 0.410601 0.234617 -1.384077
    36 1.719429 0.000003 0.000000 0.068759 -0.123350 -1.683904
    37 1.099668 0.000001 0.000000 0.068756 -0.123350 -1.350097
    38 0.806048 -0.348923 1.321258 -1.395461 -0.432881 -0.747837
    39 1.789785 0.000000 0.000002 0.030442 0.074687 0.714918
    40 1.206998 0.000000 0.000000 0.004890 0.032012 0.873215
    41 3.859672 -0.132566 1.193108 0.154239 -0.057260 -1.683869
    42 1.312560 0.000000 -0.000001 0.000000 0.000000 -0.627087
    43 0.729361 0.000002 0.000000 0.000000 0.000000 -1.021396
    44 3.942293 0.050330 0.431043 0.020416 -0.074382 -1.517445
    45 1.539095 0.000003 0.000000 0.000000 0.000000 -0.806824
    46 1.196323 0.000000 0.000000 0.000000 0.000000 -1.303471
    47 3.883655 -0.050326 -0.431043 -0.127900 -0.099350 -0.936274
    48 1.719575 -0.000005 0.000000 0.000000 0.000000 -1.100728
    49 1.209182 -0.000001 0.000000 0.000000 0.000000 -1.091484
    50 3.859828 -0.148935 -1.331282 -0.352000 -0.088876 -0.797490
    51 1.719425 0.000000 0.000000 0.000000 0.000000 -0.997181
    52 1.099665 0.000000 0.000000 0.000000 0.000000 -1.420909
    53 0.806014 -0.359835 -1.318334 1.372105 0.323498 -0.797776
    54 1.789783 0.000001 0.000000 0.000000 0.000000 0.612643
    55 1.207003 0.000000 0.000004 0.000000 0.000000 0.666344
    56 5.671875 -2.031250 -5.726563 1.991481 0.082330 -2.001947
  time 9
    1 -0.128905 3.345128 -2.981901 1.533356 0.125291 1.605874
    2 4.018331 0.000000 0.000000 0.016963 0.036229 0.030699
    3 3.518565 0.000000 0.000000 -0.298469 -0.021249 0.133844
    4 8.942642 0.000000 0.000000 -0.016530 -0.063147 0.232174
    5 3.307271 0.000000 0.000000 3.141590 0.000000 0.400478
    6 3.593712 -0.000001 0.000000 0.400581 -0.001964 0.518301
    7 1.999997 -3.000001 0.000000 -1.570796 0.000000 -1.326450
    8 2.033350 1.000771 -1.937610 -1.568124 1.223179 2.997670
    9 6.028143 0.000002 0.000000 1.508393 0.008005 -0.690029
    10 11.692549 0.000000 0.000002 0.000000 0.000000 -1.923234
    11 11.481698 0.000000 0.000000 -1.103608 0.607818 -0.155986
    12 2.676087 -1.712440 0.000000 -1.570796 0.000000 -1.570796
    13 2.033342 1.000767 1.937660 0.959474 -1.307739 3.596387
    14 6.028142 0.000002 0.000000 -1.526406 0.224405 -1.063516
    15 11.692555 0.000000 0.000005 0.000000 0.000000 -0.751002
    16 11.481671 0.000000 -0.000030 1.991802 0.050394 0.021289
    17 2.676088 -1.712441 0.000000 1.570797 0.000000 1.570797
    26 3.859704 -0.142404 -1.191975 -0.454212 0.125458 -0.727589
    27 1.312563 0.000001 0.000001 -0.168576 0.310526 -0.695411
    28 0.729362 0.000002 0.000000 -0.168576 0.310527 -0.538331
    29 3.942327 0.046774 -0.431443 -0.180317 0.236514 -0.665166
    30 1.539092 0.000002 0.000000 -0.102744 0.185415 -0.715746
    31 1.196319 -0.000001 0.000000 -0.102744 0.185422 -0.539055
    32 3.883689 -0.046767 0.431443 -0.010807 0.275225 -1.114480
    33 1.719575 0.000002 0.000000 -0.032707 0.058462 -1.569746
    34 1.209182 -0.000001 0.000000 -0.032707 0.058461 -1.294854
    35 3.859859 -0.137950 1.332466 0.410601 0.234617 -1.384077
    36 1.719429 0.000003 0.000000 0.068759 -0.123350 -1.683904
    37 1.099668 0.000001 0.000000 0.068756 -0.123338 -1.350097
    38 0.806048 -0.348923 1.321258 -1.395461 -0.432881 -0.747837
    39 1.789785 0.000000 0.000002 0.030442 0.074687 0.714918
    40 1.206998 0.000000 0.000000 0.004890 0.032012 0.873190
    41 3.859672 -0.132566 1.193108 0.154239 -0.057260 -1.683869
    42 1.312560 0.000000 -0.000001 0.000000 0.000000 -0.627087
    43 0.729361 0.000002 0.000000 0.000000 0.000000 -1.021396
    44 3.942293 0.050330 0.431043 0.020416 -0.074382 -1.517445
    45 1.539095 0.000003 0.000000 0.000000 0.000000 -0.806824
    46 1.196323 0.000000 0.000000 0.000000 0.000000 -1.303471
    47 3.883655 -0.050326 -0.431043 -0.127900 -0.099350 -0.936274
    48 1.719575 -0.000005 0.000000 0.000000 0.000000 -1.100728
    49 1.209182 -0.000001 0.000000 0.000000 0.000000 -1.091484
    50 3.859828 -0.148935 -1.331282 -0.352000 -0.088876 -0.797490
    51 1.719425 0.000000 0.000000 0.000000 0.000000 -0.997181
    52 1.099665 0.000000 0.000000 0.000000 0.000000 -1.420909
    53 0.806014 -0.359835 -1.318334 1.372105 0.323498 -0.797776
    54 1.789783 0.000001 0.000000 0.000000 0.000000 0.612643
    55 1.207003 0.000000 0.000004 0.000000 0.000000 0.666344
    56 5.671875 -2.031250 -5.726563 1.991481 0.082330 -2.001947
  time 10
    1 -0.128905 3.345128 -2.981901 1.533356 0.125291 1.609682
    2 4.018331 0.000000 0.000000 0.014495 0.028751 0.031985
    3 3.518565 0.000000 0.000000 -0.301721 -0.026798 0.134430
    4 8.942642 0.000000 0.000000 -0.015229 -0.058365 0.227929
    5 3.307271 0.000000 0.000000 3.141590 0.000000 0.400478
    6 3.593712 -0.000001 0.000000 0.400581 -0.001964 0.518301
    7 1.999997 -3.000001 0.000000 -1.570796 0.000000 -1.326450
    8 2.033350 1.000771 -1.937610 -1.568124 1.223179 2.997670
    9 6.028143 0.000002 0.000000 1.498913 -0.007064 -0.701409
    10 11.692549 0.000000 0.000002 0.000000 0.000000 -1.918086
    11 11.481698 0.000000 0.000000 -1.103608 0.607818 -0.155986
    12 2.676087 -1.712440 0.000000 -1.570796 0.000000 -1.570796
    13 2.033342 1.000767 1.937660 0.974616 -1.308976 3.580889
    14 6.028142 0.000002 0.000000 -1.522047 0.227637 -1.055072
    15 11.692555 0.000000 0.000005 0.000000 0.000000 -0.752707
    16 11.481671 0.000000 -0.000030 1.991802 0.050394 0.021289
    17 2.676088 -1.712441 0.000000 1.570797 0.000000 1.570797
    26 3.859704 -0.142404 -1.191975 -0.454212 0.125458 -0.727589
    27 1.312563 0.000001 0.000001 -0.168576 0.310526 -0.695411
    28 0.729362 0.000002 0.000000 -0.168576 0.310527 -0.538331
    29 3.942327 0.046774 -0.431443 -0.180317 0.236514 -0.665166
    30 1.539092 0.000002 0.000000 -0.102744 0.185415 -0.715746
    31 1.196319 -0.000001 0.000000 -0.102744 0.185422 -0.539055
    32 3.883689 -0.046767 0.431443 -0.010807 0.275225 -1.114480
    33 1.719575 0.000002 0.000000 -0.032707 0.058462 -1.569746
    34 1.209182 -0.000001 0.000000 -0.032707 0.058461 -1.294854
    35 3.859859 -0.137950 1.332466 0.410601 0.234617 -1.384077
    36 1.719429 0.000003 0.000000 0.068759 -0.123350 -1.683904
    37 1.099668 0.000001 0.000000 0.068756 -0.123350 -1.350097
    38 0.806048 -0.348923 1.321258 -1.395461 -0.432881 -0.747837
    39 1.789785 0.000000 0.000002 0.030442 0.074687 0.714918
    40 1.206998 0.000000 0.000000 0.004890 0.032012 0.873190
    41 3.859672 -0.132566 1.193108 0.154239 -0.057260 -1.683869
    42 1.312560 0.000000 -0.000001 0.000000 0.000000 -0.627087
    43 0.729361 0.000002 0.000000 0.000000 0.000000 -1.021396
    44 3.942293 0.050330 0.431043 0.020416 -0.074382 -1.517445
    45 1.539095 0.000003 0.000000 0.000000 0.000000 -0.806824
    46 1.196323 0.000000 0.000000 0.000000 0.000000 -1.303471
    47 3.883655 -0.050326 -0.431043 -0.127900 -0.099350 -0.936274
    48 1.719575 -0.000005 0.000000 0.000000 0.000000 -1.100728
    49 1.209182 -0.000001 0.000000 0.000000 0.000000 -1.091484
    50 3.859828 -0.148935 -1.331282 -0.352000 -0.088876 -0.797490
    51 1.719425 0.000000 0.000000 0.000000 0.000000 -0.997181
    52 1.099665 0.000000 0.000000 0.000000 0.000000 -1.420909
    53 0.806014 -0.359835 -1.318334 1.372105 0.323498 -0.797776
    54 1.789783 0.000001 0.000000 0.000000 0.000000 0.612643
    55 1.207003 0.000000 0.000004 0.000000 0.000000 0.666344
    56 5.671875 -2.031250 -5.726563 1.991481 0.082330 -2.001947
  time 11
    1 -0.128905 3.345128 -2.981901 1.533116 0.125291 1.613013
    2 4.018331 0.000000 0.000000 0.010449 0.023022 0.033725
    3 3.518565 0.000000 0.000000 -0.306464 -0.030932 0.135174
    4 8.942642 0.000000 0.000000 -0.013980 -0.053391 0.223621
    5 3.307271 0.000000 0.000000 3.141590 0.000000 0.400478
    6 3.593712 -0.000001 0.000000 0.400581 -0.001964 0.518301
    7 1.999997 -3.000001 0.000000 -1.570796 0.000000 -1.326450
    8 2.033350 1.000771 -1.937610 -1.568124 1.223179 2.997670
    9 6.028143 0.000002 0.000000 1.487902 -0.024612 -0.711163
    10 11.692549 0.000000 0.000002 0.000000 0.000000 -1.915555
    11 11.481698 0.000000 0.000000 -1.103608 0.607818 -0.155986
    12 2.676087 -1.712440 0.000000 -1.570796 0.000000 -1.570796
    13 2.033342 1.000767 1.937660 0.998311 -1.310811 3.556684
    14 6.028142 0.000002 0.000000 -1.516791 0.229595 -1.048013
    15 11.692555 0.000000 0.000005 0.000000 0.000000 -0.755809
    16 11.481671 0.000000 -0.000030 1.991802 0.050394 0.021289
    17 2.676088 -1.712441 0.000000 1.570797 0.000000 1.570797
    26 3.859704 -0.142404 -1.191975 -0.454212 0.125458 -0.727589
    27 1.312563 0.000001 0.000001 -0.168576 0.310526 -0.695411
    28 0.729362 0.000002 0.000000 -0.168576 0.310527 -0.538331
    29 3.942327 0.046774 -0.431443 -0.180317 0.236514 -0.665166
    30 1.539092 0.000002 0.000000 -0.102744 0.185415 -0.715746
    31 1.196319 -0.000001 0.000000 -0.102744 0.185422 -0.539055
    32 3.883689 -0.046767 0.431443 -0.010807 0.275225 -1.114480
    33 1.719575 0.000002 0.000000 -0.032707 0.058462 -1.569746
    34 1.209182 -0.000001 0.000000 -0.032707 0.058461 -1.294854
    35 3.859859 -0.137950 1.332466 0.410601 0.234617 -1.384077
    36 1.719429 0.000003 0.000000 0.068759 -0.123350 -1.683904
    37 1.099668 0.000001 0.000000 0.068756 -0.123350 -1.350097
    38 0.806048 -0.348923 1.321258 -1.395461 -0.432881 -0.747837
    39 1.789785 0.000000 0.000002 0.030442 0.074687 0.714918
    40 1.206998 0.000000 0.000000 0.004890 0.032012 0.873215
    41 3.859672 -0.132566 1.193108 0.154239 -0.057260 -1.683869
    42 1.312560 0.000000 -0.000001 0.000000 0.000000 -0.627087
    43 0.729361 0.000002 0.000000 0.000000 0.000000 -1.021396
    44 3.942293 0.050330 0.431043 0.020416 -0.074382 -1.517445
    45 1.539095 0.000003 0.000000 0.000000 0.000000 -0.806824
    46 1.196323 0.000000 0.000000 0.000000 0.000000 -1.303471
    47 3.883655 -0.050326 -0.431043 -0.127900 -0.099350 -0.936274
    48 1.719575 -0.000005 0.000000 0.000000 0.000000 -1.100728
    49 1.209182 -0.000001 0.000000 0.000000 0.000000 -1.091484
    50 3.859828 -0.148935 -1.331282 -0.352000 -0.088876 -0.797490
    51 1.719425 0.000000 0.000000 0.000000 0.000000 -0.997181
    52 1.099665 0.000000 0.000000 0.000000 0.000000 -1.420909
    53 0.806014 -0.359835 -1.318334 1.372105 0.323498 -0.797776
    54 1.789783 0.000001 0.000000 0.000000 0.000000 0.612643
    55 1.207003 0.000000 0.000004 0.000000 0.000000 0.666344
    56 5.671875 -2.031250 -5.726563 1.991481 0.082330 -2.001947
  time 12
    1 -0.128905 3.345128 -2.981901 1.532877 0.125279 1.615726
    2 4.018331 0.000000 0.000000 0.005135 0.018996 0.035641
    3 3.518565 0.000000 0.000000 -0.312329 -0.033221 0.135918
    4 8.942642 0.000000 0.000000 -0.012890 -0.048478 0.219692
    5 3.307271 0.000000 0.000000 3.141590 0.000000 0.400478
    6 3.593712 -0.000001 0.000000 0.400581 -0.001964 0.518301
    7 1.999997 -3.000001 0.000000 -1.570796 0.000000 -1.326450
    8 2.033350 1.000771 -1.937610 -1.568124 1.223179 2.997670
    9 6.028143 0.000002 0.000000 1.473826 -0.042207 -0.717953
    10 11.692549 0.000000 0.000002 0.000000 0.000000 -1.916314
    11 11.481698 0.000000 0.000000 -1.103608 0.607818 -0.155986
    12 2.676087 -1.712440 0.000000 -1.570796 0.000000 -1.570796
    13 2.033342 1.000767 1.937660 1.029302 -1.312925 3.525018
    14 6.028142 0.000002 0.000000 -1.512239 0.230369 -1.043000
    15 11.692555 0.000000 0.000005 0.000000 0.000000 -0.760229
    16 11.481671 0.000000 -0.000030 1.991802 0.050394 0.021289
    17 2.676088 -1.712441 0.000000 1.570797 0.000000 1.570797
    26 3.859704 -0.142404 -1.191975 -0.454212 0.125458 -0.727589
    27 1.312563 0.000001 0.000001 -0.168576 0.310526 -0.695411
    28 0.729362 0.000002 0.000000 -0.168576 0.310527 -0.538331
    29 3.942327 0.046774 -0.431443 -0.180317 0.236514 -0.665166
    30 1.539092 0.000002 0.000000 -0.102744 0.185415 -0.715746
    31 1.196319 -0.000001 0.000000 -0.102744 0.185422 -0.539055
    32 3.883689 -0.046767 0.431443 -0.010807 0.275225 -1.114480
    33 1.719575 0.000002 0.000000 -0.032707 0.058462 -1.569746
    34 1.209182 -0.000001 0.000000 -0.032707 0.058461 -1.294854
    35 3.859859 -0.137950 1.332466 0.410601 0.234617 -1.384077
    36 1.719429 0.000003 0.000000 0.068759 -0.123350 -1.683904
    37 1.099668 0.000001 0.000000 0.068756 -0.123338 -1.350097
    38 0.806048 -0.348923 1.321258 -1.395461 -0.432881 -0.747837
    39 1.789785 0.000000 0.000002 0.030442 0.074687 0.714918
    40 1.206998 0.000000 0.000000 0.004890 0.032012 0.873190
    41 3.859672 -0.132566 1.193108 0.154239 -0.057260 -1.683869
    42 1.312560 0.000000 -0.000001 0.000000 0.000000 -0.627087
    43 0.729361 0.000002 0.000000 0.000000 0.000000 -1.021396
    44 3.942293 0.050330 0.431043 0.020416 -0.074382 -1.517445
    45 1.539095 0.000003 0.000000 0.000000 0.000000 -0.806824
    46 1.196323 0.000000 0.000000 0.000000 0.000000 -1.303471
    47 3.883655 -0.050326 -0.431043 -0.127900 -0.099350 -0.936274
    48 1.719575 -0.000005 0.000000 0.000000 0.000000 -1.100728
    49 1.209182 -0.000001 0.000000 0.000000 0.000000 -1.091484
    50 3.859828 -0.148935 -1.331282 -0.352000 -0.088876 -0.797490
    51 1.719425 0.000000 0.000000 0.000000 0.000000 -0.997181
    52 1.099665 0.000000 0.000000 0.000000 0.000000 -1.420909
    53 0.806014 -0.359835 -1.318334 1.372105 0.323498 -0.797776
    54 1.789783 0.000001 0.000000 0.000000 0.000000 0.612643
    55 1.207003 0.000000 0.000004 0.000000 0.000000 0.666344
    56 5.671875 -2.031250 -5.726563 1.991481 0.082330 -2.001947
  time 13
    1 -0.128905 3.345128 -2.981901 1.532685 0.125279 1.617725
    2 4.018331 0.000000 0.000000 -0.001112 0.016455 0.037356
    3 3.518565 0.000000 0.000000 -0.319043 -0.033856 0.136482
    4 8.942642 0.000000 0.000000 -0.011993 -0.043828 0.216432
    5 3.307271 0.000000 0.000000 3.141590 0.000000 0.400478
    6 3.593712 -0.000001 0.000000 0.400581 -0.001964 0.518301
    7 1.999997 -3.000001 0.000000 -1.570796 0.000000 -1.326450
    8 2.033350 1.000771 -1.937610 -1.568124 1.223179 2.997670
    9 6.028143 0.000002 0.000000 1.457069 -0.059565 -0.721874
    10 11.692549 0.000000 0.000002 0.000000 0.000000 -1.920196
    11 11.481698 0.000000 0.000000 -1.103608 0.607818 -0.155986
    12 2.676087 -1.712440 0.000000 -1.570796 0.000000 -1.570796
    13 2.033342 1.000767 1.937660 1.066256 -1.315120 3.487228
    14 6.028142 0.000002 0.000000 -1.506983 0.229367 -1.039042
    15 11.692555 0.000000 0.000005 0.000000 0.000000 -0.765966
    16 11.481671 0.000000 -0.000030 1.991802 0.050394 0.021289
    17 2.676088 -1.712441 0.000000 1.570797 0.000000 1.570797
    26 3.859704 -0.142404 -1.191975 -0.454212 0.125458 -0.727589
    27 1.312563 0.000001 0.000001 -0.168576 0.310526 -0.695411
    28 0.729362 0.000002 0.000000 -0.168576 0.310527 -0.538331
    29 3.942327 0.046774 -0.431443 -0.180317 0.236514 -0.665166
    30 1.539092 0.000002 0.000000 -0.102744 0.185415 -0.715746
    31 1.196319 -0.000001 0.000000 -0.102744 0.185422 -0.539055
    32 3.883689 -0.046767 0.431443 -0.010807 0.275225 -1.114480
    33 1.719575 0.000002 0.000000 -0.032707 0.058462 -1.569746
    34 1.209182 -0.000001 0.000000 -0.032707 0.058461 -1.294854
    35 3.859859 -0.137950 1.332466 0.410601 0.234617 -1.384077
    36 1.719429 0.000003 0.000000 0.068759 -0.123350 -1.683904
    37 1.099668 0.000001 0.000000 0.068756 -0.123338 -1.350097
    38 0.806048 -0.348923 1.321258 -1.395461 -0.432881 -0.747837
    39 1.789785 0.000000 0.000002 0.030442 0.074687 0.714918
    40 1.206998 0.000000 0.000000 0.004890 0.032012 0.873190
    41 3.859672 -0.132566 1.193108 0.154239 -0.057260 -1.683869
    42 1.312560 0.000000 -0.000001 0.000000 0.000000 -0.627087
    43 0.729361 0.000002 0.000000 0.000000 0.000000 -1.021396
    44 3.942293 0.050330 0.431043 0.020416 -0.074382 -1.517445
    45 1.539095 0.000003 0.000000 0.000000 0.000000 -0.806824
    46 1.196323 0.000000 0.000000 0.000000 0.000000 -1.303471
    47 3.883655 -0.050326 -0.431043 -0.127900 -0.099350 -0.936274
    48 1.719575 -0.000005 0.000000 0.000000 0.000000 -1.100728
    49 1.209182 -0.000001 0.000000 0.000000 0.000000 -1.091484
    50 3.859828 -0.148935 -1.331282 -0.352000 -0.088876 -0.797490
    51 1.719425 0.000000 0.000000 0.000000 0.000000 -0.997181
    52 1.099665 0.000000 0.000000 0.000000 0.000000 -1.420909
    53 0.806014 -0.359835 -1.318334 1.372105 0.323498 -0.797776
    54 1.789783 0.000001 0.000000 0.000000 0.000000 0.612643
    55 1.207003 0.000000 0.000004 0.000000 0.000000 0.666344
    56 5.671875 -2.031250 -5.726563 1.991481 0.082330 -2.001947
  time 14
    1 -0.128905 3.345128 -2.981901 1.532637 0.125279 1.618915
    2 4.018331 0.000000 0.000000 -0.008003 0.015196 0.038617
    3 3.518565 0.000000 0.000000 -0.326301 -0.033221 0.136662
    4 8.942642 0.000000 0.000000 -0.011360 -0.039573 0.214007
    5 3.307271 0.000000 0.000000 3.141590 0.000000 0.400478
    6 3.593712 -0.000001 0.000000 0.400581 -0.001964 0.518301
    7 1.999997 -3.000001 0.000000 -1.570796 0.000000 -1.326450
    8 2.033350 1.000771 -1.937610 -1.568124 1.223179 2.997670
    9 6.028143 0.000002 0.000000 1.443855 -0.080451 -0.724551
    10 11.692549 0.000000 0.000002 0.000000 0.000000 -1.926778
    11 11.481698 0.000000 0.000000 -1.103608 0.607818 -0.155986
    12 2.676087 -1.712440 0.000000 -1.570796 0.000000 -1.570796
    13 2.033342 1.000767 1.937660 1.107839 -1.317075 3.444751
    14 6.028142 0.000002 0.000000 -1.491918 0.224177 -1.031983
    15 11.692555 0.000000 0.000005 0.000000 0.000000 -0.772790
    16 11.481671 0.000000 -0.000030 1.991802 0.050394 0.021289
    17 2.676088 -1.712441 0.000000 1.570797 0.000000 1.570797
    26 3.859704 -0.142404 -1.191975 -0.454212 0.125458 -0.727589
    27 1.312563 0.000001 0.000001 -0.168576 0.310526 -0.695411
    28 0.729362 0.000002 0.000000 -0.168576 0.310527 -0.538331
    29 3.942327 0.046774 -0.431443 -0.180317 0.236514 -0.665166
    30 1.539092 0.000002 0.000000 -0.102744 0.185415 -0.715746
    31 1.196319 -0.000001 0.000000 -0.102744 0.185422 -0.539055
    32 3.883689 -0.046767 0.431443 -0.010807 0.275225 -1.114480
    33 1.719575 0.000002 0.000000 -0.032707 0.058462 -1.569746
    34 1.209182 -0.000001 0.000000 -0.032707 0.058461 -1.294854
    35 3.859859 -0.137950 1.332466 0.410601 0.234617 -1.384077
    36 1.719429 0.000003 0.000000 0.068759 -0.123350 -1.683904
    37 1.099668 0.000001 0.000000 0.068756 -0.123350 -1.350097
    38 0.806048 -0.348923 1.321258 -1.395461 -0.432881 -0.747837
    39 1.789785 0.000000 0.000002 0.030442 0.074687 0.714918
    40 1.206998 0.000000 0.000000 0.004890 0.032012 0.873215
    41 3.859672 -0.132566 1.193108 0.154239 -0.057260 -1.683869
    42 1.312560 0.000000 -0.000001 0.000000 0.000000 -0.627087
    43 0.729361 0.000002 0.000000 0.000000 0.000000 -1.021396
    44 3.942293 0.050330 0.431043 0.020416 -0.074382 -1.517445
    45 1.539095 0.000003 0.000000 0.000000 0.000000 -0.806824
    46 1.196323 0.000000 0.000000 0.000000 0.000000 -1.303471
    47 3.883655 -0.050326 -0.431043 -0.127900 -0.099350 -0.936274
    48 1.719575 -0.000005 0.000000 0.000000 0.000000 -1.100728
    49 1.209182 -0.000001 0.000000 0.000000 0.000000 -1.091484
    50 3.859828 -0.148935 -1.331282 -0.352000 -0.088876 -0.797490
    51 1.719425 0.000000 0.000000 0.000000 0.000000 -0.997181
    52 1.099665 0.000000 0.000000 0.000000 0.000000 -1.420909
    53 0.806014 -0.359835 -1.318334 1.372105 0.323498 -0.797776
    54 1.789783 0.000001 0.000000 0.000000 0.000000 0.612643
    55 1.207003 0.000000 0.000004 0.000000 0.000000 0.666344
    56 5.671875 -2.031250 -5.726563 1.991481 0.082330 -2.001947
  time 15
    1 -0.128905 3.345128 -2.981901 1.532589 0.125279 1.619058
    2 4.018331 0.000000 0.000000 -0.015162 0.014849 0.039096
    3 3.518565 0.000000 0.000000 -0.333800 -0.031543 0.136459
    4 8.942642 0.000000 0.000000 -0.011008 -0.035870 0.212440
    5 3.307271 0.000000 0.000000 3.141590 0.000000 0.400478
    6 3.593712 -0.000001 0.000000 0.400581 -0.001964 0.518301
    7 1.999997 -3.000001 0.000000 -1.570796 0.000000 -1.326450
    8 2.033350 1.000771 -1.937610 -1.568124 1.223179 2.997670
    9 6.028143 0.000002 0.000000 1.435142 -0.105247 -0.727037
    10 11.692549 0.000000 0.000002 0.000000 0.000000 -1.935385
    11 11.481698 0.000000 0.000000 -1.103608 0.607818 -0.155986
    12 2.676087 -1.712440 0.000000 -1.570796 0.000000 -1.570796
    13 2.033342 1.000767 1.937660 1.152325 -1.318670 3.399116
    14 6.028142 0.000002 0.000000 -1.464097 0.213614 -1.019976
    15 11.692555 0.000000 0.000005 0.000000 0.000000 -0.780078
    16 11.481671 0.000000 -0.000030 1.991802 0.050394 0.021289
    17 2.676088 -1.712441 0.000000 1.570797 0.000000 1.570797
    26 3.859704 -0.142404 -1.191975 -0.454212 0.125458 -0.727589
    27 1.312563 0.000001 0.000001 -0.168576 0.310526 -0.695411
    28 0.729362 0.000002 0.000000 -0.168576 0.310527 -0.538331
    29 3.942327 0.046774 -0.431443 -0.180317 0.236514 -0.665166
    30 1.539092 0.000002 0.000000 -0.102744 0.185415 -0.715746
    31 1.196319 -0.000001 0.000000 -0.102744 0.185422 -0.539055
    32 3.883689 -0.046767 0.431443 -0.010807 0.275225 -1.114480
    33 1.719575 0.000002 0.000000 -0.032707 0.058462 -1.569746
    34 1.209182 -0.000001 0.000000 -0.032707 0.058461 -1.294854
    35 3.859859 -0.137950 1.332466 0.410601 0.234617 -1.384077
    36 1.719429 0.000003 0.000000 0.068759 -0.123350 -1.683904
    37 1.099668 0.000001 0.000000 0.068756 -0.123350 -1.350097
    38 0.806048 -0.348923 1.321258 -1.395461 -0.432881 -0.747837
    39 1.789785 0.000000 0.000002 0.030442 0.074687 0.714918
    40 1.206998 0.000000 0.000000 0.004890 0.032012 0.873215
    41 3.859672 -0.132566 1.193108 0.154239 -0.057260 -1.683869
    42 1.312560 0.000000 -0.000001 0.000000 0.000000 -0.627087
    43 0.729361 0.000002 0.000000 0.000000 0.000000 -1.021396
    44 3.942293 0.050330 0.431043 0.020416 -0.074382 -1.517445
    45 1.539095 0.000003 0.000000 0.000000 0.000000 -0.806824
    46 1.196323 0.000000 0.000000 0.000000 0.000000 -1.303471
    47 3.883655 -0.050326 -0.431043 -0.127900 -0.099350 -0.936274
    48 1.719575 -0.000005 0.000000 0.000000 0.000000 -1.100728
    49 1.209182 -0.000001 0.000000 0.000000 0.000000 -1.091484
    50 3.859828 -0.148935 -1.331282 -0.352000 -0.088876 -0.797490
    51 1.719425 0.000000 0.000000 0.000000 0.000000 -0.997181
    52 1.099665 0.000000 0.000000 0.000000 0.000000 -1.420909
    53 0.806014 -0.359835 -1.318334 1.372105 0.323498 -0.797776
    54 1.789783 0.000001 0.000000 0.000000 0.000000 0.612643
    55 1.207003 0.000000 0.000004 0.000000 0.000000 0.666344
    56 5.671875 -2.031250 -5.726563 1.991481 0.082330 -2.001947
  time 16
    1 -0.128905 3.345128 -2.981901 1.532637 0.125279 1.618392
    2 4.018331 0.000000 0.000000 -0.022254 0.015268 0.038718
    3 3.518565 0.000000 0.000000 -0.341235 -0.028979 0.135896
    4 8.942642 0.000000 0.000000 -0.010956 -0.032802 0.211682
    5 3.307271 0.000000 0.000000 3.141590 0.000000 0.400478
    6 3.593712 -0.000001 0.000000 0.400581 -0.001964 0.518301
    7 1.999997 -3.000001 0.000000 -1.570796 0.000000 -1.326450
    8 2.033350 1.000771 -1.937610 -1.568124 1.223179 2.997670
    9 6.028143 0.000002 0.000000 1.415225 -0.123653 -0.725603
    10 11.692549 0.000000 0.000002 0.000000 0.000000 -1.945427
    11 11.481698 0.000000 0.000000 -1.103608 0.607818 -0.155986
    12 2.676087 -1.712440 0.000000 -1.570796 0.000000 -1.570796
    13 2.033342 1.000767 1.937660 1.198145 -1.319748 3.352238
    14 6.028142 0.000002 0.000000 -1.439737 0.200958 -1.008168
    15 11.692555 0.000000 0.000005 0.000000 0.000000 -0.787057
    16 11.481671 0.000000 -0.000030 1.991802 0.050394 0.021289
    17 2.676088 -1.712441 0.000000 1.570797 0.000000 1.570797
    26 3.859704 -0.142404 -1.191975 -0.454212 0.125458 -0.727589
    27 1.312563 0.000001 0.000001 -0.168576 0.310526 -0.695411
    28 0.729362 0.000002 0.000000 -0.168576 0.310527 -0.538331
    29 3.942327 0.046774 -0.431443 -0.180317 0.236514 -0.665166
    30 1.539092 0.000002 0.000000 -0.102744 0.185415 -0.715746
    31 1.196319 -0.000001 0.000000 -0.102744 0.185422 -0.539055
    32 3.883689 -0.046767 0.431443 -0.010807 0.275225 -1.114480
    33 1.719575 0.000002 0.000000 -0.032707 0.058462 -1.569746
    34 1.209182 -0.000001 0.000000 -0.032707 0.058461 -1.294854
    35 3.859859 -0.137950 1.332466 0.410601 0.234617 -1.384077
    36 1.719429 0.000003 0.000000 0.068759 -0.123350 -1.683904
    37 1.099668 0.000001 0.000000 0.068756 -0.123350 -1.350097
    38 0.806048 -0.348923 1.321258 -1.395461 -0.432881 -0.747837
    39 1.789785 0.000000 0.000002 0.030442 0.074687 0.714918
    40 1.206998 0.000000 0.000000 0.004890 0.032012 0.873190
    41 3.859672 -0.132566 1.193108 0.154239 -0.057260 -1.683869
    42 1.312560 0.000000 -0.000001 0.000000 0.000000 -0.627087
    43 0.729361 0.000002 0.000000 0.000000 0.000000 -1.021396
    44 3.942293 0.050330 0.431043 0.020416 -0.074382 -1.517445
    45 1.539095 0.000003 0.000000 0.000000 0.000000 -0.806824
    46 1.196323 0.000000 0.000000 0.000000 0.000000 -1.303471
    47 3.883655 -0.050326 -0.431043 -0.127900 -0.099350 -0.936274
    48 1.719575 -0.000005 0.000000 0.000000 0.000000 -1.100728
    49 1.209182 -0.000001 0.000000 0.000000 0.000000 -1.091484
    50 3.859828 -0.148935 -1.331282 -0.352000 -0.088876 -0.797490
    51 1.719425 0.000000 0.000000 0.000000 0.000000 -0.997181
    52 1.099665 0.000000 0.000000 0.000000 0.000000 -1.420909
    53 0.806014 -0.359835 -1.318334 1.372105 0.323498 -0.797776
    54 1.789783 0.000001 0.000000 0.000000 0.000000 0.612643
    55 1.207003 0.000000 0.000004 0.000000 0.000000 0.666344
    56 5.671875 -2.031250 -5.726563 1.991481 0.082330 -2.001947
  time 17
    1 -0.128905 3.345128 -2.981901 1.532685 0.125279 1.617297
    2 4.018331 0.000000 0.000000 -0.028968 0.016599 0.037684
    3 3.518565 0.000000 0.000000 -0.348301 -0.025671 0.134994
    4 8.942642 0.000000 0.000000 -0.011131 -0.030513 0.211682
    5 3.307271 0.000000 0.000000 3.141590 0.000000 0.400478
    6 3.593712 -0.000001 0.000000 0.400581 -0.001964 0.518301
    7 1.999997 -3.000001 0.000000 -1.570796 0.000000 -1.326450
    8 2.033350 1.000771 -1.937610 -1.568124 1.223179 2.997670
    9 6.028143 0.000002 0.000000 1.396553 -0.142346 -0.722639
    10 11.692549 0.000000 0.000002 0.000000 0.000000 -1.956312
    11 11.481698 0.000000 0.000000 -1.103608 0.607818 -0.155986
    12 2.676087 -1.712440 0.000000 -1.570796 0.000000 -1.570796
    13 2.033342 1.000767 1.937660 1.243416 -1.320306 3.305838
    14 6.028142 0.000002 0.000000 -1.403197 0.180561 -0.991082
    15 11.692555 0.000000 0.000005 0.000000 0.000000 -0.791942
    16 11.481671 0.000000 -0.000030 1.991802 0.050394 0.021289
    17 2.676088 -1.712441 0.000000 1.570797 0.000000 1.570797
    26 3.859704 -0.142404 -1.191975 -0.454212 0.125458 -0.727589
    27 1.312563 0.000001 0.000001 -0.168576 0.310526 -0.695411
    28 0.729362 0.000002 0.000000 -0.168576 0.310527 -0.538331
    29 3.942327 0.046774 -0.431443 -0.180317 0.236514 -0.665166
    30 1.539092 0.000002 0.000000 -0.102744 0.185415 -0.715746
    31 1.196319 -0.000001 0.000000 -0.102744 0.185422 -0.539055
    32 3.883689 -0.046767 0.431443 -0.010807 0.275225 -1.114480
    33 1.719575 0.000002 0.000000 -0.032707 0.058462 -1.569746
    34 1.209182 -0.000001 0.000000 -0.032707 0.058461 -1.294854
    35 3.859859 -0.137950 1.332466 0.410601 0.234617 -1.384077
    36 1.719429 0.000003 0.000000 0.068759 -0.123350 -1.683904
    37 1.099668 0.000001 0.000000 0.068756 -0.123350 -1.350097
    38 0.806048 -0.348923 1.321258 -1.395461 -0.432881 -0.747837
    39 1.789785 0.000000 0.000002 0.030442 0.074687 0.714918
    40 1.206998 0.000000 0.000000 0.004890 0.032012 0.873190
    41 3.859672 -0.132566 1.193108 0.154239 -0.057260 -1.683869
    42 1.312560 0.000000 -0.000001 0.000000 0.000000 -0.627087
    43 0.729361 0.000002 0.000000 0.000000 0.000000 -1.021396
    44 3.942293 0.050330 0.431043 0.020416 -0.074382 -1.517445
    45 1.539095 0.000003 0.000000 0.000000 0.000000 -0.806824
    46 1.196323 0.000000 0.000000 0.000000 0.000000 -1.303471
    47 3.883655 -0.050326 -0.431043 -0.127900 -0.099350 -0.936274
    48 1.719575 -0.000005 0.000000 0.000000 0.000000 -1.100728
    49 1.209182 -0.000001 0.000000 0.000000 0.000000 -1.091484
    50 3.859828 -0.148935 -1.331282 -0.352000 -0.088876 -0.797490
    51 1.719425 0.000000 0.000000 0.000000 0.000000 -0.997181
    52 1.099665 0.000000 0.000000 0.000000 0.000000 -1.420909
    53 0.806014 -0.359835 -1.318334 1.372105 0.323498 -0.797776
    54 1.789783 0.000001 0.000000 0.000000 0.000000 0.612643
    55 1.207003 0.000000 0.000004 0.000000 0.000000 0.666344
    56 5.671875 -2.031250 -5.726563 1.991481 0.082330 -2.001947
  time 18
    1 -0.128905 3.345128 -2.981901 1.532877 0.125279 1.615631
    2 4.018331 0.000000 0.000000 -0.035037 0.018996 0.035995
    3 3.518565 0.000000 0.000000 -0.354695 -0.021788 0.133754
    4 8.942642 0.000000 0.000000 -0.011501 -0.029087 0.212958
    5 3.307271 0.000000 0.000000 3.141590 0.000000 0.400478
    6 3.593712 -0.000001 0.000000 0.400581 -0.001964 0.518301
    7 1.999997 -3.000001 0.000000 -1.570796 0.000000 -1.326450
    8 2.033350 1.000771 -1.937610 -1.568124 1.223179 2.997670
    9 6.028143 0.000002 0.000000 1.380179 -0.160419 -0.718527
    10 11.692549 0.000000 0.000002 0.000000 0.000000 -1.967536
    11 11.481698 0.000000 0.000000 -1.103608 0.607818 -0.155986
    12 2.676087 -1.712440 0.000000 -1.570796 0.000000 -1.570796
    13 2.033342 1.000767 1.937660 1.286254 -1.320346 3.261925
    14 6.028142 0.000002 0.000000 -1.355375 0.150831 -0.969246
    15 11.692555 0.000000 0.000005 0.000000 0.000000 -0.792794
    16 11.481671 0.000000 -0.000030 1.991802 0.050394 0.021289
    17 2.676088 -1.712441 0.000000 1.570797 0.000000 1.570797
    26 3.859704 -0.142404 -1.191975 -0.454212 0.125458 -0.727589
    27 1.312563 0.000001 0.000001 -0.168576 0.310526 -0.695411
    28 0.729362 0.000002 0.000000 -0.168576 0.310527 -0.538331
    29 3.942327 0.046774 -0.431443 -0.180317 0.236514 -0.665166
    30 1.539092 0.000002 0.000000 -0.102744 0.185415 -0.715746
    31 1.196319 -0.000001 0.000000 -0.102744 0.185422 -0.539055
    32 3.883689 -0.046767 0.431443 -0.010807 0.275225 -1.114480
    33 1.719575 0.000002 0.000000 -0.032707 0.058462 -1.569746
    34 1.209182 -0.000001 0.000000 -0.032707 0.058461 -1.294854
    35 3.859859 -0.137950 1.332466 0.410601 0.234617 -1.384077
    36 1.719429 0.000003 0.000000 0.068759 -0.123350 -1.683904
    37 1.099668 0.000001 0.000000 0.068756 -0.123338 -1.350097
    38 0.806048 -0.348923 1.321258 -1.395461 -0.432881 -0.747837
    39 1.789785 0.000000 0.000002 0.030442 0.074687 0.714918
    40 1.206998 0.000000 0.000000 0.004890 0.032012 0.873215
    41 3.859672 -0.132566 1.193108 0.154239 -0.057260 -1.683869
    42 1.312560 0.000000 -0.000001 0.000000 0.000000 -0.627087
    43 0.729361 0.000002 0.000000 0.000000 0.000000 -1.021396
    44 3.942293 0.050330 0.431043 0.020416 -0.074382 -1.517445
    45 1.539095 0.000003 0.000000 0.000000 0.000000 -0.806824
    46 1.196323 0.000000 0.000000 0.000000 0.000000 -1.303471
    47 3.883655 -0.050326 -0.431043 -0.127900 -0.099350 -0.936274
    48 1.719575 -0.000005 0.000000 0.000000 0.000000 -1.100728
    49 1.209182 -0.000001 0.000000 0.000000 0.000000 -1.091484
    50 3.859828 -0.148935 -1.331282 -0.352000 -0.088876 -0.797490
    51 1.719425 0.000000 0.000000 0.000000 0.000000 -0.997181
    52 1.099665 0.000000 0.000000 0.000000 0.000000 -1.420909
    53 0.806014 -0.359835 -1.318334 1.372105 0.323498 -0.797776
    54 1.789783 0.000001 0.000000 0.000000 0.000000 0.612643
    55 1.207003 0.000000 0.000004 0.000000 0.000000 0.666344
    56 5.671875 -2.031250 -5.726563 1.991481 0.082330 -2.001947
  time 19
    1 -0.128905 3.345128 -2.981901 1.533069 0.125291 1.613394
    2 4.018331 0.000000 0.000000 -0.040217 0.022651 0.033826
    3 3.518565 0.000000 0.000000 -0.360111 -0.017509 0.132310
    4 8.942642 0.000000 0.000000 -0.011958 -0.028655 0.215876
    5 3.307271 0.000000 0.000000 3.141590 0.000000 0.400478
    6 3.593712 -0.000001 0.000000 0.400581 -0.001964 0.518301
    7 1.999997 -3.000001 0.000000 -1.570796 0.000000 -1.326450
    8 2.033350 1.000771 -1.937610 -1.568124 1.223179 2.997670
    9 6.028143 0.000002 0.000000 1.366965 -0.176870 -0.713745
    10 11.692549 0.000000 0.000002 0.000000 0.000000 -1.978590
    11 11.481698 0.000000 0.000000 -1.103608 0.607818 -0.155986
    12 2.676087 -1.712440 0.000000 -1.570796 0.000000 -1.570796
    13 2.033342 1.000767 1.937660 1.324934 -1.319947 3.222222
    14 6.028142 0.000002 0.000000 -1.302169 0.113544 -0.945761
    15 11.692555 0.000000 0.000005 0.000000 0.000000 -0.788220
    16 11.481671 0.000000 -0.000030 1.991802 0.050394 0.021289
    17 2.676088 -1.712441 0.000000 1.570797 0.000000 1.570797
    26 3.859704 -0.142404 -1.191975 -0.454212 0.125458 -0.727589
    27 1.312563 0.000001 0.000001 -0.168576 0.310526 -0.695411
    28 0.729362 0.000002 0.000000 -0.168576 0.310527 -0.538331
    29 3.942327 0.046774 -0.431443 -0.180317 0.236514 -0.665166
    30 1.539092 0.000002 0.000000 -0.102744 0.185415 -0.715746
    31 1.196319 -0.000001 0.000000 -0.102744 0.185422 -0.539055
    32 3.883689 -0.046767 0.431443 -0.010807 0.275225 -1.114480
    33 1.719575 0.000002 0.000000 -0.032707 0.058462 -1.569746
    34 1.209182 -0.000001 0.000000 -0.032707 0.058461 -1.294854
    35 3.859859 -0.137950 1.332466 0.410601 0.234617 -1.384077
    36 1.719429 0.000003 0.000000 0.068759 -0.123350 -1.683904
    37 1.099668 0.000001 0.000000 0.068756 -0.123350 -1.350097
    38 0.806048 -0.348923 1.321258 -1.395461 -0.432881 -0.747837
    39 1.789785 0.000000 0.000002 0.030442 0.074687 0.714918
    40 1.206998 0.000000 0.000000 0.004890 0.032012 0.873190
    41 3.859672 -0.132566 1.193108 0.154239 -0.057260 -1.683869
    42 1.312560 0.000000 -0.000001 0.000000 0.000000 -0.627087
    43 0.729361 0.000002 0.000000 0.000000 0.000000 -1.021396
    44 3.942293 0.050330 0.431043 0.020416 -0.074382 -1.517445
    45 1.539095 0.000003 0.000000 0.000000 0.000000 -0.806824
    46 1.196323 0.000000 0.000000 0.000000 0.000000 -1.303471
    47 3.883655 -0.050326 -0.431043 -0.127900 -0.099350 -0.936274
    48 1.719575 -0.000005 0.000000 0.000000 0.000000 -1.100728
    49 1.209182 -0.000001 0.000000 0.000000 0.000000 -1.091484
    50 3.859828 -0.148935 -1.331282 -0.352000 -0.088876 -0.797490
    51 1.719425 0.000000 0.000000 0.000000 0.000000 -0.997181
    52 1.099665 0.000000 0.000000 0.000000 0.000000 -1.420909
    53 0.806014 -0.359835 -1.318334 1.372105 0.323498 -0.797776
    54 1.789783 0.000001 0.000000 0.000000 0.000000 0.612643
    55 1.207003 0.000000 0.000004 0.000000 0.000000 0.666344
    56 5.671875 -2.031250 -5.726563 1.991481 0.082330 -2.001947
  time 20
    1 -0.128905 3.345128 -2.981901 1.533260 0.125291 1.610538
    2 4.018331 0.000000 0.000000 -0.044285 0.027720 0.031405
    3 3.518565 0.000000 0.000000 -0.364309 -0.013003 0.130845
    4 8.942642 0.000000 0.000000 -0.012837 -0.030573 0.220096
    5 3.307271 0.000000 0.000000 3.141590 0.000000 0.400478
    6 3.593712 -0.000001 0.000000 0.400581 -0.001964 0.518301
    7 1.999997 -3.000001 0.000000 -1.570796 0.000000 -1.326450
    8 2.033350 1.000771 -1.937610 -1.568124 1.223179 2.997670
    9 6.028143 0.000002 0.000000 1.357294 -0.191080 -0.710111
    10 11.692549 0.000000 0.000002 0.000000 0.000000 -1.988885
    11 11.481698 0.000000 0.000000 -1.103608 0.607818 -0.155986
    12 2.676087 -1.712440 0.000000 -1.570796 0.000000 -1.570796
    13 2.033342 1.000767 1.937660 1.357730 -1.319349 3.188546
    14 6.028142 0.000002 0.000000 -1.254347 0.075482 -0.924585
    15 11.692555 0.000000 0.000005 0.000000 0.000000 -0.779458
    16 11.481671 0.000000 -0.000030 1.991802 0.050394 0.021289
    17 2.676088 -1.712441 0.000000 1.570797 0.000000 1.570797
    26 3.859704 -0.142404 -1.191975 -0.454212 0.125458 -0.727589
    27 1.312563 0.000001 0.000001 -0.168576 0.310526 -0.695411
    28 0.729362 0.000002 0.000000 -0.168576 0.310527 -0.538331
    29 3.942327 0.046774 -0.431443 -0.180317 0.236514 -0.665166
    30 1.539092 0.000002 0.000000 -0.102732 0.185415 -0.715746
    31 1.196319 -0.000001 0.000000 -0.102744 0.185422 -0.539055
    32 3.883689 -0.046767 0.431443 -0.010807 0.275225 -1.114480
    33 1.719575 0.000002 0.000000 -0.032707 0.058462 -1.569746
    34 1.209182 -0.000001 0.000000 -0.032707 0.058461 -1.294854
    35 3.859859 -0.137950 1.332466 0.410601 0.234617 -1.384077
    36 1.719429 0.000003 0.000000 0.068759 -0.123350 -1.683904
    37 1.099668 0.000001 0.000000 0.068756 -0.123350 -1.350097
    38 0.806048 -0.348923 1.321258 -1.395461 -0.432881 -0.747837
    39 1.789785 0.000000 0.000002 0.030442 0.074687 0.714918
    40 1.206998 0.000000 0.000000 0.004890 0.032012 0.873190
    41 3.859672 -0.132566 1.193108 0.154239 -0.057260 -1.683869
    42 1.312560 0.000000 -0.000001 0.000000 0.000000 -0.627087
    43 0.729361 0.000002 0.000000 0.000000 0.000000 -1.021396
    44 3.942293 0.050330 0.431043 0.020416 -0.074382 -1.517445
    45 1.539095 0.000003 0.000000 0.000000 0.000000 -0.806824
    46 1.196323 0.000000 0.000000 0.000000 0.000000 -1.303471
    47 3.883655 -0.050326 -0.431043 -0.127900 -0.099350 -0.936274
    48 1.719575 -0.000005 0.000000 0.000000 0.000000 -1.100728
    49 1.209182 -0.000001 0.000000 0.000000 0.000000 -1.091484
    50 3.859828 -0.148935 -1.331282 -0.352000 -0.088876 -0.797490
    51 1.719425 0.000000 0.000000 0.000000 0.000000 -0.997181
    52 1.099665 0.000000 0.000000 0.000000 0.000000 -1.420909
    53 0.806014 -0.359835 -1.318334 1.372105 0.323498 -0.797776
    54 1.789783 0.000001 0.000000 0.000000 0.000000 0.612643
    55 1.207003 0.000000 0.000004 0.000000 0.000000 0.666344
    56 5.671875 -2.031250 -5.726563 1.991481 0.082330 -2.001947
  time 21
    1 -0.128905 3.345128 -2.981901 1.533452 0.125291 1.607016
    2 4.018331 0.000000 0.000000 -0.047064 0.034312 0.029035
    3 3.518565 0.000000 0.000000 -0.367017 -0.008449 0.129582
    4 8.942642 0.000000 0.000000 -0.014121 -0.034839 0.225314
    5 3.307271 0.000000 0.000000 3.141590 0.000000 0.400478
    6 3.593712 -0.000001 0.000000 0.400581 -0.001964 0.518301
    7 1.999997 -3.000001 0.000000 -1.570796 0.000000 -1.326450
    8 2.033350 1.000771 -1.937610 -1.568124 1.223179 2.997670
    9 6.028143 0.000002 0.000000 1.352028 -0.202429 -0.708199
    10 11.692549 0.000000 0.000002 0.000000 0.000000 -1.997998
    11 11.481698 0.000000 0.000000 -1.103608 0.607818 -0.155986
    12 2.676087 -1.712440 0.000000 -1.570796 0.000000 -1.570796
    13 2.033342 1.000767 1.937660 1.382994 -1.318670 3.162524
    14 6.028142 0.000002 0.000000 -1.220307 0.044022 -0.909478
    15 11.692555 0.000000 0.000005 0.000000 0.000000 -0.770464
    16 11.481671 0.000000 -0.000030 1.991802 0.050394 0.021289
    17 2.676088 -1.712441 0.000000 1.570797 0.000000 1.570797
    26 3.859704 -0.142404 -1.191975 -0.454212 0.125458 -0.727589
    27 1.312563 0.000001 0.000001 -0.168576 0.310526 -0.695411
    28 0.729362 0.000002 0.000000 -0.168576 0.310527 -0.538331
    29 3.942327 0.046774 -0.431443 -0.180317 0.236514 -0.665166
    30 1.539092 0.000002 0.000000 -0.102744 0.185415 -0.715746
    31 1.196319 -0.000001 0.000000 -0.102744 0.185422 -0.539055
    32 3.883689 -0.046767 0.431443 -0.010807 0.275225 -1.114480
    33 1.719575 0.000002 0.000000 -0.032707 0.058462 -1.569746
    34 1.209182 -0.000001 0.000000 -0.032707 0.058461 -1.294854
    35 3.859859 -0.137950 1.332466 0.410601 0.234617 -1.384077
    36 1.719429 0.000003 0.000000 0.068759 -0.123350 -1.683904
    37 1.099668 0.000001 0.000000 0.068756 -0.123338 -1.350097
    38 0.806048 -0.348923 1.321258 -1.395461 -0.432881 -0.747837
    39 1.789785 0.000000 0.000002 0.030442 0.074687 0.714918
    40 1.206998 0.000000 0.000000 0.004890 0.032012 0.873215
    41 3.859672 -0.132566 1.193108 0.154239 -0.057260 -1.683869
    42 1.312560 0.000000 -0.000001 0.000000 0.000000 -0.627087
    43 0.729361 0.000002 0.000000 0.000000 0.000000 -1.021396
    44 3.942293 0.050330 0.431043 0.020416 -0.074382 -1.517445
    45 1.539095 0.000003 0.000000 0.000000 0.000000 -0.806824
    46 1.196323 0.000000 0.000000 0.000000 0.000000 -1.303471
    47 3.883655 -0.050326 -0.431043 -0.127900 -0.099350 -0.936274
    48 1.719575 -0.000005 0.000000 0.000000 0.000000 -1.100728
    49 1.209182 -0.000001 0.000000 0.000000 0.000000 -1.091484
    50 3.859828 -0.148935 -1.331282 -0.352000 -0.088876 -0.797490
    51 1.719425 0.000000 0.000000 0.000000 0.000000 -0.997181
    52 1.099665 0.000000 0.000000 0.000000 0.000000 -1.420909
    53 0.806014 -0.359835 -1.318334 1.372105 0.323498 -0.797776
    54 1.789783 0.000001 0.000000 0.000000 0.000000 0.612643
    55 1.207003 0.000000 0.000004 0.000000 0.000000 0.666344
    56 5.671875 -2.031250 -5.726563 1.991481 0.082330 -2.001947
  time 22
    1 -0.128905 3.345128 -2.981901 1.533644 0.125279 1.602828
    2 4.018331 0.000000 0.000000 -0.048420 0.042294 0.027068
    3 3.518565 0.000000 0.000000 -0.367978 -0.004051 0.128793
    4 8.942642 0.000000 0.000000 -0.015545 -0.040268 0.231188
    5 3.307271 0.000000 0.000000 3.141590 0.000000 0.400478
    6 3.593712 -0.000001 0.000000 0.400581 -0.001964 0.518301
    7 1.999997 -3.000001 0.000000 -1.570796 0.000000 -1.326450
    8 2.033350 1.000771 -1.937610 -1.568124 1.223179 2.997670
    9 6.028143 0.000002 0.000000 1.351549 -0.210202 -0.707625
    10 11.692549 0.000000 0.000002 0.000000 0.000000 -2.005593
    11 11.481698 0.000000 0.000000 -1.103608 0.607818 -0.155986
    12 2.676087 -1.712440 0.000000 -1.570796 0.000000 -1.570796
    13 2.033342 1.000767 1.937660 1.399235 -1.318152 3.145782
    14 6.028142 0.000002 0.000000 -1.201204 0.021941 -0.901825
    15 11.692555 0.000000 0.000005 0.000000 0.000000 -0.764416
    16 11.481671 0.000000 -0.000030 1.991802 0.050394 0.021289
    17 2.676088 -1.712441 0.000000 1.570797 0.000000 1.570797
    26 3.859704 -0.142404 -1.191975 -0.454212 0.125458 -0.727589
    27 1.312563 0.000001 0.000001 -0.168576 0.310526 -0.695411
    28 0.729362 0.000002 0.000000 -0.168576 0.310527 -0.538331
    29 3.942327 0.046774 -0.431443 -0.180317 0.236514 -0.665166
    30 1.539092 0.000002 0.000000 -0.102744 0.185415 -0.715746
    31 1.196319 -0.000001 0.000000 -0.102744 0.185422 -0.539055
    32 3.883689 -0.046767 0.431443 -0.010807 0.275225 -1.114480
    33 1.719575 0.000002 0.000000 -0.032707 0.058462 -1.569746
    34 1.209182 -0.000001 0.000000 -0.032707 0.058461 -1.294854
    35 3.859859 -0.137950 1.332466 0.410601 0.234617 -1.384077
    36 1.719429 0.000003 0.000000 0.068759 -0.123350 -1.683904
    37 1.099668 0.000001 0.000000 0.068756 -0.123350 -1.350097
    38 0.806048 -0.348923 1.321258 -1.395461 -0.432881 -0.747837
    39 1.789785 0.000000 0.000002 0.030442 0.074687 0.714918
    40 1.206998 0.000000 0.000000 0.004890 0.032012 0.873190
    41 3.859672 -0.132566 1.193108 0.154239 -0.057260 -1.683869
    42 1.312560 0.000000 -0.000001 0.000000 0.000000 -0.627087
    43 0.729361 0.000002 0.000000 0.000000 0.000000 -1.021396
    44 3.942293 0.050330 0.431043 0.020416 -0.074382 -1.517445
    45 1.539095 0.000003 0.000000 0.000000 0.000000 -0.806824
    46 1.196323 0.000000 0.000000 0.000000 0.000000 -1.303471
    47 3.883655 -0.050326 -0.431043 -0.127900 -0.099350 -0.936274
    48 1.719575 -0.000005 0.000000 0.000000 0.000000 -1.100728
    49 1.209182 -0.000001 0.000000 0.000000 0.000000 -1.091484
    50 3.859828 -0.148935 -1.331282 -0.352000 -0.088876 -0.797490
    51 1.719425 0.000000 0.000000 0.000000 0.000000 -0.997181
    52 1.099665 0.000000 0.000000 0.000000 0.000000 -1.420909
    53 0.806014 -0.359835 -1.318334 1.372105 0.323498 -0.797776
    54 1.789783 0.000001 0.000000 0.000000 0.000000 0.612643
    55 1.207003 0.000000 0.000004 0.000000 0.000000 0.666344
    56 5.671875 -2.031250 -5.726563 1.991481 0.082330 -2.001947
  time 23
    1 -0.128905 3.345128 -2.981901 1.533740 0.125279 1.598116
    2 4.018331 0.000000 0.000000 -0.048687 0.051090 0.025908
    3 3.518565 0.000000 0.000000 -0.367514 0.000036 0.128567
    4 8.942642 0.000000 0.000000 -0.016970 -0.046165 0.237417
    5 3.307271 0.000000 0.000000 3.141590 0.000000 0.400478
    6 3.593712 -0.000001 0.000000 0.400581 -0.001964 0.518301
    7 1.999997 -3.000001 0.000000 -1.570796 0.000000 -1.326450
    8 2.033350 1.000771 -1.937610 -1.568124 1.223179 2.997670
    9 6.028143 0.000002 0.000000 1.355571 -0.213349 -0.708007
    10 11.692549 0.000000 0.000002 0.000000 0.000000 -2.011162
    11 11.481698 0.000000 0.000000 -1.103608 0.607818 -0.155986
    12 2.676087 -1.712440 0.000000 -1.570796 0.000000 -1.570796
    13 2.033342 1.000767 1.937660 1.405041 -1.317952 3.139850
    14 6.028142 0.000002 0.000000 -1.195050 0.008692 -0.900506
    15 11.692555 0.000000 0.000005 0.000000 0.000000 -0.762477
    16 11.481671 0.000000 -0.000030 1.991802 0.050394 0.021289
    17 2.676088 -1.712441 0.000000 1.570797 0.000000 1.570797
    26 3.859704 -0.142404 -1.191975 -0.454212 0.125458 -0.727589
    27 1.312563 0.000001 0.000001 -0.168576 0.310526 -0.695411
    28 0.729362 0.000002 0.000000 -0.168576 0.310527 -0.538331
    29 3.942327 0.046774 -0.431443 -0.180317 0.236514 -0.665166
    30 1.539092 0.000002 0.000000 -0.102744 0.185415 -0.715746
    31 1.196319 -0.000001 0.000000 -0.102744 0.185422 -0.539055
    32 3.883689 -0.046767 0.431443 -0.010807 0.275225 -1.114480
    33 1.719575 0.000002 0.000000 -0.032707 0.058462 -1.569746
    34 1.209182 -0.000001 0.000000 -0.032707 0.058461 -1.294854
    35 3.859859 -0.137950 1.332466 0.410601 0.234617 -1.384077
    36 1.719429 0.000003 0.000000 0.068759 -0.123350 -1.683904
    37 1.099668 0.000001 0.000000 0.068756 -0.123338 -1.350097
    38 0.806048 -0.348923 1.321258 -1.395461 -0.432881 -0.747837
    39 1.789785 0.000000 0.000002 0.030442 0.074687 0.714918
    40 1.206998 0.000000 0.000000 0.004890 0.032012 0.873215
    41 3.859672 -0.132566 1.193108 0.154239 -0.057260 -1.683869
    42 1.312560 0.000000 -0.000001 0.000000 0.000000 -0.627087
    43 0.729361 0.000002 0.000000 0.000000 0.000000 -1.021396
    44 3.942293 0.050330 0.431043 0.020416 -0.074382 -1.517445
    45 1.539095 0.000003 0.000000 0.000000 0.000000 -0.806824
    46 1.196323 0.000000 0.000000 0.000000 0.000000 -1.303471
    47 3.883655 -0.050326 -0.431043 -0.127900 -0.099350 -0.936274
    48 1.719575 -0.000005 0.000000 0.000000 0.000000 -1.100728
    49 1.209182 -0.000001 0.000000 0.000000 0.000000 -1.091484
    50 3.859828 -0.148935 -1.331282 -0.352000 -0.088876 -0.797490
    51 1.719425 0.000000 0.000000 0.000000 0.000000 -0.997181
    52 1.099665 0.000000 0.000000 0.000000 0.000000 -1.420909
    53 0.806014 -0.359835 -1.318334 1.372105 0.323498 -0.797776
    54 1.789783 0.000001 0.000000 0.000000 0.000000 0.612643
    55 1.207003 0.000000 0.000004 0.000000 0.000000 0.666344
    56 5.671875 -2.031250 -5.726563 1.991481 0.082330 -2.001947
  time 24
    1 -0.128905 3.345128 -2.981901 1.533788 0.125267 1.593071
    2 4.018331 0.000000 0.000000 -0.048176 0.059695 0.025706
    3 3.518565 0.000000 0.000000 -0.366152 0.003691 0.128973
    4 8.942642 0.000000 0.000000 -0.018236 -0.052025 0.243632
    5 3.307271 0.000000 0.000000 3.141590 0.000000 0.400478
    6 3.593712 -0.000001 0.000000 0.400581 -0.001964 0.518301
    7 1.999997 -3.000001 0.000000 -1.570796 0.000000 -1.326450
    8 2.033350 1.000771 -1.937610 -1.568124 1.223179 2.997670
    9 6.028143 0.000002 0.000000 1.363327 -0.209725 -0.709346
    10 11.692549 0.000000 0.000002 0.000000 0.000000 -2.013272
    11 11.481698 0.000000 0.000000 -1.103608 0.607818 -0.155986
    12 2.676087 -1.712440 0.000000 -1.570796 0.000000 -1.570796
    13 2.033342 1.000767 1.937660 1.399235 -1.318152 3.145782
    14 6.028142 0.000002 0.000000 -1.200178 0.003502 -0.904200
    15 11.692555 0.000000 0.000005 0.000000 0.000000 -0.764416
    16 11.481671 0.000000 -0.000030 1.991802 0.050394 0.021289
    17 2.676088 -1.712441 0.000000 1.570797 0.000000 1.570797
    26 3.859704 -0.142404 -1.191975 -0.454212 0.125458 -0.727589
    27 1.312563 0.000001 0.000001 -0.168576 0.310526 -0.695411
    28 0.729362 0.000002 0.000000 -0.168576 0.310527 -0.538331
    29 3.942327 0.046774 -0.431443 -0.180317 0.236514 -0.665166
    30 1.539092 0.000002 0.000000 -0.102744 0.185415 -0.715746
    31 1.196319 -0.000001 0.000000 -0.102744 0.185422 -0.539055
    32 3.883689 -0.046767 0.431443 -0.010807 0.275225 -1.114480
    33 1.719575 0.000002 0.000000 -0.032707 0.058462 -1.569746
    34 1.209182 -0.000001 0.000000 -0.032707 0.058461 -1.294854
    35 3.859859 -0.137950 1.332466 0.410601 0.234617 -1.384077
    36 1.719429 0.000003 0.000000 0.068759 -0.123350 -1.683904
    37 1.099668 0.000001 0.000000 0.068756 -0.123350 -1.350097
    38 0.806048 -0.348923 1.321258 -1.395461 -0.432881 -0.747837
    39 1.789785 0.000000 0.000002 0.030442 0.074687 0.714918
    40 1.206998 0.000000 0.000000 0.004890 0.032012 0.873190
    41 3.859672 -0.132566 1.193108 0.154239 -0.057260 -1.683869
    42 1.312560 0.000000 -0.000001 0.000000 0.000000 -0.627087
    43 0.729361 0.000002 0.000000 0.000000 0.000000 -1.021396
    44 3.942293 0.050330 0.431043 0.020416 -0.074382 -1.517445
    45 1.539095 0.000003 0.000000 0.000000 0.000000 -0.806824
    46 1.196323 0.000000 0.000000 0.000000 0.000000 -1.303471
    47 3.883655 -0.050326 -0.431043 -0.127900 -0.099350 -0.936274
    48 1.719575 -0.000005 0.000000 0.000000 0.000000 -1.100728
    49 1.209182 -0.000001 0.000000 0.000000 0.000000 -1.091484
    50 3.859828 -0.148935 -1.331282 -0.352000 -0.088876 -0.797490
    51 1.719425 0.000000 0.000000 0.000000 0.000000 -0.997181
    52 1.099665 0.000000 0.000000 0.000000 0.000000 -1.420909
    53 0.806014 -0.359835 -1.318334 1.372105 0.323498 -0.797776
    54 1.789783 0.000001 0.000000 0.000000 0.000000 0.612643
    55 1.207003 0.000000 0.000004 0.000000 0.000000 0.666344
    56 5.671875 -2.031250 -5.726563 1.991481 0.082330 -2.001947
  time 25
    1 -0.128905 3.345128 -2.981901 1.533788 0.125255 1.588073
    2 4.018331 0.000000 0.000000 -0.046886 0.067078 0.026412
    3 3.518565 0.000000 0.000000 -0.363908 0.006735 0.129965
    4 8.942642 0.000000 0.000000 -0.019273 -0.057478 0.249381
    5 3.307271 0.000000 0.000000 3.141590 0.000000 0.400478
    6 3.593712 -0.000001 0.000000 0.400581 -0.001964 0.518301
    7 1.999997 -3.000001 0.000000 -1.570796 0.000000 -1.326450
    8 2.033350 1.000771 -1.937610 -1.568124 1.223179 2.997670
    9 6.028143 0.000002 0.000000 1.373764 -0.198710 -0.711354
    10 11.692549 0.000000 0.000002 0.000000 0.000000 -2.011331
    11 11.481698 0.000000 0.000000 -1.103608 0.607818 -0.155986
    12 2.676087 -1.712440 0.000000 -1.570796 0.000000 -1.570796
    13 2.033342 1.000767 1.937660 1.382994 -1.318670 3.162524
    14 6.028142 0.000002 0.000000 -1.219602 0.009375 -0.913832
    15 11.692555 0.000000 0.000005 0.000000 0.000000 -0.770464
    16 11.481671 0.000000 -0.000030 1.991802 0.050394 0.021289
    17 2.676088 -1.712441 0.000000 1.570797 0.000000 1.570797
    26 3.859704 -0.142404 -1.191975 -0.454212 0.125458 -0.727589
    27 1.312563 0.000001 0.000001 -0.168576 0.310526 -0.695411
    28 0.729362 0.000002 0.000000 -0.168576 0.310527 -0.538331
    29 3.942327 0.046774 -0.431443 -0.180317 0.236514 -0.665166
    30 1.539092 0.000002 0.000000 -0.102744 0.185415 -0.715746
    31 1.196319 -0.000001 0.000000 -0.102744 0.185422 -0.539055
    32 3.883689 -0.046767 0.431443 -0.010807 0.275225 -1.114480
    33 1.719575 0.000002 0.000000 -0.032707 0.058462 -1.569746
    34 1.209182 -0.000001 0.000000 -0.032707 0.058461 -1.294854
    35 3.859859 -0.137950 1.332466 0.410601 0.234617 -1.384077
    36 1.719429 0.000003 0.000000 0.068759 -0.123350 -1.683904
    37 1.099668 0.000001 0.000000 0.068756 -0.123350 -1.350097
    38 0.806048 -0.348923 1.321258 -1.395461 -0.432881 -0.747837
    39 1.789785 0.000000 0.000002 0.030442 0.074687 0.714918
    40 1.206998 0.000000 0.000000 0.004890 0.032012 0.873190
    41 3.859672 -0.132566 1.193108 0.154239 -0.057260 -1.683869
    42 1.312560 0.000000 -0.000001 0.000000 0.000000 -0.627087
    43 0.729361 0.000002 0.000000 0.000000 0.000000 -1.021396
    44 3.942293 0.050330 0.431043 0.020416 -0.074382 -1.517445
    45 1.539095 0.000003 0.000000 0.000000 0.000000 -0.806824
    46 1.196323 0.000000 0.000000 0.000000 0.000000 -1.303471
    47 3.883655 -0.050326 -0.431043 -0.127900 -0.099350 -0.936274
    48 1.719575 -0.000005 0.000000 0.000000 0.000000 -1.100728
    49 1.209182 -0.000001 0.000000 0.000000 0.000000 -1.091484
    50 3.859828 -0.148935 -1.331282 -0.352000 -0.088876 -0.797490
    51 1.719425 0.000000 0.000000 0.000000 0.000000 -0.997181
    52 1.099665 0.000000 0.000000 0.000000 0.000000 -1.420909
    53 0.806014 -0.359835 -1.318334 1.372105 0.323498 -0.797776
    54 1.789783 0.000001 0.000000 0.000000 0.000000 0.612643
    55 1.207003 0.000000 0.000004 0.000000 0.000000 0.666344
    56 5.671875 -2.031250 -5.726563 1.991481 0.082330 -2.001947
  time 26
    1 -0.128905 3.345128 -2.981901 1.533788 0.125243 1.583504
    2 4.018331 0.000000 0.000000 -0.044730 0.072603 0.027723
    3 3.518565 0.000000 0.000000 -0.360832 0.009012 0.131318
    4 8.942642 0.000000 0.000000 -0.020012 -0.062128 0.254143
    5 3.307271 0.000000 0.000000 3.141590 0.000000 0.400478
    6 3.593712 -0.000001 0.000000 0.400581 -0.001964 0.518301
    7 1.999997 -3.000001 0.000000 -1.570796 0.000000 -1.326450
    8 2.033350 1.000771 -1.937610 -1.568124 1.223179 2.997670
    9 6.028143 0.000002 0.000000 1.385350 -0.181972 -0.713458
    10 11.692549 0.000000 0.000002 0.000000 0.000000 -2.006099
    11 11.481698 0.000000 0.000000 -1.103608 0.607818 -0.155986
    12 2.676087 -1.712440 0.000000 -1.570796 0.000000 -1.570796
    13 2.033342 1.000767 1.937660 1.357652 -1.319349 3.188546
    14 6.028142 0.000002 0.000000 -1.256142 0.028634 -0.931050
    15 11.692555 0.000000 0.000005 0.000000 0.000000 -0.779458
    16 11.481671 0.000000 -0.000030 1.991802 0.050394 0.021289
    17 2.676088 -1.712441 0.000000 1.570797 0.000000 1.570797
    26 3.859704 -0.142404 -1.191975 -0.454212 0.125458 -0.727589
    27 1.312563 0.000001 0.000001 -0.168576 0.310526 -0.695411
    28 0.729362 0.000002 0.000000 -0.168576 0.310527 -0.538331
    29 3.942327 0.046774 -0.431443 -0.180317 0.236514 -0.665166
    30 1.539092 0.000002 0.000000 -0.102744 0.185415 -0.715746
    31 1.196319 -0.000001 0.000000 -0.102744 0.185422 -0.539055
    32 3.883689 -0.046767 0.431443 -0.010807 0.275225 -1.114480
    33 1.719575 0.000002 0.000000 -0.032707 0.058462 -1.569746
    34 1.209182 -0.000001 0.000000 -0.032707 0.058461 -1.294854
    35 3.859859 -0.137950 1.332466 0.410601 0.234617 -1.384077
    36 1.719429 0.000003 0.000000 0.068759 -0.123350 -1.683904
    37 1.099668 0.000001 0.000000 0.068756 -0.123350 -1.350097
    38 0.806048 -0.348923 1.321258 -1.395461 -0.432881 -0.747837
    39 1.789785 0.000000 0.000002 0.030442 0.074687 0.714918
    40 1.206998 0.000000 0.000000 0.004890 0.032012 0.873190
    41 3.859672 -0.132566 1.193108 0.154239 -0.057260 -1.683869
    42 1.312560 0.000000 -0.000001 0.000000 0.000000 -0.627087
    43 0.729361 0.000002 0.000000 0.000000 0.000000 -1.021396
    44 3.942293 0.050330 0.431043 0.020416 -0.074382 -1.517445
    45 1.539095 0.000003 0.000000 0.000000 0.000000 -0.806824
    46 1.196323 0.000000 0.000000 0.000000 0.000000 -1.303471
    47 3.883655 -0.050326 -0.431043 -0.127900 -0.099350 -0.936274
    48 1.719575 -0.000005 0.000000 0.000000 0.000000 -1.100728
    49 1.209182 -0.000001 0.000000 0.000000 0.000000 -1.091484
    50 3.859828 -0.148935 -1.331282 -0.352000 -0.088876 -0.797490
    51 1.719425 0.000000 0.000000 0.000000 0.000000 -0.997181
    52 1.099665 0.000000 0.000000 0.000000 0.000000 -1.420909
    53 0.806014 -0.359835 -1.318334 1.372105 0.323498 -0.797776
    54 1.789783 0.000001 0.000000 0.000000 0.000000 0.612643
    55 1.207003 0.000000 0.000004 0.000000 0.000000 0.666344
    56 5.671875 -2.031250 -5.726563 1.991481 0.082330 -2.001947
  time 27
    1 -0.128905 3.345128 -2.981901 1.533740 0.125231 1.579744
    2 4.018331 0.000000 0.000000 -0.041751 0.076162 0.029564
    3 3.518565 0.000000 0.000000 -0.357002 0.010355 0.132852
    4 8.942642 0.000000 0.000000 -0.020364 -0.065580 0.257668
    5 3.307271 0.000000 0.000000 3.141590 0.000000 0.400478
    6 3.593712 -0.000001 0.000000 0.400581 -0.001964 0.518301
    7 1.999997 -3.000001 0.000000 -1.570796 0.000000 -1.326450
    8 2.033350 1.000771 -1.937610 -1.568124 1.223179 2.997670
    9 6.028143 0.000002 0.000000 1.397893 -0.161181 -0.714988
    10 11.692549 0.000000 0.000002 0.000000 0.000000 -1.998167
    11 11.481698 0.000000 0.000000 -1.103608 0.607818 -0.155986
    12 2.676087 -1.712440 0.000000 -1.570796 0.000000 -1.570796
    13 2.033342 1.000767 1.937660 1.324934 -1.319987 3.222222
    14 6.028142 0.000002 0.000000 -1.307489 0.058272 -0.955920
    15 11.692555 0.000000 0.000005 0.000000 0.000000 -0.788220
    16 11.481671 0.000000 -0.000030 1.991802 0.050394 0.021289
    17 2.676088 -1.712441 0.000000 1.570797 0.000000 1.570797
    26 3.859704 -0.142404 -1.191975 -0.454212 0.125458 -0.727589
    27 1.312563 0.000001 0.000001 -0.168576 0.310526 -0.695411
    28 0.729362 0.000002 0.000000 -0.168576 0.310527 -0.538331
    29 3.942327 0.046774 -0.431443 -0.180317 0.236514 -0.665166
    30 1.539092 0.000002 0.000000 -0.102744 0.185415 -0.715746
    31 1.196319 -0.000001 0.000000 -0.102744 0.185422 -0.539055
    32 3.883689 -0.046767 0.431443 -0.010807 0.275225 -1.114480
    33 1.719575 0.000002 0.000000 -0.032707 0.058462 -1.569746
    34 1.209182 -0.000001 0.000000 -0.032707 0.058461 -1.294854
    35 3.859859 -0.137950 1.332466 0.410601 0.234617 -1.384077
    36 1.719429 0.000003 0.000000 0.068759 -0.123350 -1.683904
    37 1.099668 0.000001 0.000000 0.068756 -0.123350 -1.350097
    38 0.806048 -0.348923 1.321258 -1.395461 -0.432881 -0.747837
    39 1.789785 0.000000 0.000002 0.030442 0.074687 0.714918
    40 1.206998 0.000000 0.000000 0.004890 0.032012 0.873190
    41 3.859672 -0.132566 1.193108 0.154239 -0.057260 -1.683869
    42 1.312560 0.000000 -0.000001 0.000000 0.000000 -0.627087
    43 0.729361 0.000002 0.000000 0.000000 0.000000 -1.021396
    44 3.942293 0.050330 0.431043 0.020416 -0.074382 -1.517445
    45 1.539095 0.000003 0.000000 0.000000 0.000000 -0.806824
    46 1.196323 0.000000 0.000000 0.000000 0.000000 -1.303471
    47 3.883655 -0.050326 -0.431043 -0.127900 -0.099350 -0.936274
    48 1.719575 -0.000005 0.000000 0.000000 0.000000 -1.100728
    49 1.209182 -0.000001 0.000000 0.000000 0.000000 -1.091484
    50 3.859828 -0.148935 -1.331282 -0.352000 -0.088876 -0.797490
    51 1.719425 0.000000 0.000000 0.000000 0.000000 -0.997181
    52 1.099665 0.000000 0.000000 0.000000 0.000000 -1.420909
    53 0.806014 -0.359835 -1.318334 1.372105 0.323498 -0.797776
    54 1.789783 0.000001 0.000000 0.000000 0.000000 0.612643
    55 1.207003 0.000000 0.000004 0.000000 0.000000 0.666344
    56 5.671875 -2.031250 -5.726563 1.991481 0.082330 -2.001947
  time 28
    1 -0.128905 3.345128 -2.981901 1.533692 0.125219 1.576983
    2 4.018331 0.000000 0.000000 -0.037972 0.077948 0.031682
    3 3.518565 0.000000 0.000000 -0.352484 0.010642 0.134430
    4 8.942642 0.000000 0.000000 -0.020487 -0.068096 0.259993
    5 3.307271 0.000000 0.000000 3.141590 0.000000 0.400478
    6 3.593712 -0.000001 0.000000 0.400581 -0.001964 0.518301
    7 1.999997 -3.000001 0.000000 -1.570796 0.000000 -1.326450
    8 2.033350 1.000771 -1.937610 -1.568124 1.223179 2.997670
    9 6.028143 0.000002 0.000000 1.411203 -0.137816 -0.716136
    10 11.692549 0.000000 0.000002 0.000000 0.000000 -1.988294
    11 11.481698 0.000000 0.000000 -1.103608 0.607818 -0.155986
    12 2.676087 -1.712440 0.000000 -1.570796 0.000000 -1.570796
    13 2.033342 1.000767 1.937660 1.286254 -1.320346 3.261925
    14 6.028142 0.000002 0.000000 -1.364927 0.090643 -0.984221
    15 11.692555 0.000000 0.000005 0.000000 0.000000 -0.792794
    16 11.481671 0.000000 -0.000030 1.991802 0.050394 0.021289
    17 2.676088 -1.712441 0.000000 1.570797 0.000000 1.570797
    26 3.859704 -0.142404 -1.191975 -0.454212 0.125458 -0.727589
    27 1.312563 0.000001 0.000001 -0.168576 0.310526 -0.695411
    28 0.729362 0.000002 0.000000 -0.168576 0.310527 -0.538331
    29 3.942327 0.046774 -0.431443 -0.180317 0.236514 -0.665166
    30 1.539092 0.000002 0.000000 -0.102744 0.185415 -0.715746
    31 1.196319 -0.000001 0.000000 -0.102744 0.185422 -0.539055
    32 3.883689 -0.046767 0.431443 -0.010807 0.275225 -1.114480
    33 1.719575 0.000002 0.000000 -0.032707 0.058462 -1.569746
    34 1.209182 -0.000001 0.000000 -0.032707 0.058461 -1.294854
    35 3.859859 -0.137950 1.332466 0.410601 0.234617 -1.384077
    36 1.719429 0.000003 0.000000 0.068759 -0.123350 -1.683904
    37 1.099668 0.000001 0.000000 0.068756 -0.123350 -1.350097
    38 0.806048 -0.348923 1.321258 -1.395461 -0.432881 -0.747837
    39 1.789785 0.000000 0.000002 0.030442 0.074687 0.714918
    40 1.206998 0.000000 0.000000 0.004890 0.032012 0.873190
    41 3.859672 -0.132566 1.193108 0.154239 -0.057260 -1.683869
    42 1.312560 0.000000 -0.000001 0.000000 0.000000 -0.627087
    43 0.729361 0.000002 0.000000 0.000000 0.000000 -1.021396
    44 3.942293 0.050330 0.431043 0.020416 -0.074382 -1.517445
    45 1.539095 0.000003 0.000000 0.000000 0.000000 -0.806824
    46 1.196323 0.000000 0.000000 0.000000 0.000000 -1.303471
    47 3.883655 -0.050326 -0.431043 -0.127900 -0.099350 -0.936274
    48 1.719575 -0.000005 0.000000 0.000000 0.000000 -1.100728
    49 1.209182 -0.000001 0.000000 0.000000 0.000000 -1.091484
    50 3.859828 -0.148935 -1.331282 -0.352000 -0.088876 -0.797490
    51 1.719425 0.000000 0.000000 0.000000 0.000000 -0.997181
    52 1.099665 0.000000 0.000000 0.000000 0.000000 -1.420909
    53 0.806014 -0.359835 -1.318334 1.372105 0.323498 -0.797776
    54 1.789783 0.000001 0.000000 0.000000 0.000000 0.612643
    55 1.207003 0.000000 0.000004 0.000000 0.000000 0.666344
    56 5.671875 -2.031250 -5.726563 1.991481 0.082330 -2.001947
  time 29
    1 -0.128905 3.345128 -2.981901 1.533596 0.125219 1.575318
    2 4.018331 0.000000 0.000000 -0.033436 0.078607 0.033725
    3 3.518565 0.000000 0.000000 -0.347388 0.009959 0.135851
    4 8.942642 0.000000 0.000000 -0.020504 -0.070122 0.261193
    5 3.307271 0.000000 0.000000 3.141590 0.000000 0.400478
    6 3.593712 -0.000001 0.000000 0.400581 -0.001964 0.518301
    7 1.999997 -3.000001 0.000000 -1.570796 0.000000 -1.326450
    8 2.033350 1.000771 -1.937610 -1.568124 1.223179 2.997670
    9 6.028143 0.000002 0.000000 1.425566 -0.113258 -0.716614
    10 11.692549 0.000000 0.000002 0.000000 0.000000 -1.976902
    11 11.481698 0.000000 0.000000 -1.103608 0.607818 -0.155986
    12 2.676087 -1.712440 0.000000 -1.570796 0.000000 -1.570796
    13 2.033342 1.000767 1.937660 1.243337 -1.320346 3.305933
    14 6.028142 0.000002 0.000000 -1.417300 0.118597 -1.010675
    15 11.692555 0.000000 0.000005 0.000000 0.000000 -0.791942
    16 11.481671 0.000000 -0.000030 1.991802 0.050394 0.021289
    17 2.676088 -1.712441 0.000000 1.570797 0.000000 1.570797
    26 3.859704 -0.142404 -1.191975 -0.454212 0.125458 -0.727589
    27 1.312563 0.000001 0.000001 -0.168576 0.310526 -0.695411
    28 0.729362 0.000002 0.000000 -0.168576 0.310527 -0.538331
    29 3.942327 0.046774 -0.431443 -0.180317 0.236514 -0.665166
    30 1.539092 0.000002 0.000000 -0.102744 0.185415 -0.715746
    31 1.196319 -0.000001 0.000000 -0.102744 0.185422 -0.539055
    32 3.883689 -0.046767 0.431443 -0.010807 0.275225 -1.114480
    33 1.719575 0.000002 0.000000 -0.032707 0.058462 -1.569746
    34 1.209182 -0.000001 0.000000 -0.032707 0.058461 -1.294854
    35 3.859859 -0.137950 1.332466 0.410601 0.234617 -1.384077
    36 1.719429 0.000003 0.000000 0.068759 -0.123350 -1.683904
    37 1.099668 0.000001 0.000000 0.068756 -0.123350 -1.350097
    38 0.806048 -0.348923 1.321258 -1.395461 -0.432881 -0.747837
    39 1.789785 0.000000 0.000002 0.030442 0.074687 0.714918
    40 1.206998 0.000000 0.000000 0.004890 0.032012 0.873190
    41 3.859672 -0.132566 1.193108 0.154239 -0.057260 -1.683869
    42 1.312560 0.000000 -0.000001 0.000000 0.000000 -0.627087
    43 0.729361 0.000002 0.000000 0.000000 0.000000 -1.021396
    44 3.942293 0.050330 0.431043 0.020416 -0.074382 -1.517445
    45 1.539095 0.000003 0.000000 0.000000 0.000000 -0.806824
    46 1.196323 0.000000 0.000000 0.000000 0.000000 -1.303471
    47 3.883655 -0.050326 -0.431043 -0.127900 -0.099350 -0.936274
    48 1.719575 -0.000005 0.000000 0.000000 0.000000 -1.100728
    49 1.209182 -0.000001 0.000000 0.000000 0.000000 -1.091484
    50 3.859828 -0.148935 -1.331282 -0.352000 -0.088876 -0.797490
    51 1.719425 0.000000 0.000000 0.000000 0.000000 -0.997181
    52 1.099665 0.000000 0.000000 0.000000 0.000000 -1.420909
    53 0.806014 -0.359835 -1.318334 1.372105 0.323498 -0.797776
    54 1.789783 0.000001 0.000000 0.000000 0.000000 0.612643
    55 1.207003 0.000000 0.000004 0.000000 0.000000 0.666344
    56 5.671875 -2.031250 -5.726563 1.991481 0.082330 -2.001947
  time 30
    1 -0.128905 3.345128 -2.981901 1.533452 0.125219 1.574699
    2 4.018331 0.000000 0.000000 -0.028301 0.078523 0.035238
    3 3.518565 0.000000 0.000000 -0.341812 0.008473 0.136933
    4 8.942642 0.000000 0.000000 -0.020452 -0.071596 0.261307
    5 3.307271 0.000000 0.000000 3.141590 0.000000 0.400478
    6 3.593712 -0.000001 0.000000 0.400581 -0.001964 0.518301
    7 1.999997 -3.000001 0.000000 -1.570796 0.000000 -1.326450
    8 2.033350 1.000771 -1.937610 -1.568124 1.223179 2.997670
    9 6.028143 0.000002 0.000000 1.440695 -0.089082 -0.715753
    10 11.692549 0.000000 0.000002 0.000000 0.000000 -1.964835
    11 11.481698 0.000000 0.000000 -1.103608 0.607818 -0.155986
    12 2.676087 -1.712440 0.000000 -1.570796 0.000000 -1.570796
    13 2.033342 1.000767 1.937660 1.198067 -1.319827 3.352333
    14 6.028142 0.000002 0.000000 -1.458263 0.139995 -1.032313
    15 11.692555 0.000000 0.000005 0.000000 0.000000 -0.787057
    16 11.481671 0.000000 -0.000030 1.991802 0.050394 0.021289
    17 2.676088 -1.712441 0.000000 1.570797 0.000000 1.570797
    26 3.859704 -0.142404 -1.191975 -0.454212 0.125458 -0.727589
    27 1.312563 0.000001 0.000001 -0.168576 0.310526 -0.695411
    28 0.729362 0.000002 0.000000 -0.168576 0.310527 -0.538331
    29 3.942327 0.046774 -0.431443 -0.180317 0.236514 -0.665166
    30 1.539092 0.000002 0.000000 -0.102744 0.185415 -0.715746
    31 1.196319 -0.000001 0.000000 -0.102744 0.185422 -0.539055
    32 3.883689 -0.046767 0.431443 -0.010807 0.275225 -1.114480
    33 1.719575 0.000002 0.000000 -0.032707 0.058462 -1.569746
    34 1.209182 -0.000001 0.000000 -0.032707 0.058461 -1.294854
    35 3.859859 -0.137950 1.332466 0.410601 0.234617 -1.384077
    36 1.719429 0.000003 0.000000 0.068759 -0.123350 -1.683904
    37 1.099668 0.000001 0.000000 0.068756 -0.123350 -1.350097
    38 0.806048 -0.348923 1.321258 -1.395461 -0.432881 -0.747837
    39 1.789785 0.000000 0.000002 0.030442 0.074687 0.714918
    40 1.206998 0.000000 0.000000 0.004890 0.032012 0.873190
    41 3.859672 -0.132566 1.193108 0.154239 -0.057260 -1.683869
    42 1.312560 0.000000 -0.000001 0.000000 0.000000 -0.627087
    43 0.729361 0.000002 0.000000 0.000000 0.000000 -1.021396
    44 3.942293 0.050330 0.431043 0.020416 -0.074382 -1.517445
    45 1.539095 0.000003 0.000000 0.000000 0.000000 -0.806824
    46 1.196323 0.000000 0.000000 0.000000 0.000000 -1.303471
    47 3.883655 -0.050326 -0.431043 -0.127900 -0.099350 -0.936274
    48 1.719575 -0.000005 0.000000 0.000000 0.000000 -1.100728
    49 1.209182 -0.000001 0.000000 0.000000 0.000000 -1.091484
    50 3.859828 -0.148935 -1.331282 -0.352000 -0.088876 -0.797490
    51 1.719425 0.000000 0.000000 0.000000 0.000000 -0.997181
    52 1.099665 0.000000 0.000000 0.000000 0.000000 -1.420909
    53 0.806014 -0.359835 -1.318334 1.372105 0.323498 -0.797776
    54 1.789783 0.000001 0.000000 0.000000 0.000000 0.612643
    55 1.207003 0.000000 0.000004 0.000000 0.000000 0.666344
    56 5.671875 -2.031250 -5.726563 1.991481 0.082330 -2.001947
end
