// Created by Crowbar 0.24.0.0
version 1
nodes
  0 "ValveBiped.Bip01_Pelvis" -1
  1 "ValveBiped.Bip01_Spine" 0
  2 "ValveBiped.Bip01_Spine1" 1
  3 "ValveBiped.Bip01_Spine2" 2
  4 "ValveBiped.Bip01_Spine4" 3
  5 "ValveBiped.Bip01_Neck1" 4
  6 "ValveBiped.Bip01_Head1" 5
  7 "ValveBiped.forward" 6
  8 "ValveBiped.Bip01_R_Clavicle" 4
  9 "ValveBiped.Bip01_R_UpperArm" 8
  10 "ValveBiped.Bip01_R_Forearm" 9
  11 "ValveBiped.Bip01_R_Hand" 10
  12 "ValveBiped.Anim_Attachment_RH" 11
  13 "ValveBiped.Bip01_L_Clavicle" 4
  14 "ValveBiped.Bip01_L_UpperArm" 13
  15 "ValveBiped.Bip01_L_Forearm" 14
  16 "ValveBiped.Bip01_L_Hand" 15
  17 "ValveBiped.Anim_Attachment_LH" 16
  18 "ValveBiped.Bip01_R_Thigh" 0
  19 "ValveBiped.Bip01_R_Calf" 18
  20 "ValveBiped.Bip01_R_Foot" 19
  21 "ValveBiped.Bip01_R_Toe0" 20
  22 "ValveBiped.Bip01_L_Thigh" 0
  23 "ValveBiped.Bip01_L_Calf" 22
  24 "ValveBiped.Bip01_L_Foot" 23
  25 "ValveBiped.Bip01_L_Toe0" 24
  26 "ValveBiped.Bip01_L_Finger4" 16
  27 "ValveBiped.Bip01_L_Finger41" 26
  28 "ValveBiped.Bip01_L_Finger42" 27
  29 "ValveBiped.Bip01_L_Finger3" 16
  30 "ValveBiped.Bip01_L_Finger31" 29
  31 "ValveBiped.Bip01_L_Finger32" 30
  32 "ValveBiped.Bip01_L_Finger2" 16
  33 "ValveBiped.Bip01_L_Finger21" 32
  34 "ValveBiped.Bip01_L_Finger22" 33
  35 "ValveBiped.Bip01_L_Finger1" 16
  36 "ValveBiped.Bip01_L_Finger11" 35
  37 "ValveBiped.Bip01_L_Finger12" 36
  38 "ValveBiped.Bip01_L_Finger0" 16
  39 "ValveBiped.Bip01_L_Finger01" 38
  40 "ValveBiped.Bip01_L_Finger02" 39
  41 "ValveBiped.Bip01_R_Finger4" 11
  42 "ValveBiped.Bip01_R_Finger41" 41
  43 "ValveBiped.Bip01_R_Finger42" 42
  44 "ValveBiped.Bip01_R_Finger3" 11
  45 "ValveBiped.Bip01_R_Finger31" 44
  46 "ValveBiped.Bip01_R_Finger32" 45
  47 "ValveBiped.Bip01_R_Finger2" 11
  48 "ValveBiped.Bip01_R_Finger21" 47
  49 "ValveBiped.Bip01_R_Finger22" 48
  50 "ValveBiped.Bip01_R_Finger1" 11
  51 "ValveBiped.Bip01_R_Finger11" 50
  52 "ValveBiped.Bip01_R_Finger12" 51
  53 "ValveBiped.Bip01_R_Finger0" 11
  54 "ValveBiped.Bip01_R_Finger01" 53
  55 "ValveBiped.Bip01_R_Finger02" 54
  56 "ValveBiped.baton_parent" 11
end
skeleton
  time 0
    0 1.610982 -0.335943 37.383288 1.632578 -0.051806 -0.610272
    1 0.065674 3.343750 -2.980469 1.570793 0.027391 1.551159
    2 4.018331 0.000000 0.000000 0.000126 0.000006 -0.088146
    3 3.518565 0.000000 0.000000 0.103222 -0.007017 0.237417
    4 8.942642 0.000000 0.000000 -0.094841 0.025397 0.291065
    5 3.307271 0.000000 0.000000 3.064068 0.060333 0.182153
    6 3.593712 -0.000001 0.000000 0.694701 0.140529 0.511140
    7 1.999997 -3.000001 0.000000 -1.570796 0.000000 -1.326450
    8 2.033350 1.000771 -1.937610 -1.363622 1.141271 -3.024679
    9 6.028143 0.000002 0.000000 1.217111 -0.011212 -0.897926
    10 11.692549 0.000000 0.000002 0.000000 0.000000 -1.443342
    11 11.481698 0.000000 0.000000 -1.452187 -0.267112 -0.509786
    12 2.676087 -1.712440 0.000000 -1.570796 0.000000 -1.570796
    13 2.033342 1.000767 1.937660 2.197607 -1.097217 2.316182
    14 6.028142 0.000002 0.000000 -1.451532 -0.285647 -0.913766
    15 11.692555 0.000000 0.000005 0.000000 0.000000 -1.242592
    16 11.481671 0.000000 -0.000030 1.356594 0.211701 -0.478775
    17 2.676088 -1.712441 0.000000 1.570797 0.000000 1.570797
    18 -3.890452 0.000004 0.000007 -1.429360 -0.176075 -1.794036
    19 17.848171 0.000000 0.000000 0.000000 0.000000 0.471190
    20 16.525253 0.000000 0.000000 0.166131 -0.034996 -1.319364
    21 6.879454 0.000000 0.000000 -0.081333 -0.002951 -0.584373
    22 3.890452 -0.000004 -0.000003 -2.141031 -0.306414 -1.381264
    23 17.848175 0.000000 0.000000 0.000000 0.000000 0.330762
    24 16.525249 0.000000 0.000000 -0.168459 -0.124108 -0.966461
    25 6.879452 0.000000 0.000000 -0.007299 -0.002950 -0.584374
    26 3.859704 -0.142404 -1.191975 -0.479144 0.152190 -0.879874
    27 1.312563 0.000001 0.000001 0.000000 0.009665 -0.439720
    28 0.729362 0.000002 0.000000 0.000000 0.004971 -0.244299
    29 3.942327 0.046774 -0.431443 -0.155014 0.073328 -0.810648
    30 1.539092 0.000002 0.000000 0.000000 0.004460 -0.247797
    31 1.196319 -0.000001 0.000000 0.000000 0.007361 -0.430802
    32 3.883689 -0.046767 0.431443 0.050937 0.051343 -1.015514
    33 1.719575 0.000002 0.000000 0.000000 0.000000 -1.119923
    34 1.209182 -0.000001 0.000000 0.000000 0.000000 -0.996061
    35 3.859859 -0.137950 1.332466 0.108873 0.007005 -1.003404
    36 1.719429 0.000003 0.000000 0.000000 0.000000 -1.286490
    37 1.099668 0.000001 0.000000 0.000000 0.000000 -1.164383
    38 0.806048 -0.348923 1.321258 -1.295600 -0.429484 -0.806337
    39 1.789785 0.000000 0.000002 0.000000 0.000000 0.273767
    40 1.206998 0.000000 0.000000 0.000000 0.000000 0.785434
    41 3.859672 -0.132566 1.193108 0.479140 -0.158545 -0.879041
    42 1.312560 0.000000 -0.000001 0.000000 -0.011932 -0.439672
    43 0.729361 0.000002 0.000000 0.000000 -0.006134 -0.244271
    44 3.942293 0.050330 0.431043 0.154999 -0.079305 -0.810205
    45 1.539095 0.000003 0.000000 0.000000 -0.005854 -0.247771
    46 1.196323 0.000000 0.000000 0.000000 -0.009663 -0.430761
    47 3.883655 -0.050326 -0.431043 0.071278 0.100328 -0.993812
    48 1.719575 -0.000005 0.000000 0.000000 0.000000 -0.735521
    49 1.209182 -0.000001 0.000000 0.000000 0.000000 -1.029320
    50 3.859828 -0.148935 -1.331282 -0.254090 0.274694 -0.501291
    51 1.719425 0.000000 0.000000 0.000000 0.000000 -0.574662
    52 1.099665 0.000000 0.000000 0.000000 0.000000 -0.386268
    53 0.806014 -0.359835 -1.318334 1.335825 0.397469 -1.010946
    54 1.789783 0.000001 0.000000 0.000000 0.000000 0.406539
    55 1.207003 0.000000 0.000004 0.000000 0.000000 0.834345
    56 2.338454 -1.535743 -6.391511 1.520245 -0.094380 -2.001951
  time 1
    0 1.610982 -0.460947 37.383288 1.632578 -0.051806 -0.610272
    1 0.065674 3.343750 -2.980469 1.570793 0.027391 1.551159
    2 4.018331 0.000000 0.000000 0.000126 0.000006 -0.088146
    3 3.518565 0.000000 0.000000 0.103222 -0.007017 0.237417
    4 8.942642 0.000000 0.000000 -0.094841 0.025397 0.291065
    5 3.307271 0.000000 0.000000 3.064068 0.060333 0.182153
    6 3.593712 -0.000001 0.000000 0.694701 0.140529 0.511140
    7 1.999997 -3.000001 0.000000 -1.570796 0.000000 -1.326450
    8 2.033350 1.000771 -1.937610 -1.363622 1.141271 -3.024679
    9 6.028143 0.000002 0.000000 1.213473 -0.002057 -0.903185
    10 11.692549 0.000000 0.000002 0.000000 0.000000 -1.443848
    11 11.481698 0.000000 0.000000 -1.452532 -0.265836 -0.489108
    12 2.676087 -1.712440 0.000000 -1.570796 0.000000 -1.570796
    13 2.033342 1.000767 1.937660 2.197607 -1.097217 2.316182
    14 6.028142 0.000002 0.000000 -1.459417 -0.296893 -0.908422
    15 11.692555 0.000000 0.000005 0.000000 0.000000 -1.221966
    16 11.481671 0.000000 -0.000030 1.343973 0.217755 -0.482827
    17 2.676088 -1.712441 0.000000 1.570797 0.000000 1.570797
    18 -3.890452 0.000004 0.000007 -1.429360 -0.170384 -1.795750
    19 17.848171 0.000000 0.000000 0.000000 0.000000 0.465768
    20 16.525253 0.000000 0.000000 0.168259 -0.036399 -1.319364
    21 6.879454 0.000000 0.000000 -0.081333 -0.002951 -0.584373
    22 3.890452 -0.000004 -0.000003 -2.141120 -0.306603 -1.381446
    23 17.848175 0.000000 0.000000 0.000000 0.000000 0.338551
    24 16.525249 0.000000 0.000000 -0.168230 -0.124246 -0.974213
    25 6.879452 0.000000 0.000000 -0.007299 -0.002950 -0.584374
    26 3.859704 -0.142404 -1.191975 -0.479144 0.152190 -0.879874
    27 1.312563 0.000001 0.000001 0.000000 0.009665 -0.439720
    28 0.729362 0.000002 0.000000 0.000000 0.004971 -0.244299
    29 3.942327 0.046774 -0.431443 -0.155014 0.073328 -0.810648
    30 1.539092 0.000002 0.000000 0.000000 0.004460 -0.247797
    31 1.196319 -0.000001 0.000000 0.000000 0.007361 -0.430802
    32 3.883689 -0.046767 0.431443 0.050937 0.051343 -1.015514
    33 1.719575 0.000002 0.000000 0.000000 0.000000 -1.119923
    34 1.209182 -0.000001 0.000000 0.000000 0.000000 -0.996061
    35 3.859859 -0.137950 1.332466 0.108873 0.007005 -1.003404
    36 1.719429 0.000003 0.000000 0.000000 0.000000 -1.286490
    37 1.099668 0.000001 0.000000 0.000000 0.000000 -1.164383
    38 0.806048 -0.348923 1.321258 -1.295600 -0.429484 -0.806337
    39 1.789785 0.000000 0.000002 0.000000 0.000000 0.273767
    40 1.206998 0.000000 0.000000 0.000000 0.000000 0.785434
    41 3.859672 -0.132566 1.193108 0.479140 -0.158545 -0.879041
    42 1.312560 0.000000 -0.000001 0.000000 -0.011932 -0.439672
    43 0.729361 0.000002 0.000000 0.000000 -0.006134 -0.244271
    44 3.942293 0.050330 0.431043 0.154999 -0.079305 -0.810205
    45 1.539095 0.000003 0.000000 0.000000 -0.005854 -0.247771
    46 1.196323 0.000000 0.000000 0.000000 -0.009663 -0.430761
    47 3.883655 -0.050326 -0.431043 0.071278 0.100328 -0.993812
    48 1.719575 -0.000005 0.000000 0.000000 0.000000 -0.735521
    49 1.209182 -0.000001 0.000000 0.000000 0.000000 -1.029320
    50 3.859828 -0.148935 -1.331282 -0.254090 0.274694 -0.501291
    51 1.719425 0.000000 0.000000 0.000000 0.000000 -0.574662
    52 1.099665 0.000000 0.000000 0.000000 0.000000 -0.386268
    53 0.806014 -0.359835 -1.318334 1.335825 0.397469 -1.010946
    54 1.789783 0.000001 0.000000 0.000000 0.000000 0.406539
    55 1.207003 0.000000 0.000004 0.000000 0.000000 0.834345
    56 2.338454 -1.535743 -6.391511 1.520245 -0.094380 -2.001951
  time 2
    0 1.610982 -0.777362 37.383288 1.632578 -0.051806 -0.610272
    1 0.065674 3.343750 -2.980469 1.570793 0.027391 1.551159
    2 4.018331 0.000000 0.000000 0.000126 0.000006 -0.088146
    3 3.518565 0.000000 0.000000 0.103222 -0.007017 0.237417
    4 8.942642 0.000000 0.000000 -0.094841 0.025397 0.291065
    5 3.307271 0.000000 0.000000 3.064068 0.060333 0.182153
    6 3.593712 -0.000001 0.000000 0.694701 0.140529 0.511140
    7 1.999997 -3.000001 0.000000 -1.570796 0.000000 -1.326450
    8 2.033350 1.000771 -1.937610 -1.363622 1.141271 -3.024679
    9 6.028143 0.000002 0.000000 1.204663 0.024170 -0.917721
    10 11.692549 0.000000 0.000002 0.000000 0.000000 -1.439713
    11 11.481698 0.000000 0.000000 -1.454534 -0.261788 -0.445124
    12 2.676087 -1.712440 0.000000 -1.570796 0.000000 -1.570796
    13 2.033342 1.000767 1.937660 2.197607 -1.097217 2.316182
    14 6.028142 0.000002 0.000000 -1.479225 -0.326122 -0.894371
    15 11.692555 0.000000 0.000005 0.000000 0.000000 -1.171722
    16 11.481671 0.000000 -0.000030 1.315950 0.233027 -0.495482
    17 2.676088 -1.712441 0.000000 1.570797 0.000000 1.570797
    18 -3.890452 0.000004 0.000007 -1.429455 -0.155987 -1.800080
    19 17.848171 0.000000 0.000000 0.000000 0.000000 0.451472
    20 16.525253 0.000000 0.000000 0.173472 -0.039882 -1.318979
    21 6.879454 0.000000 0.000000 -0.081333 -0.002951 -0.584373
    22 3.890452 -0.000004 -0.000003 -2.141120 -0.306461 -1.382264
    23 17.848175 0.000000 0.000000 0.000000 0.000000 0.356502
    24 16.525249 0.000000 0.000000 -0.167685 -0.124590 -0.992718
    25 6.879452 0.000000 0.000000 -0.007299 -0.002950 -0.584374
    26 3.859704 -0.142404 -1.191975 -0.479144 0.152190 -0.879874
    27 1.312563 0.000001 0.000001 0.000000 0.009665 -0.439720
    28 0.729362 0.000002 0.000000 0.000000 0.004971 -0.244299
    29 3.942327 0.046774 -0.431443 -0.155014 0.073328 -0.810648
    30 1.539092 0.000002 0.000000 0.000000 0.004460 -0.247797
    31 1.196319 -0.000001 0.000000 0.000000 0.007361 -0.430802
    32 3.883689 -0.046767 0.431443 0.050937 0.051343 -1.015514
    33 1.719575 0.000002 0.000000 0.000000 0.000000 -1.119923
    34 1.209182 -0.000001 0.000000 0.000000 0.000000 -0.996061
    35 3.859859 -0.137950 1.332466 0.108873 0.007005 -1.003404
    36 1.719429 0.000003 0.000000 0.000000 0.000000 -1.286490
    37 1.099668 0.000001 0.000000 0.000000 0.000000 -1.164383
    38 0.806048 -0.348923 1.321258 -1.295600 -0.429484 -0.806337
    39 1.789785 0.000000 0.000002 0.000000 0.000000 0.273767
    40 1.206998 0.000000 0.000000 0.000000 0.000000 0.785434
    41 3.859672 -0.132566 1.193108 0.479140 -0.158545 -0.879041
    42 1.312560 0.000000 -0.000001 0.000000 -0.011932 -0.439672
    43 0.729361 0.000002 0.000000 0.000000 -0.006134 -0.244271
    44 3.942293 0.050330 0.431043 0.154999 -0.079305 -0.810205
    45 1.539095 0.000003 0.000000 0.000000 -0.005854 -0.247771
    46 1.196323 0.000000 0.000000 0.000000 -0.009663 -0.430761
    47 3.883655 -0.050326 -0.431043 0.071278 0.100328 -0.993812
    48 1.719575 -0.000005 0.000000 0.000000 0.000000 -0.735521
    49 1.209182 -0.000001 0.000000 0.000000 0.000000 -1.029320
    50 3.859828 -0.148935 -1.331282 -0.254090 0.274694 -0.501291
    51 1.719425 0.000000 0.000000 0.000000 0.000000 -0.574662
    52 1.099665 0.000000 0.000000 0.000000 0.000000 -0.386268
    53 0.806014 -0.359835 -1.318334 1.335825 0.397469 -1.010946
    54 1.789783 0.000001 0.000000 0.000000 0.000000 0.406539
    55 1.207003 0.000000 0.000004 0.000000 0.000000 0.834345
    56 2.338454 -1.535743 -6.391511 1.520245 -0.094380 -2.001951
  time 3
    0 1.610982 -0.902366 37.383288 1.632578 -0.051806 -0.610272
    1 0.065674 3.343750 -2.980469 1.570793 0.027391 1.551159
    2 4.018331 0.000000 0.000000 0.000126 0.000006 -0.088146
    3 3.518565 0.000000 0.000000 0.103222 -0.007017 0.237417
    4 8.942642 0.000000 0.000000 -0.094841 0.025397 0.291065
    5 3.307271 0.000000 0.000000 3.064068 0.060333 0.182153
    6 3.593712 -0.000001 0.000000 0.694701 0.140529 0.511140
    7 1.999997 -3.000001 0.000000 -1.570796 0.000000 -1.326450
    8 2.033350 1.000771 -1.937610 -1.363622 1.141271 -3.024679
    9 6.028143 0.000002 0.000000 1.201025 0.033707 -0.923363
    10 11.692549 0.000000 0.000002 0.000000 0.000000 -1.439291
    11 11.481698 0.000000 0.000000 -1.454672 -0.260335 -0.424922
    12 2.676087 -1.712440 0.000000 -1.570796 0.000000 -1.570796
    13 2.033342 1.000767 1.937660 2.197607 -1.097217 2.316182
    14 6.028142 0.000002 0.000000 -1.486790 -0.338141 -0.888830
    15 11.692555 0.000000 0.000005 0.000000 0.000000 -1.149236
    16 11.481671 0.000000 -0.000030 1.303930 0.239274 -0.500484
    17 2.676088 -1.712441 0.000000 1.570797 0.000000 1.570797
    18 -3.890452 0.000004 0.000007 -1.429455 -0.150053 -1.801794
    19 17.848171 0.000000 0.000000 0.000000 0.000000 0.445392
    20 16.525253 0.000000 0.000000 0.175600 -0.041261 -1.318636
    21 6.879454 0.000000 0.000000 -0.081333 -0.002951 -0.584373
    22 3.890452 -0.000004 -0.000003 -2.141031 -0.306224 -1.382718
    23 17.848175 0.000000 0.000000 0.000000 0.000000 0.363252
    24 16.525249 0.000000 0.000000 -0.167456 -0.124751 -0.999920
    25 6.879452 0.000000 0.000000 -0.007299 -0.002950 -0.584374
    26 3.859704 -0.142404 -1.191975 -0.479144 0.152190 -0.879874
    27 1.312563 0.000001 0.000001 0.000000 0.009665 -0.439720
    28 0.729362 0.000002 0.000000 0.000000 0.004971 -0.244299
    29 3.942327 0.046774 -0.431443 -0.155014 0.073328 -0.810648
    30 1.539092 0.000002 0.000000 0.000000 0.004460 -0.247797
    31 1.196319 -0.000001 0.000000 0.000000 0.007361 -0.430802
    32 3.883689 -0.046767 0.431443 0.050937 0.051343 -1.015514
    33 1.719575 0.000002 0.000000 0.000000 0.000000 -1.119923
    34 1.209182 -0.000001 0.000000 0.000000 0.000000 -0.996061
    35 3.859859 -0.137950 1.332466 0.108873 0.007005 -1.003404
    36 1.719429 0.000003 0.000000 0.000000 0.000000 -1.286490
    37 1.099668 0.000001 0.000000 0.000000 0.000000 -1.164383
    38 0.806048 -0.348923 1.321258 -1.295600 -0.429484 -0.806337
    39 1.789785 0.000000 0.000002 0.000000 0.000000 0.273767
    40 1.206998 0.000000 0.000000 0.000000 0.000000 0.785434
    41 3.859672 -0.132566 1.193108 0.479140 -0.158545 -0.879041
    42 1.312560 0.000000 -0.000001 0.000000 -0.011932 -0.439672
    43 0.729361 0.000002 0.000000 0.000000 -0.006134 -0.244271
    44 3.942293 0.050330 0.431043 0.154999 -0.079305 -0.810205
    45 1.539095 0.000003 0.000000 0.000000 -0.005854 -0.247771
    46 1.196323 0.000000 0.000000 0.000000 -0.009663 -0.430761
    47 3.883655 -0.050326 -0.431043 0.071278 0.100328 -0.993812
    48 1.719575 -0.000005 0.000000 0.000000 0.000000 -0.735521
    49 1.209182 -0.000001 0.000000 0.000000 0.000000 -1.029320
    50 3.859828 -0.148935 -1.331282 -0.254090 0.274694 -0.501291
    51 1.719425 0.000000 0.000000 0.000000 0.000000 -0.574662
    52 1.099665 0.000000 0.000000 0.000000 0.000000 -0.386268
    53 0.806014 -0.359835 -1.318334 1.335825 0.397469 -1.010946
    54 1.789783 0.000001 0.000000 0.000000 0.000000 0.406539
    55 1.207003 0.000000 0.000004 0.000000 0.000000 0.834345
    56 2.338454 -1.535743 -6.391511 1.520245 -0.094380 -2.001951
end
