
VertexLitGeneric
{
$baseTexture "models/props/crates/Container01_skin.vtf"
$model 1
$blendtintbybasealpha 1
$bumpmap "dev/flat_normal"

$phong 1
$phongboost 2
$phongexponent 30

$phongfresnelranges "[1 3 10]"




}