
VertexLitGeneric
{
$baseTexture "models/props/snow/Rock_09.vtf"
$bumpmap "nature/snowfloor006d_normal"
$phong 1
$phongboost 2
$phongexponent 100

$phongfresnelranges "[1 3 10]"
$blendtintbybasealpha 1
}