VertexLitGeneric
{
$baseTexture "models/aliens/drone/drone_A_01_AO"
$bumpmap "models/aliens/drone/drone_A_01_normals"

$phongwarptexture "models/aliens/drone/drone_specColor"

$phong 0
$phongexponent 115
$phongboost 18
$phongfresnelranges "[.1 .5 1]"
$blendtintbybasealpha 0
$envmap "models/env/lights/env_multiPoint"
$envmaptint "[.42 .425 .43]"

$rimlight 1
$rimlightexponent 4
$rimlightboost 1.5
}