VertexLitGeneric
{
$baseTexture "models/aliens/drone/drone_color"
$bumpmap "models/aliens/drone/drone_normals"

$phong 1
$phongexponent 115
$phongboost 18
$phongfresnelranges "[.1 .5 1]"
$phongwarptexture "models/aliens/drone/drone_specColor"


$blendtintbybasealpha 1





$envmap "models/env/lights/env_multiPoint"
$envmaptint "[.42 .425 .43]"

$rimlight 1
$rimlightexponent 4
$rimlightboost 1.5
}