// Created by Crowbar 0.24.0.0
version 1
nodes
  0 "ValveBiped.Bip01_Pelvis" -1
  1 "ValveBiped.Bip01_Spine" 0
  2 "ValveBiped.Bip01_Spine1" 1
  3 "ValveBiped.Bip01_Spine2" 2
  4 "ValveBiped.Bip01_Spine4" 3
  5 "ValveBiped.Bip01_Neck1" 4
  6 "ValveBiped.Bip01_Head1" 5
  7 "ValveBiped.forward" 6
  8 "ValveBiped.Bip01_R_Clavicle" 4
  9 "ValveBiped.Bip01_R_UpperArm" 8
  10 "ValveBiped.Bip01_R_Forearm" 9
  11 "ValveBiped.Bip01_R_Hand" 10
  12 "ValveBiped.Anim_Attachment_RH" 11
  13 "ValveBiped.Bip01_L_Clavicle" 4
  14 "ValveBiped.Bip01_L_UpperArm" 13
  15 "ValveBiped.Bip01_L_Forearm" 14
  16 "ValveBiped.Bip01_L_Hand" 15
  17 "ValveBiped.Anim_Attachment_LH" 16
  18 "ValveBiped.Bip01_R_Thigh" 0
  19 "ValveBiped.Bip01_R_Calf" 18
  20 "ValveBiped.Bip01_R_Foot" 19
  21 "ValveBiped.Bip01_R_Toe0" 20
  22 "ValveBiped.Bip01_L_Thigh" 0
  23 "ValveBiped.Bip01_L_Calf" 22
  24 "ValveBiped.Bip01_L_Foot" 23
  25 "ValveBiped.Bip01_L_Toe0" 24
  26 "ValveBiped.Bip01_L_Finger4" 16
  27 "ValveBiped.Bip01_L_Finger41" 26
  28 "ValveBiped.Bip01_L_Finger42" 27
  29 "ValveBiped.Bip01_L_Finger3" 16
  30 "ValveBiped.Bip01_L_Finger31" 29
  31 "ValveBiped.Bip01_L_Finger32" 30
  32 "ValveBiped.Bip01_L_Finger2" 16
  33 "ValveBiped.Bip01_L_Finger21" 32
  34 "ValveBiped.Bip01_L_Finger22" 33
  35 "ValveBiped.Bip01_L_Finger1" 16
  36 "ValveBiped.Bip01_L_Finger11" 35
  37 "ValveBiped.Bip01_L_Finger12" 36
  38 "ValveBiped.Bip01_L_Finger0" 16
  39 "ValveBiped.Bip01_L_Finger01" 38
  40 "ValveBiped.Bip01_L_Finger02" 39
  41 "ValveBiped.Bip01_R_Finger4" 11
  42 "ValveBiped.Bip01_R_Finger41" 41
  43 "ValveBiped.Bip01_R_Finger42" 42
  44 "ValveBiped.Bip01_R_Finger3" 11
  45 "ValveBiped.Bip01_R_Finger31" 44
  46 "ValveBiped.Bip01_R_Finger32" 45
  47 "ValveBiped.Bip01_R_Finger2" 11
  48 "ValveBiped.Bip01_R_Finger21" 47
  49 "ValveBiped.Bip01_R_Finger22" 48
  50 "ValveBiped.Bip01_R_Finger1" 11
  51 "ValveBiped.Bip01_R_Finger11" 50
  52 "ValveBiped.Bip01_R_Finger12" 51
  53 "ValveBiped.Bip01_R_Finger0" 11
  54 "ValveBiped.Bip01_R_Finger01" 53
  55 "ValveBiped.Bip01_R_Finger02" 54
  56 "ValveBiped.baton_parent" 11
end
skeleton
  time 0
    0 -0.000005 -0.533615 38.566917 1.570796 0.000000 0.000000
    1 0.000005 3.345128 -2.981901 1.570796 0.086293 1.570796
    2 4.018331 0.000000 0.000000 0.000000 0.000000 -0.029242
    3 3.518568 0.000000 0.000000 0.000000 0.000000 0.100336
    4 8.942642 0.000000 0.000000 0.000000 0.000000 0.194096
    5 3.307271 0.000000 0.000000 3.141590 0.000000 0.400478
    6 3.593712 -0.000002 0.000000 0.000000 -0.000001 0.406587
    7 1.999998 -3.000001 0.000000 -1.570796 0.000000 -1.326450
    8 2.033353 1.000771 -1.937610 -1.668474 1.286518 2.942953
    9 6.028142 0.000005 0.000000 1.639479 -0.008065 -0.586846
    10 11.692548 0.000000 0.000000 0.000000 0.000000 -0.060372
    11 11.481695 0.000000 0.000003 -1.564937 0.106606 0.044193
    12 2.676085 -1.712441 0.000000 -1.570796 0.000000 -1.570796
    13 2.033346 1.000767 1.937660 1.596637 -1.286515 2.942961
    14 6.028142 0.000001 0.000000 -1.579613 0.047802 -0.585173
    15 11.692556 0.000000 0.000003 0.000000 0.000000 -0.060372
    16 11.481669 0.000000 -0.000027 1.573183 -0.106613 0.044193
    17 2.676088 -1.712441 0.000000 1.570797 0.000000 1.570796
    18 -3.890452 0.000004 0.000007 -1.570796 0.051845 -1.576021
    19 17.848171 0.000000 0.000000 0.000000 0.000000 0.034187
    20 16.525253 0.000000 0.000000 0.038611 0.040779 -1.071632
    21 6.879453 0.000000 0.000000 -0.081333 -0.002951 -0.584373
    22 3.890452 -0.000004 -0.000003 -1.570796 0.051839 -1.565574
    23 17.848175 0.000000 0.000000 0.000000 0.000000 0.034200
    24 16.525248 0.000000 0.000000 -0.027915 -0.040782 -1.071638
    25 6.879448 -0.000001 0.000001 -0.007299 -0.002951 -0.584373
    26 3.859705 -0.142404 -1.191976 -0.479144 0.152190 -0.879874
    27 1.312560 0.000001 0.000001 0.000000 0.009665 -0.439720
    28 0.729363 0.000003 0.000000 0.000000 0.004971 -0.244299
    29 3.942326 0.046772 -0.431443 -0.155014 0.073328 -0.810648
    30 1.539091 0.000003 0.000000 0.000000 0.004460 -0.247797
    31 1.196321 -0.000002 0.000000 0.000000 0.007361 -0.430802
    32 3.883690 -0.046771 0.431443 0.085902 0.021830 -0.587867
    33 1.719576 0.000001 0.000000 0.000000 0.005516 -0.366478
    34 1.209181 0.000000 0.000000 0.000000 0.003084 -0.216400
    35 3.859859 -0.137948 1.332467 0.354449 -0.042750 -0.531718
    36 1.719428 0.000002 0.000000 0.000000 0.004074 -0.363009
    37 1.099667 0.000001 0.000000 0.000000 0.002596 -0.244331
    38 0.806048 -0.348922 1.321259 -1.206854 -0.679489 -0.789308
    39 1.789784 -0.000001 0.000001 0.000000 0.007386 0.228523
    40 1.206999 0.000000 0.000002 0.000000 0.011266 0.362860
    41 3.859671 -0.132567 1.193107 0.479140 -0.158545 -0.879041
    42 1.312560 0.000000 -0.000001 0.000000 -0.011932 -0.439672
    43 0.729362 0.000002 0.000000 0.000000 -0.006134 -0.244271
    44 3.942290 0.050333 0.431043 0.154999 -0.079305 -0.810205
    45 1.539096 0.000002 0.000000 0.000000 -0.005854 -0.247771
    46 1.196325 0.000000 0.000000 0.000000 -0.009663 -0.430761
    47 3.883654 -0.050327 -0.431043 -0.085905 -0.026404 -0.587695
    48 1.719576 0.000003 0.000000 0.000000 -0.007974 -0.366436
    49 1.209180 -0.000002 0.000000 0.000000 -0.004461 -0.216376
    50 3.859828 -0.148937 -1.331281 -0.354419 0.038567 -0.532001
    51 1.719426 -0.000001 0.000000 0.000000 -0.006613 -0.362970
    52 1.099664 0.000001 0.000000 0.000000 -0.004211 -0.244313
    53 0.806015 -0.359835 -1.318333 1.204200 0.673618 -0.793956
    54 1.789783 0.000000 0.000002 0.000000 -0.006301 0.228555
    55 1.207000 0.000000 0.000001 0.000000 -0.009618 0.362905
    56 2.338452 -1.535740 -6.391508 1.520245 -0.094380 -2.001951
end
triangles
end
