"Refract"
{
 
 	"$refractamount" "0.9"
 	"$bluramount" "1"
	"$scale" "[0.1 0.25]"
 	"$dudvmap" "dev/water_dudv"

	"$normalmap" "dev/water_normal"
	"$bumpframe" "0"
	"$translucent" "1"
	"$ignorez" "1"
}
