Refract
{
Refract_DX60
{
$fallbackmaterial "effects/strider_bulge_dudv_dx60"
}
$model 1
$refractamount ".24"
$bluramount 0
$scale "[1 1]"
$dudvmap "effects/strider_bulge_dudv"
$normalmap "effects/strider_bulge_normal"
$bumpframe 0
$translucent 1
$ignorez 1
$forcerefract 1
$nofog 1
}