"LightmappedGeneric"
{
	"$basetexture" "Metal/metalwall018f"
	"$surfaceprop" "metal"
	"%keywords" "c17industrial,wasteland"

	"LightmappedGeneric_DX9"
	{
		"$bumpmap" "Metal/metalwall018f_normal"
	}
}
