LightmappedGeneric
{

$bumpmap "Metal/metalfloor003a_normal"
$basetexture "Metal/metalfloor003a"
$surfaceprop metal
$detail "detail\metal_detail_01"
$detailscale "4.283"
$detailblendfactor .65
$detailblendmode 0
"%keywords" borealis
}
