"Unit"
{
	"$basetexture" "models/shield_scanner/minelayer_sheet"
	"$bumpmap" "models/shield_scanner/minelayer_sheet_normal"
//	"$envmaptint" "[.0 .84 1]"
	"$envmap" "env_cubemap"
	"$selfillum" 1
	"$normalmapalphaenvmapmask" 1
	"$envmapcontrast" 1
	"$surfaceprop" "metal"
	"$teamcolormap" "Models/shield_scanner/minelayer_sheet_color"

	"Proxies"
	{
		"TeamColor"
		{
		}
	}
}


