$scale 2.5
$origin 0 0 0 180
$modelname PG_props/pg_buildings/rebels/pg_rebel_bunker.mdl
$cdmaterials "models/PG_props/pg_buildings/rebels"

$body pg_rebel_bunker "pg_rebel_bunker.smd"

$surfaceprop rock
$eyeposition 0 0 75

$attachment "root" "root" 0.00 0.00 0.00 rotate 0 0 0

$animation a_idle "pg_rebel_bunker_idle"   
$animation a_deployed "pg_rebel_bunker_build" 

 
$sequence idle {
	a_idle
	loop
	activity ACT_IDLE 1
 }
 

$sequence deployed {
	a_deployed
	activity ACT_CONSTRUCTION 1
 }

//$shadowlod 
//{
	//replacemodel "pg_rebel_armory" "pg_rebel_armory_slod"
//}  


$collisionmodel  "pg_rebel_bunker_phy.smd"
{
$Mass 550
$concave
} 