
VertexLitGeneric
{
$baseTexture "models/props/railings/ryd/railingset_ryd.vtf"
$blendtintbybasealpha 1
$bumpmap "dev/flat_normal"

$phong 1
$phongboost 2
$phongexponent 50

$phongfresnelranges "[1 3 10]"




}